ENSG00000010030
ENSG00000010803
ENSG00000017427
ENSG00000049192
ENSG00000057019
ENSG00000064225
ENSG00000065029
ENSG00000065060
ENSG00000066827
ENSG00000066933
ENSG00000067225
ENSG00000072682
ENSG00000075420
ENSG00000080802
ENSG00000085832
ENSG00000087085
ENSG00000089053
ENSG00000090905
ENSG00000090971
ENSG00000092607
ENSG00000095752
ENSG00000100154
ENSG00000100678
ENSG00000100938
ENSG00000100991
ENSG00000102893
ENSG00000102901
ENSG00000102977
ENSG00000103196
ENSG00000103199
ENSG00000103335
ENSG00000108576
ENSG00000109458
ENSG00000112039
ENSG00000112041
ENSG00000112576
ENSG00000113389
ENSG00000113739
ENSG00000115657
ENSG00000116698
ENSG00000120129
ENSG00000120820
ENSG00000121210
ENSG00000121680
ENSG00000124067
ENSG00000124562
ENSG00000125967
ENSG00000128655
ENSG00000130779
ENSG00000135452
ENSG00000137070
ENSG00000137309
ENSG00000137392
ENSG00000138735
ENSG00000138829
ENSG00000140511
ENSG00000140691
ENSG00000142273
ENSG00000143384
ENSG00000144535
ENSG00000145826
ENSG00000146426
ENSG00000146828
ENSG00000146833
ENSG00000147697
ENSG00000149646
ENSG00000151208
ENSG00000152785
ENSG00000154309
ENSG00000154767
ENSG00000156140
ENSG00000156218
ENSG00000157227
ENSG00000157429
ENSG00000157766
ENSG00000159708
ENSG00000159720
ENSG00000159723
ENSG00000160058
ENSG00000160685
ENSG00000160796
ENSG00000160801
ENSG00000162337
ENSG00000163257
ENSG00000163501
ENSG00000163629
ENSG00000165671
ENSG00000166025
ENSG00000166573
ENSG00000167077
ENSG00000168096
ENSG00000168631
ENSG00000169228
ENSG00000170891
ENSG00000172037
ENSG00000172053
ENSG00000173926
ENSG00000174177
ENSG00000174576
ENSG00000174807
ENSG00000175318
ENSG00000175513
ENSG00000175782
ENSG00000175938
ENSG00000176124
ENSG00000176971
ENSG00000177311
ENSG00000177675
ENSG00000177853
ENSG00000179954
ENSG00000180061
ENSG00000181555
ENSG00000181896
ENSG00000185480
ENSG00000186280
ENSG00000187736
ENSG00000187837
ENSG00000196155
ENSG00000196586
ENSG00000197249
ENSG00000197647
ENSG00000197653
ENSG00000204580
ENSG00000213780
ENSG00000231274
ENSG00000243649
ENSG00000254535
ENSG00000255439
ENSG00000261272
