\relax 
\providecommand\hyper@newdestlabel[2]{}
\providecommand\HyperFirstAtBeginDocument{\AtBeginDocument}
\HyperFirstAtBeginDocument{\ifx\hyper@anchor\@undefined
\global\let\oldcontentsline\contentsline
\gdef\contentsline#1#2#3#4{\oldcontentsline{#1}{#2}{#3}}
\global\let\oldnewlabel\newlabel
\gdef\newlabel#1#2{\newlabelxx{#1}#2}
\gdef\newlabelxx#1#2#3#4#5#6{\oldnewlabel{#1}{{#2}{#3}}}
\AtEndDocument{\ifx\hyper@anchor\@undefined
\let\contentsline\oldcontentsline
\let\newlabel\oldnewlabel
\fi}
\fi}
\global\let\hyper@last\relax 
\gdef\HyperFirstAtBeginDocument#1{#1}
\providecommand\HyField@AuxAddToFields[1]{}
\providecommand\HyField@AuxAddToCoFields[2]{}
\providecommand\tcolorbox@label[2]{}
\@writefile{toc}{\contentsline {section}{\numberline {1}TODO list}{1}{section.1}}
\@writefile{toc}{\contentsline {section}{\numberline {2}Plan}{1}{section.2}}
\@writefile{toc}{\contentsline {section}{\numberline {3}Figure1}{1}{section.3}}
\@writefile{toc}{\contentsline {subsection}{\numberline {3.1}Codes}{1}{subsection.3.1}}
\@writefile{toc}{\contentsline {subsection}{\numberline {3.2}Plots}{1}{subsection.3.2}}
\@writefile{lof}{\contentsline {figure}{\numberline {1}{\ignorespaces $P_n$ distribution by tissue\relax }}{2}{figure.caption.1}}
\providecommand*\caption@xref[2]{\@setref\relax\@undefined{#1}}
\newlabel{fig:fig1}{{1}{2}{$P_n$ distribution by tissue\relax }{figure.caption.1}{}}
\newlabel{fig:fig1@cref}{{[figure][1][]1}{2}}
\@writefile{lof}{\contentsline {figure}{\numberline {2}{\ignorespaces Count varies by sample size\relax }}{3}{figure.caption.2}}
\newlabel{fig:fig_s1_1}{{2}{3}{Count varies by sample size\relax }{figure.caption.2}{}}
\newlabel{fig:fig_s1_1@cref}{{[figure][2][]2}{3}}
\@writefile{lof}{\contentsline {figure}{\numberline {3}{\ignorespaces Count varies by sample size\relax }}{4}{figure.caption.3}}
\newlabel{fig:fig_s1_2}{{3}{4}{Count varies by sample size\relax }{figure.caption.3}{}}
\newlabel{fig:fig_s1_2@cref}{{[figure][3][]3}{4}}
\@writefile{toc}{\contentsline {section}{\numberline {4}Figure 2}{5}{section.4}}
\@writefile{toc}{\contentsline {subsection}{\numberline {4.1}Codes}{5}{subsection.4.1}}
\@writefile{toc}{\contentsline {subsection}{\numberline {4.2}Plots}{5}{subsection.4.2}}
\@writefile{toc}{\contentsline {subsection}{\numberline {4.3}Discussion}{6}{subsection.4.3}}
\newlabel{fig:fig2_trait_Blood_Cell_Count}{{\caption@xref {fig:fig2_trait_Blood_Cell_Count}{ on input line 125}}{7}{Plots}{figure.caption.4}{}}
\newlabel{fig:fig2_trait_Blood_Cell_Count@cref}{{[subsection][2][4]4.2}{7}}
\newlabel{fig:fig2_sample_size_Blood_Cell_Count}{{\caption@xref {fig:fig2_sample_size_Blood_Cell_Count}{ on input line 130}}{7}{Plots}{figure.caption.4}{}}
\newlabel{fig:fig2_sample_size_Blood_Cell_Count@cref}{{[subsection][2][4]4.2}{7}}
\newlabel{fig:fig2_slope_Blood_Cell_Count}{{\caption@xref {fig:fig2_slope_Blood_Cell_Count}{ on input line 135}}{7}{Plots}{figure.caption.4}{}}
\newlabel{fig:fig2_slope_Blood_Cell_Count@cref}{{[subsection][2][4]4.2}{7}}
\newlabel{fig:fig2_intercept_Blood_Cell_Count}{{\caption@xref {fig:fig2_intercept_Blood_Cell_Count}{ on input line 140}}{7}{Plots}{figure.caption.4}{}}
\newlabel{fig:fig2_intercept_Blood_Cell_Count@cref}{{[subsection][2][4]4.2}{7}}
\newlabel{fig:fig2_R2_Blood_Cell_Count}{{\caption@xref {fig:fig2_R2_Blood_Cell_Count}{ on input line 145}}{7}{Plots}{figure.caption.4}{}}
\newlabel{fig:fig2_R2_Blood_Cell_Count@cref}{{[subsection][2][4]4.2}{7}}
\@writefile{lof}{\contentsline {figure}{\numberline {4}{\ignorespaces Traits related to blood cell count\relax }}{7}{figure.caption.4}}
\newlabel{fig:fig2_trait_Inflammatory_Immuno}{{\caption@xref {fig:fig2_trait_Inflammatory_Immuno}{ on input line 161}}{8}{Plots}{figure.caption.5}{}}
\newlabel{fig:fig2_trait_Inflammatory_Immuno@cref}{{[subsection][2][4]4.2}{8}}
\newlabel{fig:fig2_sample_size_Inflammatory_Immuno}{{\caption@xref {fig:fig2_sample_size_Inflammatory_Immuno}{ on input line 166}}{8}{Plots}{figure.caption.5}{}}
\newlabel{fig:fig2_sample_size_Inflammatory_Immuno@cref}{{[subsection][2][4]4.2}{8}}
\newlabel{fig:fig2_slope_Inflammatory_Immuno}{{\caption@xref {fig:fig2_slope_Inflammatory_Immuno}{ on input line 171}}{8}{Plots}{figure.caption.5}{}}
\newlabel{fig:fig2_slope_Inflammatory_Immuno@cref}{{[subsection][2][4]4.2}{8}}
\newlabel{fig:fig2_intercept_Inflammatory_Immuno}{{\caption@xref {fig:fig2_intercept_Inflammatory_Immuno}{ on input line 176}}{8}{Plots}{figure.caption.5}{}}
\newlabel{fig:fig2_intercept_Inflammatory_Immuno@cref}{{[subsection][2][4]4.2}{8}}
\newlabel{fig:fig2_R2_Inflammatory_Immuno}{{\caption@xref {fig:fig2_R2_Inflammatory_Immuno}{ on input line 181}}{8}{Plots}{figure.caption.5}{}}
\newlabel{fig:fig2_R2_Inflammatory_Immuno@cref}{{[subsection][2][4]4.2}{8}}
\@writefile{lof}{\contentsline {figure}{\numberline {5}{\ignorespaces Traits related to inflammation and immune system\relax }}{8}{figure.caption.5}}
\newlabel{fig:fig2_trait_Metabolite}{{\caption@xref {fig:fig2_trait_Metabolite}{ on input line 195}}{9}{Plots}{figure.caption.6}{}}
\newlabel{fig:fig2_trait_Metabolite@cref}{{[subsection][2][4]4.2}{9}}
\newlabel{fig:fig2_sample_size_Metabolite}{{\caption@xref {fig:fig2_sample_size_Metabolite}{ on input line 200}}{9}{Plots}{figure.caption.6}{}}
\newlabel{fig:fig2_sample_size_Metabolite@cref}{{[subsection][2][4]4.2}{9}}
\newlabel{fig:fig2_slope_Metabolite}{{\caption@xref {fig:fig2_slope_Metabolite}{ on input line 205}}{9}{Plots}{figure.caption.6}{}}
\newlabel{fig:fig2_slope_Metabolite@cref}{{[subsection][2][4]4.2}{9}}
\newlabel{fig:fig2_intercept_Metabolite}{{\caption@xref {fig:fig2_intercept_Metabolite}{ on input line 210}}{9}{Plots}{figure.caption.6}{}}
\newlabel{fig:fig2_intercept_Metabolite@cref}{{[subsection][2][4]4.2}{9}}
\newlabel{fig:fig2_R2_Metabolite}{{\caption@xref {fig:fig2_R2_Metabolite}{ on input line 215}}{9}{Plots}{figure.caption.6}{}}
\newlabel{fig:fig2_R2_Metabolite@cref}{{[subsection][2][4]4.2}{9}}
\@writefile{lof}{\contentsline {figure}{\numberline {6}{\ignorespaces Traits related to metabolites (\textit  {i.e.} LDL, HDL, TG)\relax }}{9}{figure.caption.6}}
\newlabel{fig:fig2_trait_Body_Size}{{\caption@xref {fig:fig2_trait_Body_Size}{ on input line 229}}{10}{Plots}{figure.caption.7}{}}
\newlabel{fig:fig2_trait_Body_Size@cref}{{[subsection][2][4]4.2}{10}}
\newlabel{fig:fig2_sample_size_Body_Size}{{\caption@xref {fig:fig2_sample_size_Body_Size}{ on input line 234}}{10}{Plots}{figure.caption.7}{}}
\newlabel{fig:fig2_sample_size_Body_Size@cref}{{[subsection][2][4]4.2}{10}}
\newlabel{fig:fig2_slope_Body_Size}{{\caption@xref {fig:fig2_slope_Body_Size}{ on input line 239}}{10}{Plots}{figure.caption.7}{}}
\newlabel{fig:fig2_slope_Body_Size@cref}{{[subsection][2][4]4.2}{10}}
\newlabel{fig:fig2_intercept_Body_Size}{{\caption@xref {fig:fig2_intercept_Body_Size}{ on input line 244}}{10}{Plots}{figure.caption.7}{}}
\newlabel{fig:fig2_intercept_Body_Size@cref}{{[subsection][2][4]4.2}{10}}
\newlabel{fig:fig2_R2_Body_Size}{{\caption@xref {fig:fig2_R2_Body_Size}{ on input line 249}}{10}{Plots}{figure.caption.7}{}}
\newlabel{fig:fig2_R2_Body_Size@cref}{{[subsection][2][4]4.2}{10}}
\@writefile{lof}{\contentsline {figure}{\numberline {7}{\ignorespaces Traits related to body size (\textit  {i.e.} height, birth weight, BMI)\relax }}{10}{figure.caption.7}}
\newlabel{fig:fig2_trait_Schizophrenia}{{\caption@xref {fig:fig2_trait_Schizophrenia}{ on input line 263}}{11}{Plots}{figure.caption.8}{}}
\newlabel{fig:fig2_trait_Schizophrenia@cref}{{[subsection][2][4]4.2}{11}}
\newlabel{fig:fig2_sample_size_Schizophrenia}{{\caption@xref {fig:fig2_sample_size_Schizophrenia}{ on input line 268}}{11}{Plots}{figure.caption.8}{}}
\newlabel{fig:fig2_sample_size_Schizophrenia@cref}{{[subsection][2][4]4.2}{11}}
\newlabel{fig:fig2_slope_Schizophrenia}{{\caption@xref {fig:fig2_slope_Schizophrenia}{ on input line 273}}{11}{Plots}{figure.caption.8}{}}
\newlabel{fig:fig2_slope_Schizophrenia@cref}{{[subsection][2][4]4.2}{11}}
\newlabel{fig:fig2_intercept_Schizophrenia}{{\caption@xref {fig:fig2_intercept_Schizophrenia}{ on input line 278}}{11}{Plots}{figure.caption.8}{}}
\newlabel{fig:fig2_intercept_Schizophrenia@cref}{{[subsection][2][4]4.2}{11}}
\newlabel{fig:fig2_R2_Schizophrenia}{{\caption@xref {fig:fig2_R2_Schizophrenia}{ on input line 283}}{11}{Plots}{figure.caption.8}{}}
\newlabel{fig:fig2_R2_Schizophrenia@cref}{{[subsection][2][4]4.2}{11}}
\@writefile{lof}{\contentsline {figure}{\numberline {8}{\ignorespaces Schizophrenia\relax }}{11}{figure.caption.8}}
\bibdata{mybib}
\bibstyle{plain}
\@writefile{toc}{\contentsline {section}{\numberline {5}Figure3}{12}{section.5}}
