est.name	est.val	est.se	num.of.snp	thresholds
Pn	1.99103976916343e-06	8.03611658316754e-07	4305	0.01
LDSC	-2.26950578762792e-07	9.06682094131654e-08	4305	0.01
intercept	0.000383400437739054	3.57994335858569e-05	4305	0.01
Pn	1.56549627373395e-06	1.22925212099713e-06	2123	0.001
LDSC	-6.01088372372571e-07	1.54753488438985e-07	2123	0.001
intercept	0.000635749697527741	5.92158638617156e-05	2123	0.001
Pn	1.04258514329951e-06	1.98392944906904e-06	1281	1e-04
LDSC	-8.80563462312518e-07	2.22489872683077e-07	1281	1e-04
intercept	0.000905350819885733	9.73047080215753e-05	1281	1e-04
Pn	8.85067574148967e-07	2.80137325844999e-06	876	1e-05
LDSC	-1.30106378122009e-06	3.37994363854719e-07	876	1e-05
intercept	0.00117828118669397	0.000142264580668052	876	1e-05
Pn	-1.86476751098378e-06	3.81055959084472e-06	619	1e-06
LDSC	-1.67117657990861e-06	4.4374138588172e-07	619	1e-06
intercept	0.0015647203888251	0.000199352498090273	619	1e-06
Pn	-8.73102832595519e-07	4.91678184807663e-06	486	1e-07
LDSC	-2.04301226291923e-06	5.72523733599209e-07	486	1e-07
intercept	0.00176666775357086	0.000246812302488335	486	1e-07
