est.name	est.val	est.se	num.of.snp	thresholds
Pn	3.78867806907867e-06	8.47169594757665e-07	3612	0.01
LDSC	3.06748760824237e-07	7.10071874053898e-08	3612	0.01
intercept	0.000292542085872051	3.51590741515796e-05	3612	0.01
Pn	3.16876142549981e-06	1.71094404505712e-06	1628	0.001
LDSC	3.03506433037153e-07	1.19934427534774e-07	1628	0.001
intercept	0.000573280829356813	7.76358976126271e-05	1628	0.001
Pn	2.05500097293615e-06	2.85016541460368e-06	951	1e-04
LDSC	1.82052017887661e-07	1.59933470924943e-07	951	1e-04
intercept	0.000935459726551893	0.00013265578826626	951	1e-04
Pn	2.79806949212597e-06	4.01319670990664e-06	674	1e-05
LDSC	3.65337226471585e-08	1.9050515345151e-07	674	1e-05
intercept	0.00121352086983769	0.000185497251226059	674	1e-05
Pn	-3.76659798758417e-07	5.2817960139966e-06	505	1e-06
LDSC	-6.27940730967793e-08	2.21220764338946e-07	505	1e-06
intercept	0.00165589002052343	0.000247379657574061	505	1e-06
Pn	-1.30771294611185e-06	6.3753095598178e-06	407	1e-07
LDSC	-1.78034837225572e-07	2.44227725388127e-07	407	1e-07
intercept	0.0019871198090666	0.0003004488072089	407	1e-07
