est.name	est.val	est.se	num.of.snp	thresholds
Pn	6.30493453535772e-06	1.31543979525746e-06	1616	0.01
LDSC	3.01570484635459e-07	8.5264051983465e-08	1616	0.01
intercept	0.000304189446725791	5.50977429335864e-05	1616	0.01
Pn	9.43838366244113e-06	3.42166177152289e-06	560	0.001
LDSC	2.82006121988703e-07	1.64376923007078e-07	560	0.001
intercept	0.000625093453619138	0.000157197082808481	560	0.001
Pn	9.79061616956648e-06	5.74178622516286e-06	313	1e-04
LDSC	1.81796705070671e-07	2.34219760807265e-07	313	1e-04
intercept	0.00107176755964697	0.000281078110301978	313	1e-04
Pn	1.13475365706137e-05	7.97715114317537e-06	221	1e-05
LDSC	1.47178475241244e-07	3.04980603520837e-07	221	1e-05
intercept	0.00143654029942951	0.000390612637802269	221	1e-05
Pn	8.2060770225589e-06	9.60408153042058e-06	176	1e-06
LDSC	-1.87384701193515e-08	3.34124148661211e-07	176	1e-06
intercept	0.00195048989315238	0.000480953825439016	176	1e-06
Pn	5.3611455089694e-06	1.16209976864916e-05	142	1e-07
LDSC	1.21565132186876e-08	4.45148846653029e-07	142	1e-07
intercept	0.00236783644958355	0.000573905682813184	142	1e-07
