est.name	est.val	est.se	num.of.snp	thresholds
Pn	9.2252510175303e-06	2.63611369316929e-06	2468	0.01
LDSC	-8.15160792508632e-07	2.10250637957835e-07	2468	0.01
intercept	0.00201984766960591	0.000104196587619862	2468	0.01
Pn	2.21375083933053e-05	8.41600506172245e-06	578	0.001
LDSC	-1.18961708950501e-06	4.36254490339263e-07	578	0.001
intercept	0.00265325475481099	0.000346430143053053	578	0.001
Pn	4.74888899272708e-05	2.24231841642999e-05	173	1e-04
LDSC	-2.86136559062707e-06	1.39462827161484e-06	173	1e-04
intercept	0.0036144834490062	0.00102004605912752	173	1e-04
Pn	4.69359147202782e-05	4.02104412775765e-05	93	1e-05
LDSC	-9.43880855703248e-06	4.1583996084055e-06	93	1e-05
intercept	0.00669943144728096	0.00206757592262011	93	1e-05
Pn	6.87098502721467e-05	6.10016954956429e-05	51	1e-06
LDSC	-1.0239468170734e-05	6.47407646462196e-06	51	1e-06
intercept	0.00731182301630672	0.0032011082452355	51	1e-06
Pn	2.83826628252005e-05	0.000102977664599897	31	1e-07
LDSC	-1.35874916823309e-05	9.76368931028356e-06	31	1e-07
intercept	0.0120367653610538	0.00557102344624739	31	1e-07
