clst.idx	clst.chr	clst.start	clst.end	gene
1	chr1	1000001	2000001	ENSG00000215915.9
1	chr1	1000001	2000001	ENSG00000169972.11
1	chr1	1000001	2000001	ENSG00000160072.19
1	chr1	1000001	2000001	ENSG00000215014.4
1	chr1	1000001	2000001	ENSG00000197785.13
1	chr1	1000001	2000001	ENSG00000187608.8
1	chr1	1000001	2000001	ENSG00000176022.4
1	chr1	1000001	2000001	ENSG00000224051.6
1	chr1	1000001	2000001	ENSG00000223823.1
1	chr1	1000001	2000001	ENSG00000169962.4
1	chr1	1000001	2000001	ENSG00000272455.1
1	chr1	1000001	2000001	ENSG00000186891.13
1	chr1	1000001	2000001	ENSG00000242485.5
1	chr1	1000001	2000001	ENSG00000008128.22
1	chr1	1000001	2000001	ENSG00000215790.6
1	chr1	1000001	2000001	ENSG00000186827.10
1	chr1	1000001	2000001	ENSG00000188290.10
1	chr1	1000001	2000001	ENSG00000189339.11
1	chr1	1000001	2000001	ENSG00000127054.20
1	chr1	1000001	2000001	ENSG00000078808.16
1	chr1	1000001	2000001	ENSG00000131591.17
1	chr1	1000001	2000001	ENSG00000160075.11
1	chr1	1000001	2000001	ENSG00000248333.8
2	chr1	2000001	3000001	ENSG00000157873.17
2	chr1	2000001	3000001	ENSG00000228037.1
2	chr1	2000001	3000001	ENSG00000149527.17
2	chr1	2000001	3000001	ENSG00000067606.16
2	chr1	2000001	3000001	ENSG00000157870.14
2	chr1	2000001	3000001	ENSG00000272449.1
2	chr1	2000001	3000001	ENSG00000116151.13
2	chr1	2000001	3000001	ENSG00000142606.15
2	chr1	2000001	3000001	ENSG00000162585.16
2	chr1	2000001	3000001	ENSG00000157881.13
2	chr1	2000001	3000001	ENSG00000215912.12
3	chr1	11000001	12000001	ENSG00000083444.16
3	chr1	11000001	12000001	ENSG00000132879.13
3	chr1	11000001	12000001	ENSG00000116663.10
3	chr1	11000001	12000001	ENSG00000116688.16
3	chr1	11000001	12000001	ENSG00000011021.21
3	chr1	11000001	12000001	ENSG00000162490.6
3	chr1	11000001	12000001	ENSG00000177674.15
3	chr1	11000001	12000001	ENSG00000177000.10
3	chr1	11000001	12000001	ENSG00000198793.12
3	chr1	11000001	12000001	ENSG00000116685.15
3	chr1	11000001	12000001	ENSG00000116661.9
4	chr1	26000001	27000001	ENSG00000117682.16
4	chr1	26000001	27000001	ENSG00000169442.8
4	chr1	26000001	27000001	ENSG00000142675.17
4	chr1	26000001	27000001	ENSG00000204160.11
4	chr1	26000001	27000001	ENSG00000142669.14
4	chr1	26000001	27000001	ENSG00000130695.14
4	chr1	26000001	27000001	ENSG00000060642.10
4	chr1	26000001	27000001	ENSG00000117713.18
4	chr1	26000001	27000001	ENSG00000158062.20
4	chr1	26000001	27000001	ENSG00000176092.14
4	chr1	26000001	27000001	ENSG00000176083.17
4	chr1	26000001	27000001	ENSG00000142751.14
5	chr1	109000001	110000001	ENSG00000168765.16
5	chr1	109000001	110000001	ENSG00000116299.16
5	chr1	109000001	110000001	ENSG00000134184.12
5	chr1	109000001	110000001	ENSG00000213366.12
5	chr1	109000001	110000001	ENSG00000143126.7
5	chr1	109000001	110000001	ENSG00000134201.10
5	chr1	109000001	110000001	ENSG00000116337.15
5	chr1	109000001	110000001	ENSG00000215717.5
5	chr1	109000001	110000001	ENSG00000134222.16
5	chr1	109000001	110000001	ENSG00000134202.10
5	chr1	109000001	110000001	ENSG00000181754.6
5	chr1	109000001	110000001	ENSG00000085433.15
5	chr1	109000001	110000001	ENSG00000197780.9
5	chr1	109000001	110000001	ENSG00000179902.12
6	chr1	111000001	112000001	ENSG00000116473.14
6	chr1	111000001	112000001	ENSG00000064703.11
6	chr1	111000001	112000001	ENSG00000134255.13
6	chr1	111000001	112000001	ENSG00000064886.13
6	chr1	111000001	112000001	ENSG00000231346.5
6	chr1	111000001	112000001	ENSG00000156171.14
6	chr1	111000001	112000001	ENSG00000121933.18
6	chr1	111000001	112000001	ENSG00000162777.16
6	chr1	111000001	112000001	ENSG00000197852.9
6	chr1	111000001	112000001	ENSG00000085465.12
6	chr1	111000001	112000001	ENSG00000116455.13
7	chr1	150000001	151000001	ENSG00000143379.12
7	chr1	150000001	151000001	ENSG00000143382.14
7	chr1	150000001	151000001	ENSG00000023902.13
7	chr1	150000001	151000001	ENSG00000143374.16
7	chr1	150000001	151000001	ENSG00000143369.14
7	chr1	150000001	151000001	ENSG00000163125.15
7	chr1	150000001	151000001	ENSG00000266472.5
7	chr1	150000001	151000001	ENSG00000163131.10
7	chr1	150000001	151000001	ENSG00000143420.18
7	chr1	150000001	151000001	ENSG00000143457.10
7	chr1	150000001	151000001	ENSG00000143452.15
7	chr1	150000001	151000001	ENSG00000143387.12
7	chr1	150000001	151000001	ENSG00000143437.20
7	chr1	150000001	151000001	ENSG00000143384.12
8	chr1	151000001	152000001	ENSG00000143458.11
8	chr1	151000001	152000001	ENSG00000143367.15
8	chr1	151000001	152000001	ENSG00000213190.3
8	chr1	151000001	152000001	ENSG00000159352.15
8	chr1	151000001	152000001	ENSG00000159445.12
8	chr1	151000001	152000001	ENSG00000143442.21
8	chr1	151000001	152000001	ENSG00000143390.17
8	chr1	151000001	152000001	ENSG00000163155.11
8	chr1	151000001	152000001	ENSG00000143416.20
8	chr1	151000001	152000001	ENSG00000182134.15
8	chr1	151000001	152000001	ENSG00000143434.15
9	chr1	153000001	154000001	ENSG00000143554.13
9	chr1	153000001	154000001	ENSG00000163220.10
9	chr1	153000001	154000001	ENSG00000143578.15
9	chr1	153000001	154000001	ENSG00000143553.10
9	chr1	153000001	154000001	ENSG00000160678.11
9	chr1	153000001	154000001	ENSG00000143546.9
9	chr1	153000001	154000001	ENSG00000198837.9
9	chr1	153000001	154000001	ENSG00000189171.14
9	chr1	153000001	154000001	ENSG00000163221.8
9	chr1	153000001	154000001	ENSG00000143621.16
9	chr1	153000001	154000001	ENSG00000143570.17
9	chr1	153000001	154000001	ENSG00000143614.9
10	chr1	154000001	155000001	ENSG00000143569.18
10	chr1	154000001	155000001	ENSG00000143595.12
10	chr1	154000001	155000001	ENSG00000160716.5
10	chr1	154000001	155000001	ENSG00000160712.12
10	chr1	154000001	155000001	ENSG00000143515.16
10	chr1	154000001	155000001	ENSG00000143575.14
10	chr1	154000001	155000001	ENSG00000160691.18
10	chr1	154000001	155000001	ENSG00000160710.15
10	chr1	154000001	155000001	ENSG00000163344.5
10	chr1	154000001	155000001	ENSG00000143549.19
10	chr1	154000001	155000001	ENSG00000160714.9
11	chr1	156000001	157000001	ENSG00000187862.11
11	chr1	156000001	157000001	ENSG00000163472.18
11	chr1	156000001	157000001	ENSG00000143303.11
11	chr1	156000001	157000001	ENSG00000196189.12
11	chr1	156000001	157000001	ENSG00000160789.19
11	chr1	156000001	157000001	ENSG00000187800.13
11	chr1	156000001	157000001	ENSG00000163382.11
11	chr1	156000001	157000001	ENSG00000160783.19
11	chr1	156000001	157000001	ENSG00000143319.16
11	chr1	156000001	157000001	ENSG00000163468.14
11	chr1	156000001	157000001	ENSG00000198715.11
11	chr1	156000001	157000001	ENSG00000160781.15
11	chr1	156000001	157000001	ENSG00000198952.8
11	chr1	156000001	157000001	ENSG00000143320.8
12	chr1	160000001	161000001	ENSG00000162736.15
12	chr1	160000001	161000001	ENSG00000132681.16
12	chr1	160000001	161000001	ENSG00000143318.12
12	chr1	160000001	161000001	ENSG00000117090.14
12	chr1	160000001	161000001	ENSG00000122218.14
12	chr1	160000001	161000001	ENSG00000158764.6
12	chr1	160000001	161000001	ENSG00000117091.9
12	chr1	160000001	161000001	ENSG00000122223.12
12	chr1	160000001	161000001	ENSG00000162729.13
12	chr1	160000001	161000001	ENSG00000179914.4
12	chr1	160000001	161000001	ENSG00000143315.6
12	chr1	160000001	161000001	ENSG00000066294.14
13	chr1	161000001	162000001	ENSG00000162746.14
13	chr1	161000001	162000001	ENSG00000248485.1
13	chr1	161000001	162000001	ENSG00000283696.1
13	chr1	161000001	162000001	ENSG00000173110.7
13	chr1	161000001	162000001	ENSG00000143252.14
13	chr1	161000001	162000001	ENSG00000118217.5
13	chr1	161000001	162000001	ENSG00000158882.14
13	chr1	161000001	162000001	ENSG00000072694.20
13	chr1	161000001	162000001	ENSG00000143224.17
13	chr1	161000001	162000001	ENSG00000158869.10
13	chr1	161000001	162000001	ENSG00000132185.16
13	chr1	161000001	162000001	ENSG00000203747.10
13	chr1	161000001	162000001	ENSG00000162747.9
13	chr1	161000001	162000001	ENSG00000158887.15
13	chr1	161000001	162000001	ENSG00000158769.17
13	chr1	161000001	162000001	ENSG00000283317.1
13	chr1	161000001	162000001	ENSG00000158773.14
14	chr1	247000001	248000001	ENSG00000177462.6
14	chr1	247000001	248000001	ENSG00000162722.8
14	chr1	247000001	248000001	ENSG00000238243.3
14	chr1	247000001	248000001	ENSG00000162711.16
14	chr1	247000001	248000001	ENSG00000169224.12
14	chr1	247000001	248000001	ENSG00000196418.12
14	chr1	247000001	248000001	ENSG00000177535.7
14	chr1	247000001	248000001	ENSG00000197472.14
14	chr1	247000001	248000001	ENSG00000259865.1
14	chr1	247000001	248000001	ENSG00000162714.12
14	chr1	247000001	248000001	ENSG00000188295.14
15	chr2	27000001	28000001	ENSG00000138085.16
15	chr2	27000001	28000001	ENSG00000115216.13
15	chr2	27000001	28000001	ENSG00000157992.12
15	chr2	27000001	28000001	ENSG00000138080.13
15	chr2	27000001	28000001	ENSG00000115234.10
15	chr2	27000001	28000001	ENSG00000084774.13
15	chr2	27000001	28000001	ENSG00000138030.12
15	chr2	27000001	28000001	ENSG00000163798.13
15	chr2	27000001	28000001	ENSG00000138074.14
15	chr2	27000001	28000001	ENSG00000138073.13
15	chr2	27000001	28000001	ENSG00000138028.15
16	chr2	74000001	75000001	ENSG00000115325.13
16	chr2	74000001	75000001	ENSG00000115350.11
16	chr2	74000001	75000001	ENSG00000159399.9
16	chr2	74000001	75000001	ENSG00000115282.19
16	chr2	74000001	75000001	ENSG00000115274.14
16	chr2	74000001	75000001	ENSG00000204792.2
16	chr2	74000001	75000001	ENSG00000065911.11
16	chr2	74000001	75000001	ENSG00000239779.6
16	chr2	74000001	75000001	ENSG00000217702.2
16	chr2	74000001	75000001	ENSG00000135622.12
16	chr2	74000001	75000001	ENSG00000115318.11
16	chr2	74000001	75000001	ENSG00000179528.15
16	chr2	74000001	75000001	ENSG00000272711.1
16	chr2	74000001	75000001	ENSG00000188687.17
16	chr2	74000001	75000001	ENSG00000204843.12
17	chr2	85000001	86000001	ENSG00000152284.4
17	chr2	85000001	86000001	ENSG00000168894.9
17	chr2	85000001	86000001	ENSG00000168874.12
17	chr2	85000001	86000001	ENSG00000168906.12
17	chr2	85000001	86000001	ENSG00000115523.16
17	chr2	85000001	86000001	ENSG00000168883.19
17	chr2	85000001	86000001	ENSG00000168899.4
17	chr2	85000001	86000001	ENSG00000115459.17
17	chr2	85000001	86000001	ENSG00000118640.10
17	chr2	85000001	86000001	ENSG00000042445.13
17	chr2	85000001	86000001	ENSG00000115525.17
17	chr2	85000001	86000001	ENSG00000115486.11
17	chr2	85000001	86000001	ENSG00000152291.13
17	chr2	85000001	86000001	ENSG00000042493.15
17	chr2	85000001	86000001	ENSG00000168890.13
17	chr2	85000001	86000001	ENSG00000168887.10
18	chr2	113000001	114000001	ENSG00000125637.15
18	chr2	113000001	114000001	ENSG00000115091.11
18	chr2	113000001	114000001	ENSG00000184492.6
18	chr2	113000001	114000001	ENSG00000136689.18
18	chr2	113000001	114000001	ENSG00000234199.2
18	chr2	113000001	114000001	ENSG00000144134.18
18	chr2	113000001	114000001	ENSG00000125618.16
18	chr2	113000001	114000001	ENSG00000228857.2
18	chr2	113000001	114000001	ENSG00000244063.1
18	chr2	113000001	114000001	ENSG00000115084.13
18	chr2	113000001	114000001	ENSG00000227359.1
19	chr2	218000001	219000001	ENSG00000144580.13
19	chr2	218000001	219000001	ENSG00000158428.3
19	chr2	218000001	219000001	ENSG00000135929.8
19	chr2	218000001	219000001	ENSG00000135925.8
19	chr2	218000001	219000001	ENSG00000272555.1
19	chr2	218000001	219000001	ENSG00000018280.16
19	chr2	218000001	219000001	ENSG00000163466.15
19	chr2	218000001	219000001	ENSG00000179921.14
19	chr2	218000001	219000001	ENSG00000127831.10
19	chr2	218000001	219000001	ENSG00000188282.12
19	chr2	218000001	219000001	ENSG00000180871.7
19	chr2	218000001	219000001	ENSG00000127838.13
19	chr2	218000001	219000001	ENSG00000115568.15
19	chr2	218000001	219000001	ENSG00000079308.16
19	chr2	218000001	219000001	ENSG00000163464.7
19	chr2	218000001	219000001	ENSG00000135913.10
20	chr2	241000001	242000001	ENSG00000168397.16
20	chr2	241000001	242000001	ENSG00000204099.11
20	chr2	241000001	242000001	ENSG00000180902.17
20	chr2	241000001	242000001	ENSG00000168395.15
20	chr2	241000001	242000001	ENSG00000168385.17
20	chr2	241000001	242000001	ENSG00000006607.13
20	chr2	241000001	242000001	ENSG00000237940.3
20	chr2	241000001	242000001	ENSG00000235151.1
20	chr2	241000001	242000001	ENSG00000176720.4
20	chr2	241000001	242000001	ENSG00000122085.16
20	chr2	241000001	242000001	ENSG00000115677.16
20	chr2	241000001	242000001	ENSG00000188389.10
20	chr2	241000001	242000001	ENSG00000115687.13
21	chr3	44000001	45000001	ENSG00000179152.19
21	chr3	44000001	45000001	ENSG00000186448.14
21	chr3	44000001	45000001	ENSG00000186446.11
21	chr3	44000001	45000001	ENSG00000075914.12
21	chr3	44000001	45000001	ENSG00000169964.7
21	chr3	44000001	45000001	ENSG00000196345.12
21	chr3	44000001	45000001	ENSG00000261786.1
21	chr3	44000001	45000001	ENSG00000196653.11
21	chr3	44000001	45000001	ENSG00000169981.10
21	chr3	44000001	45000001	ENSG00000144792.9
21	chr3	44000001	45000001	ENSG00000225873.3
21	chr3	44000001	45000001	ENSG00000163807.5
21	chr3	44000001	45000001	ENSG00000185219.16
22	chr3	48000001	49000001	ENSG00000232112.3
22	chr3	48000001	49000001	ENSG00000178467.17
22	chr3	48000001	49000001	ENSG00000164053.19
22	chr3	48000001	49000001	ENSG00000213689.11
22	chr3	48000001	49000001	ENSG00000164048.13
22	chr3	48000001	49000001	ENSG00000229453.2
22	chr3	48000001	49000001	ENSG00000047849.21
22	chr3	48000001	49000001	ENSG00000172113.8
22	chr3	48000001	49000001	ENSG00000164054.15
22	chr3	48000001	49000001	ENSG00000183396.3
22	chr3	48000001	49000001	ENSG00000068745.14
22	chr3	48000001	49000001	ENSG00000213672.7
22	chr3	48000001	49000001	ENSG00000010256.10
23	chr3	49000001	50000001	ENSG00000164062.12
23	chr3	49000001	50000001	ENSG00000178252.17
23	chr3	49000001	50000001	ENSG00000004534.14
23	chr3	49000001	50000001	ENSG00000173402.11
23	chr3	49000001	50000001	ENSG00000198218.10
23	chr3	49000001	50000001	ENSG00000164077.13
23	chr3	49000001	50000001	ENSG00000182179.12
23	chr3	49000001	50000001	ENSG00000164078.12
23	chr3	49000001	50000001	ENSG00000145020.15
23	chr3	49000001	50000001	ENSG00000172037.13
23	chr3	49000001	50000001	ENSG00000173540.12
23	chr3	49000001	50000001	ENSG00000177352.9
23	chr3	49000001	50000001	ENSG00000173531.15
24	chr3	122000001	123000001	ENSG00000273033.2
24	chr3	122000001	123000001	ENSG00000173193.13
24	chr3	122000001	123000001	ENSG00000114013.15
24	chr3	122000001	123000001	ENSG00000173200.12
24	chr3	122000001	123000001	ENSG00000114023.15
24	chr3	122000001	123000001	ENSG00000121552.3
24	chr3	122000001	123000001	ENSG00000138463.8
24	chr3	122000001	123000001	ENSG00000114030.12
24	chr3	122000001	123000001	ENSG00000196981.3
24	chr3	122000001	123000001	ENSG00000138496.16
24	chr3	122000001	123000001	ENSG00000169087.10
25	chr3	196000001	197000001	ENSG00000174004.5
25	chr3	196000001	197000001	ENSG00000163964.14
25	chr3	196000001	197000001	ENSG00000180370.10
25	chr3	196000001	197000001	ENSG00000163959.9
25	chr3	196000001	197000001	ENSG00000119231.10
25	chr3	196000001	197000001	ENSG00000163961.4
25	chr3	196000001	197000001	ENSG00000174007.7
25	chr3	196000001	197000001	ENSG00000119227.7
25	chr3	196000001	197000001	ENSG00000163960.11
25	chr3	196000001	197000001	ENSG00000163958.13
25	chr3	196000001	197000001	ENSG00000145107.15
25	chr3	196000001	197000001	ENSG00000213123.10
25	chr3	196000001	197000001	ENSG00000185798.7
26	chr4	1	1000001	ENSG00000272602.5
26	chr4	1	1000001	ENSG00000250312.6
26	chr4	1	1000001	ENSG00000127415.12
26	chr4	1	1000001	ENSG00000215375.6
26	chr4	1	1000001	ENSG00000133256.12
26	chr4	1	1000001	ENSG00000185619.18
26	chr4	1	1000001	ENSG00000145214.13
26	chr4	1	1000001	ENSG00000145217.13
26	chr4	1	1000001	ENSG00000169026.12
26	chr4	1	1000001	ENSG00000178950.16
26	chr4	1	1000001	ENSG00000182903.15
27	chr5	177000001	178000001	ENSG00000169230.9
27	chr5	177000001	178000001	ENSG00000184840.11
27	chr5	177000001	178000001	ENSG00000131188.11
27	chr5	177000001	178000001	ENSG00000027847.13
27	chr5	177000001	178000001	ENSG00000160867.14
27	chr5	177000001	178000001	ENSG00000170074.19
27	chr5	177000001	178000001	ENSG00000146067.15
27	chr5	177000001	178000001	ENSG00000213347.10
27	chr5	177000001	178000001	ENSG00000196923.13
27	chr5	177000001	178000001	ENSG00000113758.13
27	chr5	177000001	178000001	ENSG00000169228.13
27	chr5	177000001	178000001	ENSG00000087206.16
27	chr5	177000001	178000001	ENSG00000169223.14
28	chr6	26000001	27000001	ENSG00000228223.2
28	chr6	26000001	27000001	ENSG00000272810.1
28	chr6	26000001	27000001	ENSG00000111801.15
28	chr6	26000001	27000001	ENSG00000158373.8
28	chr6	26000001	27000001	ENSG00000186470.13
28	chr6	26000001	27000001	ENSG00000026950.16
28	chr6	26000001	27000001	ENSG00000112763.15
28	chr6	26000001	27000001	ENSG00000182952.4
28	chr6	26000001	27000001	ENSG00000146109.4
28	chr6	26000001	27000001	ENSG00000197061.4
28	chr6	26000001	27000001	ENSG00000274750.2
28	chr6	26000001	27000001	ENSG00000124508.16
28	chr6	26000001	27000001	ENSG00000277075.2
28	chr6	26000001	27000001	ENSG00000187837.3
28	chr6	26000001	27000001	ENSG00000158406.4
28	chr6	26000001	27000001	ENSG00000197409.7
28	chr6	26000001	27000001	ENSG00000181315.10
28	chr6	26000001	27000001	ENSG00000187475.5
29	chr6	30000001	31000001	ENSG00000228022.5
29	chr6	30000001	31000001	ENSG00000066379.14
29	chr6	30000001	31000001	ENSG00000204580.13
29	chr6	30000001	31000001	ENSG00000137343.17
29	chr6	30000001	31000001	ENSG00000137411.16
29	chr6	30000001	31000001	ENSG00000213780.10
29	chr6	30000001	31000001	ENSG00000204610.12
29	chr6	30000001	31000001	ENSG00000204619.7
29	chr6	30000001	31000001	ENSG00000204599.14
29	chr6	30000001	31000001	ENSG00000204592.8
29	chr6	30000001	31000001	ENSG00000214894.6
29	chr6	30000001	31000001	ENSG00000137404.14
29	chr6	30000001	31000001	ENSG00000204560.9
29	chr6	30000001	31000001	ENSG00000137312.14
29	chr6	30000001	31000001	ENSG00000137337.14
29	chr6	30000001	31000001	ENSG00000137331.11
29	chr6	30000001	31000001	ENSG00000204613.10
29	chr6	30000001	31000001	ENSG00000204618.8
29	chr6	30000001	31000001	ENSG00000234127.8
30	chr6	31000001	32000001	ENSG00000206344.7
30	chr6	31000001	32000001	ENSG00000240053.8
30	chr6	31000001	32000001	ENSG00000244731.7
30	chr6	31000001	32000001	ENSG00000204344.14
30	chr6	31000001	32000001	ENSG00000137310.11
30	chr6	31000001	32000001	ENSG00000204482.10
30	chr6	31000001	32000001	ENSG00000166278.14
30	chr6	31000001	32000001	ENSG00000204472.12
30	chr6	31000001	32000001	ENSG00000204469.12
30	chr6	31000001	32000001	ENSG00000204516.9
30	chr6	31000001	32000001	ENSG00000226979.8
30	chr6	31000001	32000001	ENSG00000204410.14
30	chr6	31000001	32000001	ENSG00000204520.12
30	chr6	31000001	32000001	ENSG00000204387.12
30	chr6	31000001	32000001	ENSG00000204351.11
30	chr6	31000001	32000001	ENSG00000272221.1
30	chr6	31000001	32000001	ENSG00000204463.12
30	chr6	31000001	32000001	ENSG00000198563.13
30	chr6	31000001	32000001	ENSG00000204531.17
30	chr6	31000001	32000001	ENSG00000213760.10
30	chr6	31000001	32000001	ENSG00000234745.10
30	chr6	31000001	32000001	ENSG00000204396.10
30	chr6	31000001	32000001	ENSG00000204536.13
30	chr6	31000001	32000001	ENSG00000204366.3
30	chr6	31000001	32000001	ENSG00000204428.12
30	chr6	31000001	32000001	ENSG00000204525.16
30	chr6	31000001	32000001	ENSG00000204385.10
30	chr6	31000001	32000001	ENSG00000204475.9
30	chr6	31000001	32000001	ENSG00000204356.13
30	chr6	31000001	32000001	ENSG00000213722.8
30	chr6	31000001	32000001	ENSG00000204438.10
31	chr6	32000001	33000001	ENSG00000204261.8
31	chr6	32000001	33000001	ENSG00000231852.6
31	chr6	32000001	33000001	ENSG00000240065.7
31	chr6	32000001	33000001	ENSG00000224389.8
31	chr6	32000001	33000001	ENSG00000241404.6
31	chr6	32000001	33000001	ENSG00000204287.13
31	chr6	32000001	33000001	ENSG00000196735.11
31	chr6	32000001	33000001	ENSG00000237541.3
31	chr6	32000001	33000001	ENSG00000168394.10
31	chr6	32000001	33000001	ENSG00000196126.11
31	chr6	32000001	33000001	ENSG00000232629.8
31	chr6	32000001	33000001	ENSG00000204264.8
31	chr6	32000001	33000001	ENSG00000204267.13
31	chr6	32000001	33000001	ENSG00000204315.3
31	chr6	32000001	33000001	ENSG00000213676.10
31	chr6	32000001	33000001	ENSG00000204305.13
31	chr6	32000001	33000001	ENSG00000204304.11
31	chr6	32000001	33000001	ENSG00000204301.6
31	chr6	32000001	33000001	ENSG00000179344.16
31	chr6	32000001	33000001	ENSG00000198502.5
31	chr6	32000001	33000001	ENSG00000241106.6
31	chr6	32000001	33000001	ENSG00000204257.14
32	chr6	33000001	34000001	ENSG00000096433.10
32	chr6	33000001	34000001	ENSG00000112511.17
32	chr6	33000001	34000001	ENSG00000231500.6
32	chr6	33000001	34000001	ENSG00000223865.10
32	chr6	33000001	34000001	ENSG00000231389.7
32	chr6	33000001	34000001	ENSG00000204209.11
32	chr6	33000001	34000001	ENSG00000112514.15
32	chr6	33000001	34000001	ENSG00000231925.11
32	chr6	33000001	34000001	ENSG00000236104.2
32	chr6	33000001	34000001	ENSG00000030110.12
32	chr6	33000001	34000001	ENSG00000161896.11
32	chr6	33000001	34000001	ENSG00000204252.13
33	chr7	44000001	45000001	ENSG00000235314.1
33	chr7	44000001	45000001	ENSG00000136280.15
33	chr7	44000001	45000001	ENSG00000106624.10
33	chr7	44000001	45000001	ENSG00000196262.13
33	chr7	44000001	45000001	ENSG00000105953.14
33	chr7	44000001	45000001	ENSG00000136279.20
33	chr7	44000001	45000001	ENSG00000232956.8
33	chr7	44000001	45000001	ENSG00000158604.14
33	chr7	44000001	45000001	ENSG00000136286.14
33	chr7	44000001	45000001	ENSG00000122678.16
33	chr7	44000001	45000001	ENSG00000015676.17
33	chr7	44000001	45000001	ENSG00000105968.18
33	chr7	44000001	45000001	ENSG00000136271.10
34	chr7	100000001	101000001	ENSG00000166529.14
34	chr7	100000001	101000001	ENSG00000106330.11
34	chr7	100000001	101000001	ENSG00000168090.9
34	chr7	100000001	101000001	ENSG00000188186.10
34	chr7	100000001	101000001	ENSG00000214309.4
34	chr7	100000001	101000001	ENSG00000166997.7
34	chr7	100000001	101000001	ENSG00000121716.20
34	chr7	100000001	101000001	ENSG00000221838.9
34	chr7	100000001	101000001	ENSG00000078487.17
34	chr7	100000001	101000001	ENSG00000106290.14
34	chr7	100000001	101000001	ENSG00000146830.9
34	chr7	100000001	101000001	ENSG00000176125.4
34	chr7	100000001	101000001	ENSG00000197093.10
34	chr7	100000001	101000001	ENSG00000146826.16
34	chr7	100000001	101000001	ENSG00000196411.9
34	chr7	100000001	101000001	ENSG00000239521.7
34	chr7	100000001	101000001	ENSG00000166925.8
34	chr7	100000001	101000001	ENSG00000205307.11
35	chr7	102000001	103000001	ENSG00000128563.13
35	chr7	102000001	103000001	ENSG00000161036.12
35	chr7	102000001	103000001	ENSG00000160991.15
35	chr7	102000001	103000001	ENSG00000222011.8
35	chr7	102000001	103000001	ENSG00000230257.2
35	chr7	102000001	103000001	ENSG00000128606.12
35	chr7	102000001	103000001	ENSG00000105808.17
35	chr7	102000001	103000001	ENSG00000005075.15
35	chr7	102000001	103000001	ENSG00000267368.1
35	chr7	102000001	103000001	ENSG00000160993.3
35	chr7	102000001	103000001	ENSG00000170667.14
35	chr7	102000001	103000001	ENSG00000168255.19
35	chr7	102000001	103000001	ENSG00000228049.7
35	chr7	102000001	103000001	ENSG00000260097.2
36	chr7	150000001	151000001	ENSG00000196456.11
36	chr7	150000001	151000001	ENSG00000188707.5
36	chr7	150000001	151000001	ENSG00000179144.4
36	chr7	150000001	151000001	ENSG00000002933.7
36	chr7	150000001	151000001	ENSG00000171115.3
36	chr7	150000001	151000001	ENSG00000164867.10
36	chr7	150000001	151000001	ENSG00000002726.20
36	chr7	150000001	151000001	ENSG00000106560.10
36	chr7	150000001	151000001	ENSG00000133574.9
36	chr7	150000001	151000001	ENSG00000213203.2
36	chr7	150000001	151000001	ENSG00000127399.14
36	chr7	150000001	151000001	ENSG00000106526.10
36	chr7	150000001	151000001	ENSG00000133561.15
36	chr7	150000001	151000001	ENSG00000106565.17
37	chr8	143000001	144000001	ENSG00000185730.7
37	chr8	143000001	144000001	ENSG00000181135.15
37	chr8	143000001	144000001	ENSG00000183309.11
37	chr8	143000001	144000001	ENSG00000104518.10
37	chr8	143000001	144000001	ENSG00000160932.10
37	chr8	143000001	144000001	ENSG00000158106.13
37	chr8	143000001	144000001	ENSG00000250571.6
37	chr8	143000001	144000001	ENSG00000178719.16
37	chr8	143000001	144000001	ENSG00000178209.14
37	chr8	143000001	144000001	ENSG00000204839.8
37	chr8	143000001	144000001	ENSG00000185189.17
37	chr8	143000001	144000001	ENSG00000184428.12
37	chr8	143000001	144000001	ENSG00000014164.6
37	chr8	143000001	144000001	ENSG00000147813.15
37	chr8	143000001	144000001	ENSG00000247317.3
38	chr8	144000001	145000001	ENSG00000179698.13
38	chr8	144000001	145000001	ENSG00000179632.9
38	chr8	144000001	145000001	ENSG00000160959.7
38	chr8	144000001	145000001	ENSG00000197363.9
38	chr8	144000001	145000001	ENSG00000167702.11
38	chr8	144000001	145000001	ENSG00000160972.9
38	chr8	144000001	145000001	ENSG00000186583.11
38	chr8	144000001	145000001	ENSG00000197858.10
38	chr8	144000001	145000001	ENSG00000185122.10
38	chr8	144000001	145000001	ENSG00000167700.8
38	chr8	144000001	145000001	ENSG00000161016.17
38	chr8	144000001	145000001	ENSG00000147804.9
38	chr8	144000001	145000001	ENSG00000160948.13
38	chr8	144000001	145000001	ENSG00000196378.11
38	chr8	144000001	145000001	ENSG00000160949.16
38	chr8	144000001	145000001	ENSG00000185000.11
38	chr8	144000001	145000001	ENSG00000170619.9
38	chr8	144000001	145000001	ENSG00000071894.16
38	chr8	144000001	145000001	ENSG00000179526.16
38	chr8	144000001	145000001	ENSG00000178685.13
39	chr9	113000001	114000001	ENSG00000119411.10
39	chr9	113000001	114000001	ENSG00000136867.10
39	chr9	113000001	114000001	ENSG00000157653.11
39	chr9	113000001	114000001	ENSG00000138835.22
39	chr9	113000001	114000001	ENSG00000136875.12
39	chr9	113000001	114000001	ENSG00000136868.10
39	chr9	113000001	114000001	ENSG00000148218.15
39	chr9	113000001	114000001	ENSG00000119321.8
39	chr9	113000001	114000001	ENSG00000119431.9
39	chr9	113000001	114000001	ENSG00000228623.5
39	chr9	113000001	114000001	ENSG00000176386.8
40	chr9	133000001	134000001	ENSG00000160325.14
40	chr9	133000001	134000001	ENSG00000123454.10
40	chr9	133000001	134000001	ENSG00000160323.18
40	chr9	133000001	134000001	ENSG00000123453.17
40	chr9	133000001	134000001	ENSG00000148296.6
40	chr9	133000001	134000001	ENSG00000148290.9
40	chr9	133000001	134000001	ENSG00000160293.16
40	chr9	133000001	134000001	ENSG00000148297.15
40	chr9	133000001	134000001	ENSG00000148300.11
40	chr9	133000001	134000001	ENSG00000175164.13
40	chr9	133000001	134000001	ENSG00000160271.14
41	chr9	136000001	137000001	ENSG00000054148.17
41	chr9	136000001	137000001	ENSG00000165716.10
41	chr9	136000001	137000001	ENSG00000184925.11
41	chr9	136000001	137000001	ENSG00000244187.7
41	chr9	136000001	137000001	ENSG00000107317.12
41	chr9	136000001	137000001	ENSG00000127191.17
41	chr9	136000001	137000001	ENSG00000213213.13
41	chr9	136000001	137000001	ENSG00000148362.10
41	chr9	136000001	137000001	ENSG00000214402.6
41	chr9	136000001	137000001	ENSG00000160360.12
41	chr9	136000001	137000001	ENSG00000148384.12
41	chr9	136000001	137000001	ENSG00000169583.12
41	chr9	136000001	137000001	ENSG00000148396.18
41	chr9	136000001	137000001	ENSG00000204001.9
41	chr9	136000001	137000001	ENSG00000169692.12
41	chr9	136000001	137000001	ENSG00000165689.16
41	chr9	136000001	137000001	ENSG00000187796.13
41	chr9	136000001	137000001	ENSG00000165684.4
41	chr9	136000001	137000001	ENSG00000159069.13
41	chr9	136000001	137000001	ENSG00000148411.7
41	chr9	136000001	137000001	ENSG00000213221.4
42	chr9	137000001	138000001	ENSG00000197355.10
42	chr9	137000001	138000001	ENSG00000181090.19
42	chr9	137000001	138000001	ENSG00000197070.13
42	chr9	137000001	138000001	ENSG00000188566.13
42	chr9	137000001	138000001	ENSG00000177239.14
42	chr9	137000001	138000001	ENSG00000188747.8
42	chr9	137000001	138000001	ENSG00000188986.6
42	chr9	137000001	138000001	ENSG00000148399.12
42	chr9	137000001	138000001	ENSG00000176978.13
42	chr9	137000001	138000001	ENSG00000107331.16
42	chr9	137000001	138000001	ENSG00000054179.11
42	chr9	137000001	138000001	ENSG00000107281.9
42	chr9	137000001	138000001	ENSG00000187609.15
42	chr9	137000001	138000001	ENSG00000165802.21
42	chr9	137000001	138000001	ENSG00000130653.15
42	chr9	137000001	138000001	ENSG00000186193.8
42	chr9	137000001	138000001	ENSG00000180549.7
43	chr10	102000001	103000001	ENSG00000138111.14
43	chr10	102000001	103000001	ENSG00000156398.12
43	chr10	102000001	103000001	ENSG00000148842.17
43	chr10	102000001	103000001	ENSG00000107882.11
43	chr10	102000001	103000001	ENSG00000166275.15
43	chr10	102000001	103000001	ENSG00000166272.16
43	chr10	102000001	103000001	ENSG00000166189.7
43	chr10	102000001	103000001	ENSG00000214435.7
43	chr10	102000001	103000001	ENSG00000171206.13
43	chr10	102000001	103000001	ENSG00000198728.10
43	chr10	102000001	103000001	ENSG00000138107.12
43	chr10	102000001	103000001	ENSG00000120029.12
43	chr10	102000001	103000001	ENSG00000138175.8
44	chr11	1	1000001	ENSG00000255142.1
44	chr11	1	1000001	ENSG00000255328.1
44	chr11	1	1000001	ENSG00000270972.1
44	chr11	1	1000001	ENSG00000255284.1
44	chr11	1	1000001	ENSG00000177042.14
44	chr11	1	1000001	ENSG00000214063.10
44	chr11	1	1000001	ENSG00000161328.10
44	chr11	1	1000001	ENSG00000177963.14
44	chr11	1	1000001	ENSG00000188076.2
44	chr11	1	1000001	ENSG00000177600.8
44	chr11	1	1000001	ENSG00000177685.16
44	chr11	1	1000001	ENSG00000174885.12
44	chr11	1	1000001	ENSG00000069696.6
44	chr11	1	1000001	ENSG00000142102.15
44	chr11	1	1000001	ENSG00000099849.14
44	chr11	1	1000001	ENSG00000174915.11
44	chr11	1	1000001	ENSG00000182272.11
44	chr11	1	1000001	ENSG00000185627.17
44	chr11	1	1000001	ENSG00000177666.16
44	chr11	1	1000001	ENSG00000177106.14
44	chr11	1	1000001	ENSG00000070047.11
44	chr11	1	1000001	ENSG00000177697.17
44	chr11	1	1000001	ENSG00000270030.1
44	chr11	1	1000001	ENSG00000177951.17
44	chr11	1	1000001	ENSG00000142089.15
44	chr11	1	1000001	ENSG00000142082.14
44	chr11	1	1000001	ENSG00000206013.2
44	chr11	1	1000001	ENSG00000177595.17
44	chr11	1	1000001	ENSG00000177030.16
44	chr11	1	1000001	ENSG00000177700.5
44	chr11	1	1000001	ENSG00000185101.12
44	chr11	1	1000001	ENSG00000023191.16
44	chr11	1	1000001	ENSG00000185522.8
44	chr11	1	1000001	ENSG00000174775.16
44	chr11	1	1000001	ENSG00000185187.12
44	chr11	1	1000001	ENSG00000099834.18
44	chr11	1	1000001	ENSG00000185201.16
44	chr11	1	1000001	ENSG00000185885.15
45	chr11	62000001	63000001	ENSG00000185475.10
45	chr11	62000001	63000001	ENSG00000162174.12
45	chr11	62000001	63000001	ENSG00000149503.12
45	chr11	62000001	63000001	ENSG00000162222.13
45	chr11	62000001	63000001	ENSG00000168002.11
45	chr11	62000001	63000001	ENSG00000185085.2
45	chr11	62000001	63000001	ENSG00000168569.7
45	chr11	62000001	63000001	ENSG00000149541.9
45	chr11	62000001	63000001	ENSG00000089597.16
45	chr11	62000001	63000001	ENSG00000149499.11
45	chr11	62000001	63000001	ENSG00000133316.15
45	chr11	62000001	63000001	ENSG00000162194.12
45	chr11	62000001	63000001	ENSG00000168000.14
45	chr11	62000001	63000001	ENSG00000124942.13
46	chr11	65000001	66000001	ENSG00000245532.7
46	chr11	65000001	66000001	ENSG00000255557.1
46	chr11	65000001	66000001	ENSG00000176973.7
46	chr11	65000001	66000001	ENSG00000168061.14
46	chr11	65000001	66000001	ENSG00000133884.9
46	chr11	65000001	66000001	ENSG00000173825.6
46	chr11	65000001	66000001	ENSG00000172977.12
46	chr11	65000001	66000001	ENSG00000172543.7
46	chr11	65000001	66000001	ENSG00000213445.9
46	chr11	65000001	66000001	ENSG00000014216.15
46	chr11	65000001	66000001	ENSG00000172803.17
46	chr11	65000001	66000001	ENSG00000204710.2
46	chr11	65000001	66000001	ENSG00000149809.14
46	chr11	65000001	66000001	ENSG00000173442.12
46	chr11	65000001	66000001	ENSG00000110025.12
46	chr11	65000001	66000001	ENSG00000014138.8
46	chr11	65000001	66000001	ENSG00000172732.11
46	chr11	65000001	66000001	ENSG00000172922.8
46	chr11	65000001	66000001	ENSG00000175573.6
46	chr11	65000001	66000001	ENSG00000172757.12
46	chr11	65000001	66000001	ENSG00000173338.12
46	chr11	65000001	66000001	ENSG00000168060.15
46	chr11	65000001	66000001	ENSG00000149806.10
46	chr11	65000001	66000001	ENSG00000168056.15
46	chr11	65000001	66000001	ENSG00000172638.12
46	chr11	65000001	66000001	ENSG00000173327.7
47	chr11	66000001	67000001	ENSG00000254986.7
47	chr11	66000001	67000001	ENSG00000174903.15
47	chr11	66000001	67000001	ENSG00000175115.11
47	chr11	66000001	67000001	ENSG00000174516.14
47	chr11	66000001	67000001	ENSG00000087365.15
47	chr11	66000001	67000001	ENSG00000173621.8
47	chr11	66000001	67000001	ENSG00000173992.8
47	chr11	66000001	67000001	ENSG00000174483.19
47	chr11	66000001	67000001	ENSG00000175334.7
47	chr11	66000001	67000001	ENSG00000173653.7
47	chr11	66000001	67000001	ENSG00000245156.1
47	chr11	66000001	67000001	ENSG00000174851.15
47	chr11	66000001	67000001	ENSG00000174080.10
47	chr11	66000001	67000001	ENSG00000174791.10
48	chr11	73000001	74000001	ENSG00000021300.13
48	chr11	73000001	74000001	ENSG00000171631.14
48	chr11	73000001	74000001	ENSG00000175575.12
48	chr11	73000001	74000001	ENSG00000187726.8
48	chr11	73000001	74000001	ENSG00000175591.11
48	chr11	73000001	74000001	ENSG00000175581.13
48	chr11	73000001	74000001	ENSG00000110237.3
48	chr11	73000001	74000001	ENSG00000054967.12
48	chr11	73000001	74000001	ENSG00000175582.19
48	chr11	73000001	74000001	ENSG00000175567.8
48	chr11	73000001	74000001	ENSG00000054965.10
49	chr11	118000001	119000001	ENSG00000278376.1
49	chr11	118000001	119000001	ENSG00000167283.7
49	chr11	118000001	119000001	ENSG00000110344.9
49	chr11	118000001	119000001	ENSG00000095139.13
49	chr11	118000001	119000001	ENSG00000186166.8
49	chr11	118000001	119000001	ENSG00000198851.9
49	chr11	118000001	119000001	ENSG00000255274.9
49	chr11	118000001	119000001	ENSG00000160588.9
49	chr11	118000001	119000001	ENSG00000149573.8
49	chr11	118000001	119000001	ENSG00000110367.11
49	chr11	118000001	119000001	ENSG00000160593.18
49	chr11	118000001	119000001	ENSG00000149575.5
50	chr12	6000001	7000001	ENSG00000111321.10
50	chr12	6000001	7000001	ENSG00000010292.12
50	chr12	6000001	7000001	ENSG00000139192.11
50	chr12	6000001	7000001	ENSG00000111678.10
50	chr12	6000001	7000001	ENSG00000010626.14
50	chr12	6000001	7000001	ENSG00000250510.7
50	chr12	6000001	7000001	ENSG00000010278.12
50	chr12	6000001	7000001	ENSG00000110811.19
50	chr12	6000001	7000001	ENSG00000256433.2
50	chr12	6000001	7000001	ENSG00000111671.9
50	chr12	6000001	7000001	ENSG00000139190.16
50	chr12	6000001	7000001	ENSG00000126746.17
50	chr12	6000001	7000001	ENSG00000010295.19
50	chr12	6000001	7000001	ENSG00000215021.8
50	chr12	6000001	7000001	ENSG00000111642.14
51	chr12	8000001	9000001	ENSG00000089818.17
51	chr12	8000001	9000001	ENSG00000111729.13
51	chr12	8000001	9000001	ENSG00000139187.9
51	chr12	8000001	9000001	ENSG00000166527.7
51	chr12	8000001	9000001	ENSG00000111752.10
51	chr12	8000001	9000001	ENSG00000215241.3
51	chr12	8000001	9000001	ENSG00000249790.2
51	chr12	8000001	9000001	ENSG00000065970.8
51	chr12	8000001	9000001	ENSG00000205846.3
51	chr12	8000001	9000001	ENSG00000003056.7
51	chr12	8000001	9000001	ENSG00000255801.1
51	chr12	8000001	9000001	ENSG00000226091.7
51	chr12	8000001	9000001	ENSG00000166523.7
51	chr12	8000001	9000001	ENSG00000171847.10
51	chr12	8000001	9000001	ENSG00000171860.4
52	chr12	10000001	11000001	ENSG00000256660.5
52	chr12	10000001	11000001	ENSG00000197992.6
52	chr12	10000001	11000001	ENSG00000165685.8
52	chr12	10000001	11000001	ENSG00000134539.16
52	chr12	10000001	11000001	ENSG00000256039.1
52	chr12	10000001	11000001	ENSG00000172243.17
52	chr12	10000001	11000001	ENSG00000213809.8
52	chr12	10000001	11000001	ENSG00000205810.8
52	chr12	10000001	11000001	ENSG00000060140.8
52	chr12	10000001	11000001	ENSG00000205809.9
52	chr12	10000001	11000001	ENSG00000255837.1
52	chr12	10000001	11000001	ENSG00000183542.5
52	chr12	10000001	11000001	ENSG00000134545.13
52	chr12	10000001	11000001	ENSG00000165682.14
52	chr12	10000001	11000001	ENSG00000060138.12
52	chr12	10000001	11000001	ENSG00000150048.10
53	chr12	48000001	49000001	ENSG00000167535.7
53	chr12	48000001	49000001	ENSG00000269514.1
53	chr12	48000001	49000001	ENSG00000273765.1
53	chr12	48000001	49000001	ENSG00000187166.1
53	chr12	48000001	49000001	ENSG00000167528.12
53	chr12	48000001	49000001	ENSG00000134287.9
53	chr12	48000001	49000001	ENSG00000177981.10
53	chr12	48000001	49000001	ENSG00000174243.9
53	chr12	48000001	49000001	ENSG00000169884.13
53	chr12	48000001	49000001	ENSG00000139620.12
53	chr12	48000001	49000001	ENSG00000129315.10
53	chr12	48000001	49000001	ENSG00000134285.10
54	chr12	57000001	58000001	ENSG00000123427.16
54	chr12	57000001	58000001	ENSG00000135452.9
54	chr12	57000001	58000001	ENSG00000166896.7
54	chr12	57000001	58000001	ENSG00000166986.14
54	chr12	57000001	58000001	ENSG00000135506.15
54	chr12	57000001	58000001	ENSG00000166908.17
54	chr12	57000001	58000001	ENSG00000111087.9
54	chr12	57000001	58000001	ENSG00000179912.20
54	chr12	57000001	58000001	ENSG00000185482.7
54	chr12	57000001	58000001	ENSG00000166863.11
54	chr12	57000001	58000001	ENSG00000257698.1
54	chr12	57000001	58000001	ENSG00000123329.17
54	chr12	57000001	58000001	ENSG00000185633.10
54	chr12	57000001	58000001	ENSG00000166881.9
55	chr12	109000001	110000001	ENSG00000076248.10
55	chr12	109000001	110000001	ENSG00000135093.12
55	chr12	109000001	110000001	ENSG00000076555.15
55	chr12	109000001	110000001	ENSG00000110921.13
55	chr12	109000001	110000001	ENSG00000151148.13
55	chr12	109000001	110000001	ENSG00000139433.9
55	chr12	109000001	110000001	ENSG00000139436.20
55	chr12	109000001	110000001	ENSG00000189046.10
55	chr12	109000001	110000001	ENSG00000111199.10
55	chr12	109000001	110000001	ENSG00000110906.12
55	chr12	109000001	110000001	ENSG00000139428.11
56	chr12	121000001	122000001	ENSG00000110801.13
56	chr12	121000001	122000001	ENSG00000089041.16
56	chr12	121000001	122000001	ENSG00000276045.2
56	chr12	121000001	122000001	ENSG00000135124.14
56	chr12	121000001	122000001	ENSG00000272849.1
56	chr12	121000001	122000001	ENSG00000188735.12
56	chr12	121000001	122000001	ENSG00000110931.18
56	chr12	121000001	122000001	ENSG00000139725.7
56	chr12	121000001	122000001	ENSG00000135114.12
56	chr12	121000001	122000001	ENSG00000089053.12
56	chr12	121000001	122000001	ENSG00000157895.11
56	chr12	121000001	122000001	ENSG00000139714.12
56	chr12	121000001	122000001	ENSG00000212694.8
56	chr12	121000001	122000001	ENSG00000158104.11
57	chr12	122000001	123000001	ENSG00000110987.8
57	chr12	122000001	123000001	ENSG00000130787.13
57	chr12	122000001	123000001	ENSG00000256249.1
57	chr12	122000001	123000001	ENSG00000182196.13
57	chr12	122000001	123000001	ENSG00000158113.12
57	chr12	122000001	123000001	ENSG00000184445.11
57	chr12	122000001	123000001	ENSG00000150967.17
57	chr12	122000001	123000001	ENSG00000033030.13
57	chr12	122000001	123000001	ENSG00000182782.7
57	chr12	122000001	123000001	ENSG00000255398.2
57	chr12	122000001	123000001	ENSG00000111011.17
58	chr12	123000001	124000001	ENSG00000256092.2
58	chr12	123000001	124000001	ENSG00000179195.15
58	chr12	123000001	124000001	ENSG00000130921.7
58	chr12	123000001	124000001	ENSG00000183955.12
58	chr12	123000001	124000001	ENSG00000184209.14
58	chr12	123000001	124000001	ENSG00000185344.13
58	chr12	123000001	124000001	ENSG00000168778.11
58	chr12	123000001	124000001	ENSG00000197653.15
58	chr12	123000001	124000001	ENSG00000111364.15
58	chr12	123000001	124000001	ENSG00000111328.6
58	chr12	123000001	124000001	ENSG00000111361.12
58	chr12	123000001	124000001	ENSG00000188026.12
58	chr12	123000001	124000001	ENSG00000119242.8
58	chr12	123000001	124000001	ENSG00000150977.10
59	chr12	132000001	133000001	ENSG00000184967.6
59	chr12	132000001	133000001	ENSG00000185684.12
59	chr12	132000001	133000001	ENSG00000112787.12
59	chr12	132000001	133000001	ENSG00000198393.7
59	chr12	132000001	133000001	ENSG00000185163.9
59	chr12	132000001	133000001	ENSG00000256576.2
59	chr12	132000001	133000001	ENSG00000196458.10
59	chr12	132000001	133000001	ENSG00000090615.14
59	chr12	132000001	133000001	ENSG00000176915.14
59	chr12	132000001	133000001	ENSG00000072609.17
59	chr12	132000001	133000001	ENSG00000177084.16
60	chr14	20000001	21000001	ENSG00000165792.17
60	chr14	20000001	21000001	ENSG00000169385.2
60	chr14	20000001	21000001	ENSG00000214274.9
60	chr14	20000001	21000001	ENSG00000169413.2
60	chr14	20000001	21000001	ENSG00000169397.3
60	chr14	20000001	21000001	ENSG00000198805.11
60	chr14	20000001	21000001	ENSG00000129484.13
60	chr14	20000001	21000001	ENSG00000258818.3
60	chr14	20000001	21000001	ENSG00000136315.4
60	chr14	20000001	21000001	ENSG00000129566.12
60	chr14	20000001	21000001	ENSG00000092094.10
60	chr14	20000001	21000001	ENSG00000258768.2
60	chr14	20000001	21000001	ENSG00000100814.17
61	chr14	73000001	74000001	ENSG00000119673.14
61	chr14	73000001	74000001	ENSG00000184227.7
61	chr14	73000001	74000001	ENSG00000170468.7
61	chr14	73000001	74000001	ENSG00000080815.18
61	chr14	73000001	74000001	ENSG00000140043.11
61	chr14	73000001	74000001	ENSG00000177465.4
61	chr14	73000001	74000001	ENSG00000119725.18
61	chr14	73000001	74000001	ENSG00000119723.16
61	chr14	73000001	74000001	ENSG00000156050.8
61	chr14	73000001	74000001	ENSG00000165861.13
61	chr14	73000001	74000001	ENSG00000176903.4
62	chr14	77000001	78000001	ENSG00000063761.15
62	chr14	77000001	78000001	ENSG00000165548.10
62	chr14	77000001	78000001	ENSG00000100583.4
62	chr14	77000001	78000001	ENSG00000246548.3
62	chr14	77000001	78000001	ENSG00000119705.9
62	chr14	77000001	78000001	ENSG00000100577.18
62	chr14	77000001	78000001	ENSG00000198894.7
62	chr14	77000001	78000001	ENSG00000119669.4
62	chr14	77000001	78000001	ENSG00000151445.15
62	chr14	77000001	78000001	ENSG00000100603.13
62	chr14	77000001	78000001	ENSG00000100601.9
62	chr14	77000001	78000001	ENSG00000100596.6
62	chr14	77000001	78000001	ENSG00000100580.7
62	chr14	77000001	78000001	ENSG00000009830.11
62	chr14	77000001	78000001	ENSG00000258819.1
63	chr16	1	1000001	ENSG00000231439.4
63	chr16	1	1000001	ENSG00000167930.15
63	chr16	1	1000001	ENSG00000103202.12
63	chr16	1	1000001	ENSG00000197562.9
63	chr16	1	1000001	ENSG00000127586.16
63	chr16	1	1000001	ENSG00000130656.4
63	chr16	1	1000001	ENSG00000103326.11
63	chr16	1	1000001	ENSG00000161996.18
63	chr16	1	1000001	ENSG00000242612.6
63	chr16	1	1000001	ENSG00000103269.13
63	chr16	1	1000001	ENSG00000103260.8
63	chr16	1	1000001	ENSG00000127578.6
63	chr16	1	1000001	ENSG00000206177.6
63	chr16	1	1000001	ENSG00000103253.17
63	chr16	1	1000001	ENSG00000090565.15
63	chr16	1	1000001	ENSG00000103254.9
63	chr16	1	1000001	ENSG00000102854.15
63	chr16	1	1000001	ENSG00000161980.5
63	chr16	1	1000001	ENSG00000260807.6
63	chr16	1	1000001	ENSG00000268836.1
63	chr16	1	1000001	ENSG00000103227.18
63	chr16	1	1000001	ENSG00000162004.16
63	chr16	1	1000001	ENSG00000007376.7
63	chr16	1	1000001	ENSG00000130731.15
63	chr16	1	1000001	ENSG00000127580.15
63	chr16	1	1000001	ENSG00000129925.10
63	chr16	1	1000001	ENSG00000161999.11
63	chr16	1	1000001	ENSG00000086504.15
63	chr16	1	1000001	ENSG00000103148.15
63	chr16	1	1000001	ENSG00000103245.13
64	chr16	1000001	2000001	ENSG00000095917.13
64	chr16	1000001	2000001	ENSG00000180185.11
64	chr16	1000001	2000001	ENSG00000007516.13
64	chr16	1000001	2000001	ENSG00000100726.14
64	chr16	1000001	2000001	ENSG00000103275.19
64	chr16	1000001	2000001	ENSG00000255198.4
64	chr16	1000001	2000001	ENSG00000090581.9
64	chr16	1000001	2000001	ENSG00000172236.16
64	chr16	1000001	2000001	ENSG00000196557.12
64	chr16	1000001	2000001	ENSG00000197774.12
64	chr16	1000001	2000001	ENSG00000131634.13
64	chr16	1000001	2000001	ENSG00000140990.14
64	chr16	1000001	2000001	ENSG00000127561.14
64	chr16	1000001	2000001	ENSG00000007545.15
64	chr16	1000001	2000001	ENSG00000127554.12
64	chr16	1000001	2000001	ENSG00000099769.5
64	chr16	1000001	2000001	ENSG00000074071.14
64	chr16	1000001	2000001	ENSG00000007520.3
64	chr16	1000001	2000001	ENSG00000187535.13
64	chr16	1000001	2000001	ENSG00000103249.17
64	chr16	1000001	2000001	ENSG00000140988.15
64	chr16	1000001	2000001	ENSG00000197253.13
64	chr16	1000001	2000001	ENSG00000063854.12
64	chr16	1000001	2000001	ENSG00000059145.18
64	chr16	1000001	2000001	ENSG00000197599.12
65	chr16	2000001	3000001	ENSG00000162073.13
65	chr16	2000001	3000001	ENSG00000276791.1
65	chr16	2000001	3000001	ENSG00000059122.16
65	chr16	2000001	3000001	ENSG00000162066.14
65	chr16	2000001	3000001	ENSG00000162076.12
65	chr16	2000001	3000001	ENSG00000167965.17
65	chr16	2000001	3000001	ENSG00000162078.11
65	chr16	2000001	3000001	ENSG00000005001.9
65	chr16	2000001	3000001	ENSG00000205937.11
65	chr16	2000001	3000001	ENSG00000182685.7
65	chr16	2000001	3000001	ENSG00000167969.12
66	chr16	3000001	4000001	ENSG00000122386.10
66	chr16	3000001	4000001	ENSG00000162086.14
66	chr16	3000001	4000001	ENSG00000008517.16
66	chr16	3000001	4000001	ENSG00000122390.17
66	chr16	3000001	4000001	ENSG00000008516.16
66	chr16	3000001	4000001	ENSG00000006194.9
66	chr16	3000001	4000001	ENSG00000272079.2
66	chr16	3000001	4000001	ENSG00000213918.10
66	chr16	3000001	4000001	ENSG00000103351.12
66	chr16	3000001	4000001	ENSG00000167981.5
66	chr16	3000001	4000001	ENSG00000262370.5
66	chr16	3000001	4000001	ENSG00000103313.12
66	chr16	3000001	4000001	ENSG00000167984.17
66	chr16	3000001	4000001	ENSG00000162069.14
66	chr16	3000001	4000001	ENSG00000126602.10
66	chr16	3000001	4000001	ENSG00000188827.10
66	chr16	3000001	4000001	ENSG00000010539.11
67	chr16	4000001	5000001	ENSG00000102858.12
67	chr16	4000001	5000001	ENSG00000267795.5
67	chr16	4000001	5000001	ENSG00000103184.11
67	chr16	4000001	5000001	ENSG00000140632.16
67	chr16	4000001	5000001	ENSG00000162104.9
67	chr16	4000001	5000001	ENSG00000089486.16
67	chr16	4000001	5000001	ENSG00000067836.12
67	chr16	4000001	5000001	ENSG00000140623.13
67	chr16	4000001	5000001	ENSG00000217930.7
67	chr16	4000001	5000001	ENSG00000153406.13
67	chr16	4000001	5000001	ENSG00000103199.13
67	chr16	4000001	5000001	ENSG00000262468.5
68	chr16	28000001	29000001	ENSG00000176476.8
68	chr16	28000001	29000001	ENSG00000196296.13
68	chr16	28000001	29000001	ENSG00000169682.17
68	chr16	28000001	29000001	ENSG00000168488.18
68	chr16	28000001	29000001	ENSG00000184730.10
68	chr16	28000001	29000001	ENSG00000178188.14
68	chr16	28000001	29000001	ENSG00000184110.14
68	chr16	28000001	29000001	ENSG00000169181.12
68	chr16	28000001	29000001	ENSG00000196502.11
68	chr16	28000001	29000001	ENSG00000197272.2
68	chr16	28000001	29000001	ENSG00000197165.10
68	chr16	28000001	29000001	ENSG00000233232.6
68	chr16	28000001	29000001	ENSG00000188603.18
68	chr16	28000001	29000001	ENSG00000169180.11
68	chr16	28000001	29000001	ENSG00000198156.10
68	chr16	28000001	29000001	ENSG00000178952.10
69	chr16	31000001	32000001	ENSG00000232748.3
69	chr16	31000001	32000001	ENSG00000167395.10
69	chr16	31000001	32000001	ENSG00000156886.11
69	chr16	31000001	32000001	ENSG00000260911.2
69	chr16	31000001	32000001	ENSG00000140678.16
69	chr16	31000001	32000001	ENSG00000276867.1
69	chr16	31000001	32000001	ENSG00000103510.19
69	chr16	31000001	32000001	ENSG00000103507.13
69	chr16	31000001	32000001	ENSG00000151006.7
69	chr16	31000001	32000001	ENSG00000167394.12
69	chr16	31000001	32000001	ENSG00000167397.14
69	chr16	31000001	32000001	ENSG00000156885.5
70	chr16	67000001	68000001	ENSG00000125149.11
70	chr16	67000001	68000001	ENSG00000167264.17
70	chr16	67000001	68000001	ENSG00000038358.14
70	chr16	67000001	68000001	ENSG00000102890.14
70	chr16	67000001	68000001	ENSG00000159761.14
70	chr16	67000001	68000001	ENSG00000102981.9
70	chr16	67000001	68000001	ENSG00000039523.19
70	chr16	67000001	68000001	ENSG00000135723.13
70	chr16	67000001	68000001	ENSG00000141086.17
70	chr16	67000001	68000001	ENSG00000124067.16
70	chr16	67000001	68000001	ENSG00000125122.15
70	chr16	67000001	68000001	ENSG00000141096.4
70	chr16	67000001	68000001	ENSG00000213398.7
70	chr16	67000001	68000001	ENSG00000159720.11
70	chr16	67000001	68000001	ENSG00000102977.13
70	chr16	67000001	68000001	ENSG00000237172.3
71	chr16	88000001	89000001	ENSG00000158545.15
71	chr16	88000001	89000001	ENSG00000174177.12
71	chr16	88000001	89000001	ENSG00000124391.4
71	chr16	88000001	89000001	ENSG00000103335.21
71	chr16	88000001	89000001	ENSG00000158717.10
71	chr16	88000001	89000001	ENSG00000185669.5
71	chr16	88000001	89000001	ENSG00000129993.14
71	chr16	88000001	89000001	ENSG00000198931.10
71	chr16	88000001	89000001	ENSG00000167508.11
71	chr16	88000001	89000001	ENSG00000051523.10
71	chr16	88000001	89000001	ENSG00000141012.12
72	chr16	89000001	90000001	ENSG00000176715.15
72	chr16	89000001	90000001	ENSG00000167526.13
72	chr16	89000001	90000001	ENSG00000141002.19
72	chr16	89000001	90000001	ENSG00000197912.14
72	chr16	89000001	90000001	ENSG00000204991.10
72	chr16	89000001	90000001	ENSG00000258839.3
72	chr16	89000001	90000001	ENSG00000185324.21
72	chr16	89000001	90000001	ENSG00000167523.13
72	chr16	89000001	90000001	ENSG00000170100.13
72	chr16	89000001	90000001	ENSG00000131165.14
72	chr16	89000001	90000001	ENSG00000075399.13
72	chr16	89000001	90000001	ENSG00000187741.14
72	chr16	89000001	90000001	ENSG00000259803.6
72	chr16	89000001	90000001	ENSG00000158792.15
72	chr16	89000001	90000001	ENSG00000167522.14
73	chr17	4000001	5000001	ENSG00000108523.15
73	chr17	4000001	5000001	ENSG00000141497.13
73	chr17	4000001	5000001	ENSG00000129250.11
73	chr17	4000001	5000001	ENSG00000129219.13
73	chr17	4000001	5000001	ENSG00000161920.9
73	chr17	4000001	5000001	ENSG00000205710.3
73	chr17	4000001	5000001	ENSG00000183018.8
73	chr17	4000001	5000001	ENSG00000141480.17
73	chr17	4000001	5000001	ENSG00000142507.9
73	chr17	4000001	5000001	ENSG00000167740.9
73	chr17	4000001	5000001	ENSG00000161921.14
73	chr17	4000001	5000001	ENSG00000161905.12
73	chr17	4000001	5000001	ENSG00000108528.13
73	chr17	4000001	5000001	ENSG00000196388.8
73	chr17	4000001	5000001	ENSG00000091640.7
73	chr17	4000001	5000001	ENSG00000108509.20
73	chr17	4000001	5000001	ENSG00000074755.14
73	chr17	4000001	5000001	ENSG00000108556.7
74	chr17	7000001	8000001	ENSG00000174292.12
74	chr17	7000001	8000001	ENSG00000219200.11
74	chr17	7000001	8000001	ENSG00000170175.10
74	chr17	7000001	8000001	ENSG00000161955.16
74	chr17	7000001	8000001	ENSG00000072778.19
74	chr17	7000001	8000001	ENSG00000170004.16
74	chr17	7000001	8000001	ENSG00000170291.14
74	chr17	7000001	8000001	ENSG00000072818.11
74	chr17	7000001	8000001	ENSG00000239697.10
74	chr17	7000001	8000001	ENSG00000132507.17
74	chr17	7000001	8000001	ENSG00000129244.8
74	chr17	7000001	8000001	ENSG00000170037.13
74	chr17	7000001	8000001	ENSG00000132510.10
74	chr17	7000001	8000001	ENSG00000215041.9
74	chr17	7000001	8000001	ENSG00000205544.3
74	chr17	7000001	8000001	ENSG00000132522.15
74	chr17	7000001	8000001	ENSG00000141504.11
74	chr17	7000001	8000001	ENSG00000129245.11
74	chr17	7000001	8000001	ENSG00000183011.13
74	chr17	7000001	8000001	ENSG00000187838.16
74	chr17	7000001	8000001	ENSG00000170049.9
74	chr17	7000001	8000001	ENSG00000006047.12
74	chr17	7000001	8000001	ENSG00000161944.16
74	chr17	7000001	8000001	ENSG00000132514.13
74	chr17	7000001	8000001	ENSG00000174282.11
74	chr17	7000001	8000001	ENSG00000175826.11
75	chr17	8000001	9000001	ENSG00000179593.15
75	chr17	8000001	9000001	ENSG00000266389.1
75	chr17	8000001	9000001	ENSG00000265975.1
75	chr17	8000001	9000001	ENSG00000166579.15
75	chr17	8000001	9000001	ENSG00000178977.3
75	chr17	8000001	9000001	ENSG00000161973.10
75	chr17	8000001	9000001	ENSG00000141506.13
75	chr17	8000001	9000001	ENSG00000220205.8
75	chr17	8000001	9000001	ENSG00000276231.4
75	chr17	8000001	9000001	ENSG00000185156.5
75	chr17	8000001	9000001	ENSG00000178971.13
75	chr17	8000001	9000001	ENSG00000184619.3
76	chr17	18000001	19000001	ENSG00000177427.12
76	chr17	18000001	19000001	ENSG00000091542.8
76	chr17	18000001	19000001	ENSG00000171916.16
76	chr17	18000001	19000001	ENSG00000176994.10
76	chr17	18000001	19000001	ENSG00000108591.9
76	chr17	18000001	19000001	ENSG00000108448.20
76	chr17	18000001	19000001	ENSG00000154025.15
76	chr17	18000001	19000001	ENSG00000141127.14
76	chr17	18000001	19000001	ENSG00000171928.13
76	chr17	18000001	19000001	ENSG00000176974.19
76	chr17	18000001	19000001	ENSG00000177302.14
76	chr17	18000001	19000001	ENSG00000177731.15
76	chr17	18000001	19000001	ENSG00000171953.15
76	chr17	18000001	19000001	ENSG00000213077.5
77	chr17	35000001	36000001	ENSG00000166750.9
77	chr17	35000001	36000001	ENSG00000267364.1
77	chr17	35000001	36000001	ENSG00000141161.11
77	chr17	35000001	36000001	ENSG00000185379.20
77	chr17	35000001	36000001	ENSG00000172123.12
77	chr17	35000001	36000001	ENSG00000205045.8
77	chr17	35000001	36000001	ENSG00000267711.1
77	chr17	35000001	36000001	ENSG00000073536.17
77	chr17	35000001	36000001	ENSG00000270379.5
77	chr17	35000001	36000001	ENSG00000267547.1
77	chr17	35000001	36000001	ENSG00000271503.5
77	chr17	35000001	36000001	ENSG00000092871.16
77	chr17	35000001	36000001	ENSG00000154760.13
78	chr17	44000001	45000001	ENSG00000161664.6
78	chr17	44000001	45000001	ENSG00000180340.6
78	chr17	44000001	45000001	ENSG00000161692.17
78	chr17	44000001	45000001	ENSG00000108309.13
78	chr17	44000001	45000001	ENSG00000030582.17
78	chr17	44000001	45000001	ENSG00000073670.13
78	chr17	44000001	45000001	ENSG00000161653.10
78	chr17	44000001	45000001	ENSG00000141349.8
78	chr17	44000001	45000001	ENSG00000108883.12
78	chr17	44000001	45000001	ENSG00000091947.9
78	chr17	44000001	45000001	ENSG00000013306.15
79	chr17	75000001	76000001	ENSG00000266714.6
79	chr17	75000001	76000001	ENSG00000257949.6
79	chr17	75000001	76000001	ENSG00000132478.9
79	chr17	75000001	76000001	ENSG00000125445.10
79	chr17	75000001	76000001	ENSG00000161526.14
79	chr17	75000001	76000001	ENSG00000073350.13
79	chr17	75000001	76000001	ENSG00000125450.10
79	chr17	75000001	76000001	ENSG00000180901.10
79	chr17	75000001	76000001	ENSG00000204316.12
79	chr17	75000001	76000001	ENSG00000161533.11
79	chr17	75000001	76000001	ENSG00000141569.10
79	chr17	75000001	76000001	ENSG00000177885.13
79	chr17	75000001	76000001	ENSG00000108479.11
79	chr17	75000001	76000001	ENSG00000132481.6
79	chr17	75000001	76000001	ENSG00000188612.11
79	chr17	75000001	76000001	ENSG00000108469.14
79	chr17	75000001	76000001	ENSG00000125447.16
79	chr17	75000001	76000001	ENSG00000125457.13
79	chr17	75000001	76000001	ENSG00000177303.9
79	chr17	75000001	76000001	ENSG00000125454.11
79	chr17	75000001	76000001	ENSG00000092929.11
79	chr17	75000001	76000001	ENSG00000132471.11
79	chr17	75000001	76000001	ENSG00000167863.11
80	chr17	76000001	77000001	ENSG00000250506.7
80	chr17	76000001	77000001	ENSG00000129673.9
80	chr17	76000001	77000001	ENSG00000185262.8
80	chr17	76000001	77000001	ENSG00000176170.13
80	chr17	76000001	77000001	ENSG00000092931.11
80	chr17	76000001	77000001	ENSG00000182473.21
80	chr17	76000001	77000001	ENSG00000141576.14
80	chr17	76000001	77000001	ENSG00000284526.1
80	chr17	76000001	77000001	ENSG00000070731.10
80	chr17	76000001	77000001	ENSG00000161544.9
80	chr17	76000001	77000001	ENSG00000129667.12
80	chr17	76000001	77000001	ENSG00000070526.14
80	chr17	76000001	77000001	ENSG00000129646.14
80	chr17	76000001	77000001	ENSG00000182534.13
80	chr17	76000001	77000001	ENSG00000070495.14
80	chr17	76000001	77000001	ENSG00000175931.12
81	chr17	78000001	79000001	ENSG00000167895.14
81	chr17	78000001	79000001	ENSG00000183077.15
81	chr17	78000001	79000001	ENSG00000108639.7
81	chr17	78000001	79000001	ENSG00000089685.14
81	chr17	78000001	79000001	ENSG00000266970.1
81	chr17	78000001	79000001	ENSG00000267123.5
81	chr17	78000001	79000001	ENSG00000035862.12
81	chr17	78000001	79000001	ENSG00000204277.1
81	chr17	78000001	79000001	ENSG00000178404.9
81	chr17	78000001	79000001	ENSG00000141524.15
81	chr17	78000001	79000001	ENSG00000187775.16
82	chr17	81000001	82000001	ENSG00000224877.3
82	chr17	81000001	82000001	ENSG00000183048.11
82	chr17	81000001	82000001	ENSG00000169696.15
82	chr17	81000001	82000001	ENSG00000185298.12
82	chr17	81000001	82000001	ENSG00000266074.8
82	chr17	81000001	82000001	ENSG00000262814.7
82	chr17	81000001	82000001	ENSG00000141552.17
82	chr17	81000001	82000001	ENSG00000204237.4
82	chr17	81000001	82000001	ENSG00000226137.5
82	chr17	81000001	82000001	ENSG00000181409.11
82	chr17	81000001	82000001	ENSG00000157637.12
82	chr17	81000001	82000001	ENSG00000214087.8
82	chr17	81000001	82000001	ENSG00000262877.4
82	chr17	81000001	82000001	ENSG00000182446.13
83	chr17	82000001	83000001	ENSG00000167363.13
83	chr17	82000001	83000001	ENSG00000262663.1
83	chr17	82000001	83000001	ENSG00000141556.20
83	chr17	82000001	83000001	ENSG00000169660.15
83	chr17	82000001	83000001	ENSG00000169683.7
83	chr17	82000001	83000001	ENSG00000141526.16
83	chr17	82000001	83000001	ENSG00000141560.14
83	chr17	82000001	83000001	ENSG00000141568.20
83	chr17	82000001	83000001	ENSG00000176155.18
83	chr17	82000001	83000001	ENSG00000141580.15
83	chr17	82000001	83000001	ENSG00000181396.12
83	chr17	82000001	83000001	ENSG00000141574.7
83	chr17	82000001	83000001	ENSG00000169710.8
83	chr17	82000001	83000001	ENSG00000169689.14
83	chr17	82000001	83000001	ENSG00000169738.7
83	chr17	82000001	83000001	ENSG00000141551.14
83	chr17	82000001	83000001	ENSG00000178927.17
84	chr19	1	1000001	ENSG00000172270.18
84	chr19	1	1000001	ENSG00000070404.9
84	chr19	1	1000001	ENSG00000197766.7
84	chr19	1	1000001	ENSG00000099804.8
84	chr19	1	1000001	ENSG00000065268.10
84	chr19	1	1000001	ENSG00000175221.14
84	chr19	1	1000001	ENSG00000185198.11
84	chr19	1	1000001	ENSG00000099821.13
84	chr19	1	1000001	ENSG00000141934.9
84	chr19	1	1000001	ENSG00000129946.10
84	chr19	1	1000001	ENSG00000105556.11
85	chr19	1000001	2000001	ENSG00000064687.12
85	chr19	1000001	2000001	ENSG00000116032.5
85	chr19	1000001	2000001	ENSG00000064666.14
85	chr19	1000001	2000001	ENSG00000115255.10
85	chr19	1000001	2000001	ENSG00000133275.15
85	chr19	1000001	2000001	ENSG00000118046.14
85	chr19	1000001	2000001	ENSG00000099624.7
85	chr19	1000001	2000001	ENSG00000227500.9
85	chr19	1000001	2000001	ENSG00000228300.13
85	chr19	1000001	2000001	ENSG00000167468.16
85	chr19	1000001	2000001	ENSG00000064932.15
85	chr19	1000001	2000001	ENSG00000130270.16
85	chr19	1000001	2000001	ENSG00000115257.15
85	chr19	1000001	2000001	ENSG00000185761.10
85	chr19	1000001	2000001	ENSG00000182087.12
85	chr19	1000001	2000001	ENSG00000099817.11
86	chr19	2000001	3000001	ENSG00000099860.8
86	chr19	2000001	3000001	ENSG00000172006.11
86	chr19	2000001	3000001	ENSG00000104899.7
86	chr19	2000001	3000001	ENSG00000178297.12
86	chr19	2000001	3000001	ENSG00000104886.11
86	chr19	2000001	3000001	ENSG00000130332.14
86	chr19	2000001	3000001	ENSG00000099800.7
86	chr19	2000001	3000001	ENSG00000176533.12
86	chr19	2000001	3000001	ENSG00000104969.9
86	chr19	2000001	3000001	ENSG00000176490.4
86	chr19	2000001	3000001	ENSG00000133243.8
86	chr19	2000001	3000001	ENSG00000141873.10
87	chr19	3000001	4000001	ENSG00000125912.10
87	chr19	3000001	4000001	ENSG00000183617.4
87	chr19	3000001	4000001	ENSG00000179855.5
87	chr19	3000001	4000001	ENSG00000088256.8
87	chr19	3000001	4000001	ENSG00000141905.17
87	chr19	3000001	4000001	ENSG00000060558.3
87	chr19	3000001	4000001	ENSG00000183397.5
87	chr19	3000001	4000001	ENSG00000104964.14
87	chr19	3000001	4000001	ENSG00000161091.12
87	chr19	3000001	4000001	ENSG00000006638.11
87	chr19	3000001	4000001	ENSG00000011132.11
87	chr19	3000001	4000001	ENSG00000186111.9
87	chr19	3000001	4000001	ENSG00000105278.10
87	chr19	3000001	4000001	ENSG00000105298.13
87	chr19	3000001	4000001	ENSG00000167657.13
88	chr19	4000001	5000001	ENSG00000127663.14
88	chr19	4000001	5000001	ENSG00000141965.4
88	chr19	4000001	5000001	ENSG00000105255.10
88	chr19	4000001	5000001	ENSG00000167670.15
88	chr19	4000001	5000001	ENSG00000089847.12
88	chr19	4000001	5000001	ENSG00000008382.15
88	chr19	4000001	5000001	ENSG00000105248.15
88	chr19	4000001	5000001	ENSG00000127666.9
88	chr19	4000001	5000001	ENSG00000178951.8
88	chr19	4000001	5000001	ENSG00000142002.16
88	chr19	4000001	5000001	ENSG00000214456.8
88	chr19	4000001	5000001	ENSG00000205784.2
88	chr19	4000001	5000001	ENSG00000171236.9
88	chr19	4000001	5000001	ENSG00000167671.11
88	chr19	4000001	5000001	ENSG00000126934.13
89	chr19	7000001	8000001	ENSG00000104880.17
89	chr19	7000001	8000001	ENSG00000263264.1
89	chr19	7000001	8000001	ENSG00000181029.8
89	chr19	7000001	8000001	ENSG00000076826.9
89	chr19	7000001	8000001	ENSG00000198723.10
89	chr19	7000001	8000001	ENSG00000229833.9
89	chr19	7000001	8000001	ENSG00000142459.8
89	chr19	7000001	8000001	ENSG00000076944.15
89	chr19	7000001	8000001	ENSG00000090674.15
89	chr19	7000001	8000001	ENSG00000076924.11
89	chr19	7000001	8000001	ENSG00000104883.7
89	chr19	7000001	8000001	ENSG00000182566.13
89	chr19	7000001	8000001	ENSG00000174788.9
89	chr19	7000001	8000001	ENSG00000104921.14
89	chr19	7000001	8000001	ENSG00000104980.7
89	chr19	7000001	8000001	ENSG00000171105.13
90	chr19	10000001	11000001	ENSG00000130813.17
90	chr19	10000001	11000001	ENSG00000105376.4
90	chr19	10000001	11000001	ENSG00000130734.9
90	chr19	10000001	11000001	ENSG00000244165.1
90	chr19	10000001	11000001	ENSG00000129353.14
90	chr19	10000001	11000001	ENSG00000142444.6
90	chr19	10000001	11000001	ENSG00000090339.8
90	chr19	10000001	11000001	ENSG00000267100.1
90	chr19	10000001	11000001	ENSG00000130811.11
90	chr19	10000001	11000001	ENSG00000076662.9
90	chr19	10000001	11000001	ENSG00000130812.10
90	chr19	10000001	11000001	ENSG00000099203.6
90	chr19	10000001	11000001	ENSG00000129354.11
90	chr19	10000001	11000001	ENSG00000129355.6
90	chr19	10000001	11000001	ENSG00000180739.13
90	chr19	10000001	11000001	ENSG00000105397.13
90	chr19	10000001	11000001	ENSG00000080573.6
90	chr19	10000001	11000001	ENSG00000129347.19
91	chr19	11000001	12000001	ENSG00000130175.9
91	chr19	11000001	12000001	ENSG00000197054.11
91	chr19	11000001	12000001	ENSG00000198429.9
91	chr19	11000001	12000001	ENSG00000171295.12
91	chr19	11000001	12000001	ENSG00000130167.13
91	chr19	11000001	12000001	ENSG00000105520.10
91	chr19	11000001	12000001	ENSG00000183401.11
91	chr19	11000001	12000001	ENSG00000197256.10
91	chr19	11000001	12000001	ENSG00000102575.10
91	chr19	11000001	12000001	ENSG00000130158.13
91	chr19	11000001	12000001	ENSG00000105518.13
91	chr19	11000001	12000001	ENSG00000161888.11
91	chr19	11000001	12000001	ENSG00000205517.12
92	chr19	12000001	13000001	ENSG00000105607.12
92	chr19	12000001	13000001	ENSG00000214189.8
92	chr19	12000001	13000001	ENSG00000095066.11
92	chr19	12000001	13000001	ENSG00000105576.15
92	chr19	12000001	13000001	ENSG00000167815.11
92	chr19	12000001	13000001	ENSG00000104774.12
92	chr19	12000001	13000001	ENSG00000179115.10
92	chr19	12000001	13000001	ENSG00000180855.15
92	chr19	12000001	13000001	ENSG00000105583.9
92	chr19	12000001	13000001	ENSG00000198342.9
92	chr19	12000001	13000001	ENSG00000105612.8
92	chr19	12000001	13000001	ENSG00000249709.7
93	chr19	17000001	18000001	ENSG00000282851.1
93	chr19	17000001	18000001	ENSG00000099330.8
93	chr19	17000001	18000001	ENSG00000141971.12
93	chr19	17000001	18000001	ENSG00000130475.14
93	chr19	17000001	18000001	ENSG00000130479.10
93	chr19	17000001	18000001	ENSG00000130312.6
93	chr19	17000001	18000001	ENSG00000130313.6
93	chr19	17000001	18000001	ENSG00000053501.12
93	chr19	17000001	18000001	ENSG00000130299.16
93	chr19	17000001	18000001	ENSG00000007080.10
93	chr19	17000001	18000001	ENSG00000130309.10
93	chr19	17000001	18000001	ENSG00000160117.14
93	chr19	17000001	18000001	ENSG00000130304.16
93	chr19	17000001	18000001	ENSG00000105393.15
93	chr19	17000001	18000001	ENSG00000099331.13
93	chr19	17000001	18000001	ENSG00000269439.5
93	chr19	17000001	18000001	ENSG00000248099.3
93	chr19	17000001	18000001	ENSG00000131351.14
93	chr19	17000001	18000001	ENSG00000160111.12
93	chr19	17000001	18000001	ENSG00000160113.5
94	chr19	18000001	19000001	ENSG00000130513.6
94	chr19	18000001	19000001	ENSG00000130517.13
94	chr19	18000001	19000001	ENSG00000254858.9
94	chr19	18000001	19000001	ENSG00000216490.3
94	chr19	18000001	19000001	ENSG00000099308.10
94	chr19	18000001	19000001	ENSG00000105671.11
94	chr19	18000001	19000001	ENSG00000006015.17
94	chr19	18000001	19000001	ENSG00000130518.16
94	chr19	18000001	19000001	ENSG00000105656.12
94	chr19	18000001	19000001	ENSG00000105655.18
94	chr19	18000001	19000001	ENSG00000096996.15
94	chr19	18000001	19000001	ENSG00000175489.9
94	chr19	18000001	19000001	ENSG00000130520.10
95	chr19	19000001	20000001	ENSG00000129933.20
95	chr19	19000001	20000001	ENSG00000184635.14
95	chr19	19000001	20000001	ENSG00000250067.11
95	chr19	19000001	20000001	ENSG00000105676.13
95	chr19	19000001	20000001	ENSG00000256771.3
95	chr19	19000001	20000001	ENSG00000167491.17
95	chr19	19000001	20000001	ENSG00000064490.13
95	chr19	19000001	20000001	ENSG00000266904.5
95	chr19	19000001	20000001	ENSG00000254901.7
95	chr19	19000001	20000001	ENSG00000105708.8
95	chr19	19000001	20000001	ENSG00000178093.13
95	chr19	19000001	20000001	ENSG00000089639.10
95	chr19	19000001	20000001	ENSG00000064545.14
95	chr19	19000001	20000001	ENSG00000064547.13
95	chr19	19000001	20000001	ENSG00000081665.13
95	chr19	19000001	20000001	ENSG00000105726.16
95	chr19	19000001	20000001	ENSG00000105717.13
96	chr19	21000001	22000001	ENSG00000268658.5
96	chr19	21000001	22000001	ENSG00000197013.9
96	chr19	21000001	22000001	ENSG00000118620.12
96	chr19	21000001	22000001	ENSG00000196705.8
96	chr19	21000001	22000001	ENSG00000196268.11
96	chr19	21000001	22000001	ENSG00000172687.13
96	chr19	21000001	22000001	ENSG00000268240.1
96	chr19	21000001	22000001	ENSG00000268555.1
96	chr19	21000001	22000001	ENSG00000182141.10
96	chr19	21000001	22000001	ENSG00000197020.10
96	chr19	21000001	22000001	ENSG00000198521.11
97	chr19	35000001	36000001	ENSG00000205786.8
97	chr19	35000001	36000001	ENSG00000126251.6
97	chr19	35000001	36000001	ENSG00000105707.13
97	chr19	35000001	36000001	ENSG00000105668.7
97	chr19	35000001	36000001	ENSG00000185897.6
97	chr19	35000001	36000001	ENSG00000004777.18
97	chr19	35000001	36000001	ENSG00000221946.7
97	chr19	35000001	36000001	ENSG00000126267.8
97	chr19	35000001	36000001	ENSG00000105695.14
97	chr19	35000001	36000001	ENSG00000105672.14
97	chr19	35000001	36000001	ENSG00000089327.14
97	chr19	35000001	36000001	ENSG00000267796.7
97	chr19	35000001	36000001	ENSG00000167595.14
97	chr19	35000001	36000001	ENSG00000105711.11
97	chr19	35000001	36000001	ENSG00000272333.5
97	chr19	35000001	36000001	ENSG00000105698.15
97	chr19	35000001	36000001	ENSG00000233214.1
97	chr19	35000001	36000001	ENSG00000161265.14
97	chr19	35000001	36000001	ENSG00000126246.9
98	chr19	38000001	39000001	ENSG00000099338.22
98	chr19	38000001	39000001	ENSG00000099341.11
98	chr19	38000001	39000001	ENSG00000188766.12
98	chr19	38000001	39000001	ENSG00000167644.11
98	chr19	38000001	39000001	ENSG00000130244.12
98	chr19	38000001	39000001	ENSG00000182472.8
98	chr19	38000001	39000001	ENSG00000104835.14
98	chr19	38000001	39000001	ENSG00000104823.8
98	chr19	38000001	39000001	ENSG00000068903.19
98	chr19	38000001	39000001	ENSG00000167645.16
98	chr19	38000001	39000001	ENSG00000167641.10
99	chr19	41000001	42000001	ENSG00000270164.1
99	chr19	41000001	42000001	ENSG00000268355.1
99	chr19	41000001	42000001	ENSG00000167600.13
99	chr19	41000001	42000001	ENSG00000170956.16
99	chr19	41000001	42000001	ENSG00000142025.15
99	chr19	41000001	42000001	ENSG00000142046.14
99	chr19	41000001	42000001	ENSG00000105323.16
99	chr19	41000001	42000001	ENSG00000007129.17
99	chr19	41000001	42000001	ENSG00000248098.11
99	chr19	41000001	42000001	ENSG00000278239.1
99	chr19	41000001	42000001	ENSG00000105404.10
99	chr19	41000001	42000001	ENSG00000105341.18
99	chr19	41000001	42000001	ENSG00000105352.10
99	chr19	41000001	42000001	ENSG00000273111.5
100	chr19	43000001	44000001	ENSG00000204920.10
100	chr19	43000001	44000001	ENSG00000176472.10
100	chr19	43000001	44000001	ENSG00000234465.10
100	chr19	43000001	44000001	ENSG00000204936.9
100	chr19	43000001	44000001	ENSG00000167637.16
100	chr19	43000001	44000001	ENSG00000231412.2
100	chr19	43000001	44000001	ENSG00000105755.7
100	chr19	43000001	44000001	ENSG00000105771.13
100	chr19	43000001	44000001	ENSG00000124466.8
100	chr19	43000001	44000001	ENSG00000176531.10
100	chr19	43000001	44000001	ENSG00000073050.11
100	chr19	43000001	44000001	ENSG00000105767.2
100	chr19	43000001	44000001	ENSG00000167378.8
100	chr19	43000001	44000001	ENSG00000104783.11
101	chr19	45000001	46000001	ENSG00000104983.8
101	chr19	45000001	46000001	ENSG00000189114.6
101	chr19	45000001	46000001	ENSG00000007047.14
101	chr19	45000001	46000001	ENSG00000142252.10
101	chr19	45000001	46000001	ENSG00000104892.16
101	chr19	45000001	46000001	ENSG00000104866.10
101	chr19	45000001	46000001	ENSG00000213889.10
101	chr19	45000001	46000001	ENSG00000125755.18
101	chr19	45000001	46000001	ENSG00000125743.10
101	chr19	45000001	46000001	ENSG00000125744.11
101	chr19	45000001	46000001	ENSG00000104881.15
101	chr19	45000001	46000001	ENSG00000007255.10
101	chr19	45000001	46000001	ENSG00000177051.5
101	chr19	45000001	46000001	ENSG00000104936.17
101	chr19	45000001	46000001	ENSG00000176182.5
102	chr19	48000001	49000001	ENSG00000104805.15
102	chr19	48000001	49000001	ENSG00000105447.12
102	chr19	48000001	49000001	ENSG00000105443.13
102	chr19	48000001	49000001	ENSG00000183207.13
102	chr19	48000001	49000001	ENSG00000063176.15
102	chr19	48000001	49000001	ENSG00000087088.19
102	chr19	48000001	49000001	ENSG00000142233.11
102	chr19	48000001	49000001	ENSG00000105499.13
102	chr19	48000001	49000001	ENSG00000087076.8
102	chr19	48000001	49000001	ENSG00000105479.15
102	chr19	48000001	49000001	ENSG00000104812.14
102	chr19	48000001	49000001	ENSG00000105507.2
102	chr19	48000001	49000001	ENSG00000063180.8
102	chr19	48000001	49000001	ENSG00000105483.17
103	chr19	49000001	50000001	ENSG00000104960.15
103	chr19	49000001	50000001	ENSG00000169169.14
103	chr19	49000001	50000001	ENSG00000161618.9
103	chr19	49000001	50000001	ENSG00000196961.12
103	chr19	49000001	50000001	ENSG00000142552.7
103	chr19	49000001	50000001	ENSG00000130529.15
103	chr19	49000001	50000001	ENSG00000126464.13
103	chr19	49000001	50000001	ENSG00000104894.11
103	chr19	49000001	50000001	ENSG00000104946.12
103	chr19	49000001	50000001	ENSG00000104870.12
103	chr19	49000001	50000001	ENSG00000197813.5
103	chr19	49000001	50000001	ENSG00000063127.15
103	chr19	49000001	50000001	ENSG00000161640.15
103	chr19	49000001	50000001	ENSG00000213024.11
103	chr19	49000001	50000001	ENSG00000074219.13
103	chr19	49000001	50000001	ENSG00000142546.13
103	chr19	49000001	50000001	ENSG00000126467.10
103	chr19	49000001	50000001	ENSG00000039650.11
103	chr19	49000001	50000001	ENSG00000010361.13
104	chr19	51000001	52000001	ENSG00000176024.17
104	chr19	51000001	52000001	ENSG00000105383.14
104	chr19	51000001	52000001	ENSG00000168995.13
104	chr19	51000001	52000001	ENSG00000105497.7
104	chr19	51000001	52000001	ENSG00000182310.13
104	chr19	51000001	52000001	ENSG00000187474.4
104	chr19	51000001	52000001	ENSG00000142512.14
104	chr19	51000001	52000001	ENSG00000105379.9
104	chr19	51000001	52000001	ENSG00000254415.3
104	chr19	51000001	52000001	ENSG00000254521.6
104	chr19	51000001	52000001	ENSG00000171051.8
104	chr19	51000001	52000001	ENSG00000105509.10
104	chr19	51000001	52000001	ENSG00000105501.12
104	chr19	51000001	52000001	ENSG00000161551.14
104	chr19	51000001	52000001	ENSG00000262874.1
105	chr19	52000001	53000001	ENSG00000167562.12
105	chr19	52000001	53000001	ENSG00000221923.8
105	chr19	52000001	53000001	ENSG00000198482.11
105	chr19	52000001	53000001	ENSG00000167555.13
105	chr19	52000001	53000001	ENSG00000105568.17
105	chr19	52000001	53000001	ENSG00000198464.13
105	chr19	52000001	53000001	ENSG00000180257.13
105	chr19	52000001	53000001	ENSG00000213793.5
105	chr19	52000001	53000001	ENSG00000189190.9
105	chr19	52000001	53000001	ENSG00000204604.9
105	chr19	52000001	53000001	ENSG00000182986.12
105	chr19	52000001	53000001	ENSG00000167766.18
106	chr19	54000001	55000001	ENSG00000268734.1
106	chr19	54000001	55000001	ENSG00000022556.15
106	chr19	54000001	55000001	ENSG00000170906.15
106	chr19	54000001	55000001	ENSG00000186431.18
106	chr19	54000001	55000001	ENSG00000170889.13
106	chr19	54000001	55000001	ENSG00000243772.7
106	chr19	54000001	55000001	ENSG00000186818.12
106	chr19	54000001	55000001	ENSG00000170892.10
106	chr19	54000001	55000001	ENSG00000104972.15
106	chr19	54000001	55000001	ENSG00000104974.11
106	chr19	54000001	55000001	ENSG00000167618.9
106	chr19	54000001	55000001	ENSG00000167633.18
106	chr19	54000001	55000001	ENSG00000104970.10
106	chr19	54000001	55000001	ENSG00000189013.14
106	chr19	54000001	55000001	ENSG00000125498.19
106	chr19	54000001	55000001	ENSG00000088038.17
106	chr19	54000001	55000001	ENSG00000239998.5
106	chr19	54000001	55000001	ENSG00000189430.12
106	chr19	54000001	55000001	ENSG00000240403.5
106	chr19	54000001	55000001	ENSG00000267838.2
106	chr19	54000001	55000001	ENSG00000167608.11
106	chr19	54000001	55000001	ENSG00000244482.10
106	chr19	54000001	55000001	ENSG00000105609.16
106	chr19	54000001	55000001	ENSG00000189068.9
106	chr19	54000001	55000001	ENSG00000170909.13
106	chr19	54000001	55000001	ENSG00000187116.13
106	chr19	54000001	55000001	ENSG00000131042.14
106	chr19	54000001	55000001	ENSG00000239961.2
106	chr19	54000001	55000001	ENSG00000167634.12
106	chr19	54000001	55000001	ENSG00000204577.11
106	chr19	54000001	55000001	ENSG00000248385.7
106	chr19	54000001	55000001	ENSG00000105619.13
107	chr19	55000001	56000001	ENSG00000131037.14
107	chr19	55000001	56000001	ENSG00000179954.15
107	chr19	55000001	56000001	ENSG00000063245.14
107	chr19	55000001	56000001	ENSG00000108107.14
107	chr19	55000001	56000001	ENSG00000105063.18
107	chr19	55000001	56000001	ENSG00000180061.9
107	chr19	55000001	56000001	ENSG00000218891.4
107	chr19	55000001	56000001	ENSG00000105048.16
107	chr19	55000001	56000001	ENSG00000187902.11
107	chr19	55000001	56000001	ENSG00000160439.15
107	chr19	55000001	56000001	ENSG00000180089.5
107	chr19	55000001	56000001	ENSG00000160471.12
108	chr19	57000001	58000001	ENSG00000188785.11
108	chr19	57000001	58000001	ENSG00000083828.15
108	chr19	57000001	58000001	ENSG00000131845.14
108	chr19	57000001	58000001	ENSG00000256060.2
108	chr19	57000001	58000001	ENSG00000121417.13
108	chr19	57000001	58000001	ENSG00000269343.6
108	chr19	57000001	58000001	ENSG00000152439.12
108	chr19	57000001	58000001	ENSG00000198466.11
108	chr19	57000001	58000001	ENSG00000186230.6
108	chr19	57000001	58000001	ENSG00000197128.11
108	chr19	57000001	58000001	ENSG00000196724.12
108	chr19	57000001	58000001	ENSG00000178201.4
108	chr19	57000001	58000001	ENSG00000251369.8
108	chr19	57000001	58000001	ENSG00000179909.15
108	chr19	57000001	58000001	ENSG00000204514.9
109	chr19	58000001	59000001	ENSG00000176293.19
109	chr19	58000001	59000001	ENSG00000171574.17
109	chr19	58000001	59000001	ENSG00000278129.1
109	chr19	58000001	59000001	ENSG00000130726.11
109	chr19	58000001	59000001	ENSG00000083845.8
109	chr19	58000001	59000001	ENSG00000198131.13
109	chr19	58000001	59000001	ENSG00000268912.1
109	chr19	58000001	59000001	ENSG00000232098.3
109	chr19	58000001	59000001	ENSG00000166704.11
109	chr19	58000001	59000001	ENSG00000131849.11
109	chr19	58000001	59000001	ENSG00000181894.14
109	chr19	58000001	59000001	ENSG00000121413.12
109	chr19	58000001	59000001	ENSG00000121410.11
109	chr19	58000001	59000001	ENSG00000099326.8
109	chr19	58000001	59000001	ENSG00000130725.7
110	chr20	45000001	46000001	ENSG00000064601.16
110	chr20	45000001	46000001	ENSG00000124155.17
110	chr20	45000001	46000001	ENSG00000124102.4
110	chr20	45000001	46000001	ENSG00000124104.18
110	chr20	45000001	46000001	ENSG00000101457.12
110	chr20	45000001	46000001	ENSG00000124233.11
110	chr20	45000001	46000001	ENSG00000204070.9
110	chr20	45000001	46000001	ENSG00000100982.11
110	chr20	45000001	46000001	ENSG00000100979.14
110	chr20	45000001	46000001	ENSG00000198026.7
110	chr20	45000001	46000001	ENSG00000124116.18
111	chr20	62000001	63000001	ENSG00000264490.3
111	chr20	62000001	63000001	ENSG00000184402.14
111	chr20	62000001	63000001	ENSG00000101188.4
111	chr20	62000001	63000001	ENSG00000101181.17
111	chr20	62000001	63000001	ENSG00000060491.16
111	chr20	62000001	63000001	ENSG00000130703.15
111	chr20	62000001	63000001	ENSG00000092758.15
111	chr20	62000001	63000001	ENSG00000101194.17
111	chr20	62000001	63000001	ENSG00000273759.1
111	chr20	62000001	63000001	ENSG00000149679.11
111	chr20	62000001	63000001	ENSG00000130702.15
111	chr20	62000001	63000001	ENSG00000101190.12
111	chr20	62000001	63000001	ENSG00000101191.16
112	chr20	63000001	64000001	ENSG00000225978.3
112	chr20	63000001	64000001	ENSG00000125534.9
112	chr20	63000001	64000001	ENSG00000101161.7
112	chr20	63000001	64000001	ENSG00000243509.4
112	chr20	63000001	64000001	ENSG00000203896.9
112	chr20	63000001	64000001	ENSG00000258366.7
112	chr20	63000001	64000001	ENSG00000101197.12
112	chr20	63000001	64000001	ENSG00000231133.6
112	chr20	63000001	64000001	ENSG00000198276.15
112	chr20	63000001	64000001	ENSG00000101213.6
112	chr20	63000001	64000001	ENSG00000101216.10
112	chr20	63000001	64000001	ENSG00000101246.19
112	chr20	63000001	64000001	ENSG00000197457.9
112	chr20	63000001	64000001	ENSG00000130590.13
113	chr21	44000001	45000001	ENSG00000160221.16
113	chr21	44000001	45000001	ENSG00000160233.7
113	chr21	44000001	45000001	ENSG00000241945.7
113	chr21	44000001	45000001	ENSG00000142185.16
113	chr21	44000001	45000001	ENSG00000237604.1
113	chr21	44000001	45000001	ENSG00000160218.12
113	chr21	44000001	45000001	ENSG00000141959.16
113	chr21	44000001	45000001	ENSG00000276529.1
113	chr21	44000001	45000001	ENSG00000225331.1
113	chr21	44000001	45000001	ENSG00000183255.11
113	chr21	44000001	45000001	ENSG00000160226.15
113	chr21	44000001	45000001	ENSG00000160223.16
113	chr21	44000001	45000001	ENSG00000160255.17
113	chr21	44000001	45000001	ENSG00000184787.18
113	chr21	44000001	45000001	ENSG00000183250.11
113	chr21	44000001	45000001	ENSG00000175894.14
114	chr22	20000001	21000001	ENSG00000099949.18
114	chr22	20000001	21000001	ENSG00000099940.11
114	chr22	20000001	21000001	ENSG00000183773.15
114	chr22	20000001	21000001	ENSG00000183597.15
114	chr22	20000001	21000001	ENSG00000236499.2
114	chr22	20000001	21000001	ENSG00000128191.15
114	chr22	20000001	21000001	ENSG00000099917.17
114	chr22	20000001	21000001	ENSG00000185252.18
114	chr22	20000001	21000001	ENSG00000128185.9
114	chr22	20000001	21000001	ENSG00000099889.13
114	chr22	20000001	21000001	ENSG00000241973.10
115	chr22	23000001	24000001	ENSG00000128266.8
115	chr22	23000001	24000001	ENSG00000240972.1
115	chr22	23000001	24000001	ENSG00000099956.18
115	chr22	23000001	24000001	ENSG00000272787.1
115	chr22	23000001	24000001	ENSG00000099974.7
115	chr22	23000001	24000001	ENSG00000186716.20
115	chr22	23000001	24000001	ENSG00000159496.14
115	chr22	23000001	24000001	ENSG00000133460.19
115	chr22	23000001	24000001	ENSG00000273295.1
115	chr22	23000001	24000001	ENSG00000189269.12
115	chr22	23000001	24000001	ENSG00000099977.13
115	chr22	23000001	24000001	ENSG00000272733.1
115	chr22	23000001	24000001	ENSG00000099958.14
115	chr22	23000001	24000001	ENSG00000100218.11
115	chr22	23000001	24000001	ENSG00000128322.6
116	chr22	29000001	30000001	ENSG00000186575.17
116	chr22	29000001	30000001	ENSG00000100330.15
116	chr22	29000001	30000001	ENSG00000183762.12
116	chr22	29000001	30000001	ENSG00000185340.15
116	chr22	29000001	30000001	ENSG00000100285.9
116	chr22	29000001	30000001	ENSG00000184076.13
116	chr22	29000001	30000001	ENSG00000100325.14
116	chr22	29000001	30000001	ENSG00000184117.11
116	chr22	29000001	30000001	ENSG00000100319.12
116	chr22	29000001	30000001	ENSG00000100296.13
116	chr22	29000001	30000001	ENSG00000100280.16
117	chr22	37000001	38000001	ENSG00000100083.18
117	chr22	37000001	38000001	ENSG00000100055.20
117	chr22	37000001	38000001	ENSG00000100106.19
117	chr22	37000001	38000001	ENSG00000189060.5
117	chr22	37000001	38000001	ENSG00000128283.6
117	chr22	37000001	38000001	ENSG00000100116.16
117	chr22	37000001	38000001	ENSG00000100092.20
117	chr22	37000001	38000001	ENSG00000100079.6
117	chr22	37000001	38000001	ENSG00000128340.14
117	chr22	37000001	38000001	ENSG00000100124.14
117	chr22	37000001	38000001	ENSG00000133466.13
117	chr22	37000001	38000001	ENSG00000100060.17
117	chr22	37000001	38000001	ENSG00000278195.1
118	chr22	38000001	39000001	ENSG00000179750.15
118	chr22	38000001	39000001	ENSG00000128383.12
118	chr22	38000001	39000001	ENSG00000100151.15
118	chr22	38000001	39000001	ENSG00000185022.11
118	chr22	38000001	39000001	ENSG00000100196.10
118	chr22	38000001	39000001	ENSG00000183741.11
118	chr22	38000001	39000001	ENSG00000100242.15
118	chr22	38000001	39000001	ENSG00000128298.16
118	chr22	38000001	39000001	ENSG00000198792.12
118	chr22	38000001	39000001	ENSG00000100201.20
118	chr22	38000001	39000001	ENSG00000100221.10
118	chr22	38000001	39000001	ENSG00000221890.3
118	chr22	38000001	39000001	ENSG00000213923.11
118	chr22	38000001	39000001	ENSG00000184381.18
119	chr22	39000001	40000001	ENSG00000100321.14
119	chr22	39000001	40000001	ENSG00000243811.8
119	chr22	39000001	40000001	ENSG00000239713.8
119	chr22	39000001	40000001	ENSG00000225528.3
119	chr22	39000001	40000001	ENSG00000128272.14
119	chr22	39000001	40000001	ENSG00000100298.15
119	chr22	39000001	40000001	ENSG00000244509.3
119	chr22	39000001	40000001	ENSG00000100346.17
119	chr22	39000001	40000001	ENSG00000133477.16
119	chr22	39000001	40000001	ENSG00000100311.16
119	chr22	39000001	40000001	ENSG00000100316.15
120	chr22	41000001	42000001	ENSG00000167077.12
120	chr22	41000001	42000001	ENSG00000196419.12
120	chr22	41000001	42000001	ENSG00000100393.12
120	chr22	41000001	42000001	ENSG00000100147.13
120	chr22	41000001	42000001	ENSG00000100395.14
120	chr22	41000001	42000001	ENSG00000167074.14
120	chr22	41000001	42000001	ENSG00000100418.7
120	chr22	41000001	42000001	ENSG00000100401.19
120	chr22	41000001	42000001	ENSG00000159958.6
120	chr22	41000001	42000001	ENSG00000100138.13
120	chr22	41000001	42000001	ENSG00000100162.14
120	chr22	41000001	42000001	ENSG00000100417.11
121	chr22	42000001	43000001	ENSG00000183172.8
121	chr22	42000001	43000001	ENSG00000281538.1
121	chr22	42000001	43000001	ENSG00000182057.4
121	chr22	42000001	43000001	ENSG00000177096.8
121	chr22	42000001	43000001	ENSG00000242247.10
121	chr22	42000001	43000001	ENSG00000100243.20
121	chr22	42000001	43000001	ENSG00000100207.18
121	chr22	42000001	43000001	ENSG00000128274.15
121	chr22	42000001	43000001	ENSG00000100197.20
121	chr22	42000001	43000001	ENSG00000198951.11
121	chr22	42000001	43000001	ENSG00000100227.17
121	chr22	42000001	43000001	ENSG00000184983.9
121	chr22	42000001	43000001	ENSG00000189306.10
122	chr22	50000001	51000001	ENSG00000170638.9
122	chr22	50000001	51000001	ENSG00000073150.13
122	chr22	50000001	51000001	ENSG00000073169.13
122	chr22	50000001	51000001	ENSG00000100253.12
122	chr22	50000001	51000001	ENSG00000130487.5
122	chr22	50000001	51000001	ENSG00000100299.17
122	chr22	50000001	51000001	ENSG00000130489.14
122	chr22	50000001	51000001	ENSG00000100288.19
122	chr22	50000001	51000001	ENSG00000217442.3
122	chr22	50000001	51000001	ENSG00000177989.13
122	chr22	50000001	51000001	ENSG00000100427.15
122	chr22	50000001	51000001	ENSG00000025708.13
122	chr22	50000001	51000001	ENSG00000205560.12
122	chr22	50000001	51000001	ENSG00000205593.11
122	chr22	50000001	51000001	ENSG00000100258.17
122	chr22	50000001	51000001	ENSG00000128159.11
122	chr22	50000001	51000001	ENSG00000196576.14
122	chr22	50000001	51000001	ENSG00000079974.17
122	chr22	50000001	51000001	ENSG00000100429.17
122	chr22	50000001	51000001	ENSG00000272666.1
