power	fdr	nTP	nP	nT	cutoff	include_tie	precision	recall	method
0.150602409638554	0.914529914529915	50	585	332	0.5	FALSE	0.0854700854700855	0.150602409638554	best-egene
0.397590361445783	0.881401617250674	132	1113	332	0.5	FALSE	0.118598382749326	0.397590361445783	nearest-gene
0.0903614457831325	0.899328859060403	30	298	332	0.5	FALSE	0.100671140939597	0.0903614457831325	predixcan
0.150602409638554	0.790794979079498	50	239	332	0.5	FALSE	0.209205020920502	0.150602409638554	enloc
0.0993975903614458	0.827225130890052	33	191	332	0.5	FALSE	0.172774869109948	0.0993975903614458	predixcan-at-enloc-0.1
