power	fdr	nTP	nP	nT	cutoff	include_tie	precision	recall	method	with_nearest_gene
0.113445378151261	0.82	27	150	238	0.5	FALSE	0.18	0.113445378151261	best-egene	NA
0.243697478991597	0.71	58	200	238	0.5	FALSE	0.29	0.243697478991597	nearest-gene	NA
0.092436974789916	0.858974358974359	22	156	238	0.5	FALSE	0.141025641025641	0.092436974789916	predixcan	w/o nearest
0.168067226890756	0.770114942528736	40	174	238	0.5	FALSE	0.229885057471264	0.168067226890756	enloc	w/o nearest
0.092436974789916	0.807017543859649	22	114	238	0.5	FALSE	0.192982456140351	0.092436974789916	smr	w/o nearest
0.0504201680672269	0.891891891891892	12	111	238	0.5	FALSE	0.108108108108108	0.0504201680672269	coloc	w/o nearest
0.092436974789916	0.803571428571429	22	112	238	0.5	FALSE	0.196428571428571	0.092436974789916	predixcan-at-enloc-0.1	w/o nearest
0.0714285714285714	0.797619047619048	17	84	238	0.5	FALSE	0.202380952380952	0.0714285714285714	smr-at-enloc-0.1	w/o nearest
0.0546218487394958	0.853932584269663	13	89	238	0.5	FALSE	0.146067415730337	0.0546218487394958	coloc-at-enloc-0.1	w/o nearest
0.147058823529412	0.823232323232323	35	198	238	0.5	FALSE	0.176767676767677	0.147058823529412	predixcan	with nearest
0.201680672268908	0.755102040816326	48	196	238	0.5	FALSE	0.244897959183674	0.201680672268908	enloc	with nearest
0.189075630252101	0.766839378238342	45	193	238	0.5	FALSE	0.233160621761658	0.189075630252101	smr	with nearest
0.189075630252101	0.769230769230769	45	195	238	0.5	FALSE	0.230769230769231	0.189075630252101	coloc	with nearest
0.172268907563025	0.772222222222222	41	180	238	0.5	FALSE	0.227777777777778	0.172268907563025	predixcan-after-enloc-0.01	w/o nearest
0.176470588235294	0.76536312849162	42	179	238	0.5	FALSE	0.23463687150838	0.176470588235294	smr-after-enloc-0.01	w/o nearest
0.168067226890756	0.776536312849162	40	179	238	0.5	FALSE	0.223463687150838	0.168067226890756	coloc-after-enloc-0.01	w/o nearest
