power	fdr	nTP	nP	nT	cutoff	include_tie	precision	recall
0.0482456140350877	0.946601941747573	11	206	228	0.5	FALSE	0.0533980582524272	0.0482456140350877
0.0701754385964912	0.922330097087379	16	206	228	0.5	FALSE	0.0776699029126213	0.0701754385964912
0.0701754385964912	0.922330097087379	16	206	228	0.5	FALSE	0.0776699029126213	0.0701754385964912
0.0526315789473684	0.941747572815534	12	206	228	0.5	FALSE	0.058252427184466	0.0526315789473684
0.087719298245614	0.902912621359223	20	206	228	0.5	FALSE	0.0970873786407767	0.087719298245614
0.0745614035087719	0.91747572815534	17	206	228	0.5	FALSE	0.0825242718446602	0.0745614035087719
0.0614035087719298	0.932038834951456	14	206	228	0.5	FALSE	0.0679611650485437	0.0614035087719298
0.0570175438596491	0.936893203883495	13	206	228	0.5	FALSE	0.0631067961165048	0.0570175438596491
0.0789473684210526	0.912621359223301	18	206	228	0.5	FALSE	0.087378640776699	0.0789473684210526
0.0570175438596491	0.936893203883495	13	206	228	0.5	FALSE	0.0631067961165048	0.0570175438596491
0.0526315789473684	0.941747572815534	12	206	228	0.5	FALSE	0.058252427184466	0.0526315789473684
0.0482456140350877	0.946341463414634	11	205	228	0.5	FALSE	0.0536585365853659	0.0482456140350877
0.043859649122807	0.951456310679612	10	206	228	0.5	FALSE	0.0485436893203883	0.043859649122807
0.087719298245614	0.902912621359223	20	206	228	0.5	FALSE	0.0970873786407767	0.087719298245614
0.0614035087719298	0.932038834951456	14	206	228	0.5	FALSE	0.0679611650485437	0.0614035087719298
0.0657894736842105	0.927184466019418	15	206	228	0.5	FALSE	0.0728155339805825	0.0657894736842105
0.0307017543859649	0.966019417475728	7	206	228	0.5	FALSE	0.0339805825242718	0.0307017543859649
0.0307017543859649	0.966019417475728	7	206	228	0.5	FALSE	0.0339805825242718	0.0307017543859649
0.0614035087719298	0.932038834951456	14	206	228	0.5	FALSE	0.0679611650485437	0.0614035087719298
0.0614035087719298	0.932038834951456	14	206	228	0.5	FALSE	0.0679611650485437	0.0614035087719298
0.0526315789473684	0.941747572815534	12	206	228	0.5	FALSE	0.058252427184466	0.0526315789473684
0.0833333333333333	0.907766990291262	19	206	228	0.5	FALSE	0.0922330097087378	0.0833333333333333
0.0701754385964912	0.922330097087379	16	206	228	0.5	FALSE	0.0776699029126213	0.0701754385964912
0.0657894736842105	0.927184466019418	15	206	228	0.5	FALSE	0.0728155339805825	0.0657894736842105
0.0745614035087719	0.91747572815534	17	206	228	0.5	FALSE	0.0825242718446602	0.0745614035087719
0.0614035087719298	0.932038834951456	14	206	228	0.5	FALSE	0.0679611650485437	0.0614035087719298
0.043859649122807	0.951456310679612	10	206	228	0.5	FALSE	0.0485436893203883	0.043859649122807
0.0482456140350877	0.946601941747573	11	206	228	0.5	FALSE	0.0533980582524272	0.0482456140350877
0.0657894736842105	0.927184466019418	15	206	228	0.5	FALSE	0.0728155339805825	0.0657894736842105
0.0482456140350877	0.946601941747573	11	206	228	0.5	FALSE	0.0533980582524272	0.0482456140350877
0.100877192982456	0.888349514563107	23	206	228	0.5	FALSE	0.111650485436893	0.100877192982456
0.0657894736842105	0.927184466019418	15	206	228	0.5	FALSE	0.0728155339805825	0.0657894736842105
0.0701754385964912	0.922330097087379	16	206	228	0.5	FALSE	0.0776699029126213	0.0701754385964912
0.0614035087719298	0.932038834951456	14	206	228	0.5	FALSE	0.0679611650485437	0.0614035087719298
0.0701754385964912	0.922330097087379	16	206	228	0.5	FALSE	0.0776699029126213	0.0701754385964912
0.0833333333333333	0.907766990291262	19	206	228	0.5	FALSE	0.0922330097087378	0.0833333333333333
0.0614035087719298	0.932038834951456	14	206	228	0.5	FALSE	0.0679611650485437	0.0614035087719298
0.0570175438596491	0.936893203883495	13	206	228	0.5	FALSE	0.0631067961165048	0.0570175438596491
0.0657894736842105	0.927184466019418	15	206	228	0.5	FALSE	0.0728155339805825	0.0657894736842105
0.0833333333333333	0.907766990291262	19	206	228	0.5	FALSE	0.0922330097087378	0.0833333333333333
0.0701754385964912	0.922330097087379	16	206	228	0.5	FALSE	0.0776699029126213	0.0701754385964912
0.0789473684210526	0.912621359223301	18	206	228	0.5	FALSE	0.087378640776699	0.0789473684210526
0.0789473684210526	0.912621359223301	18	206	228	0.5	FALSE	0.087378640776699	0.0789473684210526
0.0482456140350877	0.946601941747573	11	206	228	0.5	FALSE	0.0533980582524272	0.0482456140350877
0.0614035087719298	0.932038834951456	14	206	228	0.5	FALSE	0.0679611650485437	0.0614035087719298
0.0570175438596491	0.936893203883495	13	206	228	0.5	FALSE	0.0631067961165048	0.0570175438596491
0.0701754385964912	0.922330097087379	16	206	228	0.5	FALSE	0.0776699029126213	0.0701754385964912
0.0745614035087719	0.91747572815534	17	206	228	0.5	FALSE	0.0825242718446602	0.0745614035087719
0.0833333333333333	0.907766990291262	19	206	228	0.5	FALSE	0.0922330097087378	0.0833333333333333
0.0482456140350877	0.946601941747573	11	206	228	0.5	FALSE	0.0533980582524272	0.0482456140350877
0.0570175438596491	0.936893203883495	13	206	228	0.5	FALSE	0.0631067961165048	0.0570175438596491
0.0745614035087719	0.91747572815534	17	206	228	0.5	FALSE	0.0825242718446602	0.0745614035087719
0.0701754385964912	0.922330097087379	16	206	228	0.5	FALSE	0.0776699029126213	0.0701754385964912
0.0482456140350877	0.946601941747573	11	206	228	0.5	FALSE	0.0533980582524272	0.0482456140350877
0.0657894736842105	0.927184466019418	15	206	228	0.5	FALSE	0.0728155339805825	0.0657894736842105
0.0701754385964912	0.922330097087379	16	206	228	0.5	FALSE	0.0776699029126213	0.0701754385964912
0.0350877192982456	0.961165048543689	8	206	228	0.5	FALSE	0.0388349514563107	0.0350877192982456
0.087719298245614	0.902912621359223	20	206	228	0.5	FALSE	0.0970873786407767	0.087719298245614
0.0745614035087719	0.91747572815534	17	206	228	0.5	FALSE	0.0825242718446602	0.0745614035087719
0.0570175438596491	0.936893203883495	13	206	228	0.5	FALSE	0.0631067961165048	0.0570175438596491
0.087719298245614	0.902912621359223	20	206	228	0.5	FALSE	0.0970873786407767	0.087719298245614
0.0701754385964912	0.922330097087379	16	206	228	0.5	FALSE	0.0776699029126213	0.0701754385964912
0.0614035087719298	0.932038834951456	14	206	228	0.5	FALSE	0.0679611650485437	0.0614035087719298
0.0614035087719298	0.932038834951456	14	206	228	0.5	FALSE	0.0679611650485437	0.0614035087719298
0.0789473684210526	0.912621359223301	18	206	228	0.5	FALSE	0.087378640776699	0.0789473684210526
0.0789473684210526	0.912621359223301	18	206	228	0.5	FALSE	0.087378640776699	0.0789473684210526
0.0614035087719298	0.932038834951456	14	206	228	0.5	FALSE	0.0679611650485437	0.0614035087719298
0.0570175438596491	0.936893203883495	13	206	228	0.5	FALSE	0.0631067961165048	0.0570175438596491
0.0614035087719298	0.932038834951456	14	206	228	0.5	FALSE	0.0679611650485437	0.0614035087719298
0.0526315789473684	0.941747572815534	12	206	228	0.5	FALSE	0.058252427184466	0.0526315789473684
0.0526315789473684	0.941747572815534	12	206	228	0.5	FALSE	0.058252427184466	0.0526315789473684
0.0614035087719298	0.932038834951456	14	206	228	0.5	FALSE	0.0679611650485437	0.0614035087719298
0.0614035087719298	0.932038834951456	14	206	228	0.5	FALSE	0.0679611650485437	0.0614035087719298
0.0570175438596491	0.936893203883495	13	206	228	0.5	FALSE	0.0631067961165048	0.0570175438596491
0.087719298245614	0.902439024390244	20	205	228	0.5	FALSE	0.0975609756097561	0.087719298245614
0.0745614035087719	0.91747572815534	17	206	228	0.5	FALSE	0.0825242718446602	0.0745614035087719
0.0614035087719298	0.932038834951456	14	206	228	0.5	FALSE	0.0679611650485437	0.0614035087719298
0.0570175438596491	0.936893203883495	13	206	228	0.5	FALSE	0.0631067961165048	0.0570175438596491
0.0657894736842105	0.927184466019418	15	206	228	0.5	FALSE	0.0728155339805825	0.0657894736842105
0.0482456140350877	0.946601941747573	11	206	228	0.5	FALSE	0.0533980582524272	0.0482456140350877
0.0701754385964912	0.922330097087379	16	206	228	0.5	FALSE	0.0776699029126213	0.0701754385964912
0.0570175438596491	0.936893203883495	13	206	228	0.5	FALSE	0.0631067961165048	0.0570175438596491
0.0657894736842105	0.927184466019418	15	206	228	0.5	FALSE	0.0728155339805825	0.0657894736842105
0.0701754385964912	0.922330097087379	16	206	228	0.5	FALSE	0.0776699029126213	0.0701754385964912
0.0570175438596491	0.936893203883495	13	206	228	0.5	FALSE	0.0631067961165048	0.0570175438596491
0.0745614035087719	0.91747572815534	17	206	228	0.5	FALSE	0.0825242718446602	0.0745614035087719
0.0526315789473684	0.941747572815534	12	206	228	0.5	FALSE	0.058252427184466	0.0526315789473684
0.0745614035087719	0.91747572815534	17	206	228	0.5	FALSE	0.0825242718446602	0.0745614035087719
0.0701754385964912	0.922330097087379	16	206	228	0.5	FALSE	0.0776699029126213	0.0701754385964912
0.0614035087719298	0.932038834951456	14	206	228	0.5	FALSE	0.0679611650485437	0.0614035087719298
0.100877192982456	0.888349514563107	23	206	228	0.5	FALSE	0.111650485436893	0.100877192982456
0.087719298245614	0.902912621359223	20	206	228	0.5	FALSE	0.0970873786407767	0.087719298245614
0.0789473684210526	0.91219512195122	18	205	228	0.5	FALSE	0.0878048780487805	0.0789473684210526
0.0570175438596491	0.936893203883495	13	206	228	0.5	FALSE	0.0631067961165048	0.0570175438596491
0.0833333333333333	0.907766990291262	19	206	228	0.5	FALSE	0.0922330097087378	0.0833333333333333
0.0526315789473684	0.941747572815534	12	206	228	0.5	FALSE	0.058252427184466	0.0526315789473684
0.0526315789473684	0.941747572815534	12	206	228	0.5	FALSE	0.058252427184466	0.0526315789473684
0.0657894736842105	0.927184466019418	15	206	228	0.5	FALSE	0.0728155339805825	0.0657894736842105
0.0833333333333333	0.907766990291262	19	206	228	0.5	FALSE	0.0922330097087378	0.0833333333333333
0.087719298245614	0.902912621359223	20	206	228	0.5	FALSE	0.0970873786407767	0.087719298245614
