trait	gene	num_of_gwas_loci
GLGC_Mc_HDL	ENSG00000025434	1
GLGC_Mc_HDL	ENSG00000070915	1
GLGC_Mc_HDL	ENSG00000073060	1
GLGC_Mc_HDL	ENSG00000076555	1
GLGC_Mc_HDL	ENSG00000087237	1
GLGC_Mc_HDL	ENSG00000101670	1
GLGC_Mc_HDL	ENSG00000110243	1
GLGC_Mc_HDL	ENSG00000110245	1
GLGC_Mc_HDL	ENSG00000118137	1
GLGC_Mc_HDL	ENSG00000141096	1
GLGC_Mc_HDL	ENSG00000157450	1
GLGC_Mc_HDL	ENSG00000165029	2
GLGC_Mc_HDL	ENSG00000166035	1
GLGC_Mc_HDL	ENSG00000168092	1
GLGC_Mc_HDL	ENSG00000175445	1
GLGC_Mc_HDL	ENSG00000177103	1
GLGC_Mc_HDL	ENSG00000198848	1
GLGC_Mc_HDL	ENSG00000213398	1
GLGC_Mc_LDL	ENSG00000015520	1
GLGC_Mc_LDL	ENSG00000084674	1
GLGC_Mc_LDL	ENSG00000129354	1
GLGC_Mc_LDL	ENSG00000130164	1
GLGC_Mc_LDL	ENSG00000130203	1
GLGC_Mc_LDL	ENSG00000162391	1
GLGC_Mc_LDL	ENSG00000165029	1
GLGC_Mc_LDL	ENSG00000169174	1
GLGC_Mc_LDL	ENSG00000186951	1
GLGC_Mc_LDL	ENSG00000220201	1
GLGC_Mc_TG	ENSG00000084734	1
GLGC_Mc_TG	ENSG00000110243	1
GLGC_Mc_TG	ENSG00000110245	1
GLGC_Mc_TG	ENSG00000130203	1
GLGC_Mc_TG	ENSG00000166035	1
GLGC_Mc_TG	ENSG00000168092	1
GLGC_Mc_TG	ENSG00000168477	1
GLGC_Mc_TG	ENSG00000175445	1
GLGC_Mc_TG	ENSG00000177103	1
UKB_20002_1473_self_reported_high_cholesterol	ENSG00000015520	1
UKB_20002_1473_self_reported_high_cholesterol	ENSG00000084674	1
UKB_20002_1473_self_reported_high_cholesterol	ENSG00000130164	1
UKB_20002_1473_self_reported_high_cholesterol	ENSG00000130811	1
UKB_20002_1473_self_reported_high_cholesterol	ENSG00000165029	1
UKB_20002_1473_self_reported_high_cholesterol	ENSG00000166035	1
UKB_20002_1473_self_reported_high_cholesterol	ENSG00000169174	1
UKB_20002_1473_self_reported_high_cholesterol	ENSG00000220201	1
UKB_50_Standing_height	ENSG00000010803	1
UKB_50_Standing_height	ENSG00000049192	1
UKB_50_Standing_height	ENSG00000066827	1
UKB_50_Standing_height	ENSG00000075420	1
UKB_50_Standing_height	ENSG00000089053	1
UKB_50_Standing_height	ENSG00000103196	1
UKB_50_Standing_height	ENSG00000103335	1
UKB_50_Standing_height	ENSG00000113389	1
UKB_50_Standing_height	ENSG00000113739	1
UKB_50_Standing_height	ENSG00000115657	1
UKB_50_Standing_height	ENSG00000116698	1
UKB_50_Standing_height	ENSG00000135452	1
UKB_50_Standing_height	ENSG00000137309	1
UKB_50_Standing_height	ENSG00000138735	1
UKB_50_Standing_height	ENSG00000138829	1
UKB_50_Standing_height	ENSG00000140511	1
UKB_50_Standing_height	ENSG00000146426	1
UKB_50_Standing_height	ENSG00000154309	1
UKB_50_Standing_height	ENSG00000156140	1
UKB_50_Standing_height	ENSG00000157766	1
UKB_50_Standing_height	ENSG00000159720	1
UKB_50_Standing_height	ENSG00000160801	1
UKB_50_Standing_height	ENSG00000163501	1
UKB_50_Standing_height	ENSG00000166025	1
UKB_50_Standing_height	ENSG00000172053	1
UKB_50_Standing_height	ENSG00000174177	1
UKB_50_Standing_height	ENSG00000174576	1
UKB_50_Standing_height	ENSG00000174807	1
UKB_50_Standing_height	ENSG00000175318	1
UKB_50_Standing_height	ENSG00000175938	1
UKB_50_Standing_height	ENSG00000176971	1
UKB_50_Standing_height	ENSG00000180061	1
UKB_50_Standing_height	ENSG00000186280	1
UKB_50_Standing_height	ENSG00000197647	1
UKB_50_Standing_height	ENSG00000255439	1
