trait	gene	num_of_gwas_loci
Astle_et_al_2016_Eosinophil_counts	ENSG00000026103	1
Astle_et_al_2016_Eosinophil_counts	ENSG00000113721	1
Astle_et_al_2016_Eosinophil_counts	ENSG00000117560	1
Astle_et_al_2016_Eosinophil_counts	ENSG00000151694	1
Astle_et_al_2016_Eosinophil_counts	ENSG00000197561	1
Astle_et_al_2016_Eosinophil_counts	ENSG00000198286	1
Astle_et_al_2016_Eosinophil_counts	ENSG00000198821	1
Astle_et_al_2016_Lymphocyte_counts	ENSG00000149428	1
Astle_et_al_2016_Lymphocyte_counts	ENSG00000162711	1
Astle_et_al_2016_Monocyte_count	ENSG00000110921	1
Astle_et_al_2016_Neutrophil_count	ENSG00000026103	1
Astle_et_al_2016_Neutrophil_count	ENSG00000064490	1
Astle_et_al_2016_Neutrophil_count	ENSG00000092929	1
Astle_et_al_2016_Neutrophil_count	ENSG00000095585	1
Astle_et_al_2016_Neutrophil_count	ENSG00000101017	1
Astle_et_al_2016_Neutrophil_count	ENSG00000101109	1
Astle_et_al_2016_Neutrophil_count	ENSG00000112039	1
Astle_et_al_2016_Neutrophil_count	ENSG00000117450	1
Astle_et_al_2016_Neutrophil_count	ENSG00000119535	1
Astle_et_al_2016_Neutrophil_count	ENSG00000132763	1
Astle_et_al_2016_Neutrophil_count	ENSG00000135604	1
Astle_et_al_2016_Neutrophil_count	ENSG00000137700	1
Astle_et_al_2016_Neutrophil_count	ENSG00000149428	1
Astle_et_al_2016_Neutrophil_count	ENSG00000161970	1
Astle_et_al_2016_Neutrophil_count	ENSG00000164414	1
Astle_et_al_2016_Neutrophil_count	ENSG00000179348	1
Astle_et_al_2016_Neutrophil_count	ENSG00000197561	1
Astle_et_al_2016_White_blood_cell_count	ENSG00000027697	1
Astle_et_al_2016_White_blood_cell_count	ENSG00000092929	1
Astle_et_al_2016_White_blood_cell_count	ENSG00000095585	1
Astle_et_al_2016_White_blood_cell_count	ENSG00000103313	1
Astle_et_al_2016_White_blood_cell_count	ENSG00000112039	1
Astle_et_al_2016_White_blood_cell_count	ENSG00000117450	1
Astle_et_al_2016_White_blood_cell_count	ENSG00000119535	1
Astle_et_al_2016_White_blood_cell_count	ENSG00000132763	1
Astle_et_al_2016_White_blood_cell_count	ENSG00000141349	1
Astle_et_al_2016_White_blood_cell_count	ENSG00000149781	1
Astle_et_al_2016_White_blood_cell_count	ENSG00000161970	1
Astle_et_al_2016_White_blood_cell_count	ENSG00000162711	1
Astle_et_al_2016_White_blood_cell_count	ENSG00000164414	1
Astle_et_al_2016_White_blood_cell_count	ENSG00000179348	1
Astle_et_al_2016_White_blood_cell_count	ENSG00000197561	1
Astle_et_al_2016_White_blood_cell_count	ENSG00000198589	1
Astle_et_al_2016_White_blood_cell_count	ENSG00000221829	1
CARDIoGRAM_C4D_CAD_ADDITIVE	ENSG00000084674	1
CARDIoGRAM_C4D_CAD_ADDITIVE	ENSG00000107796	1
CARDIoGRAM_C4D_CAD_ADDITIVE	ENSG00000107798	2
CARDIoGRAM_C4D_CAD_ADDITIVE	ENSG00000111252	1
CARDIoGRAM_C4D_CAD_ADDITIVE	ENSG00000116133	1
CARDIoGRAM_C4D_CAD_ADDITIVE	ENSG00000130164	1
CARDIoGRAM_C4D_CAD_ADDITIVE	ENSG00000148795	1
CARDIoGRAM_C4D_CAD_ADDITIVE	ENSG00000166819	1
CARDIoGRAM_C4D_CAD_ADDITIVE	ENSG00000169174	1
CARDIoGRAM_C4D_CAD_ADDITIVE	ENSG00000170835	1
CARDIoGRAM_C4D_CAD_ADDITIVE	ENSG00000171560	1
CARDIoGRAM_C4D_CAD_ADDITIVE	ENSG00000185950	1
CARDIoGRAM_C4D_CAD_ADDITIVE	ENSG00000204217	1
DIAGRAM_T2D_TRANS_ETHNIC	ENSG00000006071	1
DIAGRAM_T2D_TRANS_ETHNIC	ENSG00000073792	1
DIAGRAM_T2D_TRANS_ETHNIC	ENSG00000101076	1
DIAGRAM_T2D_TRANS_ETHNIC	ENSG00000109501	1
DIAGRAM_T2D_TRANS_ETHNIC	ENSG00000132170	1
DIAGRAM_T2D_TRANS_ETHNIC	ENSG00000134640	1
DIAGRAM_T2D_TRANS_ETHNIC	ENSG00000148737	1
DIAGRAM_T2D_TRANS_ETHNIC	ENSG00000164756	1
DIAGRAM_T2D_TRANS_ETHNIC	ENSG00000187486	1
DIAGRAM_T2D_TRANS_ETHNIC	ENSG00000197299	1
DIAGRAM_T2D_TRANS_ETHNIC	ENSG00000254647	1
DIAGRAM_T2D_TRANS_ETHNIC	ENSG00000275410	1
GIANT_WC_Combined_EUR	ENSG00000101126	1
GIANT_WC_Combined_EUR	ENSG00000140718	1
GIANT_WC_Combined_EUR	ENSG00000156873	1
GIANT_WC_Combined_EUR	ENSG00000167588	1
GIANT_WC_Combined_EUR	ENSG00000214413	1
GIANT_WC_Combined_EUR	ENSG00000234906	1
GLGC_Mc_LDL	ENSG00000084674	1
GLGC_Mc_LDL	ENSG00000110243	1
GLGC_Mc_LDL	ENSG00000116133	1
GLGC_Mc_LDL	ENSG00000130164	1
GLGC_Mc_LDL	ENSG00000138075	1
GLGC_Mc_LDL	ENSG00000143921	1
GLGC_Mc_LDL	ENSG00000157978	1
GLGC_Mc_LDL	ENSG00000169174	1
GLGC_Mc_LDL	ENSG00000185000	1
GLGC_Mc_TG	ENSG00000076944	1
GLGC_Mc_TG	ENSG00000084674	1
GLGC_Mc_TG	ENSG00000105974	1
GLGC_Mc_TG	ENSG00000110243	1
GLGC_Mc_TG	ENSG00000132170	1
GLGC_Mc_TG	ENSG00000156873	1
GLGC_Mc_TG	ENSG00000157978	1
GLGC_Mc_TG	ENSG00000159459	1
GLGC_Mc_TG	ENSG00000175445	1
GLGC_Mc_TG	ENSG00000204264	1
GLGC_Mc_TG	ENSG00000234906	1
IBD.EUR.Inflammatory_Bowel_Disease	ENSG00000118503	1
IBD.EUR.Inflammatory_Bowel_Disease	ENSG00000138684	1
IBD.EUR.Inflammatory_Bowel_Disease	ENSG00000167207	1
IBD.EUR.Inflammatory_Bowel_Disease	ENSG00000196126	1
IBD.EUR.Inflammatory_Bowel_Disease	ENSG00000197943	1
IBD.EUR.Inflammatory_Bowel_Disease	ENSG00000204351	1
IBD.EUR.Inflammatory_Bowel_Disease	ENSG00000237693	1
IBD.EUR.Inflammatory_Bowel_Disease	ENSG00000258366	1
IBD.EUR.Ulcerative_Colitis	ENSG00000074582	1
IBD.EUR.Ulcerative_Colitis	ENSG00000118503	1
IBD.EUR.Ulcerative_Colitis	ENSG00000204351	1
IBD.EUR.Ulcerative_Colitis	ENSG00000258366	1
ICBP_DiastolicPressure	ENSG00000111252	1
ICBP_DiastolicPressure	ENSG00000148795	1
ICBP_DiastolicPressure	ENSG00000167186	1
ICBP_SystolicPressure	ENSG00000111252	1
ICBP_SystolicPressure	ENSG00000148795	1
IGAP_Alzheimer	ENSG00000064687	1
IGAP_Alzheimer	ENSG00000130203	1
IMMUNOBASE_Systemic_lupus_erythematosus_hg19	ENSG00000072694	1
IMMUNOBASE_Systemic_lupus_erythematosus_hg19	ENSG00000134242	1
IMMUNOBASE_Systemic_lupus_erythematosus_hg19	ENSG00000143226	1
IMMUNOBASE_Systemic_lupus_erythematosus_hg19	ENSG00000166278	1
IMMUNOBASE_Systemic_lupus_erythematosus_hg19	ENSG00000244731	1
pgc.scz2	ENSG00000174437	1
RA_OKADA_TRANS_ETHNIC	ENSG00000134242	1
RA_OKADA_TRANS_ETHNIC	ENSG00000159339	1
RA_OKADA_TRANS_ETHNIC	ENSG00000204498	1
UKB_20002_1065_self_reported_hypertension	ENSG00000008441	1
UKB_20002_1065_self_reported_hypertension	ENSG00000054523	1
UKB_20002_1065_self_reported_hypertension	ENSG00000087460	1
UKB_20002_1065_self_reported_hypertension	ENSG00000107796	1
UKB_20002_1065_self_reported_hypertension	ENSG00000111057	1
UKB_20002_1065_self_reported_hypertension	ENSG00000111252	1
UKB_20002_1065_self_reported_hypertension	ENSG00000125730	1
UKB_20002_1065_self_reported_hypertension	ENSG00000132170	1
UKB_20002_1065_self_reported_hypertension	ENSG00000141646	1
UKB_20002_1065_self_reported_hypertension	ENSG00000148795	1
UKB_20002_1065_self_reported_hypertension	ENSG00000157388	1
UKB_20002_1065_self_reported_hypertension	ENSG00000170421	1
UKB_20002_1065_self_reported_hypertension	ENSG00000171560	1
UKB_20002_1065_self_reported_hypertension	ENSG00000172572	1
UKB_20002_1065_self_reported_hypertension	ENSG00000175334	1
UKB_20002_1065_self_reported_hypertension	ENSG00000179218	1
UKB_20002_1065_self_reported_hypertension	ENSG00000184937	1
UKB_20002_1065_self_reported_hypertension	ENSG00000187266	1
UKB_20002_1065_self_reported_hypertension	ENSG00000196557	1
UKB_20002_1065_self_reported_hypertension	ENSG00000204370	1
UKB_20002_1065_self_reported_hypertension	ENSG00000217930	1
UKB_20002_1065_self_reported_hypertension	ENSG00000231852	1
UKB_20002_1065_self_reported_hypertension	ENSG00000243649	1
UKB_20002_1065_self_reported_hypertension	ENSG00000255292	1
UKB_20002_1094_self_reported_deep_venous_thrombosis_dvt	ENSG00000180210	1
UKB_20002_1094_self_reported_deep_venous_thrombosis_dvt	ENSG00000198734	1
UKB_20002_1111_self_reported_asthma	ENSG00000073861	1
UKB_20002_1111_self_reported_asthma	ENSG00000077238	1
UKB_20002_1111_self_reported_asthma	ENSG00000103522	1
UKB_20002_1111_self_reported_asthma	ENSG00000104884	1
UKB_20002_1111_self_reported_asthma	ENSG00000124299	1
UKB_20002_1111_self_reported_asthma	ENSG00000143631	1
UKB_20002_1111_self_reported_asthma	ENSG00000149534	1
UKB_20002_1111_self_reported_asthma	ENSG00000169194	1
UKB_20002_1111_self_reported_asthma	ENSG00000177156	1
UKB_20002_1111_self_reported_asthma	ENSG00000204539	1
UKB_20002_1111_self_reported_asthma	ENSG00000204632	1
UKB_20002_1111_self_reported_asthma	ENSG00000232810	1
UKB_20002_1222_self_reported_type_1_diabetes	ENSG00000179344	1
UKB_20002_1222_self_reported_type_1_diabetes	ENSG00000196735	1
UKB_20002_1226_self_reported_hypothyroidism_or_myxoedema	ENSG00000042832	1
UKB_20002_1226_self_reported_hypothyroidism_or_myxoedema	ENSG00000101310	1
UKB_20002_1226_self_reported_hypothyroidism_or_myxoedema	ENSG00000103449	1
UKB_20002_1226_self_reported_hypothyroidism_or_myxoedema	ENSG00000105641	1
UKB_20002_1226_self_reported_hypothyroidism_or_myxoedema	ENSG00000115415	1
UKB_20002_1226_self_reported_hypothyroidism_or_myxoedema	ENSG00000115705	1
UKB_20002_1226_self_reported_hypothyroidism_or_myxoedema	ENSG00000130948	1
UKB_20002_1226_self_reported_hypothyroidism_or_myxoedema	ENSG00000134460	1
UKB_20002_1226_self_reported_hypothyroidism_or_myxoedema	ENSG00000142208	1
UKB_20002_1226_self_reported_hypothyroidism_or_myxoedema	ENSG00000163599	1
UKB_20002_1226_self_reported_hypothyroidism_or_myxoedema	ENSG00000166037	1
UKB_20002_1226_self_reported_hypothyroidism_or_myxoedema	ENSG00000168610	1
UKB_20002_1226_self_reported_hypothyroidism_or_myxoedema	ENSG00000171316	1
UKB_20002_1226_self_reported_hypothyroidism_or_myxoedema	ENSG00000171862	1
UKB_20002_1452_self_reported_eczema_or_dermatitis	ENSG00000134460	1
UKB_20002_1452_self_reported_eczema_or_dermatitis	ENSG00000143631	1
UKB_20002_1452_self_reported_eczema_or_dermatitis	ENSG00000179344	1
UKB_20002_1452_self_reported_eczema_or_dermatitis	ENSG00000196735	1
UKB_20002_1452_self_reported_eczema_or_dermatitis	ENSG00000204539	1
UKB_20002_1453_self_reported_psoriasis	ENSG00000151702	1
UKB_20002_1453_self_reported_psoriasis	ENSG00000204525	1
UKB_20002_1466_self_reported_gout	ENSG00000124564	1
UKB_20002_1473_self_reported_high_cholesterol	ENSG00000084674	1
UKB_20002_1473_self_reported_high_cholesterol	ENSG00000110243	1
UKB_20002_1473_self_reported_high_cholesterol	ENSG00000116133	1
UKB_20002_1473_self_reported_high_cholesterol	ENSG00000130164	1
UKB_20002_1473_self_reported_high_cholesterol	ENSG00000138075	1
UKB_20002_1473_self_reported_high_cholesterol	ENSG00000143921	1
UKB_20002_1473_self_reported_high_cholesterol	ENSG00000169174	1
UKB_20002_1473_self_reported_high_cholesterol	ENSG00000175445	1
UKB_21001_Body_mass_index_BMI	ENSG00000005339	1
UKB_21001_Body_mass_index_BMI	ENSG00000011143	1
UKB_21001_Body_mass_index_BMI	ENSG00000054282	1
UKB_21001_Body_mass_index_BMI	ENSG00000072364	1
UKB_21001_Body_mass_index_BMI	ENSG00000085382	1
UKB_21001_Body_mass_index_BMI	ENSG00000096872	1
UKB_21001_Body_mass_index_BMI	ENSG00000101126	1
UKB_21001_Body_mass_index_BMI	ENSG00000103707	1
UKB_21001_Body_mass_index_BMI	ENSG00000104133	1
UKB_21001_Body_mass_index_BMI	ENSG00000108946	1
UKB_21001_Body_mass_index_BMI	ENSG00000115138	1
UKB_21001_Body_mass_index_BMI	ENSG00000116678	1
UKB_21001_Body_mass_index_BMI	ENSG00000117594	1
UKB_21001_Body_mass_index_BMI	ENSG00000119333	1
UKB_21001_Body_mass_index_BMI	ENSG00000122507	1
UKB_21001_Body_mass_index_BMI	ENSG00000135324	1
UKB_21001_Body_mass_index_BMI	ENSG00000136573	1
UKB_21001_Body_mass_index_BMI	ENSG00000138002	1
UKB_21001_Body_mass_index_BMI	ENSG00000140443	1
UKB_21001_Body_mass_index_BMI	ENSG00000140463	1
UKB_21001_Body_mass_index_BMI	ENSG00000140718	1
UKB_21001_Body_mass_index_BMI	ENSG00000141646	1
UKB_21001_Body_mass_index_BMI	ENSG00000156172	1
UKB_21001_Body_mass_index_BMI	ENSG00000160050	1
UKB_21001_Body_mass_index_BMI	ENSG00000162512	1
UKB_21001_Body_mass_index_BMI	ENSG00000165533	1
UKB_21001_Body_mass_index_BMI	ENSG00000167632	1
UKB_21001_Body_mass_index_BMI	ENSG00000169375	1
UKB_21001_Body_mass_index_BMI	ENSG00000169379	1
UKB_21001_Body_mass_index_BMI	ENSG00000174483	1
UKB_21001_Body_mass_index_BMI	ENSG00000175426	1
UKB_21001_Body_mass_index_BMI	ENSG00000181555	1
UKB_21001_Body_mass_index_BMI	ENSG00000181722	1
UKB_21001_Body_mass_index_BMI	ENSG00000204655	1
UKB_21001_Body_mass_index_BMI	ENSG00000214413	1
