\BOOKMARK [2][]{Outline0.1}{Main}{}% 1
\BOOKMARK [3][]{Outline0.1.1.2}{Co-regulation and tissue-shared eQTL}{Outline0.1}% 2
\BOOKMARK [3][]{Outline0.1.2.3}{Capturing local co-regulation}{Outline0.1}% 3
\BOOKMARK [3][]{Outline0.1.3.4}{Capturing tissue-specificity}{Outline0.1}% 4
\BOOKMARK [3][]{Outline0.1.4.5}{FLASH factors captures tissue-sharing pattern}{Outline0.1}% 5
\BOOKMARK [3][]{Outline0.1.5.6}{Co-regulation is common along the genome}{Outline0.1}% 6
\BOOKMARK [3][]{Outline0.1.6.7}{Co-regulating variant tends to target multiple genes in all tissues}{Outline0.1}% 7
\BOOKMARK [3][]{Outline0.1.7.8}{GWAS catalog variants tend to have lower co-regulaton level}{Outline0.1}% 8
\BOOKMARK [3][]{Outline0.1.8.9}{DAPG variants with higher Pn have stronger GWAS signal}{Outline0.1}% 9
\BOOKMARK [3][]{Outline0.1.9.10}{GWAS catalog variants tend to have more tissue-shared eQTL}{Outline0.1}% 10
\BOOKMARK [3][]{Outline0.1.10.11}{Tissue-shared DAPG eQTLs have stronger GWAS signal}{Outline0.1}% 11
\BOOKMARK [3][]{Outline0.1.11.12}{Plan}{Outline0.1}% 12
