\relax 
\providecommand\hyper@newdestlabel[2]{}
\providecommand\HyperFirstAtBeginDocument{\AtBeginDocument}
\HyperFirstAtBeginDocument{\ifx\hyper@anchor\@undefined
\global\let\oldcontentsline\contentsline
\gdef\contentsline#1#2#3#4{\oldcontentsline{#1}{#2}{#3}}
\global\let\oldnewlabel\newlabel
\gdef\newlabel#1#2{\newlabelxx{#1}#2}
\gdef\newlabelxx#1#2#3#4#5#6{\oldnewlabel{#1}{{#2}{#3}}}
\AtEndDocument{\ifx\hyper@anchor\@undefined
\let\contentsline\oldcontentsline
\let\newlabel\oldnewlabel
\fi}
\fi}
\global\let\hyper@last\relax 
\gdef\HyperFirstAtBeginDocument#1{#1}
\providecommand\HyField@AuxAddToFields[1]{}
\providecommand\HyField@AuxAddToCoFields[2]{}
\@writefile{nav}{\headcommand {\slideentry {0}{0}{1}{1/1}{}{0}}}
\@writefile{nav}{\headcommand {\beamer@framepages {1}{1}}}
\@writefile{toc}{\global \c@tocdepth 1\relax }
\@writefile{toc}{\beamer@sectionintoc {1}{Main}{2}{0}{1}}
\@writefile{nav}{\headcommand {\sectionentry {1}{Main}{2}{Main}{0}}}
\@writefile{nav}{\headcommand {\beamer@sectionpages {1}{1}}}
\@writefile{nav}{\headcommand {\beamer@subsectionpages {1}{1}}}
\@writefile{toc}{\beamer@subsectionintoc {1}{1}{Co-regulation and tissue-shared eQTL}{2}{0}{1}}
\@writefile{nav}{\headcommand {\beamer@subsectionentry {0}{1}{1}{2}{Co-regulation and tissue-shared eQTL}}\headcommand {\beamer@subsectionpages {2}{1}}}
\@writefile{nav}{\headcommand {\slideentry {1}{1}{1}{2/2}{Co-regulation and tissue-shared eQTL}{0}}}
\@writefile{nav}{\headcommand {\beamer@framepages {2}{2}}}
\citation{Urbut2018}
\@writefile{toc}{\beamer@subsectionintoc {1}{2}{Capturing local co-regulation}{3}{0}{1}}
\@writefile{nav}{\headcommand {\beamer@subsectionentry {0}{1}{2}{3}{Capturing local co-regulation}}\headcommand {\beamer@subsectionpages {2}{2}}}
\@writefile{nav}{\headcommand {\slideentry {1}{2}{1}{3/3}{Capturing local co-regulation}{0}}}
\@writefile{nav}{\headcommand {\beamer@framepages {3}{3}}}
\citation{wang2018empirical}
\@writefile{toc}{\beamer@subsectionintoc {1}{3}{Capturing tissue-specificity}{4}{0}{1}}
\@writefile{nav}{\headcommand {\beamer@subsectionentry {0}{1}{3}{4}{Capturing tissue-specificity}}\headcommand {\beamer@subsectionpages {3}{3}}}
\@writefile{nav}{\headcommand {\slideentry {1}{3}{1}{4/4}{Capturing tissue-specificity}{0}}}
\@writefile{nav}{\headcommand {\beamer@framepages {4}{4}}}
\@writefile{toc}{\beamer@subsectionintoc {1}{4}{FLASH factors captures tissue-sharing pattern}{5}{0}{1}}
\@writefile{nav}{\headcommand {\beamer@subsectionentry {0}{1}{4}{5}{FLASH factors captures tissue-sharing pattern}}\headcommand {\beamer@subsectionpages {4}{4}}}
\newlabel{fig:flash}{{5}{5}{FLASH factors captures tissue-sharing pattern}{Doc-Start}{}}
\newlabel{fig:flash@cref}{{[subsection][4][1]4}{5}}
\@writefile{snm}{\beamer@slide {fig:flash}{5}}
\@writefile{nav}{\headcommand {\slideentry {1}{4}{1}{5/5}{FLASH factors captures tissue-sharing pattern}{0}}}
\@writefile{nav}{\headcommand {\beamer@framepages {5}{5}}}
\@writefile{toc}{\beamer@subsectionintoc {1}{5}{Co-regulation is common along the genome}{6}{0}{1}}
\@writefile{nav}{\headcommand {\beamer@subsectionentry {0}{1}{5}{6}{Co-regulation is common along the genome}}\headcommand {\beamer@subsectionpages {5}{5}}}
\providecommand*\caption@xref[2]{\@setref\relax\@undefined{#1}}
\newlabel{fig:coreg_overview_percentage}{{1a}{6}{\relax }{Doc-Start}{}}
\newlabel{fig:coreg_overview_percentage@cref}{{[subfigure][1][1]1a}{6}}
\@writefile{snm}{\beamer@slide {fig:coreg_overview_percentage}{6}}
\newlabel{sub@fig:coreg_overview_percentage}{{a}{6}{\relax }{Doc-Start}{}}
\newlabel{sub@fig:coreg_overview_percentage@cref}{{[subfigure][1][1]1a}{6}}
\@writefile{snm}{\beamer@slide {sub@fig:coreg_overview_percentage}{6}}
\newlabel{fig:coreg_overview_pn}{{1b}{6}{\relax }{Doc-Start}{}}
\newlabel{fig:coreg_overview_pn@cref}{{[subfigure][2][1]1b}{6}}
\@writefile{snm}{\beamer@slide {fig:coreg_overview_pn}{6}}
\newlabel{sub@fig:coreg_overview_pn}{{b}{6}{\relax }{Doc-Start}{}}
\newlabel{sub@fig:coreg_overview_pn@cref}{{[subfigure][2][1]1b}{6}}
\@writefile{snm}{\beamer@slide {sub@fig:coreg_overview_pn}{6}}
\newlabel{fig:coreg_overview_chr}{{1c}{6}{\relax }{Doc-Start}{}}
\newlabel{fig:coreg_overview_chr@cref}{{[subfigure][3][1]1c}{6}}
\@writefile{snm}{\beamer@slide {fig:coreg_overview_chr}{6}}
\newlabel{sub@fig:coreg_overview_chr}{{c}{6}{\relax }{Doc-Start}{}}
\newlabel{sub@fig:coreg_overview_chr@cref}{{[subfigure][3][1]1c}{6}}
\@writefile{snm}{\beamer@slide {sub@fig:coreg_overview_chr}{6}}
\newlabel{fig:coreg_overview_1}{{1}{6}{Overall distribution of $P_n$ in DAP-g variants\relax }{Doc-Start}{}}
\newlabel{fig:coreg_overview_1@cref}{{[figure][1][]1}{6}}
\@writefile{snm}{\beamer@slide {fig:coreg_overview_1}{6}}
\@writefile{nav}{\headcommand {\slideentry {1}{5}{1}{6/6}{Co-regulation is common along the genome}{0}}}
\@writefile{nav}{\headcommand {\beamer@framepages {6}{6}}}
\@writefile{toc}{\beamer@subsectionintoc {1}{6}{Co-regulating variant tends to target multiple genes in all tissues}{7}{0}{1}}
\@writefile{nav}{\headcommand {\beamer@subsectionentry {0}{1}{6}{7}{Co-regulating variant tends to target multiple genes in all tissues}}\headcommand {\beamer@subsectionpages {6}{6}}}
\newlabel{fig:coreg_cross_tissue_hist}{{2a}{7}{\relax }{Doc-Start}{}}
\newlabel{fig:coreg_cross_tissue_hist@cref}{{[subfigure][1][2]2a}{7}}
\@writefile{snm}{\beamer@slide {fig:coreg_cross_tissue_hist}{7}}
\newlabel{sub@fig:coreg_cross_tissue_hist}{{a}{7}{\relax }{Doc-Start}{}}
\newlabel{sub@fig:coreg_cross_tissue_hist@cref}{{[subfigure][1][2]2a}{7}}
\@writefile{snm}{\beamer@slide {sub@fig:coreg_cross_tissue_hist}{7}}
\newlabel{fig:coreg_cross_tissue_cate}{{2b}{7}{\relax }{Doc-Start}{}}
\newlabel{fig:coreg_cross_tissue_cate@cref}{{[subfigure][2][2]2b}{7}}
\@writefile{snm}{\beamer@slide {fig:coreg_cross_tissue_cate}{7}}
\newlabel{sub@fig:coreg_cross_tissue_cate}{{b}{7}{\relax }{Doc-Start}{}}
\newlabel{sub@fig:coreg_cross_tissue_cate@cref}{{[subfigure][2][2]2b}{7}}
\@writefile{snm}{\beamer@slide {sub@fig:coreg_cross_tissue_cate}{7}}
\@writefile{nav}{\headcommand {\slideentry {1}{6}{1}{7/7}{Co-regulating variant tends to target multiple genes in all tissues}{0}}}
\@writefile{nav}{\headcommand {\beamer@framepages {7}{7}}}
\citation{gamazon2018using}
\citation{gamazon2018using}
\@writefile{toc}{\beamer@subsectionintoc {1}{7}{GWAS catalog variants tend to have lower co-regulaton level}{8}{0}{1}}
\@writefile{nav}{\headcommand {\beamer@subsectionentry {0}{1}{7}{8}{GWAS catalog variants tend to have lower co-regulaton level}}\headcommand {\beamer@subsectionpages {7}{7}}}
\newlabel{fig:coreg_gwas_dist}{{3a}{8}{\relax }{Doc-Start}{}}
\newlabel{fig:coreg_gwas_dist@cref}{{[subfigure][1][3]3a}{8}}
\@writefile{snm}{\beamer@slide {fig:coreg_gwas_dist}{8}}
\newlabel{sub@fig:coreg_gwas_dist}{{a}{8}{\relax }{Doc-Start}{}}
\newlabel{sub@fig:coreg_gwas_dist@cref}{{[subfigure][1][3]3a}{8}}
\@writefile{snm}{\beamer@slide {sub@fig:coreg_gwas_dist}{8}}
\newlabel{fig:coreg_gwas_dist}{{3b}{8}{\relax }{Doc-Start}{}}
\newlabel{fig:coreg_gwas_dist@cref}{{[subfigure][2][3]3b}{8}}
\@writefile{snm}{\beamer@slide {fig:coreg_gwas_dist}{8}}
\newlabel{sub@fig:coreg_gwas_dist}{{b}{8}{\relax }{Doc-Start}{}}
\newlabel{sub@fig:coreg_gwas_dist@cref}{{[subfigure][2][3]3b}{8}}
\@writefile{snm}{\beamer@slide {sub@fig:coreg_gwas_dist}{8}}
\newlabel{fig:coreg_gwas_dist2}{{3c}{8}{\cite {gamazon2018using}\relax }{Doc-Start}{}}
\newlabel{fig:coreg_gwas_dist2@cref}{{[subfigure][3][3]3c}{8}}
\@writefile{snm}{\beamer@slide {fig:coreg_gwas_dist2}{8}}
\newlabel{sub@fig:coreg_gwas_dist2}{{c}{8}{\cite {gamazon2018using}\relax }{Doc-Start}{}}
\newlabel{sub@fig:coreg_gwas_dist2@cref}{{[subfigure][3][3]3c}{8}}
\@writefile{snm}{\beamer@slide {sub@fig:coreg_gwas_dist2}{8}}
\@writefile{nav}{\headcommand {\slideentry {1}{7}{1}{8/8}{GWAS catalog variants tend to have lower co-regulaton level}{0}}}
\@writefile{nav}{\headcommand {\beamer@framepages {8}{8}}}
\@writefile{toc}{\beamer@subsectionintoc {1}{8}{DAPG variants with higher $P_n$ have stronger GWAS signal}{9}{0}{1}}
\@writefile{nav}{\headcommand {\beamer@subsectionentry {0}{1}{8}{9}{DAPG variants with higher $P_n$ have stronger GWAS signal}}\headcommand {\beamer@subsectionpages {8}{8}}}
\newlabel{fig:coreg_gwas_regress_b}{{4a}{9}{Effect size\relax }{Doc-Start}{}}
\newlabel{fig:coreg_gwas_regress_b@cref}{{[subfigure][1][4]4a}{9}}
\@writefile{snm}{\beamer@slide {fig:coreg_gwas_regress_b}{9}}
\newlabel{sub@fig:coreg_gwas_regress_b}{{a}{9}{Effect size\relax }{Doc-Start}{}}
\newlabel{sub@fig:coreg_gwas_regress_b@cref}{{[subfigure][1][4]4a}{9}}
\@writefile{snm}{\beamer@slide {sub@fig:coreg_gwas_regress_b}{9}}
\newlabel{fig:coreg_gwas_regress_z}{{4b}{9}{Z-score\relax }{Doc-Start}{}}
\newlabel{fig:coreg_gwas_regress_z@cref}{{[subfigure][2][4]4b}{9}}
\@writefile{snm}{\beamer@slide {fig:coreg_gwas_regress_z}{9}}
\newlabel{sub@fig:coreg_gwas_regress_z}{{b}{9}{Z-score\relax }{Doc-Start}{}}
\newlabel{sub@fig:coreg_gwas_regress_z@cref}{{[subfigure][2][4]4b}{9}}
\@writefile{snm}{\beamer@slide {sub@fig:coreg_gwas_regress_z}{9}}
\@writefile{nav}{\headcommand {\slideentry {1}{8}{1}{9/9}{DAPG variants with higher $P_n$ have stronger GWAS signal}{0}}}
\@writefile{nav}{\headcommand {\beamer@framepages {9}{9}}}
\citation{gtex2017genetic}
\citation{gtex2017genetic}
\@writefile{toc}{\beamer@subsectionintoc {1}{9}{GWAS catalog variants tend to have more tissue-shared eQTL}{10}{0}{1}}
\@writefile{nav}{\headcommand {\beamer@subsectionentry {0}{1}{9}{10}{GWAS catalog variants tend to have more tissue-shared eQTL}}\headcommand {\beamer@subsectionpages {9}{9}}}
\newlabel{fig:coreg_gwas_regress_b}{{5a}{10}{\relax }{Doc-Start}{}}
\newlabel{fig:coreg_gwas_regress_b@cref}{{[subfigure][1][5]5a}{10}}
\@writefile{snm}{\beamer@slide {fig:coreg_gwas_regress_b}{10}}
\newlabel{sub@fig:coreg_gwas_regress_b}{{a}{10}{\relax }{Doc-Start}{}}
\newlabel{sub@fig:coreg_gwas_regress_b@cref}{{[subfigure][1][5]5a}{10}}
\@writefile{snm}{\beamer@slide {sub@fig:coreg_gwas_regress_b}{10}}
\newlabel{fig:coreg_gwas_regress_b}{{5b}{10}{\cite {gtex2017genetic}\relax }{Doc-Start}{}}
\newlabel{fig:coreg_gwas_regress_b@cref}{{[subfigure][2][5]5b}{10}}
\@writefile{snm}{\beamer@slide {fig:coreg_gwas_regress_b}{10}}
\newlabel{sub@fig:coreg_gwas_regress_b}{{b}{10}{\cite {gtex2017genetic}\relax }{Doc-Start}{}}
\newlabel{sub@fig:coreg_gwas_regress_b@cref}{{[subfigure][2][5]5b}{10}}
\@writefile{snm}{\beamer@slide {sub@fig:coreg_gwas_regress_b}{10}}
\@writefile{nav}{\headcommand {\slideentry {1}{9}{1}{10/10}{GWAS catalog variants tend to have more tissue-shared eQTL}{0}}}
\@writefile{nav}{\headcommand {\beamer@framepages {10}{10}}}
\@writefile{toc}{\beamer@subsectionintoc {1}{10}{Tissue-shared DAPG eQTLs have stronger GWAS signal}{11}{0}{1}}
\@writefile{nav}{\headcommand {\beamer@subsectionentry {0}{1}{10}{11}{Tissue-shared DAPG eQTLs have stronger GWAS signal}}\headcommand {\beamer@subsectionpages {10}{10}}}
\newlabel{fig:coreg_gwas_regress_b}{{6a}{11}{Effect size\relax }{Doc-Start}{}}
\newlabel{fig:coreg_gwas_regress_b@cref}{{[subfigure][1][6]6a}{11}}
\@writefile{snm}{\beamer@slide {fig:coreg_gwas_regress_b}{11}}
\newlabel{sub@fig:coreg_gwas_regress_b}{{a}{11}{Effect size\relax }{Doc-Start}{}}
\newlabel{sub@fig:coreg_gwas_regress_b@cref}{{[subfigure][1][6]6a}{11}}
\@writefile{snm}{\beamer@slide {sub@fig:coreg_gwas_regress_b}{11}}
\newlabel{fig:coreg_gwas_regress_z}{{6b}{11}{Z-score\relax }{Doc-Start}{}}
\newlabel{fig:coreg_gwas_regress_z@cref}{{[subfigure][2][6]6b}{11}}
\@writefile{snm}{\beamer@slide {fig:coreg_gwas_regress_z}{11}}
\newlabel{sub@fig:coreg_gwas_regress_z}{{b}{11}{Z-score\relax }{Doc-Start}{}}
\newlabel{sub@fig:coreg_gwas_regress_z@cref}{{[subfigure][2][6]6b}{11}}
\@writefile{snm}{\beamer@slide {sub@fig:coreg_gwas_regress_z}{11}}
\@writefile{nav}{\headcommand {\slideentry {1}{10}{1}{11/11}{Tissue-shared DAPG eQTLs have stronger GWAS signal}{0}}}
\@writefile{nav}{\headcommand {\beamer@framepages {11}{11}}}
\@writefile{toc}{\beamer@subsectionintoc {1}{11}{Plan}{12}{0}{1}}
\@writefile{nav}{\headcommand {\beamer@subsectionentry {0}{1}{11}{12}{Plan}}\headcommand {\beamer@subsectionpages {11}{11}}}
\@writefile{nav}{\headcommand {\slideentry {1}{11}{1}{12/12}{Plan}{0}}}
\@writefile{nav}{\headcommand {\beamer@framepages {12}{12}}}
\bibdata{mybib}
\bibcite{gtex2017genetic}{\hyperlink {beamerbibgtex2017genetic}{Consortium et\nobreakspace  {}al., 2017}}
\bibcite{gamazon2018using}{\hyperlink {beamerbibgamazon2018using}{Gamazon et\nobreakspace  {}al., 2018}}
\bibcite{Urbut2018}{\hyperlink {beamerbibUrbut2018}{Urbut et\nobreakspace  {}al., 2018}}
\bibcite{wang2018empirical}{\hyperlink {beamerbibwang2018empirical}{Wang and Stephens, 2018}}
\bibstyle{apalike}
\@writefile{nav}{\headcommand {\slideentry {1}{11}{2}{13/13}{Plan}{0}}}
\@writefile{nav}{\headcommand {\beamer@framepages {13}{13}}}
\@writefile{nav}{\headcommand {\beamer@partpages {1}{13}}}
\@writefile{nav}{\headcommand {\beamer@subsectionpages {12}{13}}}
\@writefile{nav}{\headcommand {\beamer@sectionpages {2}{13}}}
\@writefile{nav}{\headcommand {\beamer@documentpages {13}}}
\@writefile{nav}{\headcommand {\def \inserttotalframenumber {13}}}
