ENSG00000074582
ENSG00000165731
ENSG00000107521
ENSG00000143390
ENSG00000133111
ENSG00000179583
ENSG00000064490
ENSG00000178814
ENSG00000136244
ENSG00000167207
ENSG00000101966
ENSG00000101868
ENSG00000005471
ENSG00000163347
ENSG00000243646
ENSG00000110324
ENSG00000118965
ENSG00000009724
ENSG00000100365
ENSG00000136695
ENSG00000204351
ENSG00000198589
ENSG00000197943
ENSG00000258366
ENSG00000103522
ENSG00000277494
ENSG00000091106
ENSG00000118503
ENSG00000135341
