ENSG00000239900
ENSG00000049618
ENSG00000141646
ENSG00000182636
ENSG00000128739
ENSG00000005339
ENSG00000165699
ENSG00000181722
ENSG00000181830
ENSG00000172893
ENSG00000112294
ENSG00000188641
ENSG00000169306
ENSG00000196338
ENSG00000008056
ENSG00000146938
ENSG00000169057
ENSG00000189221
ENSG00000102081
ENSG00000125675
ENSG00000165186
ENSG00000185973
ENSG00000147133
ENSG00000126945
ENSG00000018610
ENSG00000188158
ENSG00000184634
ENSG00000068438
ENSG00000102030
ENSG00000134138
ENSG00000151067
ENSG00000100150
ENSG00000171862
ENSG00000136535
ENSG00000251322
ENSG00000181090
ENSG00000129910
ENSG00000197283
ENSG00000171766
ENSG00000111537
ENSG00000103197
ENSG00000169375
ENSG00000100393
ENSG00000148053
ENSG00000157540
ENSG00000109501
ENSG00000196876
ENSG00000113448
ENSG00000103507
ENSG00000100888
ENSG00000140262
ENSG00000173575
ENSG00000168955
ENSG00000102974
ENSG00000117620
ENSG00000158321
ENSG00000101126
ENSG00000169946
ENSG00000135317
ENSG00000059573
ENSG00000159579
ENSG00000123066
ENSG00000181555
ENSG00000142599
ENSG00000010818
ENSG00000125505
ENSG00000138411
ENSG00000186468
ENSG00000170836
ENSG00000155100
ENSG00000164134
ENSG00000110066
ENSG00000116539
ENSG00000179364
