ENSG00000101384
ENSG00000213398
ENSG00000112964
ENSG00000106341
ENSG00000120915
ENSG00000130164
ENSG00000084674
ENSG00000175445
ENSG00000110243
ENSG00000160789
ENSG00000066926
ENSG00000108557
ENSG00000116127
ENSG00000234906
ENSG00000137074
ENSG00000138075
ENSG00000143921
ENSG00000135929
ENSG00000143815
ENSG00000159459
ENSG00000204264
ENSG00000148606
ENSG00000168000
ENSG00000172893
ENSG00000137561
ENSG00000107798
ENSG00000101966
ENSG00000147155
ENSG00000044446
ENSG00000198814
ENSG00000147383
ENSG00000122126
ENSG00000116133
ENSG00000004864
ENSG00000135604
ENSG00000180644
ENSG00000169174
ENSG00000157978
ENSG00000132170
ENSG00000105974
ENSG00000109929
ENSG00000166311
ENSG00000068305
ENSG00000169692
ENSG00000092929
ENSG00000169218
ENSG00000177666
ENSG00000070018
ENSG00000156873
ENSG00000076944
ENSG00000166819
ENSG00000167588
ENSG00000187288
ENSG00000062822
ENSG00000174007
ENSG00000105204
ENSG00000185000
ENSG00000136710
ENSG00000244045
ENSG00000166224
ENSG00000100564
