gene,gene_name.x,zscore,effect_size,pvalue,var_g,pred_perf_r2,pred_perf_pval,pred_perf_qval,n_snps_used,n_snps_in_cov,n_snps_in_model,best_gwas_p,largest_weight,bonferroni_p,gene_name.y,rare_assoc_effect_size,rare_assoc_se,rare_assoc_pval,gene_type
ENSG00000196126,HLA-DRB1,9.23470515701437,NA,2.58998327922632e-20,0.175866519193365,0.245397569352873,1.54714670824857e-38,NA,36,36,36,1.13035414035883e-20,0.151368442579129,1.97279026378669e-16,NA,NA,NA,NA,NA
ENSG00000196735,HLA-DQA1,8.66685400887898,NA,4.44223967991194e-18,0.142087075239878,0.217463292123164,1.06267313820053e-33,NA,34,34,34,2.45218371285891e-15,0.327105827880042,3.38365396418892e-14,NA,NA,NA,NA,NA
ENSG00000179344,HLA-DQB1,8.18884967460593,NA,2.63734700240679e-16,0.553879611937781,0.648278912665089,1.02257856914307e-155,NA,39,39,39,1.13035414035883e-20,0.463980793993172,2.00886721173325e-12,NA,NA,NA,NA,NA
ENSG00000237541,HLA-DQA2,-7.77979961557753,NA,7.2639514206465e-15,0.584089183053752,0.665075951820878,6.90998738533038e-164,NA,45,45,45,1.13035414035883e-20,0.238250481774415,5.53295179710644e-11,NA,NA,NA,NA,NA
ENSG00000232629,HLA-DQB2,-7.30634022456888,NA,2.74516572004344e-13,0.490369261468739,0.594591204471795,4.94496566412948e-134,NA,30,30,30,1.13035414035883e-20,0.370688265411484,2.09099272895709e-09,NA,NA,NA,NA,NA
ENSG00000241106,HLA-DOB,-5.0603598459931,NA,4.184659627026e-07,0.372964067986179,0.46640645466061,5.39894827101278e-89,NA,47,47,47,5.22627216740998e-10,1.09713671176172,0.00318745523790571,NA,NA,NA,NA,NA
ENSG00000204305,AGER,-4.8452752397749,NA,1.26436273797683e-06,0.036399655878913,0.0482277035967117,7.89223617178942e-08,NA,34,34,34,9.36585993867918e-18,0.411915132066417,0.00963065097516948,NA,NA,NA,NA,NA
ENSG00000166913,YWHAB,-4.81586835424844,NA,1.46561128506411e-06,0.0454547667493433,0.0671500296610525,1.90327647936162e-10,NA,9,9,9,3.71252586172949e-07,0.104140761487255,0.0111635611583334,NA,NA,NA,NA,NA
ENSG00000143365,RORC,-4.60486904170762,NA,4.12725502353523e-06,0.0554067112769385,0.0513808839064566,3.58368272212173e-08,NA,32,32,32,1.86261699306624e-07,0.272876516745982,0.0314373015142679,NA,NA,NA,NA,NA
