gene,gene_name.x,zscore,effect_size,pvalue,var_g,pred_perf_r2,pred_perf_pval,pred_perf_qval,n_snps_used,n_snps_in_cov,n_snps_in_model,best_gwas_p,largest_weight,bonferroni_p,gene_name.y,rare_assoc_effect_size,rare_assoc_se,rare_assoc_pval,gene_type
ENSG00000132535,DLG4,11.1840217191385,NA,4.88260260933357e-29,0.0360198895743103,0.0599429757626955,2.24058575339405e-09,NA,10,10,10,2.77435715102334e-27,0.145570434344057,3.71907840752938e-25,NA,NA,NA,NA,NA
ENSG00000175826,CTDNEP1,10.6283525345764,NA,2.19963709061883e-26,0.028429182326342,0.040200857204645,8.62440442620198e-07,NA,15,15,15,9.36465291829179e-27,0.0641024142761803,1.67546357192436e-22,NA,NA,NA,NA,NA
ENSG00000181885,CLDN7,-10.5270572962155,NA,6.48295157911455e-26,0.29647260827803,0.323545394239956,7.02295800779659e-54,NA,55,55,55,2.77435715102334e-27,0.244722008811847,4.93806421781156e-22,CLDN7,0.331908,0.36292,0.360439,protein_coding
ENSG00000170291,ELP5,-10.301885986201,NA,6.90932069932729e-25,0.440078782874362,0.50791865477881,3.05424499495829e-101,NA,48,48,48,9.36465291829179e-27,0.37189397858183,5.2628295766776e-21,NA,NA,NA,NA,NA
ENSG00000181856,SLC2A4,8.0912592094825,NA,5.90510357545652e-16,0.0226499143926239,0.0658206937079061,2.92825124286923e-10,NA,7,7,7,2.10289419654203e-24,0.151120069870791,4.49791739342523e-12,NA,NA,NA,NA,NA
ENSG00000151694,ADAM17,-7.81464992188861,NA,5.51159974470968e-15,0.0597563950836021,0.100658265619235,4.15750473908736e-15,NA,19,19,19,3.00996738406631e-18,0.0995244155748114,4.19818552554536e-11,NA,NA,NA,NA,NA
ENSG00000173175,ADCY5,7.42331352809223,NA,1.14225946816191e-13,0.0201507301784821,0.0511766248146436,3.09430622929194e-08,NA,16,16,16,2.37474524971672e-14,0.0256825541043876,8.70059036898927e-10,NA,NA,NA,NA,NA
ENSG00000149600,COMMD7,7.02722620395397,NA,2.10679670518033e-12,0.217377879594591,0.25133739187993,7.72370325483653e-40,NA,35,35,35,3.32437458240386e-15,0.134410464561346,1.60474705033586e-08,NA,NA,NA,NA,NA
ENSG00000080546,SESN1,6.77096592309374,NA,1.27925406137421e-11,0.00737443445442521,0.0115015611597976,0.00985286108213531,NA,6,6,6,2.01858075205946e-15,0.126008016925943,9.74407818548735e-08,SESN1,0.374308,0.392048,0.339715,protein_coding
ENSG00000138172,CALHM2,6.31463666284924,NA,2.70796930785295e-10,0.026963542295603,0.0384113756720656,2.10693201076241e-06,NA,15,15,15,6.51829222058905e-09,0.10670895001202,2.06266022179159e-06,CALHM2,0.322079,0.392022,0.411324,protein_coding
ENSG00000160685,ZBTB7B,-6.10741979230423,NA,1.01254667283247e-09,0.0173498660064812,0.0192128221764193,0.00084816900503261,NA,17,17,17,3.61149265223637e-14,0.0698065590873103,7.71256800696489e-06,NA,NA,NA,NA,NA
ENSG00000197157,SND1,5.81875711205642,NA,5.92868103239482e-09,0.0487432249119842,0.0940295716866162,3.98324484790822e-14,NA,14,14,14,4.39486792408507e-09,0.0480253343107968,4.51587634237514e-05,NA,NA,NA,NA,NA
ENSG00000029534,ANK1,5.77750164840849,NA,7.58179793377147e-09,0.0368511993054451,0.0825135768436118,1.61451911657696e-12,NA,6,6,6,3.4271662307136e-09,0.0835084525075837,5.77505548615373e-05,NA,NA,NA,NA,NA
ENSG00000163933,RFT1,5.55654969155032,NA,2.75159412391986e-08,0.180158082978482,0.22368803804183,6.96565177161621e-35,NA,39,39,39,2.51596388482506e-08,0.171973304927264,0.000209588924418976,RFT1,-0.14868,0.289563,0.607633,protein_coding
ENSG00000112414,ADGRG6,5.44424278334671,NA,5.20262211675588e-08,0.0116719133632517,0.0106038097906492,0.0132829160562984,NA,18,18,18,3.59512123576598e-11,0.0763702823546782,0.000396283726633295,ADGRG6,-0.338985,0.303632,0.264249,protein_coding
ENSG00000111249,CUX2,5.41541780521439,NA,6.11457564518297e-08,0.043153279312944,0.0551053802425947,1.09553194847331e-08,NA,19,19,19,1.30578760698849e-06,0.171166452471924,0.000465747226893587,CUX2,0.188486,0.220391,0.392432,protein_coding
ENSG00000173915,USMG5,-5.32366684703125,NA,1.01696087159795e-07,0.0406699210200774,0.0591246316917679,2.75085322280485e-09,NA,16,16,16,1.04000652316965e-08,0.119597009687235,0.000774619095896155,USMG5,-0.131312,0.164809,0.425605,protein_coding
ENSG00000106635,BCL7B,-5.17433850091542,NA,2.28719842171457e-07,0.0385809452526158,0.0450376379142793,2.52936483202449e-07,NA,19,19,19,2.64560351201443e-09,0.300366769184785,0.00174215903781999,NA,NA,NA,NA,NA
ENSG00000069275,NUCKS1,5.16768184489494,NA,2.37015322953801e-07,0.0130339918567637,0.0398896999956897,1.28819883729266e-06,NA,7,7,7,1.94634819916256e-07,0.0543983190805041,0.0018053457149391,NA,NA,NA,NA,NA
ENSG00000257261,RP11-96H19.1,-5.13425124276728,NA,2.83269481106928e-07,0.0457476729979195,0.0707973502909743,7.06163538611207e-11,NA,33,33,33,7.34831376382905e-09,0.177059459935163,0.00215766363759147,NA,NA,NA,NA,NA
ENSG00000260257,RP5-1085F17.3,5.072628767518,NA,3.92357460834052e-07,0.0297781460923835,0.0557214187611799,9.12753651441166e-09,NA,19,19,19,2.6376140749812e-08,0.0830742717900374,0.00298858677917297,NA,NA,NA,NA,NA
ENSG00000213221,DNLZ,-5.04559851834831,NA,4.5210386182668e-07,0.484794113008518,0.535290127845617,5.37343342772206e-111,NA,80,80,80,2.86223797061693e-08,1.03168634655344,0.00344367511553382,NA,NA,NA,NA,NA
ENSG00000183655,KLHL25,-5.04123069209206,NA,4.62547454518397e-07,0.0347377541202346,0.0341940530539221,7.39200025061489e-06,NA,22,22,22,9.53956534659088e-07,0.139414877801736,0.00352322396106663,KLHL25,-0.455666,0.22034,0.0386513,protein_coding
ENSG00000163257,DCAF16,4.99676649878768,NA,5.8299588826578e-07,0.0188309733327074,0.0545126196371531,1.00873708629727e-08,NA,6,6,6,5.2238542029363e-11,0.0710729155356896,0.00444067968092044,NA,NA,NA,NA,NA
ENSG00000168769,TET2,4.96549020975777,NA,6.85277502023289e-07,0.00890019484044315,0.035508043683904,5.10193529084143e-06,NA,7,7,7,3.96684652895061e-07,0.0720729607152226,0.00521975873291139,TET2,0.21777,0.152006,0.151976,protein_coding
ENSG00000153214,TMEM87B,-4.92036048515012,NA,8.63849587259117e-07,0.0498931050314972,0.0907159623221226,1.12451833351915e-13,NA,18,18,18,4.18923482214119e-06,0.115540839469617,0.00657994230615269,TMEM87B,0.452542,0.277236,0.102624,protein_coding
ENSG00000143622,RIT1,4.85248802897638,NA,1.21922145564007e-06,0.0960631293694742,0.150503021693589,1.56355207155595e-22,NA,22,22,22,1.47896686746472e-06,0.157848532148075,0.00928680982761043,NA,NA,NA,NA,NA
ENSG00000198160,MIER1,4.8468702917425,NA,1.25424371332839e-06,0.0260972056903234,0.0352284733441801,4.27565370036481e-06,NA,27,27,27,2.16829961065561e-07,0.13551383811634,0.00955357436442237,NA,NA,NA,NA,NA
ENSG00000089022,MAPKAPK5,-4.83425966785428,NA,1.33642049445728e-06,0.0362896128017701,0.0571235526780242,5.3719167544155e-09,NA,23,23,23,1.89361932750882e-05,0.0666659361741295,0.0101795149062811,NA,NA,NA,NA,NA
ENSG00000183762,KREMEN1,4.80688916583575,NA,1.53296919407298e-06,0.0275330767968916,0.021965921596518,0.000350381525898918,NA,22,22,22,3.73689116355726e-08,0.201508922869705,0.0116766263512539,KREMEN1,0.308236,0.289574,0.287139,protein_coding
ENSG00000167720,SRR,4.76499666954236,NA,1.88856768938959e-06,0.363822631499313,0.475729405652448,5.27690010348111e-91,NA,14,14,14,1.01073987170038e-06,0.455243996635507,0.0143852200900805,SRR,0.0814997,0.679144,0.904481,protein_coding
ENSG00000145632,PLK2,-4.71381855131977,NA,2.43117171901267e-06,0.00687362199621901,0.0315797608748313,1.77923727987237e-05,NA,8,8,8,1.01959016466399e-07,0.0834796401732201,0.0185182349837195,NA,NA,NA,NA,NA
ENSG00000056558,TRAF1,4.70103374938026,NA,2.58847724582689e-06,0.159550122121802,0.204800806894673,4.89021319577792e-32,NA,41,41,41,1.30775304941389e-06,0.144710883703781,0.0197164311814634,NA,NA,NA,NA,NA
ENSG00000135596,MICAL1,-4.58014289765885,NA,4.64658348132943e-06,0.0380704829783863,0.0527798943616981,2.24311104825944e-08,NA,27,27,27,2.943576149898e-12,0.290097645590438,0.0353930263772863,MICAL1,-0.00591635,0.13084,0.963934,protein_coding
ENSG00000148843,PDCD11,4.56369728284404,NA,5.0260535350915e-06,0.0184256971656408,0.0363999825589502,3.64707322044139e-06,NA,10,10,10,4.1868617242987e-09,0.151956719178821,0.0382834497767919,PDCD11,-0.0439272,0.248015,0.85942,protein_coding
ENSG00000172247,C1QTNF4,4.54920428653368,NA,5.38491477306682e-06,0.197639129125556,0.235455660728111,8.1407337029736e-37,NA,24,24,24,1.18642067399033e-06,0.192396289302464,0.04101689582645,C1QTNF4,0.1639,0.204784,0.423515,protein_coding
ENSG00000108306,FBXL20,-4.51875112480405,NA,6.22054622505336e-06,0.0161844650809061,0.0325482318723617,1.2474647233846e-05,NA,12,12,12,1.08782438219227e-06,0.0858294437351197,0.0473819005962314,NA,NA,NA,NA,NA
