gene,gene_name.x,zscore,effect_size,pvalue,var_g,pred_perf_r2,pred_perf_pval,pred_perf_qval,n_snps_used,n_snps_in_cov,n_snps_in_model,best_gwas_p,largest_weight,bonferroni_p,gene_name.y,rare_assoc_effect_size,rare_assoc_se,rare_assoc_pval,gene_type
ENSG00000179344,HLA-DQB1,-22.2074829992135,NA,2.90776977777406e-109,0.553879611937781,0.648278912665089,1.02257856914307e-155,NA,39,39,39,3.57287566511376e-100,0.463980793993172,2.2148482397305e-105,NA,NA,NA,NA,NA
ENSG00000196735,HLA-DQA1,-21.8124261891271,NA,1.76845201388966e-105,0.142087075239878,0.217463292123164,1.06267313820053e-33,NA,34,34,34,3.57287566511376e-100,0.327105827880042,1.34702989897975e-101,NA,NA,NA,NA,NA
ENSG00000232629,HLA-DQB2,19.7145299084778,NA,1.61812712450193e-86,0.490369261468739,0.594591204471795,4.94496566412948e-134,NA,30,30,30,3.57287566511376e-100,0.370688265411484,1.23252743073312e-82,NA,NA,NA,NA,NA
ENSG00000237541,HLA-DQA2,18.7622953001599,NA,1.53620229462295e-78,0.584089183053752,0.665075951820878,6.90998738533038e-164,NA,45,45,45,7.28558026176616e-98,0.238250481774415,1.1701252878143e-74,NA,NA,NA,NA,NA
ENSG00000196126,HLA-DRB1,-15.5579367846151,NA,1.40557250591741e-54,0.175866519193365,0.245397569352873,1.54714670824857e-38,NA,36,36,36,2.27401510114415e-81,0.151368442579129,1.07062457775729e-50,NA,NA,NA,NA,NA
ENSG00000173991,TCAP,12.6346919154637,NA,1.35925487708689e-36,0.014334915953335,0.0233955060972578,0.00023445823917333,NA,6,6,6,5.50050520596726e-48,0.119581704493945,1.03534443987708e-32,NA,NA,NA,NA,NA
ENSG00000108344,PSMD3,12.3535164052216,NA,4.66278874887682e-35,0.0061157125193635,0.0126959578083353,0.00659770942737355,NA,5,5,5,3.1480139434702e-43,0.0591064271630469,3.55164619001947e-31,NA,NA,NA,NA,NA
ENSG00000167914,GSDMA,-11.4437623692206,NA,2.52684797513169e-30,0.133481407715454,0.189778112886675,5.34069960255656e-29,NA,15,15,15,3.09011034779582e-29,0.157308976633291,1.92470010265781e-26,GSDMA,-0.0385265,0.044431,0.43,protein_coding
ENSG00000231852,CYP21A2,10.9476697594306,NA,6.81790103893636e-28,0.0167190152402919,0.0179466640138031,0.00129928849931938,NA,35,35,35,7.65023539506702e-53,0.206008946366066,5.19319522135783e-24,NA,NA,NA,NA,NA
ENSG00000161395,PGAP3,10.418703912269,NA,2.03710247066568e-25,0.111781890572566,0.142415613769885,1.79235233159275e-21,NA,23,23,23,1.00221594226341e-25,0.149083426851387,1.55166095190605e-21,NA,NA,NA,NA,NA
ENSG00000180902,D2HGDH,9.55889758178587,NA,1.19017686334055e-21,0.194022137983004,0.263672409273953,1.75919596327029e-42,NA,15,15,15,4.56893459419972e-25,0.348924723998833,9.06557716806494e-18,NA,NA,NA,NA,NA
ENSG00000204482,LST1,9.45252204353192,NA,3.30763262465996e-21,0.00647360174715645,0.0112515175212482,0.0104722782370135,NA,11,11,11,4.71568805726617e-20,0.0791080562120104,2.51942377020349e-17,NA,NA,NA,NA,NA
ENSG00000141744,PNMT,9.26829151099301,NA,1.89151332794685e-20,0.0342475898291039,0.0463311324112254,1.56755193672716e-07,NA,20,20,20,2.99540288033847e-25,0.104466056883387,1.44076570189712e-16,PNMT,0.0545739,0.0662054,0.4,protein_coding
ENSG00000204520,MICA,9.00391662040803,NA,2.178055758516e-19,0.43856699138462,0.493628446007778,2.2402408310495e-96,NA,54,54,54,1.04916080405034e-25,0.125490458488521,1.65902507126164e-15,NA,NA,NA,NA,NA
ENSG00000204498,NFKBIL1,8.93453811449464,NA,4.0888268115835e-19,0.0114227508266604,0.0180183254279841,0.00128351703377271,NA,14,14,14,1.00848284661025e-39,0.103321516021654,3.11445938238316e-15,NA,NA,NA,NA,NA
ENSG00000145777,TSLP,8.91169154467016,NA,5.02597981426432e-19,0.0385453125222555,0.0481273493838075,9.20426025343318e-08,NA,25,25,25,5.63485584694829e-28,0.158941928152745,3.82828882452513e-15,TSLP,-0.135097,0.0992901,0.17,protein_coding
ENSG00000131435,PDLIM4,8.60952040440618,NA,7.33668649329605e-18,0.0129085994325043,0.0270938161719121,6.88758764765618e-05,NA,9,9,9,1.40588329031577e-16,0.0619492169756708,5.5883541019436e-14,NA,NA,NA,NA,NA
ENSG00000204396,VWA7,8.59102987286074,NA,8.61932182420795e-18,0.225053671081127,0.289997591944523,3.74705096273935e-47,NA,56,56,56,4.12884432420034e-20,0.883432851098308,6.5653374334992e-14,NA,NA,NA,NA,NA
ENSG00000111540,RAB5B,-8.29541336280811,NA,1.08208266053202e-16,0.425510849454982,0.530289730301499,5.11859616088032e-110,NA,18,18,18,3.88255531919095e-17,0.228603571644654,8.24222362527241e-13,NA,NA,NA,NA,NA
ENSG00000154252,GAL3ST2,-8.26548192243946,NA,1.39131526694246e-16,0.11831189838766,0.189523271791338,3.00069861006555e-29,NA,9,9,9,2.81839587952265e-16,0.185237115608211,1.05976483883007e-12,NA,NA,NA,NA,NA
ENSG00000244731,C4A,-8.15468825595773,NA,3.50081707909104e-16,0.15458900644045,0.191842857083697,2.55604338327981e-29,NA,47,47,47,3.28079692632608e-27,0.336196604010485,2.66657236914364e-12,NA,NA,NA,NA,NA
ENSG00000197728,RPS26,8.03457576503028,NA,9.39032394144789e-16,0.701213309693297,0.751645257741637,1.2562891036625e-218,NA,48,48,48,3.88255531919095e-17,0.251372135063428,7.15260974620086e-12,NA,NA,NA,NA,NA
ENSG00000131437,KIF3A,-7.80739812546866,NA,5.83806306730896e-15,0.0352570455184632,0.0531109067213041,2.18781566653303e-08,NA,14,14,14,8.63911310562672e-12,0.161994004677185,4.44685263836924e-11,NA,NA,NA,NA,NA
ENSG00000213676,ATF6B,7.66468383075491,NA,1.79272266845709e-14,0.269986792608255,0.293222655398705,4.7707784617121e-48,NA,52,52,52,8.98139647069392e-51,0.285443907515473,1.36551685656376e-10,NA,NA,NA,NA,NA
ENSG00000168394,TAP1,7.29092649674689,NA,3.07830687726084e-13,0.0106610728845146,0.010312067131558,0.014919377551619,NA,23,23,23,1.34805281144791e-18,0.105804790098653,2.34474634840959e-09,NA,NA,NA,NA,NA
ENSG00000241106,HLA-DOB,7.16749794308402,NA,7.63808150474936e-13,0.372964067986179,0.46640645466061,5.39894827101278e-89,NA,47,47,47,5.57452528612996e-33,1.09713671176172,5.81792668216759e-09,NA,NA,NA,NA,NA
ENSG00000204438,GPANK1,-7.06588010429467,NA,1.59601175165723e-12,0.160135245993981,0.212997941209421,3.68857513343231e-33,NA,49,49,49,9.70207390558027e-25,0.230675824502082,1.21568215123731e-08,NA,NA,NA,NA,NA
ENSG00000204305,AGER,6.93636279445749,NA,4.02323613756828e-12,0.036399655878913,0.0482277035967117,7.89223617178942e-08,NA,34,34,34,1.10407974023551e-38,0.411915132066417,3.06449896598576e-08,NA,NA,NA,NA,NA
ENSG00000240065,PSMB9,6.7492571428482,NA,1.48604018699099e-11,0.096105158928639,0.128443466478214,2.73165885895013e-19,NA,37,37,37,2.45624806995657e-25,0.123536134117885,1.13191681043104e-07,NA,NA,NA,NA,NA
ENSG00000115616,SLC9A2,6.71713574407009,NA,1.853313082069e-11,0.205625432074328,0.251684062696024,1.78662593188799e-40,NA,37,37,37,4.14166173427437e-29,0.121126646241051,1.41166857461196e-07,SLC9A2,-0.0280412,0.103709,0.82,protein_coding
ENSG00000204516,MICB,6.60686777488174,NA,3.92536336049182e-11,0.177315379645734,0.212862818248743,2.85616296095607e-33,NA,100,100,100,2.04810623152139e-34,0.225388790333453,2.98994927168662e-07,NA,NA,NA,NA,NA
ENSG00000204469,PRRC2A,6.55975269141622,NA,5.38970891131651e-11,0.0229616641995722,0.0284467949078984,4.76229818836014e-05,NA,43,43,43,6.61781026773346e-46,0.115130841141132,4.10534127774979e-07,NA,NA,NA,NA,NA
ENSG00000204463,BAG6,6.55531321016024,NA,5.55252112881559e-11,0.0625214162180257,0.0487003810564016,8.10119932898668e-08,NA,59,59,59,1.20180827122772e-38,0.33334354292728,4.22935534381883e-07,NA,NA,NA,NA,NA
ENSG00000264968,RP11-387H17.4,-6.50140060305866,NA,7.95756077275242e-11,0.102295512112816,0.185671286193156,1.69729573095612e-28,NA,9,9,9,1.67673552680109e-43,0.461890367159583,6.06127404060552e-07,NA,NA,NA,NA,NA
ENSG00000204420,MPIG6B,-6.48435570296714,NA,8.91117625182505e-11,0.00742811369367489,0.0106959108291723,0.0128671408988897,NA,9,9,9,2.01277697940607e-17,0.155311683314724,6.78764295101514e-07,NA,NA,NA,NA,NA
ENSG00000188389,PDCD1,-6.42742326976206,NA,1.29785069121619e-10,0.0427258127990252,0.0137542432669071,0.00478428775233461,NA,28,28,28,4.56893459419972e-25,0.225206244551954,9.88572871499368e-07,NA,NA,NA,NA,NA
ENSG00000273160,RP11-104L21.3,-6.41500450491641,NA,1.40818697469264e-10,0.0307036473992988,0.0589872122693748,1.95074212883992e-09,NA,10,10,10,1.64685263723945e-12,0.139191456825608,1.07261601862339e-06,NA,NA,NA,NA,NA
ENSG00000153814,JAZF1,-6.37798183008018,NA,1.7943679606239e-10,0.0482368091176653,0.088001370920429,1.98335978150041e-13,NA,12,12,12,9.43963880828777e-12,0.087105578479751,1.36677007560722e-06,NA,NA,NA,NA,NA
ENSG00000149485,FADS1,6.28378132720149,NA,3.3043541295038e-10,0.0631774891262862,0.111151375421911,1.14909524120943e-16,NA,15,15,15,2.37714383639744e-10,0.140119645482051,2.51692654044304e-06,NA,NA,NA,NA,NA
ENSG00000213171,LINGO4,6.24223442570411,NA,4.31363788713264e-10,0.14129344531177,0.220895833957713,4.21649048769661e-34,NA,26,26,26,7.81612650365031e-23,0.553407122980755,3.28569797862893e-06,LINGO4,0.0358467,0.0733447,0.63,protein_coding
ENSG00000169189,NSMCE1,6.17204343167964,NA,6.74129750654923e-10,0.0277308485861376,0.0805542927932939,2.16836648708353e-12,NA,8,8,8,1.85441254615984e-10,0.135183143805654,5.13484631073855e-06,NA,NA,NA,NA,NA
ENSG00000270604,HCG17,-6.15905198488917,NA,7.31817030500725e-10,0.0322279256667065,0.0379305099346018,1.97635668908371e-06,NA,34,34,34,7.62207327882698e-08,0.143963995851959,5.57425032132402e-06,NA,NA,NA,NA,NA
ENSG00000204428,LY6G5C,6.15728169599767,NA,7.40041490469026e-10,0.233682536535268,0.314879467788979,5.8760574127617e-52,NA,16,16,16,7.13443202207044e-15,0.13249285223475,5.63689603290257e-06,NA,NA,NA,NA,NA
ENSG00000197208,SLC22A4,5.93178975414618,NA,2.99650177889155e-09,0.0479306692805704,0.0867127828595648,3.66278013878677e-13,NA,29,29,29,1.52923020226168e-20,0.0943082077527095,2.28243540498169e-05,SLC22A4,-0.109863,0.0954003,0.21,protein_coding
ENSG00000135541,AHI1,-5.92048260079435,NA,3.20998255834762e-09,0.0233952800682265,0.0453635608290782,2.10637984083662e-07,NA,8,8,8,2.6040886131083e-08,0.151625212832468,2.44504371469338e-05,AHI1,-0.0163294,0.0311826,0.59,protein_coding
ENSG00000174165,ZDHHC24,-5.90202244998563,NA,3.59072288124905e-09,0.0454101850234924,0.0591021621639481,2.24038310573997e-09,NA,25,25,25,2.5213497100895e-10,0.324484635454986,2.7350536186474e-05,ZDHHC24,-0.0314395,0.0733404,0.65,protein_coding
ENSG00000258053,CTD-2021H9.3,-5.81130062564817,NA,6.19893292018525e-09,0.102059801003072,0.112205448809824,2.6693195307524e-17,NA,44,44,44,2.9833188177194e-10,0.128563430185041,4.72172720530511e-05,NA,NA,NA,NA,NA
ENSG00000131507,NDFIP1,5.79088841367289,NA,7.00150832974419e-09,0.236711935183694,0.289159904911476,4.24765461443945e-47,NA,49,49,49,3.31464403531215e-09,0.160914773729273,5.33304889476615e-05,NA,NA,NA,NA,NA
ENSG00000134824,FADS2,-5.77563794939661,NA,7.66620600915668e-09,0.0506173704593358,0.0909680675935019,4.86408276268181e-14,NA,5,5,5,2.37714383639744e-10,0.205182505109887,5.83934911717464e-05,NA,NA,NA,NA,NA
ENSG00000139531,SUOX,-5.66648786614444,NA,1.45754147625759e-08,0.0360699301018994,0.0456816633008887,2.10948214682908e-07,NA,25,25,25,1.84594736070865e-15,0.125684887823888,0.000111020934246541,SUOX,-0.149448,0.0953978,0.12,protein_coding
ENSG00000008838,MED24,5.65679707401593,NA,1.54223925211026e-08,0.176029253192378,0.227090018588873,2.22518888033811e-35,NA,22,22,22,8.78256540882142e-24,0.175140468799759,0.000117472363833238,MED24,-0.0720694,0.0501935,0.15,protein_coding
ENSG00000103599,IQCH,5.61282474844927,NA,1.9905016899456e-08,0.0129541249508775,0.0231454542270514,0.000234734695609697,NA,15,15,15,2.11253355574102e-13,0.0883294239052317,0.000151616513723156,IQCH,-0.036121,0.0414363,0.32,protein_coding
ENSG00000176946,THAP4,5.37456460183341,NA,7.67679565230444e-08,0.0531890302467915,0.0587389172143715,3.51326602212243e-09,NA,26,26,26,1.32730747172799e-12,0.125492892682463,0.000584741524836029,NA,NA,NA,NA,NA
ENSG00000138688,KIAA1109,-5.36479545290164,NA,8.1041004720604e-08,0.0183105358140986,0.0607637210795551,1.44976996156655e-09,NA,6,6,6,1.14196251099425e-13,0.108259779940674,0.000617289332956841,KIAA1109,-0.00342258,0.0430215,0.93,protein_coding
ENSG00000137310,TCF19,-5.32554092756666,NA,1.00653048660248e-07,0.0745305468161338,0.122317348262303,2.54870750354187e-18,NA,36,36,36,1.77985512130335e-20,0.260853551354188,0.000766674271645111,NA,NA,NA,NA,NA
ENSG00000225948,RP11-554I8.1,5.25044699210175,NA,1.5173056427881e-07,0.0187995085323578,0.0148847293687551,0.00333140298694731,NA,31,31,31,2.95484377197635e-07,0.20658687659603,0.00115573170811169,NA,NA,NA,NA,NA
ENSG00000134825,TMEM258,-5.12623052176841,NA,2.95600644108109e-07,0.0502711055469103,0.0728669330134036,3.6329663056807e-11,NA,24,24,24,7.99369876795076e-11,0.62360279264951,0.00225159010617147,NA,NA,NA,NA,NA
ENSG00000224389,C4B,5.04335397189218,NA,4.57441896358811e-07,0.078085212658251,0.0674477840356043,1.97247984774573e-10,NA,58,58,58,3.28079692632608e-27,0.339014433139067,0.00348433492456506,NA,NA,NA,NA,NA
ENSG00000152804,HHEX,4.97605524973789,NA,6.48931321012722e-07,0.00873809807624809,0.0133560310474915,0.00535615484856554,NA,17,17,17,1.96275269971337e-05,0.17472659068332,0.0049429098721539,NA,NA,NA,NA,NA
ENSG00000186470,BTN3A2,-4.92839506463444,NA,8.29078432128415e-07,0.427560183583689,0.515966950348272,6.06756195549423e-105,NA,48,48,48,1.58740612906168e-07,0.170172031028049,0.00631509041752213,NA,NA,NA,NA,NA
ENSG00000174903,RAB1B,-4.91286248610042,NA,8.97562314492026e-07,0.0132761248237957,0.0125516454118977,0.0072076553248117,NA,19,19,19,2.5213497100895e-10,0.0964065155550721,0.00683673214948576,NA,NA,NA,NA,NA
ENSG00000135502,SLC26A10,-4.79952975957876,NA,1.59038603742825e-06,0.0669975071148227,0.0561522476548416,6.32318577213846e-09,NA,51,51,51,4.02312361287708e-06,0.337588529025943,0.012113970447091,SLC26A10,0.0832812,0.0573448,0.15,protein_coding
ENSG00000155666,KDM8,-4.761454574598,NA,1.92202564934927e-06,0.0204297330657168,0.0476165038482924,1.12074178338545e-07,NA,9,9,9,3.80275432437058e-05,0.161955543526868,0.0146400693710934,NA,NA,NA,NA,NA
ENSG00000167077,MEI1,4.75882517042017,NA,1.94723000729502e-06,0.0551134094057674,0.106283209844543,2.93042640706835e-16,NA,9,9,9,1.58199958268386e-06,0.138508186826913,0.0148320509655662,MEI1,-0.0479714,0.0717281,0.51,protein_coding
ENSG00000157837,SPPL3,4.75179101558133,NA,2.01622705935824e-06,0.0184039983450353,0.0392435155156175,1.35469683029855e-06,NA,8,8,8,4.54576247517332e-06,0.103467332305754,0.0153576015111317,NA,NA,NA,NA,NA
ENSG00000204435,CSNK2B,-4.69229448981055,NA,2.70157864578989e-06,0.0550324711513439,0.0618647484960326,8.91625054148779e-10,NA,42,42,42,3.57287566511376e-100,0.270186654750801,0.0205779245449816,NA,NA,NA,NA,NA
ENSG00000006062,MAP3K14,-4.6759851256649,NA,2.92545812019609e-06,0.0362979261084789,0.0463254418803447,1.52141675568567e-07,NA,15,15,15,3.55798453196491e-09,0.147802997637855,0.0222832145015336,NA,NA,NA,NA,NA
ENSG00000135074,ADAM19,4.65805336873775,NA,3.19213468345153e-06,0.102161253363185,0.148289711980034,1.86148617121252e-22,NA,41,41,41,5.25774021123519e-09,0.106042708349491,0.0243144898838503,ADAM19,0.0336467,0.0638855,0.62,protein_coding
ENSG00000141699,FAM134C,-4.6503428064119,NA,3.31383743241448e-06,0.0266449157849611,0.0402710417839498,1.01052452203786e-06,NA,16,16,16,2.68225679565944e-06,0.149038836181889,0.0252414997227011,NA,NA,NA,NA,NA
ENSG00000203896,LIME1,-4.65020076175565,NA,3.31612066353879e-06,0.0362186213367912,0.059470996217351,2.39412752281487e-09,NA,26,26,26,4.22666050818093e-05,0.121587043995833,0.0252588910941749,LIME1,0.0154599,0.0405647,0.66,protein_coding
ENSG00000100417,PMM1,-4.63367320976026,NA,3.59233920606045e-06,0.127944878673891,0.123946471144836,7.50052395834347e-19,NA,35,35,35,8.17790846627613e-07,0.327079485162872,0.0273628477325624,PMM1,0.0995663,0.0953981,0.29,protein_coding
ENSG00000228889,UBAC2-AS1,4.62475721519466,NA,3.75037427082504e-06,0.0231368943693512,0.0347272056167609,6.46755346538281e-06,NA,16,16,16,1.65460848942352e-11,0.132569152759249,0.0285666008208743,NA,NA,NA,NA,NA
ENSG00000197062,ZSCAN26,-4.60559326324065,NA,4.11291600035186e-06,0.0870436482218938,0.121026063718164,4.44698656309723e-18,NA,31,31,31,9.19170890198463e-07,0.0941508671867424,0.0313280811746802,NA,NA,NA,NA,NA
ENSG00000065029,ZNF76,-4.60326313788264,NA,4.15922175834625e-06,0.0173453656639009,0.0296749264977637,3.18636892243866e-05,NA,22,22,22,3.57082185182648e-07,0.0365853262926109,0.0316807921333234,ZNF76,0.053246,0.0888125,0.53,protein_coding
ENSG00000204475,NCR3,4.57742970135192,NA,4.70723900646071e-06,0.0220189495293871,0.0240794491894142,0.000172307386447068,NA,34,34,34,9.62673644982566e-10,0.258936587971814,0.0358550395122113,NA,NA,NA,NA,NA
ENSG00000158062,UBXN11,4.56075361040959,NA,5.09703606402499e-06,0.0422764663729466,0.0664019120880309,2.4724136668306e-10,NA,20,20,20,8.30269509012058e-06,0.0676708508008281,0.0388241236996784,UBXN11,-0.00415714,0.0420493,0.87,protein_coding
ENSG00000234745,HLA-B,4.53912521043745,NA,5.64880873067549e-06,0.0770590032297138,0.100345502215502,3.34837282043556e-15,NA,42,42,42,7.05433392636381e-18,0.209871283144174,0.0430269761015552,NA,NA,NA,NA,NA
ENSG00000204257,HLA-DMA,4.51823042294516,NA,6.23586014689602e-06,0.219749958822396,0.282594518327474,1.42341959842272e-46,NA,54,54,54,8.67691297172052e-12,0.796944136151885,0.0474985467389069,NA,NA,NA,NA,NA
