gene,gene_name.x,zscore,effect_size,pvalue,var_g,pred_perf_r2,pred_perf_pval,pred_perf_qval,n_snps_used,n_snps_in_cov,n_snps_in_model,best_gwas_p,largest_weight,bonferroni_p,gene_name.y,rare_assoc_effect_size,rare_assoc_se,rare_assoc_pval,gene_type
ENSG00000204520,MICA,-21.3588966320174,NA,3.22335224972158e-101,0.43856699138462,0.493628446007778,2.2402408310495e-96,NA,54,54,54,1.15957795365179e-238,0.125490458488521,2.45522740861293e-97,NA,NA,NA,NA,NA
ENSG00000226979,LTA,19.6237144774481,NA,9.69997000604545e-86,0.00668057933728872,0.0162145782005024,0.00224613472834689,NA,8,8,8,1.62298133588528e-86,0.0833803888910463,7.38846715360482e-82,NA,NA,NA,NA,NA
ENSG00000272221,XXbac-BPG181B23.7,-19.16374750119,NA,7.43242459246615e-82,0.47603201431679,0.56332303301098,1.38530680067702e-120,NA,50,50,50,1.32424332977567e-109,0.338404103948019,5.66127781208147e-78,NA,NA,NA,NA,NA
ENSG00000204531,POU5F1,-12.2436261574091,NA,1.81728295443739e-34,0.220583792759534,0.274519222276433,6.34760971011677e-44,NA,56,56,56,2.09095742754935e-119,0.275992117115098,1.38422442639496e-30,NA,NA,NA,NA,NA
ENSG00000198563,DDX39B,-11.996986913254,NA,3.68467563288935e-33,0.00915917882221025,0.0253452783088606,0.000111943463274998,NA,5,5,5,2.45359701550412e-67,0.118551219416429,2.80661742957182e-29,NA,NA,NA,NA,NA
ENSG00000204287,HLA-DRA,10.2076684137282,NA,1.83214464220648e-24,0.0489621384219066,0.0996098523675136,6.42044751360898e-15,NA,11,11,11,6.30089658588383e-52,0.0906018564237395,1.39554457396868e-20,NA,NA,NA,NA,NA
ENSG00000204525,HLA-C,-9.84438028521952,NA,7.24845480691162e-23,0.559883752564336,0.627782796062156,8.85653013681321e-148,NA,101,101,101,5.2541335010474e-83,0.233551454548086,5.52114802642458e-19,NA,NA,NA,NA,NA
ENSG00000204540,PSORS1C1,9.27495248757632,NA,1.77698222455483e-20,0.0723020412063762,0.123857575836027,1.5155472160454e-18,NA,24,24,24,2.02619081295568e-34,0.0735458946595774,1.35352736044341e-16,NA,NA,NA,NA,NA
ENSG00000204310,AGPAT1,9.00683509956751,NA,2.12088632964948e-19,0.0105917618152243,0.0204449236591402,0.000552067609611158,NA,20,20,20,1.12018311673356e-12,0.123973691344347,1.61547911729401e-15,NA,NA,NA,NA,NA
ENSG00000204356,NELFE,-8.83411185191725,NA,1.00896657229622e-18,0.0566879917901001,0.07936503862526,4.55923488347284e-12,NA,32,32,32,0,0.0873853025275994,7.68529838118034e-15,NA,NA,NA,NA,NA
ENSG00000204444,APOM,8.77362264104914,NA,1.73008327392849e-18,0.0894897183979727,0.0968415954402206,1.36217236438699e-14,NA,81,81,81,4.92046794219374e-40,0.112003911511029,1.31780442975133e-14,NA,NA,NA,NA,NA
ENSG00000221988,PPT2,-8.7025931605397,NA,3.24385152907487e-18,0.0244666964793825,0.0187754357559225,0.00093940554859953,NA,33,33,33,4.03422581071808e-37,0.144952846157127,2.47084170969633e-14,NA,NA,NA,NA,NA
ENSG00000204308,RNF5,8.50392816733445,NA,1.83280970045822e-17,0.230792261542666,0.281572242409183,3.61689968272276e-45,NA,62,62,62,1.53541203903598e-97,0.120809933229362,1.39605114883903e-13,NA,NA,NA,NA,NA
ENSG00000204498,NFKBIL1,-7.39425150876988,NA,1.42207021792015e-13,0.0114227508266604,0.0180183254279841,0.00128351703377271,NA,14,14,14,4.17687386597214e-50,0.103321516021654,1.08319088498978e-09,NA,NA,NA,NA,NA
ENSG00000204475,NCR3,-7.11036236186999,NA,1.15738674114625e-12,0.0220189495293871,0.0240794491894142,0.000172307386447068,NA,34,34,34,5.10558036237478e-69,0.258936587971814,8.81581480731102e-09,NA,NA,NA,NA,NA
ENSG00000234745,HLA-B,6.36170919118768,NA,1.9952093244763e-10,0.0770590032297138,0.100345502215502,3.34837282043556e-15,NA,42,42,42,6.47539644333784e-80,0.209871283144174,1.5197509424536e-06,NA,NA,NA,NA,NA
ENSG00000204580,DDR1,-6.28622192266118,NA,3.25284863607471e-10,0.0054390561287601,0.0129795455042159,0.00592421953390236,NA,11,11,11,6.30089658588383e-52,0.0499485943512951,2.4776948060981e-06,NA,NA,NA,NA,NA
ENSG00000204344,STK19,-5.70989611518436,NA,1.13045154686726e-08,0.0534842195693346,0.0563521657048792,6.90606629767116e-09,NA,56,56,56,0,0.360968525094347,8.6106494324879e-05,NA,NA,NA,NA,NA
ENSG00000187987,ZSCAN23,-5.28894501480653,NA,1.23023863577506e-07,0.279533412688117,0.329914714341709,6.3694229770216e-55,NA,15,15,15,8.43073059204141e-10,0.225283821057977,0.000937072768869867,ZSCAN23,NA,NA,NA,protein_coding
ENSG00000231852,CYP21A2,-5.23679497550482,NA,1.63389019515775e-07,0.0167190152402919,0.0179466640138031,0.00129928849931938,NA,35,35,35,6.34428866097314e-20,0.206008946366066,0.00124453416165166,NA,NA,NA,NA,NA
ENSG00000213676,ATF6B,5.13329653087085,NA,2.84710798201615e-07,0.269986792608255,0.293222655398705,4.7707784617121e-48,NA,52,52,52,2.91389122937093e-55,0.285443907515473,0.0021686421499017,NA,NA,NA,NA,NA
ENSG00000204642,HLA-F,4.55930817961349,NA,5.13224104060157e-06,0.0284581473070695,0.0259721670024782,9.26059877874846e-05,NA,71,74,74,5.49060437098128e-11,0.0498629588159509,0.0390922800062622,NA,NA,NA,NA,NA
ENSG00000204392,LSM2,4.55104947882256,NA,5.33789923378927e-06,0.0299773523091129,0.0529517135399771,1.63316244312464e-08,NA,16,16,16,4.44862080813355e-19,0.459421470729817,0.0406587784637728,NA,NA,NA,NA,NA
ENSG00000137310,TCF19,-4.54056009210454,NA,5.61049847539196e-06,0.0745305468161338,0.122317348262303,2.54870750354187e-18,NA,36,36,36,3.05505460650027e-58,0.260853551354188,0.0427351668870605,NA,NA,NA,NA,NA
