gene,gene_name.x,zscore,effect_size,pvalue,var_g,pred_perf_r2,pred_perf_pval,pred_perf_qval,n_snps_used,n_snps_in_cov,n_snps_in_model,best_gwas_p,largest_weight,bonferroni_p,gene_name.y,rare_assoc_effect_size,rare_assoc_se,rare_assoc_pval,gene_type
ENSG00000244731,C4A,-21.5217830147456,NA,9.73461557468339e-103,0.15458900644045,0.191842857083697,2.55604338327981e-29,NA,47,47,47,3.87101762103879e-120,0.336196604010485,7.41485668323634e-99,NA,NA,NA,NA,NA
ENSG00000231852,CYP21A2,18.6042540323155,NA,2.96793932975573e-77,0.0167190152402919,0.0179466640138031,0.00129928849931938,NA,35,35,35,3.4710801956517e-97,0.206008946366066,2.26067938747494e-73,NA,NA,NA,NA,NA
ENSG00000224389,C4B,17.4345544174273,NA,4.51061606111959e-68,0.078085212658251,0.0674477840356043,1.97247984774573e-10,NA,58,58,58,2.65283683055479e-98,0.339014433139067,3.43573625375479e-64,NA,NA,NA,NA,NA
ENSG00000204257,HLA-DMA,17.1706507373261,NA,4.40454234296203e-66,0.219749958822396,0.282594518327474,1.42341959842272e-46,NA,54,54,54,1.2059266509983e-88,0.796944136151885,3.35493990263418e-62,NA,NA,NA,NA,NA
ENSG00000204516,MICB,16.2190858938464,NA,3.69655336642594e-59,0.177315379645734,0.212862818248743,2.85616296095607e-33,NA,100,100,100,1.21476299370643e-76,0.225388790333453,2.81566469920664e-55,NA,NA,NA,NA,NA
ENSG00000221988,PPT2,14.8861266771394,NA,4.05595836467599e-50,0.0244666964793825,0.0187754357559225,0.00093940554859953,NA,33,33,33,6.06974516064515e-46,0.144952846157127,3.0894234863737e-46,NA,NA,NA,NA,NA
ENSG00000213722,DDAH2,-14.7381427872403,NA,3.66731929291814e-49,0.0550020849442162,0.0749939046939956,1.78749893401077e-11,NA,24,24,24,3.42658424974395e-45,0.114481496228979,2.79339710541574e-45,NA,NA,NA,NA,NA
ENSG00000204444,APOM,-14.1925817892031,NA,1.01839222201369e-45,0.0894897183979727,0.0968415954402206,1.36217236438699e-14,NA,81,81,81,5.93384738988691e-86,0.112003911511029,7.75709355507825e-42,NA,NA,NA,NA,NA
ENSG00000204525,HLA-C,14.0363339957127,NA,9.34218109979573e-45,0.559883752564336,0.627782796062156,8.85653013681321e-148,NA,101,101,101,1.05905569081735e-106,0.233551454548086,7.1159393437144e-41,NA,NA,NA,NA,NA
ENSG00000168394,TAP1,12.9444729772279,NA,2.52489997145226e-38,0.0106610728845146,0.010312067131558,0.014919377551619,NA,23,23,23,8.66684876856769e-111,0.105804790098653,1.92321630825519e-34,NA,NA,NA,NA,NA
ENSG00000204301,NOTCH4,-12.0037019710041,NA,3.39752571107082e-33,0.209798036022408,0.27764445539294,7.87711090103146e-45,NA,36,36,36,1.06300237522429e-51,0.369131234244604,2.58789533412264e-29,NA,NA,NA,NA,NA
ENSG00000204308,RNF5,-10.6833675803045,NA,1.21772459692358e-26,0.230792261542666,0.281572242409183,3.61689968272276e-45,NA,62,62,62,1.66130644371558e-42,0.120809933229362,9.27540825476692e-23,NA,NA,NA,NA,NA
ENSG00000204351,SKIV2L,-10.5164840907301,NA,7.2529787375592e-26,0.111854606868751,0.140828242046149,3.18638981682566e-21,NA,48,48,48,6.16302540763329e-40,0.13399458271,5.52459390439884e-22,NA,NA,NA,NA,NA
ENSG00000204469,PRRC2A,-10.0632266915407,NA,8.03217405698121e-24,0.0229616641995722,0.0284467949078984,4.76229818836014e-05,NA,43,43,43,4.09046170234092e-33,0.115130841141132,6.11810697920259e-20,NA,NA,NA,NA,NA
ENSG00000240065,PSMB9,9.98503441964773,NA,1.77239558442585e-23,0.096105158928639,0.128443466478214,2.73165885895013e-19,NA,37,37,37,1.40867168949783e-109,0.123536134117885,1.35003371665717e-19,NA,NA,NA,NA,NA
ENSG00000204632,HLA-G,-9.55384506811138,NA,1.24969976256101e-21,0.178446748800355,0.208787209393294,1.99202990517357e-32,NA,56,56,56,6.13107896091465e-60,0.282139762087279,9.51896309142718e-18,NA,NA,NA,NA,NA
ENSG00000204287,HLA-DRA,-9.24125302693134,NA,2.43627260252215e-20,0.0489621384219066,0.0996098523675136,6.42044751360898e-15,NA,11,11,11,1.92021755195784e-34,0.0906018564237395,1.85570884134112e-16,NA,NA,NA,NA,NA
ENSG00000204713,TRIM27,-8.9447833422646,NA,3.72680097495188e-19,0.0821375275092573,0.0961833279846604,2.09679578032809e-14,NA,69,70,70,1.18557509590542e-32,0.109222565854313,2.83870430262085e-15,NA,NA,NA,NA,NA
ENSG00000237541,HLA-DQA2,-8.91702839609147,NA,4.78966909444496e-19,0.584089183053752,0.665075951820878,6.90998738533038e-164,NA,45,45,45,2.17019738632781e-43,0.238250481774415,3.64829094923873e-15,NA,NA,NA,NA,NA
ENSG00000204540,PSORS1C1,-8.45317479184864,NA,2.83486790364319e-17,0.0723020412063762,0.123857575836027,1.5155472160454e-18,NA,24,24,24,2.1524449413901e-40,0.0735458946595774,2.15931888220502e-13,NA,NA,NA,NA,NA
ENSG00000186470,BTN3A2,-8.318383780537,NA,8.91708768417036e-17,0.427560183583689,0.515966950348272,6.06756195549423e-105,NA,48,48,48,1.13505759781141e-16,0.170172031028049,6.79214568903256e-13,NA,NA,NA,NA,NA
ENSG00000204356,NELFE,8.00857271504348,NA,1.16047339531503e-15,0.0566879917901001,0.07936503862526,4.55923488347284e-12,NA,32,32,32,2.69128045598775e-59,0.0873853025275994,8.8393258521146e-12,NA,NA,NA,NA,NA
ENSG00000228789,HCG22,-7.80062623011916,NA,6.16007141665781e-15,0.0708155814927396,0.109673436434724,2.040936141559e-16,NA,41,41,41,2.18320766442716e-20,0.0766592874151712,4.69212639806825e-11,NA,NA,NA,NA,NA
ENSG00000204438,GPANK1,-7.22853278295162,NA,4.88239981268534e-13,0.160135245993981,0.212997941209421,3.68857513343231e-33,NA,49,49,49,3.87101762103879e-120,0.230675824502082,3.71892393732242e-09,NA,NA,NA,NA,NA
ENSG00000198502,HLA-DRB5,-7.0422175945147,NA,1.8920404393597e-12,0.607526584277565,0.696474986931419,2.17791978902533e-181,NA,53,53,53,7.93094157872532e-90,0.382146318757031,1.44116720266029e-08,NA,NA,NA,NA,NA
ENSG00000204463,BAG6,-6.87817584208984,NA,6.0623812081215e-12,0.0625214162180257,0.0487003810564016,8.10119932898668e-08,NA,59,59,59,7.03766892825136e-25,0.33334354292728,4.61771576622615e-08,NA,NA,NA,NA,NA
ENSG00000137411,VARS2,-6.8339974353632,NA,8.25805014844062e-12,0.284153699844253,0.33958315459092,3.60009793262154e-57,NA,48,48,48,4.85709360797095e-21,0.137042586583941,6.29015679806722e-08,NA,NA,NA,NA,NA
ENSG00000196126,HLA-DRB1,6.71979467006656,NA,1.81980815235866e-11,0.175866519193365,0.245397569352873,1.54714670824857e-38,NA,36,36,36,1.25172114905085e-42,0.151368442579129,1.38614786965159e-07,NA,NA,NA,NA,NA
ENSG00000270604,HCG17,-6.48454470642398,NA,8.90001322067069e-11,0.0322279256667065,0.0379305099346018,1.97635668908371e-06,NA,34,34,34,1.04460433867173e-34,0.143963995851959,6.77914007018487e-07,NA,NA,NA,NA,NA
ENSG00000197062,ZSCAN26,-6.20043855810312,NA,5.63060387611557e-10,0.0870436482218938,0.121026063718164,4.44698656309723e-18,NA,31,31,31,2.52880015176014e-19,0.0941508671867424,4.28883097243723e-06,NA,NA,NA,NA,NA
ENSG00000204310,AGPAT1,-6.14059828452183,NA,8.2211249100582e-10,0.0105917618152243,0.0204449236591402,0.000552067609611158,NA,20,20,20,1.07804640990338e-39,0.123973691344347,6.26203084399133e-06,NA,NA,NA,NA,NA
ENSG00000204348,DXO,6.12495792627438,NA,9.0707572367023e-10,0.0854831480747497,0.111458469401856,4.85570393999207e-17,NA,64,64,64,3.27968552443988e-80,0.802587240676615,6.90919578719615e-06,NA,NA,NA,NA,NA
ENSG00000204580,DDR1,6.09051942363076,NA,1.12544927524498e-09,0.0054390561287601,0.0129795455042159,0.00592421953390236,NA,11,11,11,2.06346866136207e-18,0.0499485943512951,8.57254712954098e-06,NA,NA,NA,NA,NA
ENSG00000204267,TAP2,6.03993959275176,NA,1.54171934811916e-09,0.120861335405684,0.171658842975,7.2256954997767e-26,NA,31,31,31,3.26687382899511e-98,0.412344599620993,1.17432762746236e-05,NA,NA,NA,NA,NA
ENSG00000204482,LST1,5.87919755932486,NA,4.12260102062077e-09,0.00647360174715645,0.0112515175212482,0.0104722782370135,NA,11,11,11,2.18118357320793e-14,0.0791080562120104,3.14018519740684e-05,NA,NA,NA,NA,NA
ENSG00000204531,POU5F1,5.67881145007576,NA,1.35633887827892e-08,0.220583792759534,0.274519222276433,6.34760971011677e-44,NA,56,56,56,7.0565471979913e-26,0.275992117115098,0.000103312332358505,NA,NA,NA,NA,NA
ENSG00000204475,NCR3,5.55309892404974,NA,2.80649143284554e-08,0.0220189495293871,0.0240794491894142,0.000172307386447068,NA,34,34,34,2.5811592033958e-43,0.258936587971814,0.000213770452439845,NA,NA,NA,NA,NA
ENSG00000204305,AGER,5.44399258862476,NA,5.20993885768122e-08,0.036399655878913,0.0482277035967117,7.89223617178942e-08,NA,34,34,34,3.6915969134034e-52,0.411915132066417,0.000396841042789578,NA,NA,NA,NA,NA
ENSG00000232629,HLA-DQB2,5.43357970748222,NA,5.52345935428522e-08,0.490369261468739,0.594591204471795,4.94496566412948e-134,NA,30,30,30,8.99831062677473e-37,0.370688265411484,0.000420721899015905,NA,NA,NA,NA,NA
ENSG00000204392,LSM2,5.3975331840437,NA,6.75633804766256e-08,0.0299773523091129,0.0529517135399771,1.63316244312464e-08,NA,16,16,16,4.09046170234092e-33,0.459421470729817,0.000514630269090457,NA,NA,NA,NA,NA
ENSG00000231389,HLA-DPA1,-5.25719114707988,NA,1.46272258671535e-07,0.0573143236877599,0.11020899664978,1.66441438390957e-16,NA,19,19,19,1.42653655265881e-08,0.0764803402181777,0.00111415579430108,NA,NA,NA,NA,NA
ENSG00000204228,HSD17B8,5.12604349975712,NA,2.95894269633702e-07,0.190732814104496,0.267003352040862,1.87336026994605e-42,NA,58,58,58,1.18113746724727e-34,0.238143108720244,0.00225382665179991,NA,NA,NA,NA,NA
ENSG00000187987,ZSCAN23,5.02159294494288,NA,5.1244695621971e-07,0.279533412688117,0.329914714341709,6.3694229770216e-55,NA,15,15,15,6.29090332256772e-12,0.225283821057977,0.00390330846552553,ZSCAN23,NA,NA,NA,protein_coding
ENSG00000179344,HLA-DQB1,-4.9833000297174,NA,6.25089105824462e-07,0.553879611937781,0.648278912665089,1.02257856914307e-155,NA,39,39,39,2.33335666901182e-78,0.463980793993172,0.00476130371906492,NA,NA,NA,NA,NA
ENSG00000241370,RPP21,4.54856036477649,NA,5.40141503546835e-06,0.0569444767112277,0.0750671841791382,1.88997515136927e-11,NA,50,50,50,1.66740536852181e-26,0.0622238708550888,0.0411425783251624,NA,NA,NA,NA,NA
