ENSG00000000003
ENSG00000004399
ENSG00000007314
ENSG00000007341
ENSG00000007541
ENSG00000008710
ENSG00000010030
ENSG00000010165
ENSG00000010803
ENSG00000013810
ENSG00000014914
ENSG00000015413
ENSG00000022976
ENSG00000023892
ENSG00000025293
ENSG00000025434
ENSG00000047662
ENSG00000049089
ENSG00000049192
ENSG00000049247
ENSG00000050165
ENSG00000053900
ENSG00000055483
ENSG00000055950
ENSG00000055955
ENSG00000057019
ENSG00000060718
ENSG00000063169
ENSG00000063177
ENSG00000064225
ENSG00000064313
ENSG00000065029
ENSG00000065060
ENSG00000065243
ENSG00000066427
ENSG00000066654
ENSG00000066827
ENSG00000067208
ENSG00000067225
ENSG00000068784
ENSG00000070061
ENSG00000070081
ENSG00000072682
ENSG00000073711
ENSG00000074621
ENSG00000075292
ENSG00000075420
ENSG00000077935
ENSG00000078177
ENSG00000078814
ENSG00000080802
ENSG00000081014
ENSG00000083097
ENSG00000084093
ENSG00000084734
ENSG00000085832
ENSG00000087085
ENSG00000087116
ENSG00000088543
ENSG00000088970
ENSG00000089053
ENSG00000090905
ENSG00000090971
ENSG00000092607
ENSG00000095015
ENSG00000095752
ENSG00000100101
ENSG00000100154
ENSG00000100376
ENSG00000100678
ENSG00000100815
ENSG00000100938
ENSG00000100991
ENSG00000101000
ENSG00000101019
ENSG00000101417
ENSG00000101557
ENSG00000101955
ENSG00000102893
ENSG00000102901
ENSG00000102977
ENSG00000103051
ENSG00000103196
ENSG00000103199
ENSG00000103335
ENSG00000103591
ENSG00000104679
ENSG00000105341
ENSG00000105429
ENSG00000105705
ENSG00000106483
ENSG00000106823
ENSG00000107566
ENSG00000107679
ENSG00000108187
ENSG00000108439
ENSG00000108576
ENSG00000108788
ENSG00000109182
ENSG00000109458
ENSG00000109805
ENSG00000111666
ENSG00000112039
ENSG00000112414
ENSG00000112576
ENSG00000112964
ENSG00000113360
ENSG00000113739
ENSG00000114270
ENSG00000114902
ENSG00000115474
ENSG00000115568
ENSG00000115657
ENSG00000115677
ENSG00000115970
ENSG00000116698
ENSG00000117676
ENSG00000118369
ENSG00000118898
ENSG00000118900
ENSG00000119685
ENSG00000120071
ENSG00000120129
ENSG00000120820
ENSG00000121075
ENSG00000121210
ENSG00000121680
ENSG00000121988
ENSG00000123106
ENSG00000123154
ENSG00000123427
ENSG00000123500
ENSG00000124067
ENSG00000124126
ENSG00000124201
ENSG00000124203
ENSG00000124216
ENSG00000124228
ENSG00000124507
ENSG00000124557
ENSG00000124568
ENSG00000124678
ENSG00000124782
ENSG00000124783
ENSG00000124789
ENSG00000125965
ENSG00000125967
ENSG00000125975
ENSG00000128655
ENSG00000129003
ENSG00000129214
ENSG00000129353
ENSG00000130338
ENSG00000130779
ENSG00000130816
ENSG00000131746
ENSG00000131873
ENSG00000132386
ENSG00000133121
ENSG00000134013
ENSG00000134318
ENSG00000134571
ENSG00000135452
ENSG00000135469
ENSG00000135587
ENSG00000135698
ENSG00000135845
ENSG00000135862
ENSG00000136014
ENSG00000136436
ENSG00000137070
ENSG00000137309
ENSG00000137392
ENSG00000137806
ENSG00000137868
ENSG00000138031
ENSG00000138079
ENSG00000138092
ENSG00000138336
ENSG00000138347
ENSG00000138735
ENSG00000138777
ENSG00000138821
ENSG00000138829
ENSG00000139155
ENSG00000139645
ENSG00000139697
ENSG00000140464
ENSG00000140470
ENSG00000140511
ENSG00000140525
ENSG00000140545
ENSG00000140691
ENSG00000140983
ENSG00000141458
ENSG00000142273
ENSG00000142303
ENSG00000142675
ENSG00000143384
ENSG00000143393
ENSG00000143740
ENSG00000144560
ENSG00000144567
ENSG00000144649
ENSG00000145826
ENSG00000146039
ENSG00000146205
ENSG00000146426
ENSG00000146966
ENSG00000147454
ENSG00000147697
ENSG00000148396
ENSG00000149646
ENSG00000149679
ENSG00000150457
ENSG00000150867
ENSG00000151208
ENSG00000151718
ENSG00000151929
ENSG00000152092
ENSG00000152492
ENSG00000152785
ENSG00000154309
ENSG00000154767
ENSG00000155085
ENSG00000155542
ENSG00000155957
ENSG00000156140
ENSG00000156218
ENSG00000157045
ENSG00000157227
ENSG00000157429
ENSG00000157551
ENSG00000157766
ENSG00000158113
ENSG00000159224
ENSG00000159363
ENSG00000159708
ENSG00000159720
ENSG00000159723
ENSG00000160058
ENSG00000160685
ENSG00000160796
ENSG00000160801
ENSG00000160867
ENSG00000161896
ENSG00000162004
ENSG00000162337
ENSG00000162341
ENSG00000162517
ENSG00000162998
ENSG00000163257
ENSG00000163482
ENSG00000163501
ENSG00000163629
ENSG00000163888
ENSG00000163938
ENSG00000163946
ENSG00000164199
ENSG00000164287
ENSG00000164393
ENSG00000164399
ENSG00000164615
ENSG00000164741
ENSG00000165140
ENSG00000165240
ENSG00000165661
ENSG00000165671
ENSG00000165915
ENSG00000166024
ENSG00000166025
ENSG00000166272
ENSG00000166573
ENSG00000167077
ENSG00000167543
ENSG00000167625
ENSG00000167965
ENSG00000168056
ENSG00000168096
ENSG00000168631
ENSG00000168646
ENSG00000168769
ENSG00000168917
ENSG00000168944
ENSG00000169071
ENSG00000169228
ENSG00000169515
ENSG00000170581
ENSG00000170776
ENSG00000170891
ENSG00000170917
ENSG00000171055
ENSG00000171681
ENSG00000171790
ENSG00000172037
ENSG00000172053
ENSG00000172071
ENSG00000172340
ENSG00000173327
ENSG00000173826
ENSG00000173926
ENSG00000174177
ENSG00000174282
ENSG00000174576
ENSG00000174807
ENSG00000174844
ENSG00000174945
ENSG00000174989
ENSG00000175166
ENSG00000175318
ENSG00000175426
ENSG00000175467
ENSG00000175513
ENSG00000175782
ENSG00000175938
ENSG00000176208
ENSG00000176390
ENSG00000176971
ENSG00000177058
ENSG00000177191
ENSG00000177675
ENSG00000177853
ENSG00000178209
ENSG00000178685
ENSG00000178966
ENSG00000178997
ENSG00000179008
ENSG00000179300
ENSG00000179954
ENSG00000180061
ENSG00000180376
ENSG00000180999
ENSG00000181019
ENSG00000181513
ENSG00000181555
ENSG00000181690
ENSG00000181896
ENSG00000182158
ENSG00000182223
ENSG00000182752
ENSG00000184047
ENSG00000184445
ENSG00000184560
ENSG00000185250
ENSG00000185920
ENSG00000186280
ENSG00000186868
ENSG00000187091
ENSG00000187475
ENSG00000187837
ENSG00000188782
ENSG00000188786
ENSG00000196155
ENSG00000196335
ENSG00000196391
ENSG00000196498
ENSG00000196586
ENSG00000196597
ENSG00000196739
ENSG00000197208
ENSG00000197249
ENSG00000197647
ENSG00000197653
ENSG00000197696
ENSG00000198056
ENSG00000198160
ENSG00000198554
ENSG00000198860
ENSG00000198933
ENSG00000198945
ENSG00000204084
ENSG00000204287
ENSG00000204291
ENSG00000204304
ENSG00000204351
ENSG00000204463
ENSG00000204525
ENSG00000204531
ENSG00000204536
ENSG00000204540
ENSG00000204695
ENSG00000204701
ENSG00000205639
ENSG00000213780
ENSG00000213906
ENSG00000214026
ENSG00000214078
ENSG00000214226
ENSG00000226979
ENSG00000231274
ENSG00000240771
ENSG00000243649
ENSG00000254535
ENSG00000255439
ENSG00000256349
ENSG00000257446
ENSG00000258947
ENSG00000261272
ENSG00000263020
ENSG00000275052
ENSG00000276043
ENSG00000277481
