gene trait
ENSG00000000003 UKB_50_Standing_height
ENSG00000004399 UKB_50_Standing_height
ENSG00000007314 UKB_50_Standing_height
ENSG00000007341 UKB_50_Standing_height
ENSG00000007541 UKB_50_Standing_height
ENSG00000008710 UKB_50_Standing_height
ENSG00000010030 UKB_50_Standing_height
ENSG00000010165 UKB_50_Standing_height
ENSG00000010803 UKB_50_Standing_height
ENSG00000013810 UKB_50_Standing_height
ENSG00000014914 UKB_50_Standing_height
ENSG00000015413 UKB_50_Standing_height
ENSG00000022976 UKB_50_Standing_height
ENSG00000023892 UKB_50_Standing_height
ENSG00000025293 UKB_50_Standing_height
ENSG00000025434 UKB_50_Standing_height
ENSG00000047662 UKB_50_Standing_height
ENSG00000049089 UKB_50_Standing_height
ENSG00000049192 UKB_50_Standing_height
ENSG00000049247 UKB_50_Standing_height
ENSG00000050165 UKB_50_Standing_height
ENSG00000053900 UKB_50_Standing_height
ENSG00000055483 UKB_50_Standing_height
ENSG00000055950 UKB_50_Standing_height
ENSG00000055955 UKB_50_Standing_height
ENSG00000057019 UKB_50_Standing_height
ENSG00000060718 UKB_50_Standing_height
ENSG00000063169 UKB_50_Standing_height
ENSG00000063177 UKB_50_Standing_height
ENSG00000064225 UKB_50_Standing_height
ENSG00000064313 UKB_50_Standing_height
ENSG00000065029 UKB_50_Standing_height
ENSG00000065060 UKB_50_Standing_height
ENSG00000065243 UKB_50_Standing_height
ENSG00000066427 UKB_50_Standing_height
ENSG00000066654 UKB_50_Standing_height
ENSG00000066827 UKB_50_Standing_height
ENSG00000067208 UKB_50_Standing_height
ENSG00000067225 UKB_50_Standing_height
ENSG00000068784 UKB_50_Standing_height
ENSG00000070061 UKB_50_Standing_height
ENSG00000070081 UKB_50_Standing_height
ENSG00000072682 UKB_50_Standing_height
ENSG00000073711 UKB_50_Standing_height
ENSG00000074621 UKB_50_Standing_height
ENSG00000075292 UKB_50_Standing_height
ENSG00000075420 UKB_50_Standing_height
ENSG00000077935 UKB_50_Standing_height
ENSG00000078177 UKB_50_Standing_height
ENSG00000078814 UKB_50_Standing_height
ENSG00000080802 UKB_50_Standing_height
ENSG00000081014 UKB_50_Standing_height
ENSG00000083097 UKB_50_Standing_height
ENSG00000084093 UKB_50_Standing_height
ENSG00000084734 UKB_50_Standing_height
ENSG00000085832 UKB_50_Standing_height
ENSG00000087085 UKB_50_Standing_height
ENSG00000087116 UKB_50_Standing_height
ENSG00000088543 UKB_50_Standing_height
ENSG00000088970 UKB_50_Standing_height
ENSG00000089053 UKB_50_Standing_height
ENSG00000090905 UKB_50_Standing_height
ENSG00000090971 UKB_50_Standing_height
ENSG00000092607 UKB_50_Standing_height
ENSG00000095015 UKB_50_Standing_height
ENSG00000095752 UKB_50_Standing_height
ENSG00000100101 UKB_50_Standing_height
ENSG00000100154 UKB_50_Standing_height
ENSG00000100376 UKB_50_Standing_height
ENSG00000100678 UKB_50_Standing_height
ENSG00000100815 UKB_50_Standing_height
ENSG00000100938 UKB_50_Standing_height
ENSG00000100991 UKB_50_Standing_height
ENSG00000101000 UKB_50_Standing_height
ENSG00000101019 UKB_50_Standing_height
ENSG00000101417 UKB_50_Standing_height
ENSG00000101557 UKB_50_Standing_height
ENSG00000101955 UKB_50_Standing_height
ENSG00000102893 UKB_50_Standing_height
ENSG00000102901 UKB_50_Standing_height
ENSG00000102977 UKB_50_Standing_height
ENSG00000103051 UKB_50_Standing_height
ENSG00000103196 UKB_50_Standing_height
ENSG00000103199 UKB_50_Standing_height
ENSG00000103335 UKB_50_Standing_height
ENSG00000103591 UKB_50_Standing_height
ENSG00000104679 UKB_50_Standing_height
ENSG00000105341 UKB_50_Standing_height
ENSG00000105429 UKB_50_Standing_height
ENSG00000105705 UKB_50_Standing_height
ENSG00000106483 UKB_50_Standing_height
ENSG00000106823 UKB_50_Standing_height
ENSG00000107566 UKB_50_Standing_height
ENSG00000107679 UKB_50_Standing_height
ENSG00000108187 UKB_50_Standing_height
ENSG00000108439 UKB_50_Standing_height
ENSG00000108576 UKB_50_Standing_height
ENSG00000108788 UKB_50_Standing_height
ENSG00000109182 UKB_50_Standing_height
ENSG00000109458 UKB_50_Standing_height
ENSG00000109805 UKB_50_Standing_height
ENSG00000111666 UKB_50_Standing_height
ENSG00000112039 UKB_50_Standing_height
ENSG00000112414 UKB_50_Standing_height
ENSG00000112576 UKB_50_Standing_height
ENSG00000112964 UKB_50_Standing_height
ENSG00000113360 UKB_50_Standing_height
ENSG00000113739 UKB_50_Standing_height
ENSG00000114270 UKB_50_Standing_height
ENSG00000114902 UKB_50_Standing_height
ENSG00000115474 UKB_50_Standing_height
ENSG00000115568 UKB_50_Standing_height
ENSG00000115657 UKB_50_Standing_height
ENSG00000115677 UKB_50_Standing_height
ENSG00000115970 UKB_50_Standing_height
ENSG00000116698 UKB_50_Standing_height
ENSG00000117676 UKB_50_Standing_height
ENSG00000118369 UKB_50_Standing_height
ENSG00000118898 UKB_50_Standing_height
ENSG00000118900 UKB_50_Standing_height
ENSG00000119685 UKB_50_Standing_height
ENSG00000120071 UKB_50_Standing_height
ENSG00000120129 UKB_50_Standing_height
ENSG00000120820 UKB_50_Standing_height
ENSG00000121075 UKB_50_Standing_height
ENSG00000121210 UKB_50_Standing_height
ENSG00000121680 UKB_50_Standing_height
ENSG00000121988 UKB_50_Standing_height
ENSG00000123106 UKB_50_Standing_height
ENSG00000123154 UKB_50_Standing_height
ENSG00000123427 UKB_50_Standing_height
ENSG00000123500 UKB_50_Standing_height
ENSG00000124067 UKB_50_Standing_height
ENSG00000124126 UKB_50_Standing_height
ENSG00000124201 UKB_50_Standing_height
ENSG00000124203 UKB_50_Standing_height
ENSG00000124216 UKB_50_Standing_height
ENSG00000124228 UKB_50_Standing_height
ENSG00000124507 UKB_50_Standing_height
ENSG00000124557 UKB_50_Standing_height
ENSG00000124568 UKB_50_Standing_height
ENSG00000124678 UKB_50_Standing_height
ENSG00000124782 UKB_50_Standing_height
ENSG00000124783 UKB_50_Standing_height
ENSG00000124789 UKB_50_Standing_height
ENSG00000125965 UKB_50_Standing_height
ENSG00000125967 UKB_50_Standing_height
ENSG00000125975 UKB_50_Standing_height
ENSG00000128655 UKB_50_Standing_height
ENSG00000129003 UKB_50_Standing_height
ENSG00000129214 UKB_50_Standing_height
ENSG00000129353 UKB_50_Standing_height
ENSG00000130338 UKB_50_Standing_height
ENSG00000130779 UKB_50_Standing_height
ENSG00000130816 UKB_50_Standing_height
ENSG00000131746 UKB_50_Standing_height
ENSG00000131873 UKB_50_Standing_height
ENSG00000132386 UKB_50_Standing_height
ENSG00000133121 UKB_50_Standing_height
ENSG00000134013 UKB_50_Standing_height
ENSG00000134318 UKB_50_Standing_height
ENSG00000134571 UKB_50_Standing_height
ENSG00000135452 UKB_50_Standing_height
ENSG00000135469 UKB_50_Standing_height
ENSG00000135587 UKB_50_Standing_height
ENSG00000135698 UKB_50_Standing_height
ENSG00000135845 UKB_50_Standing_height
ENSG00000135862 UKB_50_Standing_height
ENSG00000136014 UKB_50_Standing_height
ENSG00000136436 UKB_50_Standing_height
ENSG00000137070 UKB_50_Standing_height
ENSG00000137309 UKB_50_Standing_height
ENSG00000137392 UKB_50_Standing_height
ENSG00000137806 UKB_50_Standing_height
ENSG00000137868 UKB_50_Standing_height
ENSG00000138031 UKB_50_Standing_height
ENSG00000138079 UKB_50_Standing_height
ENSG00000138092 UKB_50_Standing_height
ENSG00000138336 UKB_50_Standing_height
ENSG00000138347 UKB_50_Standing_height
ENSG00000138735 UKB_50_Standing_height
ENSG00000138777 UKB_50_Standing_height
ENSG00000138821 UKB_50_Standing_height
ENSG00000138829 UKB_50_Standing_height
ENSG00000139155 UKB_50_Standing_height
ENSG00000139645 UKB_50_Standing_height
ENSG00000139697 UKB_50_Standing_height
ENSG00000140464 UKB_50_Standing_height
ENSG00000140470 UKB_50_Standing_height
ENSG00000140511 UKB_50_Standing_height
ENSG00000140525 UKB_50_Standing_height
ENSG00000140545 UKB_50_Standing_height
ENSG00000140691 UKB_50_Standing_height
ENSG00000140983 UKB_50_Standing_height
ENSG00000141458 UKB_50_Standing_height
ENSG00000142273 UKB_50_Standing_height
ENSG00000142303 UKB_50_Standing_height
ENSG00000142675 UKB_50_Standing_height
ENSG00000143384 UKB_50_Standing_height
ENSG00000143393 UKB_50_Standing_height
ENSG00000143740 UKB_50_Standing_height
ENSG00000144560 UKB_50_Standing_height
ENSG00000144567 UKB_50_Standing_height
ENSG00000144649 UKB_50_Standing_height
ENSG00000145826 UKB_50_Standing_height
ENSG00000146039 UKB_50_Standing_height
ENSG00000146205 UKB_50_Standing_height
ENSG00000146426 UKB_50_Standing_height
ENSG00000146966 UKB_50_Standing_height
ENSG00000147454 UKB_50_Standing_height
ENSG00000147697 UKB_50_Standing_height
ENSG00000148396 UKB_50_Standing_height
ENSG00000149646 UKB_50_Standing_height
ENSG00000149679 UKB_50_Standing_height
ENSG00000150457 UKB_50_Standing_height
ENSG00000150867 UKB_50_Standing_height
ENSG00000151208 UKB_50_Standing_height
ENSG00000151718 UKB_50_Standing_height
ENSG00000151929 UKB_50_Standing_height
ENSG00000152092 UKB_50_Standing_height
ENSG00000152492 UKB_50_Standing_height
ENSG00000152785 UKB_50_Standing_height
ENSG00000154309 UKB_50_Standing_height
ENSG00000154767 UKB_50_Standing_height
ENSG00000155085 UKB_50_Standing_height
ENSG00000155542 UKB_50_Standing_height
ENSG00000155957 UKB_50_Standing_height
ENSG00000156140 UKB_50_Standing_height
ENSG00000156218 UKB_50_Standing_height
ENSG00000157045 UKB_50_Standing_height
ENSG00000157227 UKB_50_Standing_height
ENSG00000157429 UKB_50_Standing_height
ENSG00000157551 UKB_50_Standing_height
ENSG00000157766 UKB_50_Standing_height
ENSG00000158113 UKB_50_Standing_height
ENSG00000159224 UKB_50_Standing_height
ENSG00000159363 UKB_50_Standing_height
ENSG00000159708 UKB_50_Standing_height
ENSG00000159720 UKB_50_Standing_height
ENSG00000159723 UKB_50_Standing_height
ENSG00000160058 UKB_50_Standing_height
ENSG00000160685 UKB_50_Standing_height
ENSG00000160796 UKB_50_Standing_height
ENSG00000160801 UKB_50_Standing_height
ENSG00000160867 UKB_50_Standing_height
ENSG00000161896 UKB_50_Standing_height
ENSG00000162004 UKB_50_Standing_height
ENSG00000162337 UKB_50_Standing_height
ENSG00000162341 UKB_50_Standing_height
ENSG00000162517 UKB_50_Standing_height
ENSG00000162998 UKB_50_Standing_height
ENSG00000163257 UKB_50_Standing_height
ENSG00000163482 UKB_50_Standing_height
ENSG00000163501 UKB_50_Standing_height
ENSG00000163629 UKB_50_Standing_height
ENSG00000163888 UKB_50_Standing_height
ENSG00000163938 UKB_50_Standing_height
ENSG00000163946 UKB_50_Standing_height
ENSG00000164199 UKB_50_Standing_height
ENSG00000164287 UKB_50_Standing_height
ENSG00000164393 UKB_50_Standing_height
ENSG00000164399 UKB_50_Standing_height
ENSG00000164615 UKB_50_Standing_height
ENSG00000164741 UKB_50_Standing_height
ENSG00000165140 UKB_50_Standing_height
ENSG00000165240 UKB_50_Standing_height
ENSG00000165661 UKB_50_Standing_height
ENSG00000165671 UKB_50_Standing_height
ENSG00000165915 UKB_50_Standing_height
ENSG00000166024 UKB_50_Standing_height
ENSG00000166025 UKB_50_Standing_height
ENSG00000166272 UKB_50_Standing_height
ENSG00000166573 UKB_50_Standing_height
ENSG00000167077 UKB_50_Standing_height
ENSG00000167543 UKB_50_Standing_height
ENSG00000167625 UKB_50_Standing_height
ENSG00000167965 UKB_50_Standing_height
ENSG00000168056 UKB_50_Standing_height
ENSG00000168096 UKB_50_Standing_height
ENSG00000168631 UKB_50_Standing_height
ENSG00000168646 UKB_50_Standing_height
ENSG00000168769 UKB_50_Standing_height
ENSG00000168917 UKB_50_Standing_height
ENSG00000168944 UKB_50_Standing_height
ENSG00000169071 UKB_50_Standing_height
ENSG00000169228 UKB_50_Standing_height
ENSG00000169515 UKB_50_Standing_height
ENSG00000170581 UKB_50_Standing_height
ENSG00000170776 UKB_50_Standing_height
ENSG00000170891 UKB_50_Standing_height
ENSG00000170917 UKB_50_Standing_height
ENSG00000171055 UKB_50_Standing_height
ENSG00000171681 UKB_50_Standing_height
ENSG00000171790 UKB_50_Standing_height
ENSG00000172037 UKB_50_Standing_height
ENSG00000172053 UKB_50_Standing_height
ENSG00000172071 UKB_50_Standing_height
ENSG00000172340 UKB_50_Standing_height
ENSG00000173327 UKB_50_Standing_height
ENSG00000173826 UKB_50_Standing_height
ENSG00000173926 UKB_50_Standing_height
ENSG00000174177 UKB_50_Standing_height
ENSG00000174282 UKB_50_Standing_height
ENSG00000174576 UKB_50_Standing_height
ENSG00000174807 UKB_50_Standing_height
ENSG00000174844 UKB_50_Standing_height
ENSG00000174945 UKB_50_Standing_height
ENSG00000174989 UKB_50_Standing_height
ENSG00000175166 UKB_50_Standing_height
ENSG00000175318 UKB_50_Standing_height
ENSG00000175426 UKB_50_Standing_height
ENSG00000175467 UKB_50_Standing_height
ENSG00000175513 UKB_50_Standing_height
ENSG00000175782 UKB_50_Standing_height
ENSG00000175938 UKB_50_Standing_height
ENSG00000176208 UKB_50_Standing_height
ENSG00000176390 UKB_50_Standing_height
ENSG00000176971 UKB_50_Standing_height
ENSG00000177058 UKB_50_Standing_height
ENSG00000177191 UKB_50_Standing_height
ENSG00000177675 UKB_50_Standing_height
ENSG00000177853 UKB_50_Standing_height
ENSG00000178209 UKB_50_Standing_height
ENSG00000178685 UKB_50_Standing_height
ENSG00000178966 UKB_50_Standing_height
ENSG00000178997 UKB_50_Standing_height
ENSG00000179008 UKB_50_Standing_height
ENSG00000179300 UKB_50_Standing_height
ENSG00000179954 UKB_50_Standing_height
ENSG00000180061 UKB_50_Standing_height
ENSG00000180376 UKB_50_Standing_height
ENSG00000180999 UKB_50_Standing_height
ENSG00000181019 UKB_50_Standing_height
ENSG00000181513 UKB_50_Standing_height
ENSG00000181555 UKB_50_Standing_height
ENSG00000181690 UKB_50_Standing_height
ENSG00000181896 UKB_50_Standing_height
ENSG00000182158 UKB_50_Standing_height
ENSG00000182223 UKB_50_Standing_height
ENSG00000182752 UKB_50_Standing_height
ENSG00000184047 UKB_50_Standing_height
ENSG00000184445 UKB_50_Standing_height
ENSG00000184560 UKB_50_Standing_height
ENSG00000185250 UKB_50_Standing_height
ENSG00000185920 UKB_50_Standing_height
ENSG00000186280 UKB_50_Standing_height
ENSG00000186868 UKB_50_Standing_height
ENSG00000187091 UKB_50_Standing_height
ENSG00000187475 UKB_50_Standing_height
ENSG00000187837 UKB_50_Standing_height
ENSG00000188782 UKB_50_Standing_height
ENSG00000188786 UKB_50_Standing_height
ENSG00000196155 UKB_50_Standing_height
ENSG00000196335 UKB_50_Standing_height
ENSG00000196391 UKB_50_Standing_height
ENSG00000196498 UKB_50_Standing_height
ENSG00000196586 UKB_50_Standing_height
ENSG00000196597 UKB_50_Standing_height
ENSG00000196739 UKB_50_Standing_height
ENSG00000197208 UKB_50_Standing_height
ENSG00000197249 UKB_50_Standing_height
ENSG00000197647 UKB_50_Standing_height
ENSG00000197653 UKB_50_Standing_height
ENSG00000197696 UKB_50_Standing_height
ENSG00000198056 UKB_50_Standing_height
ENSG00000198160 UKB_50_Standing_height
ENSG00000198554 UKB_50_Standing_height
ENSG00000198860 UKB_50_Standing_height
ENSG00000198933 UKB_50_Standing_height
ENSG00000198945 UKB_50_Standing_height
ENSG00000204084 UKB_50_Standing_height
ENSG00000204287 UKB_50_Standing_height
ENSG00000204291 UKB_50_Standing_height
ENSG00000204304 UKB_50_Standing_height
ENSG00000204351 UKB_50_Standing_height
ENSG00000204463 UKB_50_Standing_height
ENSG00000204525 UKB_50_Standing_height
ENSG00000204531 UKB_50_Standing_height
ENSG00000204536 UKB_50_Standing_height
ENSG00000204540 UKB_50_Standing_height
ENSG00000204695 UKB_50_Standing_height
ENSG00000204701 UKB_50_Standing_height
ENSG00000205639 UKB_50_Standing_height
ENSG00000213780 UKB_50_Standing_height
ENSG00000213906 UKB_50_Standing_height
ENSG00000214026 UKB_50_Standing_height
ENSG00000214078 UKB_50_Standing_height
ENSG00000214226 UKB_50_Standing_height
ENSG00000226979 UKB_50_Standing_height
ENSG00000231274 UKB_50_Standing_height
ENSG00000240771 UKB_50_Standing_height
ENSG00000243649 UKB_50_Standing_height
ENSG00000254535 UKB_50_Standing_height
ENSG00000255439 UKB_50_Standing_height
ENSG00000256349 UKB_50_Standing_height
ENSG00000257446 UKB_50_Standing_height
ENSG00000258947 UKB_50_Standing_height
ENSG00000261272 UKB_50_Standing_height
ENSG00000263020 UKB_50_Standing_height
ENSG00000275052 UKB_50_Standing_height
ENSG00000276043 UKB_50_Standing_height
ENSG00000277481 UKB_50_Standing_height
