power	fdr	nTP	nP	nT	cutoff	include_tie	precision	recall	method	with_nearest_gene
0.195918367346939	0.922455573505654	48	619	245	0.5	FALSE	0.0775444264943457	0.195918367346939	best-egene	NA
0.355102040816327	0.884154460719041	87	751	245	0.5	FALSE	0.115845539280959	0.355102040816327	nearest-gene	NA
0.118367346938776	0.862559241706161	29	211	245	0.5	FALSE	0.137440758293839	0.118367346938776	predixcan	w/o nearest
0.146938775510204	0.83710407239819	36	221	245	0.5	FALSE	0.16289592760181	0.146938775510204	predixcan-en-dapgw	w/o nearest
0.155102040816327	0.825688073394495	38	218	245	0.5	FALSE	0.174311926605505	0.155102040816327	predixcan-mashr	w/o nearest
0.16734693877551	0.816143497757848	41	223	245	0.5	FALSE	0.183856502242152	0.16734693877551	enloc	w/o nearest
0.114285714285714	0.821656050955414	28	157	245	0.5	FALSE	0.178343949044586	0.114285714285714	smr	w/o nearest
0.0530612244897959	0.91156462585034	13	147	245	0.5	FALSE	0.0884353741496599	0.0530612244897959	coloc	w/o nearest
0.0979591836734694	0.832167832167832	24	143	245	0.5	FALSE	0.167832167832168	0.0979591836734694	predixcan-at-enloc-0.1	w/o nearest
0.138775510204082	0.792682926829268	34	164	245	0.5	FALSE	0.207317073170732	0.138775510204082	predixcan-en-dapgw-at-enloc-0.1	w/o nearest
0.126530612244898	0.807453416149068	31	161	245	0.5	FALSE	0.192546583850932	0.126530612244898	predixcan-mashr-at-enloc-0.1	w/o nearest
0.0816326530612245	0.81651376146789	20	109	245	0.5	FALSE	0.18348623853211	0.0816326530612245	smr-at-enloc-0.1	w/o nearest
0.0530612244897959	0.881818181818182	13	110	245	0.5	FALSE	0.118181818181818	0.0530612244897959	coloc-at-enloc-0.1	w/o nearest
0.179591836734694	0.838235294117647	44	272	245	0.5	FALSE	0.161764705882353	0.179591836734694	predixcan	with nearest
0.191836734693878	0.813492063492063	47	252	245	0.5	FALSE	0.186507936507937	0.191836734693878	predixcan-en-dapgw	with nearest
0.212244897959184	0.803030303030303	52	264	245	0.5	FALSE	0.196969696969697	0.212244897959184	predixcan-mashr	with nearest
0.216326530612245	0.810035842293907	53	279	245	0.5	FALSE	0.189964157706093	0.216326530612245	enloc	with nearest
0.224489795918367	0.802158273381295	55	278	245	0.5	FALSE	0.197841726618705	0.224489795918367	smr	with nearest
0.240816326530612	0.839237057220708	59	367	245	0.5	FALSE	0.160762942779292	0.240816326530612	coloc	with nearest
0.175510204081633	0.813852813852814	43	231	245	0.5	FALSE	0.186147186147186	0.175510204081633	predixcan-after-enloc-0.01	w/o nearest
0.175510204081633	0.817796610169492	43	236	245	0.5	FALSE	0.182203389830508	0.175510204081633	predixcan-en-dapgw-after-enloc-0.01	w/o nearest
0.171428571428571	0.818181818181818	42	231	245	0.5	FALSE	0.181818181818182	0.171428571428571	predixcan-mashr-after-enloc-0.01	w/o nearest
0.175510204081633	0.812227074235808	43	229	245	0.5	FALSE	0.187772925764192	0.175510204081633	smr-after-enloc-0.01	w/o nearest
0.16734693877551	0.820960698689956	41	229	245	0.5	FALSE	0.179039301310044	0.16734693877551	coloc-after-enloc-0.01	w/o nearest
