ENSG00000006071
ENSG00000058262
ENSG00000070018
ENSG00000073792
ENSG00000084073
ENSG00000101076
ENSG00000104918
ENSG00000105221
ENSG00000106331
ENSG00000106633
ENSG00000109501
ENSG00000115159
ENSG00000116127
ENSG00000121653
ENSG00000124564
ENSG00000128739
ENSG00000131482
ENSG00000132170
ENSG00000134640
ENSG00000135100
ENSG00000136573
ENSG00000137309
ENSG00000137700
ENSG00000139515
ENSG00000145675
ENSG00000147224
ENSG00000148737
ENSG00000152556
ENSG00000154415
ENSG00000157500
ENSG00000160299
ENSG00000160789
ENSG00000162992
ENSG00000163581
ENSG00000164756
ENSG00000166035
ENSG00000168000
ENSG00000169344
ENSG00000169692
ENSG00000170835
ENSG00000171105
ENSG00000172059
ENSG00000172071
ENSG00000174007
ENSG00000182512
ENSG00000182636
ENSG00000185499
ENSG00000185950
ENSG00000187486
ENSG00000196396
ENSG00000197299
ENSG00000197594
ENSG00000215644
ENSG00000254647
ENSG00000275410
