trait gene nobs
Astle_et_al_2016_Eosinophil_counts ENSG00000003400 1
Astle_et_al_2016_Eosinophil_counts ENSG00000012232 1
Astle_et_al_2016_Eosinophil_counts ENSG00000026103 1
Astle_et_al_2016_Eosinophil_counts ENSG00000049768 1
Astle_et_al_2016_Eosinophil_counts ENSG00000092529 1
Astle_et_al_2016_Eosinophil_counts ENSG00000107099 1
Astle_et_al_2016_Eosinophil_counts ENSG00000113721 1
Astle_et_al_2016_Eosinophil_counts ENSG00000117560 1
Astle_et_al_2016_Eosinophil_counts ENSG00000127152 1
Astle_et_al_2016_Eosinophil_counts ENSG00000134853 1
Astle_et_al_2016_Eosinophil_counts ENSG00000151694 1
Astle_et_al_2016_Eosinophil_counts ENSG00000152457 1
Astle_et_al_2016_Eosinophil_counts ENSG00000166349 1
Astle_et_al_2016_Eosinophil_counts ENSG00000168610 1
Astle_et_al_2016_Eosinophil_counts ENSG00000175097 1
Astle_et_al_2016_Eosinophil_counts ENSG00000196839 1
Astle_et_al_2016_Eosinophil_counts ENSG00000197561 1
Astle_et_al_2016_Eosinophil_counts ENSG00000198286 1
Astle_et_al_2016_Eosinophil_counts ENSG00000198821 1
Astle_et_al_2016_Eosinophil_counts ENSG00000265241 1
Astle_et_al_2016_Eosinophil_counts ENSG00000269335 1
Astle_et_al_2016_Lymphocyte_counts ENSG00000027697 1
Astle_et_al_2016_Lymphocyte_counts ENSG00000096968 1
Astle_et_al_2016_Lymphocyte_counts ENSG00000101115 1
Astle_et_al_2016_Lymphocyte_counts ENSG00000103313 1
Astle_et_al_2016_Lymphocyte_counts ENSG00000110921 1
Astle_et_al_2016_Lymphocyte_counts ENSG00000149428 1
Astle_et_al_2016_Lymphocyte_counts ENSG00000149781 1
Astle_et_al_2016_Lymphocyte_counts ENSG00000154124 1
Astle_et_al_2016_Lymphocyte_counts ENSG00000160211 1
Astle_et_al_2016_Lymphocyte_counts ENSG00000160255 1
Astle_et_al_2016_Lymphocyte_counts ENSG00000162711 1
Astle_et_al_2016_Lymphocyte_counts ENSG00000244734 1
Astle_et_al_2016_Monocyte_count ENSG00000027697 1
Astle_et_al_2016_Monocyte_count ENSG00000096968 1
Astle_et_al_2016_Monocyte_count ENSG00000101115 1
Astle_et_al_2016_Monocyte_count ENSG00000103313 1
Astle_et_al_2016_Monocyte_count ENSG00000110921 1
Astle_et_al_2016_Monocyte_count ENSG00000149428 1
Astle_et_al_2016_Monocyte_count ENSG00000149781 1
Astle_et_al_2016_Monocyte_count ENSG00000154124 1
Astle_et_al_2016_Monocyte_count ENSG00000160211 1
Astle_et_al_2016_Monocyte_count ENSG00000160255 1
Astle_et_al_2016_Monocyte_count ENSG00000162711 1
Astle_et_al_2016_Monocyte_count ENSG00000244734 1
Astle_et_al_2016_Neutrophil_count ENSG00000003400 1
Astle_et_al_2016_Neutrophil_count ENSG00000004455 1
Astle_et_al_2016_Neutrophil_count ENSG00000007933 1
Astle_et_al_2016_Neutrophil_count ENSG00000013375 1
Astle_et_al_2016_Neutrophil_count ENSG00000015285 1
Astle_et_al_2016_Neutrophil_count ENSG00000026103 1
Astle_et_al_2016_Neutrophil_count ENSG00000038002 1
Astle_et_al_2016_Neutrophil_count ENSG00000058262 1
Astle_et_al_2016_Neutrophil_count ENSG00000064490 1
Astle_et_al_2016_Neutrophil_count ENSG00000065000 1
Astle_et_al_2016_Neutrophil_count ENSG00000072274 1
Astle_et_al_2016_Neutrophil_count ENSG00000076351 1
Astle_et_al_2016_Neutrophil_count ENSG00000085276 1
Astle_et_al_2016_Neutrophil_count ENSG00000092929 1
Astle_et_al_2016_Neutrophil_count ENSG00000095585 1
Astle_et_al_2016_Neutrophil_count ENSG00000100983 1
Astle_et_al_2016_Neutrophil_count ENSG00000101003 1
Astle_et_al_2016_Neutrophil_count ENSG00000101017 1
Astle_et_al_2016_Neutrophil_count ENSG00000101109 1
Astle_et_al_2016_Neutrophil_count ENSG00000102125 1
Astle_et_al_2016_Neutrophil_count ENSG00000102145 1
Astle_et_al_2016_Neutrophil_count ENSG00000102245 1
Astle_et_al_2016_Neutrophil_count ENSG00000103005 1
Astle_et_al_2016_Neutrophil_count ENSG00000105369 1
Astle_et_al_2016_Neutrophil_count ENSG00000105372 1
Astle_et_al_2016_Neutrophil_count ENSG00000106327 1
Astle_et_al_2016_Neutrophil_count ENSG00000108604 1
Astle_et_al_2016_Neutrophil_count ENSG00000112039 1
Astle_et_al_2016_Neutrophil_count ENSG00000112234 1
Astle_et_al_2016_Neutrophil_count ENSG00000114054 1
Astle_et_al_2016_Neutrophil_count ENSG00000115317 1
Astle_et_al_2016_Neutrophil_count ENSG00000116586 1
Astle_et_al_2016_Neutrophil_count ENSG00000116670 1
Astle_et_al_2016_Neutrophil_count ENSG00000117450 1
Astle_et_al_2016_Neutrophil_count ENSG00000117560 1
Astle_et_al_2016_Neutrophil_count ENSG00000119535 1
Astle_et_al_2016_Neutrophil_count ENSG00000119688 1
Astle_et_al_2016_Neutrophil_count ENSG00000121966 1
Astle_et_al_2016_Neutrophil_count ENSG00000126524 1
Astle_et_al_2016_Neutrophil_count ENSG00000132549 1
Astle_et_al_2016_Neutrophil_count ENSG00000132763 1
Astle_et_al_2016_Neutrophil_count ENSG00000132842 1
Astle_et_al_2016_Neutrophil_count ENSG00000133111 1
Astle_et_al_2016_Neutrophil_count ENSG00000133703 1
Astle_et_al_2016_Neutrophil_count ENSG00000135604 1
Astle_et_al_2016_Neutrophil_count ENSG00000136631 1
Astle_et_al_2016_Neutrophil_count ENSG00000137700 1
Astle_et_al_2016_Neutrophil_count ENSG00000138375 1
Astle_et_al_2016_Neutrophil_count ENSG00000139083 1
Astle_et_al_2016_Neutrophil_count ENSG00000139428 1
Astle_et_al_2016_Neutrophil_count ENSG00000140598 1
Astle_et_al_2016_Neutrophil_count ENSG00000141349 1
Astle_et_al_2016_Neutrophil_count ENSG00000142676 1
Astle_et_al_2016_Neutrophil_count ENSG00000143390 1
Astle_et_al_2016_Neutrophil_count ENSG00000143575 1
Astle_et_al_2016_Neutrophil_count ENSG00000143815 1
Astle_et_al_2016_Neutrophil_count ENSG00000144554 1
Astle_et_al_2016_Neutrophil_count ENSG00000145675 1
Astle_et_al_2016_Neutrophil_count ENSG00000147065 1
Astle_et_al_2016_Neutrophil_count ENSG00000149428 1
Astle_et_al_2016_Neutrophil_count ENSG00000151611 1
Astle_et_al_2016_Neutrophil_count ENSG00000158169 1
Astle_et_al_2016_Neutrophil_count ENSG00000161970 1
Astle_et_al_2016_Neutrophil_count ENSG00000162129 1
Astle_et_al_2016_Neutrophil_count ENSG00000162676 1
Astle_et_al_2016_Neutrophil_count ENSG00000163600 1
Astle_et_al_2016_Neutrophil_count ENSG00000164414 1
Astle_et_al_2016_Neutrophil_count ENSG00000168216 1
Astle_et_al_2016_Neutrophil_count ENSG00000171135 1
Astle_et_al_2016_Neutrophil_count ENSG00000171863 1
Astle_et_al_2016_Neutrophil_count ENSG00000175198 1
Astle_et_al_2016_Neutrophil_count ENSG00000179348 1
Astle_et_al_2016_Neutrophil_count ENSG00000179364 1
Astle_et_al_2016_Neutrophil_count ENSG00000179583 1
Astle_et_al_2016_Neutrophil_count ENSG00000182774 1
Astle_et_al_2016_Neutrophil_count ENSG00000185339 1
Astle_et_al_2016_Neutrophil_count ENSG00000187741 1
Astle_et_al_2016_Neutrophil_count ENSG00000197561 1
Astle_et_al_2016_Neutrophil_count ENSG00000198589 1
Astle_et_al_2016_Neutrophil_count ENSG00000198805 1
Astle_et_al_2016_Neutrophil_count ENSG00000213281 1
Astle_et_al_2016_Neutrophil_count ENSG00000221829 1
Astle_et_al_2016_Neutrophil_count ENSG00000233927 1
Astle_et_al_2016_White_blood_cell_count ENSG00000003400 1
Astle_et_al_2016_White_blood_cell_count ENSG00000004455 1
Astle_et_al_2016_White_blood_cell_count ENSG00000007933 1
Astle_et_al_2016_White_blood_cell_count ENSG00000013375 1
Astle_et_al_2016_White_blood_cell_count ENSG00000015285 1
Astle_et_al_2016_White_blood_cell_count ENSG00000026103 1
Astle_et_al_2016_White_blood_cell_count ENSG00000027697 1
Astle_et_al_2016_White_blood_cell_count ENSG00000038002 1
Astle_et_al_2016_White_blood_cell_count ENSG00000058262 1
Astle_et_al_2016_White_blood_cell_count ENSG00000064490 1
Astle_et_al_2016_White_blood_cell_count ENSG00000065000 1
Astle_et_al_2016_White_blood_cell_count ENSG00000072274 1
Astle_et_al_2016_White_blood_cell_count ENSG00000076351 1
Astle_et_al_2016_White_blood_cell_count ENSG00000085276 1
Astle_et_al_2016_White_blood_cell_count ENSG00000092929 1
Astle_et_al_2016_White_blood_cell_count ENSG00000095585 1
Astle_et_al_2016_White_blood_cell_count ENSG00000096968 1
Astle_et_al_2016_White_blood_cell_count ENSG00000100983 1
Astle_et_al_2016_White_blood_cell_count ENSG00000101003 1
Astle_et_al_2016_White_blood_cell_count ENSG00000101017 1
Astle_et_al_2016_White_blood_cell_count ENSG00000101109 1
Astle_et_al_2016_White_blood_cell_count ENSG00000101115 1
Astle_et_al_2016_White_blood_cell_count ENSG00000102125 1
Astle_et_al_2016_White_blood_cell_count ENSG00000102145 1
Astle_et_al_2016_White_blood_cell_count ENSG00000102245 1
Astle_et_al_2016_White_blood_cell_count ENSG00000103005 1
Astle_et_al_2016_White_blood_cell_count ENSG00000103313 1
Astle_et_al_2016_White_blood_cell_count ENSG00000105369 1
Astle_et_al_2016_White_blood_cell_count ENSG00000105372 1
Astle_et_al_2016_White_blood_cell_count ENSG00000106327 1
Astle_et_al_2016_White_blood_cell_count ENSG00000108604 1
Astle_et_al_2016_White_blood_cell_count ENSG00000110921 1
Astle_et_al_2016_White_blood_cell_count ENSG00000112039 1
Astle_et_al_2016_White_blood_cell_count ENSG00000112234 1
Astle_et_al_2016_White_blood_cell_count ENSG00000114054 1
Astle_et_al_2016_White_blood_cell_count ENSG00000115317 1
Astle_et_al_2016_White_blood_cell_count ENSG00000116586 1
Astle_et_al_2016_White_blood_cell_count ENSG00000116670 1
Astle_et_al_2016_White_blood_cell_count ENSG00000117450 1
Astle_et_al_2016_White_blood_cell_count ENSG00000117560 1
Astle_et_al_2016_White_blood_cell_count ENSG00000119535 1
Astle_et_al_2016_White_blood_cell_count ENSG00000119688 1
Astle_et_al_2016_White_blood_cell_count ENSG00000121966 1
Astle_et_al_2016_White_blood_cell_count ENSG00000126524 1
Astle_et_al_2016_White_blood_cell_count ENSG00000132549 1
Astle_et_al_2016_White_blood_cell_count ENSG00000132763 1
Astle_et_al_2016_White_blood_cell_count ENSG00000132842 1
Astle_et_al_2016_White_blood_cell_count ENSG00000133111 1
Astle_et_al_2016_White_blood_cell_count ENSG00000133703 1
Astle_et_al_2016_White_blood_cell_count ENSG00000135604 1
Astle_et_al_2016_White_blood_cell_count ENSG00000136631 1
Astle_et_al_2016_White_blood_cell_count ENSG00000137700 1
Astle_et_al_2016_White_blood_cell_count ENSG00000138375 1
Astle_et_al_2016_White_blood_cell_count ENSG00000139083 1
Astle_et_al_2016_White_blood_cell_count ENSG00000139428 1
Astle_et_al_2016_White_blood_cell_count ENSG00000140598 1
Astle_et_al_2016_White_blood_cell_count ENSG00000141349 1
Astle_et_al_2016_White_blood_cell_count ENSG00000142405 1
Astle_et_al_2016_White_blood_cell_count ENSG00000142676 1
Astle_et_al_2016_White_blood_cell_count ENSG00000143390 1
Astle_et_al_2016_White_blood_cell_count ENSG00000143575 1
Astle_et_al_2016_White_blood_cell_count ENSG00000143815 1
Astle_et_al_2016_White_blood_cell_count ENSG00000144554 1
Astle_et_al_2016_White_blood_cell_count ENSG00000145675 1
Astle_et_al_2016_White_blood_cell_count ENSG00000147065 1
Astle_et_al_2016_White_blood_cell_count ENSG00000149428 1
Astle_et_al_2016_White_blood_cell_count ENSG00000149781 1
Astle_et_al_2016_White_blood_cell_count ENSG00000151611 1
Astle_et_al_2016_White_blood_cell_count ENSG00000154124 1
Astle_et_al_2016_White_blood_cell_count ENSG00000158169 1
Astle_et_al_2016_White_blood_cell_count ENSG00000160211 1
Astle_et_al_2016_White_blood_cell_count ENSG00000160255 1
Astle_et_al_2016_White_blood_cell_count ENSG00000161970 1
Astle_et_al_2016_White_blood_cell_count ENSG00000162129 1
Astle_et_al_2016_White_blood_cell_count ENSG00000162676 1
Astle_et_al_2016_White_blood_cell_count ENSG00000162711 1
Astle_et_al_2016_White_blood_cell_count ENSG00000163600 1
Astle_et_al_2016_White_blood_cell_count ENSG00000164414 1
Astle_et_al_2016_White_blood_cell_count ENSG00000168216 1
Astle_et_al_2016_White_blood_cell_count ENSG00000171135 1
Astle_et_al_2016_White_blood_cell_count ENSG00000171863 1
Astle_et_al_2016_White_blood_cell_count ENSG00000175198 1
Astle_et_al_2016_White_blood_cell_count ENSG00000179348 1
Astle_et_al_2016_White_blood_cell_count ENSG00000179364 1
Astle_et_al_2016_White_blood_cell_count ENSG00000179583 1
Astle_et_al_2016_White_blood_cell_count ENSG00000182774 1
Astle_et_al_2016_White_blood_cell_count ENSG00000185339 1
Astle_et_al_2016_White_blood_cell_count ENSG00000187741 1
Astle_et_al_2016_White_blood_cell_count ENSG00000197561 1
Astle_et_al_2016_White_blood_cell_count ENSG00000198589 1
Astle_et_al_2016_White_blood_cell_count ENSG00000198805 1
Astle_et_al_2016_White_blood_cell_count ENSG00000213281 1
Astle_et_al_2016_White_blood_cell_count ENSG00000221829 1
Astle_et_al_2016_White_blood_cell_count ENSG00000233927 1
Astle_et_al_2016_White_blood_cell_count ENSG00000244734 1
CARDIoGRAM_C4D_CAD_ADDITIVE ENSG00000000971 1
CARDIoGRAM_C4D_CAD_ADDITIVE ENSG00000004864 1
CARDIoGRAM_C4D_CAD_ADDITIVE ENSG00000006071 1
CARDIoGRAM_C4D_CAD_ADDITIVE ENSG00000007933 1
CARDIoGRAM_C4D_CAD_ADDITIVE ENSG00000008441 1
CARDIoGRAM_C4D_CAD_ADDITIVE ENSG00000008710 1
CARDIoGRAM_C4D_CAD_ADDITIVE ENSG00000011376 1
CARDIoGRAM_C4D_CAD_ADDITIVE ENSG00000015532 1
CARDIoGRAM_C4D_CAD_ADDITIVE ENSG00000031081 1
CARDIoGRAM_C4D_CAD_ADDITIVE ENSG00000036257 1
CARDIoGRAM_C4D_CAD_ADDITIVE ENSG00000044446 1
CARDIoGRAM_C4D_CAD_ADDITIVE ENSG00000046651 1
CARDIoGRAM_C4D_CAD_ADDITIVE ENSG00000049167 1
CARDIoGRAM_C4D_CAD_ADDITIVE ENSG00000054523 1
CARDIoGRAM_C4D_CAD_ADDITIVE ENSG00000060237 1
CARDIoGRAM_C4D_CAD_ADDITIVE ENSG00000068305 1
CARDIoGRAM_C4D_CAD_ADDITIVE ENSG00000070018 1
CARDIoGRAM_C4D_CAD_ADDITIVE ENSG00000072062 1
CARDIoGRAM_C4D_CAD_ADDITIVE ENSG00000073792 1
CARDIoGRAM_C4D_CAD_ADDITIVE ENSG00000077943 1
CARDIoGRAM_C4D_CAD_ADDITIVE ENSG00000080819 1
CARDIoGRAM_C4D_CAD_ADDITIVE ENSG00000081052 1
CARDIoGRAM_C4D_CAD_ADDITIVE ENSG00000084073 1
CARDIoGRAM_C4D_CAD_ADDITIVE ENSG00000084674 1
CARDIoGRAM_C4D_CAD_ADDITIVE ENSG00000087460 1
CARDIoGRAM_C4D_CAD_ADDITIVE ENSG00000089597 1
CARDIoGRAM_C4D_CAD_ADDITIVE ENSG00000090382 1
CARDIoGRAM_C4D_CAD_ADDITIVE ENSG00000090534 1
CARDIoGRAM_C4D_CAD_ADDITIVE ENSG00000091262 1
CARDIoGRAM_C4D_CAD_ADDITIVE ENSG00000096968 1
CARDIoGRAM_C4D_CAD_ADDITIVE ENSG00000099937 1
CARDIoGRAM_C4D_CAD_ADDITIVE ENSG00000101076 1
CARDIoGRAM_C4D_CAD_ADDITIVE ENSG00000101384 1
CARDIoGRAM_C4D_CAD_ADDITIVE ENSG00000102393 1
CARDIoGRAM_C4D_CAD_ADDITIVE ENSG00000103241 1
CARDIoGRAM_C4D_CAD_ADDITIVE ENSG00000103489 1
CARDIoGRAM_C4D_CAD_ADDITIVE ENSG00000104918 1
CARDIoGRAM_C4D_CAD_ADDITIVE ENSG00000105204 1
CARDIoGRAM_C4D_CAD_ADDITIVE ENSG00000105221 1
CARDIoGRAM_C4D_CAD_ADDITIVE ENSG00000105974 1
CARDIoGRAM_C4D_CAD_ADDITIVE ENSG00000106331 1
CARDIoGRAM_C4D_CAD_ADDITIVE ENSG00000106341 1
CARDIoGRAM_C4D_CAD_ADDITIVE ENSG00000106633 1
CARDIoGRAM_C4D_CAD_ADDITIVE ENSG00000107796 1
CARDIoGRAM_C4D_CAD_ADDITIVE ENSG00000107798 1
CARDIoGRAM_C4D_CAD_ADDITIVE ENSG00000108557 1
CARDIoGRAM_C4D_CAD_ADDITIVE ENSG00000108946 1
CARDIoGRAM_C4D_CAD_ADDITIVE ENSG00000109501 1
CARDIoGRAM_C4D_CAD_ADDITIVE ENSG00000109929 1
CARDIoGRAM_C4D_CAD_ADDITIVE ENSG00000110092 1
CARDIoGRAM_C4D_CAD_ADDITIVE ENSG00000110243 1
CARDIoGRAM_C4D_CAD_ADDITIVE ENSG00000110711 1
CARDIoGRAM_C4D_CAD_ADDITIVE ENSG00000111057 1
CARDIoGRAM_C4D_CAD_ADDITIVE ENSG00000111252 1
CARDIoGRAM_C4D_CAD_ADDITIVE ENSG00000111341 1
CARDIoGRAM_C4D_CAD_ADDITIVE ENSG00000112964 1
CARDIoGRAM_C4D_CAD_ADDITIVE ENSG00000113083 1
CARDIoGRAM_C4D_CAD_ADDITIVE ENSG00000113580 1
CARDIoGRAM_C4D_CAD_ADDITIVE ENSG00000113924 1
CARDIoGRAM_C4D_CAD_ADDITIVE ENSG00000113966 1
CARDIoGRAM_C4D_CAD_ADDITIVE ENSG00000115159 1
CARDIoGRAM_C4D_CAD_ADDITIVE ENSG00000115414 1
CARDIoGRAM_C4D_CAD_ADDITIVE ENSG00000116127 1
CARDIoGRAM_C4D_CAD_ADDITIVE ENSG00000116133 1
CARDIoGRAM_C4D_CAD_ADDITIVE ENSG00000116785 1
CARDIoGRAM_C4D_CAD_ADDITIVE ENSG00000117118 1
CARDIoGRAM_C4D_CAD_ADDITIVE ENSG00000117298 1
CARDIoGRAM_C4D_CAD_ADDITIVE ENSG00000117335 1
CARDIoGRAM_C4D_CAD_ADDITIVE ENSG00000118762 1
CARDIoGRAM_C4D_CAD_ADDITIVE ENSG00000119509 1
CARDIoGRAM_C4D_CAD_ADDITIVE ENSG00000120457 1
CARDIoGRAM_C4D_CAD_ADDITIVE ENSG00000120915 1
CARDIoGRAM_C4D_CAD_ADDITIVE ENSG00000121653 1
CARDIoGRAM_C4D_CAD_ADDITIVE ENSG00000122126 1
CARDIoGRAM_C4D_CAD_ADDITIVE ENSG00000125730 1
CARDIoGRAM_C4D_CAD_ADDITIVE ENSG00000125952 1
CARDIoGRAM_C4D_CAD_ADDITIVE ENSG00000126562 1
CARDIoGRAM_C4D_CAD_ADDITIVE ENSG00000128655 1
CARDIoGRAM_C4D_CAD_ADDITIVE ENSG00000128739 1
CARDIoGRAM_C4D_CAD_ADDITIVE ENSG00000130164 1
CARDIoGRAM_C4D_CAD_ADDITIVE ENSG00000130402 1
CARDIoGRAM_C4D_CAD_ADDITIVE ENSG00000131482 1
CARDIoGRAM_C4D_CAD_ADDITIVE ENSG00000132170 1
CARDIoGRAM_C4D_CAD_ADDITIVE ENSG00000133392 1
CARDIoGRAM_C4D_CAD_ADDITIVE ENSG00000134086 1
CARDIoGRAM_C4D_CAD_ADDITIVE ENSG00000134250 1
CARDIoGRAM_C4D_CAD_ADDITIVE ENSG00000134504 1
CARDIoGRAM_C4D_CAD_ADDITIVE ENSG00000134640 1
CARDIoGRAM_C4D_CAD_ADDITIVE ENSG00000135100 1
CARDIoGRAM_C4D_CAD_ADDITIVE ENSG00000135929 1
CARDIoGRAM_C4D_CAD_ADDITIVE ENSG00000135956 1
CARDIoGRAM_C4D_CAD_ADDITIVE ENSG00000136158 1
CARDIoGRAM_C4D_CAD_ADDITIVE ENSG00000136573 1
CARDIoGRAM_C4D_CAD_ADDITIVE ENSG00000136710 1
CARDIoGRAM_C4D_CAD_ADDITIVE ENSG00000137074 1
CARDIoGRAM_C4D_CAD_ADDITIVE ENSG00000137309 1
CARDIoGRAM_C4D_CAD_ADDITIVE ENSG00000137561 1
CARDIoGRAM_C4D_CAD_ADDITIVE ENSG00000137700 1
CARDIoGRAM_C4D_CAD_ADDITIVE ENSG00000138075 1
CARDIoGRAM_C4D_CAD_ADDITIVE ENSG00000138375 1
CARDIoGRAM_C4D_CAD_ADDITIVE ENSG00000138592 1
CARDIoGRAM_C4D_CAD_ADDITIVE ENSG00000138823 1
CARDIoGRAM_C4D_CAD_ADDITIVE ENSG00000139515 1
CARDIoGRAM_C4D_CAD_ADDITIVE ENSG00000139567 1
CARDIoGRAM_C4D_CAD_ADDITIVE ENSG00000140691 1
CARDIoGRAM_C4D_CAD_ADDITIVE ENSG00000141646 1
CARDIoGRAM_C4D_CAD_ADDITIVE ENSG00000143252 1
CARDIoGRAM_C4D_CAD_ADDITIVE ENSG00000143373 1
CARDIoGRAM_C4D_CAD_ADDITIVE ENSG00000143815 1
CARDIoGRAM_C4D_CAD_ADDITIVE ENSG00000143921 1
CARDIoGRAM_C4D_CAD_ADDITIVE ENSG00000144061 1
CARDIoGRAM_C4D_CAD_ADDITIVE ENSG00000145675 1
CARDIoGRAM_C4D_CAD_ADDITIVE ENSG00000146021 1
CARDIoGRAM_C4D_CAD_ADDITIVE ENSG00000146648 1
CARDIoGRAM_C4D_CAD_ADDITIVE ENSG00000147155 1
CARDIoGRAM_C4D_CAD_ADDITIVE ENSG00000147383 1
CARDIoGRAM_C4D_CAD_ADDITIVE ENSG00000148737 1
CARDIoGRAM_C4D_CAD_ADDITIVE ENSG00000148795 1
CARDIoGRAM_C4D_CAD_ADDITIVE ENSG00000149575 1
CARDIoGRAM_C4D_CAD_ADDITIVE ENSG00000151623 1
CARDIoGRAM_C4D_CAD_ADDITIVE ENSG00000152661 1
CARDIoGRAM_C4D_CAD_ADDITIVE ENSG00000154415 1
CARDIoGRAM_C4D_CAD_ADDITIVE ENSG00000155755 1
CARDIoGRAM_C4D_CAD_ADDITIVE ENSG00000156831 1
CARDIoGRAM_C4D_CAD_ADDITIVE ENSG00000157388 1
CARDIoGRAM_C4D_CAD_ADDITIVE ENSG00000157500 1
CARDIoGRAM_C4D_CAD_ADDITIVE ENSG00000157978 1
CARDIoGRAM_C4D_CAD_ADDITIVE ENSG00000159459 1
CARDIoGRAM_C4D_CAD_ADDITIVE ENSG00000160050 1
CARDIoGRAM_C4D_CAD_ADDITIVE ENSG00000160299 1
CARDIoGRAM_C4D_CAD_ADDITIVE ENSG00000160789 1
CARDIoGRAM_C4D_CAD_ADDITIVE ENSG00000160882 1
CARDIoGRAM_C4D_CAD_ADDITIVE ENSG00000162992 1
CARDIoGRAM_C4D_CAD_ADDITIVE ENSG00000163374 1
CARDIoGRAM_C4D_CAD_ADDITIVE ENSG00000163581 1
CARDIoGRAM_C4D_CAD_ADDITIVE ENSG00000164756 1
CARDIoGRAM_C4D_CAD_ADDITIVE ENSG00000165029 1
CARDIoGRAM_C4D_CAD_ADDITIVE ENSG00000165731 1
CARDIoGRAM_C4D_CAD_ADDITIVE ENSG00000166035 1
CARDIoGRAM_C4D_CAD_ADDITIVE ENSG00000166147 1
CARDIoGRAM_C4D_CAD_ADDITIVE ENSG00000166311 1
CARDIoGRAM_C4D_CAD_ADDITIVE ENSG00000166710 1
CARDIoGRAM_C4D_CAD_ADDITIVE ENSG00000166819 1
CARDIoGRAM_C4D_CAD_ADDITIVE ENSG00000167186 1
CARDIoGRAM_C4D_CAD_ADDITIVE ENSG00000168000 1
CARDIoGRAM_C4D_CAD_ADDITIVE ENSG00000168447 1
CARDIoGRAM_C4D_CAD_ADDITIVE ENSG00000168621 1
CARDIoGRAM_C4D_CAD_ADDITIVE ENSG00000169031 1
CARDIoGRAM_C4D_CAD_ADDITIVE ENSG00000169174 1
CARDIoGRAM_C4D_CAD_ADDITIVE ENSG00000169218 1
CARDIoGRAM_C4D_CAD_ADDITIVE ENSG00000169599 1
CARDIoGRAM_C4D_CAD_ADDITIVE ENSG00000169692 1
CARDIoGRAM_C4D_CAD_ADDITIVE ENSG00000170099 1
CARDIoGRAM_C4D_CAD_ADDITIVE ENSG00000170421 1
CARDIoGRAM_C4D_CAD_ADDITIVE ENSG00000170835 1
CARDIoGRAM_C4D_CAD_ADDITIVE ENSG00000171105 1
CARDIoGRAM_C4D_CAD_ADDITIVE ENSG00000171560 1
CARDIoGRAM_C4D_CAD_ADDITIVE ENSG00000172059 1
CARDIoGRAM_C4D_CAD_ADDITIVE ENSG00000172071 1
CARDIoGRAM_C4D_CAD_ADDITIVE ENSG00000172572 1
CARDIoGRAM_C4D_CAD_ADDITIVE ENSG00000172893 1
CARDIoGRAM_C4D_CAD_ADDITIVE ENSG00000174007 1
CARDIoGRAM_C4D_CAD_ADDITIVE ENSG00000174483 1
CARDIoGRAM_C4D_CAD_ADDITIVE ENSG00000175334 1
CARDIoGRAM_C4D_CAD_ADDITIVE ENSG00000175445 1
CARDIoGRAM_C4D_CAD_ADDITIVE ENSG00000175595 1
CARDIoGRAM_C4D_CAD_ADDITIVE ENSG00000175600 1
CARDIoGRAM_C4D_CAD_ADDITIVE ENSG00000175606 1
CARDIoGRAM_C4D_CAD_ADDITIVE ENSG00000176387 1
CARDIoGRAM_C4D_CAD_ADDITIVE ENSG00000177628 1
CARDIoGRAM_C4D_CAD_ADDITIVE ENSG00000178726 1
CARDIoGRAM_C4D_CAD_ADDITIVE ENSG00000179218 1
CARDIoGRAM_C4D_CAD_ADDITIVE ENSG00000182512 1
CARDIoGRAM_C4D_CAD_ADDITIVE ENSG00000182636 1
CARDIoGRAM_C4D_CAD_ADDITIVE ENSG00000184937 1
CARDIoGRAM_C4D_CAD_ADDITIVE ENSG00000185000 1
CARDIoGRAM_C4D_CAD_ADDITIVE ENSG00000185499 1
CARDIoGRAM_C4D_CAD_ADDITIVE ENSG00000185950 1
CARDIoGRAM_C4D_CAD_ADDITIVE ENSG00000187266 1
CARDIoGRAM_C4D_CAD_ADDITIVE ENSG00000187486 1
CARDIoGRAM_C4D_CAD_ADDITIVE ENSG00000188153 1
CARDIoGRAM_C4D_CAD_ADDITIVE ENSG00000196236 1
CARDIoGRAM_C4D_CAD_ADDITIVE ENSG00000196396 1
CARDIoGRAM_C4D_CAD_ADDITIVE ENSG00000196557 1
CARDIoGRAM_C4D_CAD_ADDITIVE ENSG00000196712 1
CARDIoGRAM_C4D_CAD_ADDITIVE ENSG00000197299 1
CARDIoGRAM_C4D_CAD_ADDITIVE ENSG00000197496 1
CARDIoGRAM_C4D_CAD_ADDITIVE ENSG00000197594 1
CARDIoGRAM_C4D_CAD_ADDITIVE ENSG00000198087 1
CARDIoGRAM_C4D_CAD_ADDITIVE ENSG00000204103 1
CARDIoGRAM_C4D_CAD_ADDITIVE ENSG00000204217 1
CARDIoGRAM_C4D_CAD_ADDITIVE ENSG00000204370 1
CARDIoGRAM_C4D_CAD_ADDITIVE ENSG00000205403 1
CARDIoGRAM_C4D_CAD_ADDITIVE ENSG00000213398 1
CARDIoGRAM_C4D_CAD_ADDITIVE ENSG00000215644 1
CARDIoGRAM_C4D_CAD_ADDITIVE ENSG00000217930 1
CARDIoGRAM_C4D_CAD_ADDITIVE ENSG00000225830 1
CARDIoGRAM_C4D_CAD_ADDITIVE ENSG00000231852 1
CARDIoGRAM_C4D_CAD_ADDITIVE ENSG00000239672 1
CARDIoGRAM_C4D_CAD_ADDITIVE ENSG00000243649 1
CARDIoGRAM_C4D_CAD_ADDITIVE ENSG00000244045 1
CARDIoGRAM_C4D_CAD_ADDITIVE ENSG00000244414 1
CARDIoGRAM_C4D_CAD_ADDITIVE ENSG00000244734 1
CARDIoGRAM_C4D_CAD_ADDITIVE ENSG00000254647 1
CARDIoGRAM_C4D_CAD_ADDITIVE ENSG00000255292 1
CARDIoGRAM_C4D_CAD_ADDITIVE ENSG00000256269 1
CARDIoGRAM_C4D_CAD_ADDITIVE ENSG00000275410 1
DIAGRAM_T2D_TRANS_ETHNIC ENSG00000006071 1
DIAGRAM_T2D_TRANS_ETHNIC ENSG00000058262 1
DIAGRAM_T2D_TRANS_ETHNIC ENSG00000070018 1
DIAGRAM_T2D_TRANS_ETHNIC ENSG00000073792 1
DIAGRAM_T2D_TRANS_ETHNIC ENSG00000084073 1
DIAGRAM_T2D_TRANS_ETHNIC ENSG00000101076 1
DIAGRAM_T2D_TRANS_ETHNIC ENSG00000104918 1
DIAGRAM_T2D_TRANS_ETHNIC ENSG00000105221 1
DIAGRAM_T2D_TRANS_ETHNIC ENSG00000106331 1
DIAGRAM_T2D_TRANS_ETHNIC ENSG00000106633 1
DIAGRAM_T2D_TRANS_ETHNIC ENSG00000109501 1
DIAGRAM_T2D_TRANS_ETHNIC ENSG00000115159 1
DIAGRAM_T2D_TRANS_ETHNIC ENSG00000116127 1
DIAGRAM_T2D_TRANS_ETHNIC ENSG00000121653 1
DIAGRAM_T2D_TRANS_ETHNIC ENSG00000124564 1
DIAGRAM_T2D_TRANS_ETHNIC ENSG00000128739 1
DIAGRAM_T2D_TRANS_ETHNIC ENSG00000131482 1
DIAGRAM_T2D_TRANS_ETHNIC ENSG00000132170 1
DIAGRAM_T2D_TRANS_ETHNIC ENSG00000134640 1
DIAGRAM_T2D_TRANS_ETHNIC ENSG00000135100 1
DIAGRAM_T2D_TRANS_ETHNIC ENSG00000136573 1
DIAGRAM_T2D_TRANS_ETHNIC ENSG00000137309 1
DIAGRAM_T2D_TRANS_ETHNIC ENSG00000137700 1
DIAGRAM_T2D_TRANS_ETHNIC ENSG00000139515 1
DIAGRAM_T2D_TRANS_ETHNIC ENSG00000145675 1
DIAGRAM_T2D_TRANS_ETHNIC ENSG00000147224 1
DIAGRAM_T2D_TRANS_ETHNIC ENSG00000148737 1
DIAGRAM_T2D_TRANS_ETHNIC ENSG00000152556 1
DIAGRAM_T2D_TRANS_ETHNIC ENSG00000154415 1
DIAGRAM_T2D_TRANS_ETHNIC ENSG00000157500 1
DIAGRAM_T2D_TRANS_ETHNIC ENSG00000160299 1
DIAGRAM_T2D_TRANS_ETHNIC ENSG00000160789 1
DIAGRAM_T2D_TRANS_ETHNIC ENSG00000162992 1
DIAGRAM_T2D_TRANS_ETHNIC ENSG00000163581 1
DIAGRAM_T2D_TRANS_ETHNIC ENSG00000164756 1
DIAGRAM_T2D_TRANS_ETHNIC ENSG00000166035 1
DIAGRAM_T2D_TRANS_ETHNIC ENSG00000168000 1
DIAGRAM_T2D_TRANS_ETHNIC ENSG00000169344 1
DIAGRAM_T2D_TRANS_ETHNIC ENSG00000169692 1
DIAGRAM_T2D_TRANS_ETHNIC ENSG00000170835 1
DIAGRAM_T2D_TRANS_ETHNIC ENSG00000171105 1
DIAGRAM_T2D_TRANS_ETHNIC ENSG00000172059 1
DIAGRAM_T2D_TRANS_ETHNIC ENSG00000172071 1
DIAGRAM_T2D_TRANS_ETHNIC ENSG00000174007 1
DIAGRAM_T2D_TRANS_ETHNIC ENSG00000182512 1
DIAGRAM_T2D_TRANS_ETHNIC ENSG00000182636 1
DIAGRAM_T2D_TRANS_ETHNIC ENSG00000185499 1
DIAGRAM_T2D_TRANS_ETHNIC ENSG00000185950 1
DIAGRAM_T2D_TRANS_ETHNIC ENSG00000187486 1
DIAGRAM_T2D_TRANS_ETHNIC ENSG00000196396 1
DIAGRAM_T2D_TRANS_ETHNIC ENSG00000197299 1
DIAGRAM_T2D_TRANS_ETHNIC ENSG00000197594 1
DIAGRAM_T2D_TRANS_ETHNIC ENSG00000215644 1
DIAGRAM_T2D_TRANS_ETHNIC ENSG00000254647 1
DIAGRAM_T2D_TRANS_ETHNIC ENSG00000275410 1
GIANT_WC_Combined_EUR ENSG00000001497 1
GIANT_WC_Combined_EUR ENSG00000004864 1
GIANT_WC_Combined_EUR ENSG00000005339 1
GIANT_WC_Combined_EUR ENSG00000011143 1
GIANT_WC_Combined_EUR ENSG00000044446 1
GIANT_WC_Combined_EUR ENSG00000049239 1
GIANT_WC_Combined_EUR ENSG00000054282 1
GIANT_WC_Combined_EUR ENSG00000062822 1
GIANT_WC_Combined_EUR ENSG00000066926 1
GIANT_WC_Combined_EUR ENSG00000070018 1
GIANT_WC_Combined_EUR ENSG00000072364 1
GIANT_WC_Combined_EUR ENSG00000076944 1
GIANT_WC_Combined_EUR ENSG00000079435 1
GIANT_WC_Combined_EUR ENSG00000085224 1
GIANT_WC_Combined_EUR ENSG00000085382 1
GIANT_WC_Combined_EUR ENSG00000087460 1
GIANT_WC_Combined_EUR ENSG00000092929 1
GIANT_WC_Combined_EUR ENSG00000096872 1
GIANT_WC_Combined_EUR ENSG00000100360 1
GIANT_WC_Combined_EUR ENSG00000100564 1
GIANT_WC_Combined_EUR ENSG00000101126 1
GIANT_WC_Combined_EUR ENSG00000101384 1
GIANT_WC_Combined_EUR ENSG00000101966 1
GIANT_WC_Combined_EUR ENSG00000102383 1
GIANT_WC_Combined_EUR ENSG00000103489 1
GIANT_WC_Combined_EUR ENSG00000103707 1
GIANT_WC_Combined_EUR ENSG00000104133 1
GIANT_WC_Combined_EUR ENSG00000105204 1
GIANT_WC_Combined_EUR ENSG00000105221 1
GIANT_WC_Combined_EUR ENSG00000105429 1
GIANT_WC_Combined_EUR ENSG00000105974 1
GIANT_WC_Combined_EUR ENSG00000107798 1
GIANT_WC_Combined_EUR ENSG00000108557 1
GIANT_WC_Combined_EUR ENSG00000108946 1
GIANT_WC_Combined_EUR ENSG00000110243 1
GIANT_WC_Combined_EUR ENSG00000110274 1
GIANT_WC_Combined_EUR ENSG00000112210 1
GIANT_WC_Combined_EUR ENSG00000113448 1
GIANT_WC_Combined_EUR ENSG00000113966 1
GIANT_WC_Combined_EUR ENSG00000114062 1
GIANT_WC_Combined_EUR ENSG00000114861 1
GIANT_WC_Combined_EUR ENSG00000115138 1
GIANT_WC_Combined_EUR ENSG00000116127 1
GIANT_WC_Combined_EUR ENSG00000116678 1
GIANT_WC_Combined_EUR ENSG00000117594 1
GIANT_WC_Combined_EUR ENSG00000119333 1
GIANT_WC_Combined_EUR ENSG00000119401 1
GIANT_WC_Combined_EUR ENSG00000122507 1
GIANT_WC_Combined_EUR ENSG00000124089 1
GIANT_WC_Combined_EUR ENSG00000124222 1
GIANT_WC_Combined_EUR ENSG00000125124 1
GIANT_WC_Combined_EUR ENSG00000125676 1
GIANT_WC_Combined_EUR ENSG00000125863 1
GIANT_WC_Combined_EUR ENSG00000128655 1
GIANT_WC_Combined_EUR ENSG00000128739 1
GIANT_WC_Combined_EUR ENSG00000130741 1
GIANT_WC_Combined_EUR ENSG00000131910 1
GIANT_WC_Combined_EUR ENSG00000132170 1
GIANT_WC_Combined_EUR ENSG00000132549 1
GIANT_WC_Combined_EUR ENSG00000132600 1
GIANT_WC_Combined_EUR ENSG00000135111 1
GIANT_WC_Combined_EUR ENSG00000135324 1
GIANT_WC_Combined_EUR ENSG00000135604 1
GIANT_WC_Combined_EUR ENSG00000136573 1
GIANT_WC_Combined_EUR ENSG00000137561 1
GIANT_WC_Combined_EUR ENSG00000138002 1
GIANT_WC_Combined_EUR ENSG00000138592 1
GIANT_WC_Combined_EUR ENSG00000138686 1
GIANT_WC_Combined_EUR ENSG00000138823 1
GIANT_WC_Combined_EUR ENSG00000140443 1
GIANT_WC_Combined_EUR ENSG00000140463 1
GIANT_WC_Combined_EUR ENSG00000140691 1
GIANT_WC_Combined_EUR ENSG00000140718 1
GIANT_WC_Combined_EUR ENSG00000141646 1
GIANT_WC_Combined_EUR ENSG00000147099 1
GIANT_WC_Combined_EUR ENSG00000147274 1
GIANT_WC_Combined_EUR ENSG00000148053 1
GIANT_WC_Combined_EUR ENSG00000148384 1
GIANT_WC_Combined_EUR ENSG00000148459 1
GIANT_WC_Combined_EUR ENSG00000148606 1
GIANT_WC_Combined_EUR ENSG00000151729 1
GIANT_WC_Combined_EUR ENSG00000152422 1
GIANT_WC_Combined_EUR ENSG00000155465 1
GIANT_WC_Combined_EUR ENSG00000156172 1
GIANT_WC_Combined_EUR ENSG00000156531 1
GIANT_WC_Combined_EUR ENSG00000156873 1
GIANT_WC_Combined_EUR ENSG00000157017 1
GIANT_WC_Combined_EUR ENSG00000157978 1
GIANT_WC_Combined_EUR ENSG00000158290 1
GIANT_WC_Combined_EUR ENSG00000159723 1
GIANT_WC_Combined_EUR ENSG00000160050 1
GIANT_WC_Combined_EUR ENSG00000160299 1
GIANT_WC_Combined_EUR ENSG00000160789 1
GIANT_WC_Combined_EUR ENSG00000162512 1
GIANT_WC_Combined_EUR ENSG00000163093 1
GIANT_WC_Combined_EUR ENSG00000163421 1
GIANT_WC_Combined_EUR ENSG00000163818 1
GIANT_WC_Combined_EUR ENSG00000164326 1
GIANT_WC_Combined_EUR ENSG00000164953 1
GIANT_WC_Combined_EUR ENSG00000165533 1
GIANT_WC_Combined_EUR ENSG00000166224 1
GIANT_WC_Combined_EUR ENSG00000166311 1
GIANT_WC_Combined_EUR ENSG00000166402 1
GIANT_WC_Combined_EUR ENSG00000166819 1
GIANT_WC_Combined_EUR ENSG00000167588 1
GIANT_WC_Combined_EUR ENSG00000167632 1
GIANT_WC_Combined_EUR ENSG00000168000 1
GIANT_WC_Combined_EUR ENSG00000169218 1
GIANT_WC_Combined_EUR ENSG00000169375 1
GIANT_WC_Combined_EUR ENSG00000169379 1
GIANT_WC_Combined_EUR ENSG00000169692 1
GIANT_WC_Combined_EUR ENSG00000171302 1
GIANT_WC_Combined_EUR ENSG00000171862 1
GIANT_WC_Combined_EUR ENSG00000174007 1
GIANT_WC_Combined_EUR ENSG00000174483 1
GIANT_WC_Combined_EUR ENSG00000174697 1
GIANT_WC_Combined_EUR ENSG00000175426 1
GIANT_WC_Combined_EUR ENSG00000175564 1
GIANT_WC_Combined_EUR ENSG00000177239 1
GIANT_WC_Combined_EUR ENSG00000177666 1
GIANT_WC_Combined_EUR ENSG00000179941 1
GIANT_WC_Combined_EUR ENSG00000180644 1
GIANT_WC_Combined_EUR ENSG00000181004 1
GIANT_WC_Combined_EUR ENSG00000181090 1
GIANT_WC_Combined_EUR ENSG00000181555 1
GIANT_WC_Combined_EUR ENSG00000181722 1
GIANT_WC_Combined_EUR ENSG00000182636 1
GIANT_WC_Combined_EUR ENSG00000184058 1
GIANT_WC_Combined_EUR ENSG00000186487 1
GIANT_WC_Combined_EUR ENSG00000187288 1
GIANT_WC_Combined_EUR ENSG00000188778 1
GIANT_WC_Combined_EUR ENSG00000197594 1
GIANT_WC_Combined_EUR ENSG00000198707 1
GIANT_WC_Combined_EUR ENSG00000198814 1
GIANT_WC_Combined_EUR ENSG00000204104 1
GIANT_WC_Combined_EUR ENSG00000204264 1
GIANT_WC_Combined_EUR ENSG00000204655 1
GIANT_WC_Combined_EUR ENSG00000213398 1
GIANT_WC_Combined_EUR ENSG00000214413 1
GIANT_WC_Combined_EUR ENSG00000234906 1
GIANT_WC_Combined_EUR ENSG00000254585 1
GLGC_Mc_HDL ENSG00000025434 1
GLGC_Mc_HDL ENSG00000070915 1
GLGC_Mc_HDL ENSG00000073060 1
GLGC_Mc_HDL ENSG00000076555 1
GLGC_Mc_HDL ENSG00000087237 1
GLGC_Mc_HDL ENSG00000101670 1
GLGC_Mc_HDL ENSG00000110243 1
GLGC_Mc_HDL ENSG00000110245 1
GLGC_Mc_HDL ENSG00000118137 1
GLGC_Mc_HDL ENSG00000135218 1
GLGC_Mc_HDL ENSG00000141096 1
GLGC_Mc_HDL ENSG00000157450 1
GLGC_Mc_HDL ENSG00000161649 1
GLGC_Mc_HDL ENSG00000165029 1
GLGC_Mc_HDL ENSG00000166035 1
GLGC_Mc_HDL ENSG00000168092 1
GLGC_Mc_HDL ENSG00000175445 1
GLGC_Mc_HDL ENSG00000177103 1
GLGC_Mc_HDL ENSG00000198848 1
GLGC_Mc_HDL ENSG00000204889 1
GLGC_Mc_HDL ENSG00000213398 1
GLGC_Mc_LDL ENSG00000004864 1
GLGC_Mc_LDL ENSG00000015520 1
GLGC_Mc_LDL ENSG00000044446 1
GLGC_Mc_LDL ENSG00000068305 1
GLGC_Mc_LDL ENSG00000070018 1
GLGC_Mc_LDL ENSG00000084674 2
GLGC_Mc_LDL ENSG00000096968 1
GLGC_Mc_LDL ENSG00000101384 1
GLGC_Mc_LDL ENSG00000105204 1
GLGC_Mc_LDL ENSG00000105732 1
GLGC_Mc_LDL ENSG00000105974 1
GLGC_Mc_LDL ENSG00000106341 1
GLGC_Mc_LDL ENSG00000107798 1
GLGC_Mc_LDL ENSG00000108557 1
GLGC_Mc_LDL ENSG00000109929 1
GLGC_Mc_LDL ENSG00000110243 1
GLGC_Mc_LDL ENSG00000112964 1
GLGC_Mc_LDL ENSG00000116133 1
GLGC_Mc_LDL ENSG00000120915 1
GLGC_Mc_LDL ENSG00000122126 1
GLGC_Mc_LDL ENSG00000129354 1
GLGC_Mc_LDL ENSG00000130164 2
GLGC_Mc_LDL ENSG00000130203 1
GLGC_Mc_LDL ENSG00000135929 1
GLGC_Mc_LDL ENSG00000136710 1
GLGC_Mc_LDL ENSG00000137074 1
GLGC_Mc_LDL ENSG00000137561 1
GLGC_Mc_LDL ENSG00000138075 1
GLGC_Mc_LDL ENSG00000143815 1
GLGC_Mc_LDL ENSG00000143921 1
GLGC_Mc_LDL ENSG00000147155 1
GLGC_Mc_LDL ENSG00000147383 1
GLGC_Mc_LDL ENSG00000157978 1
GLGC_Mc_LDL ENSG00000159459 1
GLGC_Mc_LDL ENSG00000160789 1
GLGC_Mc_LDL ENSG00000162391 1
GLGC_Mc_LDL ENSG00000165029 1
GLGC_Mc_LDL ENSG00000166311 1
GLGC_Mc_LDL ENSG00000169174 2
GLGC_Mc_LDL ENSG00000169218 1
GLGC_Mc_LDL ENSG00000172893 1
GLGC_Mc_LDL ENSG00000174007 1
GLGC_Mc_LDL ENSG00000175445 1
GLGC_Mc_LDL ENSG00000179588 1
GLGC_Mc_LDL ENSG00000184357 1
GLGC_Mc_LDL ENSG00000185000 1
GLGC_Mc_LDL ENSG00000186951 1
GLGC_Mc_LDL ENSG00000213398 1
GLGC_Mc_LDL ENSG00000220201 1
GLGC_Mc_LDL ENSG00000244045 1
GLGC_Mc_TG ENSG00000004864 1
GLGC_Mc_TG ENSG00000044446 1
GLGC_Mc_TG ENSG00000062822 1
GLGC_Mc_TG ENSG00000066926 1
GLGC_Mc_TG ENSG00000068305 1
GLGC_Mc_TG ENSG00000070018 1
GLGC_Mc_TG ENSG00000076944 1
GLGC_Mc_TG ENSG00000084674 1
GLGC_Mc_TG ENSG00000084734 1
GLGC_Mc_TG ENSG00000092929 1
GLGC_Mc_TG ENSG00000100564 1
GLGC_Mc_TG ENSG00000101384 1
GLGC_Mc_TG ENSG00000101966 1
GLGC_Mc_TG ENSG00000105204 1
GLGC_Mc_TG ENSG00000105974 1
GLGC_Mc_TG ENSG00000106341 1
GLGC_Mc_TG ENSG00000107798 1
GLGC_Mc_TG ENSG00000108557 1
GLGC_Mc_TG ENSG00000109929 1
GLGC_Mc_TG ENSG00000110243 2
GLGC_Mc_TG ENSG00000110245 1
GLGC_Mc_TG ENSG00000112964 1
GLGC_Mc_TG ENSG00000116127 1
GLGC_Mc_TG ENSG00000116133 1
GLGC_Mc_TG ENSG00000120915 1
GLGC_Mc_TG ENSG00000122126 1
GLGC_Mc_TG ENSG00000124253 1
GLGC_Mc_TG ENSG00000130164 1
GLGC_Mc_TG ENSG00000130203 1
GLGC_Mc_TG ENSG00000132170 1
GLGC_Mc_TG ENSG00000135604 1
GLGC_Mc_TG ENSG00000135929 1
GLGC_Mc_TG ENSG00000136710 1
GLGC_Mc_TG ENSG00000137074 1
GLGC_Mc_TG ENSG00000137561 1
GLGC_Mc_TG ENSG00000138075 1
GLGC_Mc_TG ENSG00000143815 1
GLGC_Mc_TG ENSG00000143921 1
GLGC_Mc_TG ENSG00000147155 1
GLGC_Mc_TG ENSG00000147383 1
GLGC_Mc_TG ENSG00000148584 1
GLGC_Mc_TG ENSG00000148606 1
GLGC_Mc_TG ENSG00000156873 1
GLGC_Mc_TG ENSG00000157978 1
GLGC_Mc_TG ENSG00000159459 1
GLGC_Mc_TG ENSG00000160789 1
GLGC_Mc_TG ENSG00000166035 1
GLGC_Mc_TG ENSG00000166224 1
GLGC_Mc_TG ENSG00000166311 1
GLGC_Mc_TG ENSG00000166819 1
GLGC_Mc_TG ENSG00000167588 1
GLGC_Mc_TG ENSG00000168000 1
GLGC_Mc_TG ENSG00000168092 1
GLGC_Mc_TG ENSG00000168477 1
GLGC_Mc_TG ENSG00000169174 1
GLGC_Mc_TG ENSG00000169218 1
GLGC_Mc_TG ENSG00000169692 1
GLGC_Mc_TG ENSG00000171564 1
GLGC_Mc_TG ENSG00000172893 1
GLGC_Mc_TG ENSG00000174007 1
GLGC_Mc_TG ENSG00000174032 1
GLGC_Mc_TG ENSG00000175445 2
GLGC_Mc_TG ENSG00000177103 1
GLGC_Mc_TG ENSG00000177666 1
GLGC_Mc_TG ENSG00000180644 1
GLGC_Mc_TG ENSG00000182871 1
GLGC_Mc_TG ENSG00000185000 1
GLGC_Mc_TG ENSG00000187288 1
GLGC_Mc_TG ENSG00000198814 1
GLGC_Mc_TG ENSG00000204264 1
GLGC_Mc_TG ENSG00000213398 1
GLGC_Mc_TG ENSG00000234906 1
GLGC_Mc_TG ENSG00000244045 1
IBD.EUR.Inflammatory_Bowel_Disease ENSG00000009724 1
IBD.EUR.Inflammatory_Bowel_Disease ENSG00000015285 1
IBD.EUR.Inflammatory_Bowel_Disease ENSG00000064490 1
IBD.EUR.Inflammatory_Bowel_Disease ENSG00000066230 1
IBD.EUR.Inflammatory_Bowel_Disease ENSG00000085563 1
IBD.EUR.Inflammatory_Bowel_Disease ENSG00000091106 1
IBD.EUR.Inflammatory_Bowel_Disease ENSG00000100365 1
IBD.EUR.Inflammatory_Bowel_Disease ENSG00000101868 1
IBD.EUR.Inflammatory_Bowel_Disease ENSG00000101966 1
IBD.EUR.Inflammatory_Bowel_Disease ENSG00000107521 1
IBD.EUR.Inflammatory_Bowel_Disease ENSG00000110324 1
IBD.EUR.Inflammatory_Bowel_Disease ENSG00000118503 1
IBD.EUR.Inflammatory_Bowel_Disease ENSG00000133103 1
IBD.EUR.Inflammatory_Bowel_Disease ENSG00000133111 1
IBD.EUR.Inflammatory_Bowel_Disease ENSG00000135341 1
IBD.EUR.Inflammatory_Bowel_Disease ENSG00000136244 1
IBD.EUR.Inflammatory_Bowel_Disease ENSG00000138684 1
IBD.EUR.Inflammatory_Bowel_Disease ENSG00000143390 1
IBD.EUR.Inflammatory_Bowel_Disease ENSG00000165731 1
IBD.EUR.Inflammatory_Bowel_Disease ENSG00000167207 1
IBD.EUR.Inflammatory_Bowel_Disease ENSG00000178814 1
IBD.EUR.Inflammatory_Bowel_Disease ENSG00000179583 1
IBD.EUR.Inflammatory_Bowel_Disease ENSG00000196126 1
IBD.EUR.Inflammatory_Bowel_Disease ENSG00000197943 1
IBD.EUR.Inflammatory_Bowel_Disease ENSG00000198589 1
IBD.EUR.Inflammatory_Bowel_Disease ENSG00000204351 1
IBD.EUR.Inflammatory_Bowel_Disease ENSG00000237693 1
IBD.EUR.Inflammatory_Bowel_Disease ENSG00000243646 1
IBD.EUR.Inflammatory_Bowel_Disease ENSG00000258366 1
IBD.EUR.Inflammatory_Bowel_Disease ENSG00000277494 1
IBD.EUR.Ulcerative_Colitis ENSG00000005471 1
IBD.EUR.Ulcerative_Colitis ENSG00000009724 1
IBD.EUR.Ulcerative_Colitis ENSG00000064490 1
IBD.EUR.Ulcerative_Colitis ENSG00000074582 1
IBD.EUR.Ulcerative_Colitis ENSG00000091106 1
IBD.EUR.Ulcerative_Colitis ENSG00000100365 1
IBD.EUR.Ulcerative_Colitis ENSG00000101868 1
IBD.EUR.Ulcerative_Colitis ENSG00000101966 1
IBD.EUR.Ulcerative_Colitis ENSG00000103522 1
IBD.EUR.Ulcerative_Colitis ENSG00000107521 1
IBD.EUR.Ulcerative_Colitis ENSG00000110324 1
IBD.EUR.Ulcerative_Colitis ENSG00000118503 1
IBD.EUR.Ulcerative_Colitis ENSG00000118965 1
IBD.EUR.Ulcerative_Colitis ENSG00000133111 1
IBD.EUR.Ulcerative_Colitis ENSG00000135341 1
IBD.EUR.Ulcerative_Colitis ENSG00000136244 1
IBD.EUR.Ulcerative_Colitis ENSG00000136695 1
IBD.EUR.Ulcerative_Colitis ENSG00000143390 1
IBD.EUR.Ulcerative_Colitis ENSG00000163347 1
IBD.EUR.Ulcerative_Colitis ENSG00000165731 1
IBD.EUR.Ulcerative_Colitis ENSG00000167207 1
IBD.EUR.Ulcerative_Colitis ENSG00000178814 1
IBD.EUR.Ulcerative_Colitis ENSG00000179583 1
IBD.EUR.Ulcerative_Colitis ENSG00000197943 1
IBD.EUR.Ulcerative_Colitis ENSG00000198589 1
IBD.EUR.Ulcerative_Colitis ENSG00000204351 1
IBD.EUR.Ulcerative_Colitis ENSG00000243646 1
IBD.EUR.Ulcerative_Colitis ENSG00000258366 1
IBD.EUR.Ulcerative_Colitis ENSG00000277494 1
ICBP_DiastolicPressure ENSG00000000971 1
ICBP_DiastolicPressure ENSG00000007933 1
ICBP_DiastolicPressure ENSG00000008441 1
ICBP_DiastolicPressure ENSG00000008710 1
ICBP_DiastolicPressure ENSG00000011376 1
ICBP_DiastolicPressure ENSG00000015532 1
ICBP_DiastolicPressure ENSG00000031081 1
ICBP_DiastolicPressure ENSG00000036257 1
ICBP_DiastolicPressure ENSG00000046651 1
ICBP_DiastolicPressure ENSG00000049167 1
ICBP_DiastolicPressure ENSG00000054523 1
ICBP_DiastolicPressure ENSG00000060237 1
ICBP_DiastolicPressure ENSG00000068305 1
ICBP_DiastolicPressure ENSG00000070018 1
ICBP_DiastolicPressure ENSG00000072062 1
ICBP_DiastolicPressure ENSG00000077943 1
ICBP_DiastolicPressure ENSG00000080819 1
ICBP_DiastolicPressure ENSG00000081052 1
ICBP_DiastolicPressure ENSG00000087460 1
ICBP_DiastolicPressure ENSG00000089597 1
ICBP_DiastolicPressure ENSG00000090382 1
ICBP_DiastolicPressure ENSG00000090534 1
ICBP_DiastolicPressure ENSG00000091262 1
ICBP_DiastolicPressure ENSG00000096968 1
ICBP_DiastolicPressure ENSG00000102393 1
ICBP_DiastolicPressure ENSG00000103241 1
ICBP_DiastolicPressure ENSG00000103489 1
ICBP_DiastolicPressure ENSG00000105204 1
ICBP_DiastolicPressure ENSG00000107796 1
ICBP_DiastolicPressure ENSG00000108946 1
ICBP_DiastolicPressure ENSG00000110092 1
ICBP_DiastolicPressure ENSG00000110711 1
ICBP_DiastolicPressure ENSG00000111057 1
ICBP_DiastolicPressure ENSG00000111252 1
ICBP_DiastolicPressure ENSG00000111341 1
ICBP_DiastolicPressure ENSG00000113580 1
ICBP_DiastolicPressure ENSG00000113966 1
ICBP_DiastolicPressure ENSG00000115414 1
ICBP_DiastolicPressure ENSG00000116127 1
ICBP_DiastolicPressure ENSG00000116785 1
ICBP_DiastolicPressure ENSG00000117118 1
ICBP_DiastolicPressure ENSG00000117298 1
ICBP_DiastolicPressure ENSG00000117335 1
ICBP_DiastolicPressure ENSG00000118762 1
ICBP_DiastolicPressure ENSG00000119509 1
ICBP_DiastolicPressure ENSG00000120457 1
ICBP_DiastolicPressure ENSG00000125730 1
ICBP_DiastolicPressure ENSG00000125952 1
ICBP_DiastolicPressure ENSG00000126562 1
ICBP_DiastolicPressure ENSG00000128655 1
ICBP_DiastolicPressure ENSG00000130402 1
ICBP_DiastolicPressure ENSG00000131482 1
ICBP_DiastolicPressure ENSG00000132170 1
ICBP_DiastolicPressure ENSG00000134086 1
ICBP_DiastolicPressure ENSG00000134250 1
ICBP_DiastolicPressure ENSG00000134504 1
ICBP_DiastolicPressure ENSG00000135956 1
ICBP_DiastolicPressure ENSG00000136158 1
ICBP_DiastolicPressure ENSG00000137700 1
ICBP_DiastolicPressure ENSG00000138375 1
ICBP_DiastolicPressure ENSG00000138592 1
ICBP_DiastolicPressure ENSG00000138823 1
ICBP_DiastolicPressure ENSG00000139567 1
ICBP_DiastolicPressure ENSG00000140691 1
ICBP_DiastolicPressure ENSG00000141646 1
ICBP_DiastolicPressure ENSG00000143252 1
ICBP_DiastolicPressure ENSG00000144061 1
ICBP_DiastolicPressure ENSG00000146021 1
ICBP_DiastolicPressure ENSG00000146648 1
ICBP_DiastolicPressure ENSG00000148795 1
ICBP_DiastolicPressure ENSG00000149575 1
ICBP_DiastolicPressure ENSG00000151623 1
ICBP_DiastolicPressure ENSG00000152661 1
ICBP_DiastolicPressure ENSG00000155755 1
ICBP_DiastolicPressure ENSG00000156831 1
ICBP_DiastolicPressure ENSG00000157388 1
ICBP_DiastolicPressure ENSG00000160050 1
ICBP_DiastolicPressure ENSG00000160789 1
ICBP_DiastolicPressure ENSG00000160882 1
ICBP_DiastolicPressure ENSG00000165731 1
ICBP_DiastolicPressure ENSG00000166147 1
ICBP_DiastolicPressure ENSG00000166710 1
ICBP_DiastolicPressure ENSG00000166819 1
ICBP_DiastolicPressure ENSG00000167186 1
ICBP_DiastolicPressure ENSG00000168447 1
ICBP_DiastolicPressure ENSG00000168621 1
ICBP_DiastolicPressure ENSG00000169031 1
ICBP_DiastolicPressure ENSG00000169599 1
ICBP_DiastolicPressure ENSG00000170099 1
ICBP_DiastolicPressure ENSG00000170421 1
ICBP_DiastolicPressure ENSG00000171560 1
ICBP_DiastolicPressure ENSG00000172572 1
ICBP_DiastolicPressure ENSG00000174007 1
ICBP_DiastolicPressure ENSG00000174483 1
ICBP_DiastolicPressure ENSG00000175334 1
ICBP_DiastolicPressure ENSG00000175595 1
ICBP_DiastolicPressure ENSG00000175600 1
ICBP_DiastolicPressure ENSG00000175606 1
ICBP_DiastolicPressure ENSG00000176387 1
ICBP_DiastolicPressure ENSG00000177628 1
ICBP_DiastolicPressure ENSG00000178726 1
ICBP_DiastolicPressure ENSG00000179218 1
ICBP_DiastolicPressure ENSG00000184937 1
ICBP_DiastolicPressure ENSG00000185499 1
ICBP_DiastolicPressure ENSG00000187266 1
ICBP_DiastolicPressure ENSG00000188153 1
ICBP_DiastolicPressure ENSG00000196236 1
ICBP_DiastolicPressure ENSG00000196557 1
ICBP_DiastolicPressure ENSG00000196712 1
ICBP_DiastolicPressure ENSG00000197496 1
ICBP_DiastolicPressure ENSG00000197594 1
ICBP_DiastolicPressure ENSG00000198087 1
ICBP_DiastolicPressure ENSG00000204103 1
ICBP_DiastolicPressure ENSG00000204217 1
ICBP_DiastolicPressure ENSG00000204370 1
ICBP_DiastolicPressure ENSG00000205403 1
ICBP_DiastolicPressure ENSG00000217930 1
ICBP_DiastolicPressure ENSG00000225830 1
ICBP_DiastolicPressure ENSG00000231852 1
ICBP_DiastolicPressure ENSG00000239672 1
ICBP_DiastolicPressure ENSG00000243649 1
ICBP_DiastolicPressure ENSG00000244414 1
ICBP_DiastolicPressure ENSG00000244734 1
ICBP_DiastolicPressure ENSG00000255292 1
ICBP_DiastolicPressure ENSG00000256269 1
ICBP_SystolicPressure ENSG00000000971 1
ICBP_SystolicPressure ENSG00000007933 1
ICBP_SystolicPressure ENSG00000008441 1
ICBP_SystolicPressure ENSG00000008710 1
ICBP_SystolicPressure ENSG00000011376 1
ICBP_SystolicPressure ENSG00000015532 1
ICBP_SystolicPressure ENSG00000031081 1
ICBP_SystolicPressure ENSG00000036257 1
ICBP_SystolicPressure ENSG00000046651 1
ICBP_SystolicPressure ENSG00000049167 1
ICBP_SystolicPressure ENSG00000054523 1
ICBP_SystolicPressure ENSG00000060237 1
ICBP_SystolicPressure ENSG00000068305 1
ICBP_SystolicPressure ENSG00000070018 1
ICBP_SystolicPressure ENSG00000072062 1
ICBP_SystolicPressure ENSG00000077943 1
ICBP_SystolicPressure ENSG00000080819 1
ICBP_SystolicPressure ENSG00000081052 1
ICBP_SystolicPressure ENSG00000087460 1
ICBP_SystolicPressure ENSG00000089597 1
ICBP_SystolicPressure ENSG00000090382 1
ICBP_SystolicPressure ENSG00000090534 1
ICBP_SystolicPressure ENSG00000091262 1
ICBP_SystolicPressure ENSG00000096968 1
ICBP_SystolicPressure ENSG00000102393 1
ICBP_SystolicPressure ENSG00000103241 1
ICBP_SystolicPressure ENSG00000103489 1
ICBP_SystolicPressure ENSG00000105204 1
ICBP_SystolicPressure ENSG00000107796 1
ICBP_SystolicPressure ENSG00000108946 1
ICBP_SystolicPressure ENSG00000110092 1
ICBP_SystolicPressure ENSG00000110711 1
ICBP_SystolicPressure ENSG00000111057 1
ICBP_SystolicPressure ENSG00000111252 1
ICBP_SystolicPressure ENSG00000111341 1
ICBP_SystolicPressure ENSG00000113580 1
ICBP_SystolicPressure ENSG00000113966 1
ICBP_SystolicPressure ENSG00000115414 1
ICBP_SystolicPressure ENSG00000116127 1
ICBP_SystolicPressure ENSG00000116785 1
ICBP_SystolicPressure ENSG00000117118 1
ICBP_SystolicPressure ENSG00000117298 1
ICBP_SystolicPressure ENSG00000117335 1
ICBP_SystolicPressure ENSG00000118762 1
ICBP_SystolicPressure ENSG00000119509 1
ICBP_SystolicPressure ENSG00000120457 1
ICBP_SystolicPressure ENSG00000125730 1
ICBP_SystolicPressure ENSG00000125952 1
ICBP_SystolicPressure ENSG00000126562 1
ICBP_SystolicPressure ENSG00000128655 1
ICBP_SystolicPressure ENSG00000130402 1
ICBP_SystolicPressure ENSG00000131482 1
ICBP_SystolicPressure ENSG00000132170 1
ICBP_SystolicPressure ENSG00000134086 1
ICBP_SystolicPressure ENSG00000134250 1
ICBP_SystolicPressure ENSG00000134504 1
ICBP_SystolicPressure ENSG00000135956 1
ICBP_SystolicPressure ENSG00000136158 1
ICBP_SystolicPressure ENSG00000137700 1
ICBP_SystolicPressure ENSG00000138375 1
ICBP_SystolicPressure ENSG00000138592 1
ICBP_SystolicPressure ENSG00000138823 1
ICBP_SystolicPressure ENSG00000139567 1
ICBP_SystolicPressure ENSG00000140691 1
ICBP_SystolicPressure ENSG00000141646 1
ICBP_SystolicPressure ENSG00000143252 1
ICBP_SystolicPressure ENSG00000144061 1
ICBP_SystolicPressure ENSG00000146021 1
ICBP_SystolicPressure ENSG00000146648 1
ICBP_SystolicPressure ENSG00000148795 1
ICBP_SystolicPressure ENSG00000149575 1
ICBP_SystolicPressure ENSG00000151623 1
ICBP_SystolicPressure ENSG00000152661 1
ICBP_SystolicPressure ENSG00000155755 1
ICBP_SystolicPressure ENSG00000156831 1
ICBP_SystolicPressure ENSG00000157388 1
ICBP_SystolicPressure ENSG00000160050 1
ICBP_SystolicPressure ENSG00000160789 1
ICBP_SystolicPressure ENSG00000160882 1
ICBP_SystolicPressure ENSG00000165731 1
ICBP_SystolicPressure ENSG00000166147 1
ICBP_SystolicPressure ENSG00000166710 1
ICBP_SystolicPressure ENSG00000166819 1
ICBP_SystolicPressure ENSG00000167186 1
ICBP_SystolicPressure ENSG00000168447 1
ICBP_SystolicPressure ENSG00000168621 1
ICBP_SystolicPressure ENSG00000169031 1
ICBP_SystolicPressure ENSG00000169599 1
ICBP_SystolicPressure ENSG00000170099 1
ICBP_SystolicPressure ENSG00000170421 1
ICBP_SystolicPressure ENSG00000171560 1
ICBP_SystolicPressure ENSG00000172572 1
ICBP_SystolicPressure ENSG00000174007 1
ICBP_SystolicPressure ENSG00000174483 1
ICBP_SystolicPressure ENSG00000175334 1
ICBP_SystolicPressure ENSG00000175595 1
ICBP_SystolicPressure ENSG00000175600 1
ICBP_SystolicPressure ENSG00000175606 1
ICBP_SystolicPressure ENSG00000176387 1
ICBP_SystolicPressure ENSG00000177628 1
ICBP_SystolicPressure ENSG00000178726 1
ICBP_SystolicPressure ENSG00000179218 1
ICBP_SystolicPressure ENSG00000184937 1
ICBP_SystolicPressure ENSG00000185499 1
ICBP_SystolicPressure ENSG00000187266 1
ICBP_SystolicPressure ENSG00000188153 1
ICBP_SystolicPressure ENSG00000196236 1
ICBP_SystolicPressure ENSG00000196557 1
ICBP_SystolicPressure ENSG00000196712 1
ICBP_SystolicPressure ENSG00000197496 1
ICBP_SystolicPressure ENSG00000197594 1
ICBP_SystolicPressure ENSG00000198087 1
ICBP_SystolicPressure ENSG00000204103 1
ICBP_SystolicPressure ENSG00000204217 1
ICBP_SystolicPressure ENSG00000204370 1
ICBP_SystolicPressure ENSG00000205403 1
ICBP_SystolicPressure ENSG00000217930 1
ICBP_SystolicPressure ENSG00000225830 1
ICBP_SystolicPressure ENSG00000231852 1
ICBP_SystolicPressure ENSG00000239672 1
ICBP_SystolicPressure ENSG00000243649 1
ICBP_SystolicPressure ENSG00000244414 1
ICBP_SystolicPressure ENSG00000244734 1
ICBP_SystolicPressure ENSG00000255292 1
ICBP_SystolicPressure ENSG00000256269 1
IGAP_Alzheimer ENSG00000005381 1
IGAP_Alzheimer ENSG00000010704 1
IGAP_Alzheimer ENSG00000064687 1
IGAP_Alzheimer ENSG00000080815 1
IGAP_Alzheimer ENSG00000102145 1
IGAP_Alzheimer ENSG00000122861 1
IGAP_Alzheimer ENSG00000130203 1
IGAP_Alzheimer ENSG00000142192 1
IGAP_Alzheimer ENSG00000143801 1
IGAP_Alzheimer ENSG00000175899 1
IMMUNOBASE_Systemic_lupus_erythematosus_hg19 ENSG00000009724 1
IMMUNOBASE_Systemic_lupus_erythematosus_hg19 ENSG00000072694 1
IMMUNOBASE_Systemic_lupus_erythematosus_hg19 ENSG00000124299 1
IMMUNOBASE_Systemic_lupus_erythematosus_hg19 ENSG00000125730 1
IMMUNOBASE_Systemic_lupus_erythematosus_hg19 ENSG00000134242 1
IMMUNOBASE_Systemic_lupus_erythematosus_hg19 ENSG00000143226 1
IMMUNOBASE_Systemic_lupus_erythematosus_hg19 ENSG00000149131 1
IMMUNOBASE_Systemic_lupus_erythematosus_hg19 ENSG00000157131 1
IMMUNOBASE_Systemic_lupus_erythematosus_hg19 ENSG00000159189 1
IMMUNOBASE_Systemic_lupus_erythematosus_hg19 ENSG00000163599 1
IMMUNOBASE_Systemic_lupus_erythematosus_hg19 ENSG00000163687 1
IMMUNOBASE_Systemic_lupus_erythematosus_hg19 ENSG00000166278 1
IMMUNOBASE_Systemic_lupus_erythematosus_hg19 ENSG00000173369 1
IMMUNOBASE_Systemic_lupus_erythematosus_hg19 ENSG00000173372 1
IMMUNOBASE_Systemic_lupus_erythematosus_hg19 ENSG00000182326 1
IMMUNOBASE_Systemic_lupus_erythematosus_hg19 ENSG00000183258 1
IMMUNOBASE_Systemic_lupus_erythematosus_hg19 ENSG00000213689 1
IMMUNOBASE_Systemic_lupus_erythematosus_hg19 ENSG00000213918 1
IMMUNOBASE_Systemic_lupus_erythematosus_hg19 ENSG00000244731 1
pgc.scz2 ENSG00000040608 1
pgc.scz2 ENSG00000100033 1
pgc.scz2 ENSG00000100336 1
pgc.scz2 ENSG00000102468 1
pgc.scz2 ENSG00000109501 1
pgc.scz2 ENSG00000125459 1
pgc.scz2 ENSG00000128335 1
pgc.scz2 ENSG00000133048 1
pgc.scz2 ENSG00000142208 1
pgc.scz2 ENSG00000151577 1
pgc.scz2 ENSG00000157152 1
pgc.scz2 ENSG00000174437 1
pgc.scz2 ENSG00000177000 1
pgc.scz2 ENSG00000182346 1
pgc.scz2 ENSG00000184058 1
pgc.scz2 ENSG00000244462 1
pgc.scz2 ENSG00000251322 1
RA_OKADA_TRANS_ETHNIC ENSG00000122223 1
RA_OKADA_TRANS_ETHNIC ENSG00000134242 1
RA_OKADA_TRANS_ETHNIC ENSG00000136634 1
RA_OKADA_TRANS_ETHNIC ENSG00000159339 1
RA_OKADA_TRANS_ETHNIC ENSG00000179583 1
RA_OKADA_TRANS_ETHNIC ENSG00000197208 1
RA_OKADA_TRANS_ETHNIC ENSG00000204498 1
UKB_1200_Sleeplessness_or_insomnia ENSG00000008405 1
UKB_1200_Sleeplessness_or_insomnia ENSG00000080819 1
UKB_1200_Sleeplessness_or_insomnia ENSG00000171867 1
UKB_1200_Sleeplessness_or_insomnia ENSG00000204843 1
UKB_20002_1065_self_reported_hypertension ENSG00000000971 1
UKB_20002_1065_self_reported_hypertension ENSG00000007933 1
UKB_20002_1065_self_reported_hypertension ENSG00000008441 1
UKB_20002_1065_self_reported_hypertension ENSG00000008710 1
UKB_20002_1065_self_reported_hypertension ENSG00000011376 1
UKB_20002_1065_self_reported_hypertension ENSG00000015532 1
UKB_20002_1065_self_reported_hypertension ENSG00000031081 1
UKB_20002_1065_self_reported_hypertension ENSG00000036257 1
UKB_20002_1065_self_reported_hypertension ENSG00000046651 1
UKB_20002_1065_self_reported_hypertension ENSG00000049167 1
UKB_20002_1065_self_reported_hypertension ENSG00000054523 1
UKB_20002_1065_self_reported_hypertension ENSG00000060237 1
UKB_20002_1065_self_reported_hypertension ENSG00000068305 1
UKB_20002_1065_self_reported_hypertension ENSG00000070018 1
UKB_20002_1065_self_reported_hypertension ENSG00000072062 1
UKB_20002_1065_self_reported_hypertension ENSG00000077943 1
UKB_20002_1065_self_reported_hypertension ENSG00000080819 1
UKB_20002_1065_self_reported_hypertension ENSG00000081052 1
UKB_20002_1065_self_reported_hypertension ENSG00000087460 1
UKB_20002_1065_self_reported_hypertension ENSG00000089597 1
UKB_20002_1065_self_reported_hypertension ENSG00000090382 1
UKB_20002_1065_self_reported_hypertension ENSG00000090534 1
UKB_20002_1065_self_reported_hypertension ENSG00000091262 1
UKB_20002_1065_self_reported_hypertension ENSG00000096968 1
UKB_20002_1065_self_reported_hypertension ENSG00000102393 1
UKB_20002_1065_self_reported_hypertension ENSG00000103241 1
UKB_20002_1065_self_reported_hypertension ENSG00000103489 1
UKB_20002_1065_self_reported_hypertension ENSG00000105204 1
UKB_20002_1065_self_reported_hypertension ENSG00000107796 1
UKB_20002_1065_self_reported_hypertension ENSG00000108946 1
UKB_20002_1065_self_reported_hypertension ENSG00000110092 1
UKB_20002_1065_self_reported_hypertension ENSG00000110711 1
UKB_20002_1065_self_reported_hypertension ENSG00000111057 1
UKB_20002_1065_self_reported_hypertension ENSG00000111252 1
UKB_20002_1065_self_reported_hypertension ENSG00000111341 1
UKB_20002_1065_self_reported_hypertension ENSG00000113580 1
UKB_20002_1065_self_reported_hypertension ENSG00000113966 1
UKB_20002_1065_self_reported_hypertension ENSG00000115414 1
UKB_20002_1065_self_reported_hypertension ENSG00000116127 1
UKB_20002_1065_self_reported_hypertension ENSG00000116785 1
UKB_20002_1065_self_reported_hypertension ENSG00000117118 1
UKB_20002_1065_self_reported_hypertension ENSG00000117298 1
UKB_20002_1065_self_reported_hypertension ENSG00000117335 1
UKB_20002_1065_self_reported_hypertension ENSG00000118762 1
UKB_20002_1065_self_reported_hypertension ENSG00000119509 1
UKB_20002_1065_self_reported_hypertension ENSG00000120457 1
UKB_20002_1065_self_reported_hypertension ENSG00000125730 1
UKB_20002_1065_self_reported_hypertension ENSG00000125952 1
UKB_20002_1065_self_reported_hypertension ENSG00000126562 1
UKB_20002_1065_self_reported_hypertension ENSG00000128655 1
UKB_20002_1065_self_reported_hypertension ENSG00000130402 1
UKB_20002_1065_self_reported_hypertension ENSG00000131482 1
UKB_20002_1065_self_reported_hypertension ENSG00000132170 1
UKB_20002_1065_self_reported_hypertension ENSG00000134086 1
UKB_20002_1065_self_reported_hypertension ENSG00000134250 1
UKB_20002_1065_self_reported_hypertension ENSG00000134504 1
UKB_20002_1065_self_reported_hypertension ENSG00000135956 1
UKB_20002_1065_self_reported_hypertension ENSG00000136158 1
UKB_20002_1065_self_reported_hypertension ENSG00000137700 1
UKB_20002_1065_self_reported_hypertension ENSG00000138375 1
UKB_20002_1065_self_reported_hypertension ENSG00000138592 1
UKB_20002_1065_self_reported_hypertension ENSG00000138823 1
UKB_20002_1065_self_reported_hypertension ENSG00000139567 1
UKB_20002_1065_self_reported_hypertension ENSG00000140691 1
UKB_20002_1065_self_reported_hypertension ENSG00000141646 1
UKB_20002_1065_self_reported_hypertension ENSG00000143252 1
UKB_20002_1065_self_reported_hypertension ENSG00000144061 1
UKB_20002_1065_self_reported_hypertension ENSG00000146021 1
UKB_20002_1065_self_reported_hypertension ENSG00000146648 1
UKB_20002_1065_self_reported_hypertension ENSG00000148795 1
UKB_20002_1065_self_reported_hypertension ENSG00000149575 1
UKB_20002_1065_self_reported_hypertension ENSG00000151623 1
UKB_20002_1065_self_reported_hypertension ENSG00000152661 1
UKB_20002_1065_self_reported_hypertension ENSG00000155755 1
UKB_20002_1065_self_reported_hypertension ENSG00000156831 1
UKB_20002_1065_self_reported_hypertension ENSG00000157388 1
UKB_20002_1065_self_reported_hypertension ENSG00000160050 1
UKB_20002_1065_self_reported_hypertension ENSG00000160789 1
UKB_20002_1065_self_reported_hypertension ENSG00000160882 1
UKB_20002_1065_self_reported_hypertension ENSG00000165731 1
UKB_20002_1065_self_reported_hypertension ENSG00000166147 1
UKB_20002_1065_self_reported_hypertension ENSG00000166710 1
UKB_20002_1065_self_reported_hypertension ENSG00000166819 1
UKB_20002_1065_self_reported_hypertension ENSG00000167186 1
UKB_20002_1065_self_reported_hypertension ENSG00000168447 1
UKB_20002_1065_self_reported_hypertension ENSG00000168621 1
UKB_20002_1065_self_reported_hypertension ENSG00000169031 1
UKB_20002_1065_self_reported_hypertension ENSG00000169599 1
UKB_20002_1065_self_reported_hypertension ENSG00000170099 1
UKB_20002_1065_self_reported_hypertension ENSG00000170421 1
UKB_20002_1065_self_reported_hypertension ENSG00000171560 1
UKB_20002_1065_self_reported_hypertension ENSG00000172572 1
UKB_20002_1065_self_reported_hypertension ENSG00000174007 1
UKB_20002_1065_self_reported_hypertension ENSG00000174483 1
UKB_20002_1065_self_reported_hypertension ENSG00000175334 1
UKB_20002_1065_self_reported_hypertension ENSG00000175595 1
UKB_20002_1065_self_reported_hypertension ENSG00000175600 1
UKB_20002_1065_self_reported_hypertension ENSG00000175606 1
UKB_20002_1065_self_reported_hypertension ENSG00000176387 1
UKB_20002_1065_self_reported_hypertension ENSG00000177628 1
UKB_20002_1065_self_reported_hypertension ENSG00000178726 1
UKB_20002_1065_self_reported_hypertension ENSG00000179218 1
UKB_20002_1065_self_reported_hypertension ENSG00000184937 1
UKB_20002_1065_self_reported_hypertension ENSG00000185499 1
UKB_20002_1065_self_reported_hypertension ENSG00000187266 1
UKB_20002_1065_self_reported_hypertension ENSG00000188153 1
UKB_20002_1065_self_reported_hypertension ENSG00000196236 1
UKB_20002_1065_self_reported_hypertension ENSG00000196557 1
UKB_20002_1065_self_reported_hypertension ENSG00000196712 1
UKB_20002_1065_self_reported_hypertension ENSG00000197496 1
UKB_20002_1065_self_reported_hypertension ENSG00000197594 1
UKB_20002_1065_self_reported_hypertension ENSG00000198087 1
UKB_20002_1065_self_reported_hypertension ENSG00000204103 1
UKB_20002_1065_self_reported_hypertension ENSG00000204217 1
UKB_20002_1065_self_reported_hypertension ENSG00000204370 1
UKB_20002_1065_self_reported_hypertension ENSG00000205403 1
UKB_20002_1065_self_reported_hypertension ENSG00000217930 1
UKB_20002_1065_self_reported_hypertension ENSG00000225830 1
UKB_20002_1065_self_reported_hypertension ENSG00000231852 1
UKB_20002_1065_self_reported_hypertension ENSG00000239672 1
UKB_20002_1065_self_reported_hypertension ENSG00000243649 1
UKB_20002_1065_self_reported_hypertension ENSG00000244414 1
UKB_20002_1065_self_reported_hypertension ENSG00000244734 1
UKB_20002_1065_self_reported_hypertension ENSG00000255292 1
UKB_20002_1065_self_reported_hypertension ENSG00000256269 1
UKB_20002_1094_self_reported_deep_venous_thrombosis_dvt ENSG00000001626 1
UKB_20002_1094_self_reported_deep_venous_thrombosis_dvt ENSG00000096968 1
UKB_20002_1094_self_reported_deep_venous_thrombosis_dvt ENSG00000100345 1
UKB_20002_1094_self_reported_deep_venous_thrombosis_dvt ENSG00000117450 1
UKB_20002_1094_self_reported_deep_venous_thrombosis_dvt ENSG00000124491 1
UKB_20002_1094_self_reported_deep_venous_thrombosis_dvt ENSG00000132763 1
UKB_20002_1094_self_reported_deep_venous_thrombosis_dvt ENSG00000134853 1
UKB_20002_1094_self_reported_deep_venous_thrombosis_dvt ENSG00000143315 1
UKB_20002_1094_self_reported_deep_venous_thrombosis_dvt ENSG00000148400 1
UKB_20002_1094_self_reported_deep_venous_thrombosis_dvt ENSG00000148702 1
UKB_20002_1094_self_reported_deep_venous_thrombosis_dvt ENSG00000160200 1
UKB_20002_1094_self_reported_deep_venous_thrombosis_dvt ENSG00000162438 1
UKB_20002_1094_self_reported_deep_venous_thrombosis_dvt ENSG00000164266 1
UKB_20002_1094_self_reported_deep_venous_thrombosis_dvt ENSG00000177000 1
UKB_20002_1094_self_reported_deep_venous_thrombosis_dvt ENSG00000178802 1
UKB_20002_1094_self_reported_deep_venous_thrombosis_dvt ENSG00000180210 1
UKB_20002_1094_self_reported_deep_venous_thrombosis_dvt ENSG00000196352 1
UKB_20002_1094_self_reported_deep_venous_thrombosis_dvt ENSG00000197496 1
UKB_20002_1094_self_reported_deep_venous_thrombosis_dvt ENSG00000198734 1
UKB_20002_1094_self_reported_deep_venous_thrombosis_dvt ENSG00000204217 1
UKB_20002_1094_self_reported_deep_venous_thrombosis_dvt ENSG00000204983 1
UKB_20002_1094_self_reported_deep_venous_thrombosis_dvt ENSG00000275896 1
UKB_20002_1111_self_reported_asthma ENSG00000001626 1
UKB_20002_1111_self_reported_asthma ENSG00000010404 1
UKB_20002_1111_self_reported_asthma ENSG00000012779 1
UKB_20002_1111_self_reported_asthma ENSG00000013375 1
UKB_20002_1111_self_reported_asthma ENSG00000064012 1
UKB_20002_1111_self_reported_asthma ENSG00000073861 1
UKB_20002_1111_self_reported_asthma ENSG00000077150 1
UKB_20002_1111_self_reported_asthma ENSG00000077238 1
UKB_20002_1111_self_reported_asthma ENSG00000083307 1
UKB_20002_1111_self_reported_asthma ENSG00000103522 1
UKB_20002_1111_self_reported_asthma ENSG00000104884 1
UKB_20002_1111_self_reported_asthma ENSG00000105329 1
UKB_20002_1111_self_reported_asthma ENSG00000107099 1
UKB_20002_1111_self_reported_asthma ENSG00000113966 1
UKB_20002_1111_self_reported_asthma ENSG00000116127 1
UKB_20002_1111_self_reported_asthma ENSG00000118402 1
UKB_20002_1111_self_reported_asthma ENSG00000119638 1
UKB_20002_1111_self_reported_asthma ENSG00000124299 1
UKB_20002_1111_self_reported_asthma ENSG00000125384 1
UKB_20002_1111_self_reported_asthma ENSG00000127152 1
UKB_20002_1111_self_reported_asthma ENSG00000131055 1
UKB_20002_1111_self_reported_asthma ENSG00000133710 1
UKB_20002_1111_self_reported_asthma ENSG00000136352 1
UKB_20002_1111_self_reported_asthma ENSG00000139197 1
UKB_20002_1111_self_reported_asthma ENSG00000143226 1
UKB_20002_1111_self_reported_asthma ENSG00000143631 1
UKB_20002_1111_self_reported_asthma ENSG00000146070 1
UKB_20002_1111_self_reported_asthma ENSG00000149534 1
UKB_20002_1111_self_reported_asthma ENSG00000150540 1
UKB_20002_1111_self_reported_asthma ENSG00000160050 1
UKB_20002_1111_self_reported_asthma ENSG00000164265 1
UKB_20002_1111_self_reported_asthma ENSG00000167207 1
UKB_20002_1111_self_reported_asthma ENSG00000169194 1
UKB_20002_1111_self_reported_asthma ENSG00000171195 1
UKB_20002_1111_self_reported_asthma ENSG00000172156 1
UKB_20002_1111_self_reported_asthma ENSG00000174483 1
UKB_20002_1111_self_reported_asthma ENSG00000177156 1
UKB_20002_1111_self_reported_asthma ENSG00000183258 1
UKB_20002_1111_self_reported_asthma ENSG00000183763 1
UKB_20002_1111_self_reported_asthma ENSG00000196839 1
UKB_20002_1111_self_reported_asthma ENSG00000197943 1
UKB_20002_1111_self_reported_asthma ENSG00000198003 1
UKB_20002_1111_self_reported_asthma ENSG00000198286 1
UKB_20002_1111_self_reported_asthma ENSG00000198589 1
UKB_20002_1111_self_reported_asthma ENSG00000204539 1
UKB_20002_1111_self_reported_asthma ENSG00000204632 1
UKB_20002_1111_self_reported_asthma ENSG00000232810 1
UKB_20002_1111_self_reported_asthma ENSG00000272047 1
UKB_20002_1222_self_reported_type_1_diabetes ENSG00000049768 1
UKB_20002_1222_self_reported_type_1_diabetes ENSG00000102580 1
UKB_20002_1222_self_reported_type_1_diabetes ENSG00000135100 1
UKB_20002_1222_self_reported_type_1_diabetes ENSG00000139515 1
UKB_20002_1222_self_reported_type_1_diabetes ENSG00000160224 1
UKB_20002_1222_self_reported_type_1_diabetes ENSG00000164266 1
UKB_20002_1222_self_reported_type_1_diabetes ENSG00000172071 1
UKB_20002_1222_self_reported_type_1_diabetes ENSG00000179344 1
UKB_20002_1222_self_reported_type_1_diabetes ENSG00000196735 1
UKB_20002_1222_self_reported_type_1_diabetes ENSG00000254647 1
UKB_20002_1226_self_reported_hypothyroidism_or_myxoedema ENSG00000009765 1
UKB_20002_1226_self_reported_hypothyroidism_or_myxoedema ENSG00000040531 1
UKB_20002_1226_self_reported_hypothyroidism_or_myxoedema ENSG00000042832 1
UKB_20002_1226_self_reported_hypothyroidism_or_myxoedema ENSG00000049768 1
UKB_20002_1226_self_reported_hypothyroidism_or_myxoedema ENSG00000064835 1
UKB_20002_1226_self_reported_hypothyroidism_or_myxoedema ENSG00000087460 1
UKB_20002_1226_self_reported_hypothyroidism_or_myxoedema ENSG00000091137 1
UKB_20002_1226_self_reported_hypothyroidism_or_myxoedema ENSG00000101310 1
UKB_20002_1226_self_reported_hypothyroidism_or_myxoedema ENSG00000102081 1
UKB_20002_1226_self_reported_hypothyroidism_or_myxoedema ENSG00000102145 1
UKB_20002_1226_self_reported_hypothyroidism_or_myxoedema ENSG00000102575 1
UKB_20002_1226_self_reported_hypothyroidism_or_myxoedema ENSG00000103197 1
UKB_20002_1226_self_reported_hypothyroidism_or_myxoedema ENSG00000103335 1
UKB_20002_1226_self_reported_hypothyroidism_or_myxoedema ENSG00000103449 1
UKB_20002_1226_self_reported_hypothyroidism_or_myxoedema ENSG00000105641 1
UKB_20002_1226_self_reported_hypothyroidism_or_myxoedema ENSG00000109501 1
UKB_20002_1226_self_reported_hypothyroidism_or_myxoedema ENSG00000111537 1
UKB_20002_1226_self_reported_hypothyroidism_or_myxoedema ENSG00000114841 1
UKB_20002_1226_self_reported_hypothyroidism_or_myxoedema ENSG00000115415 1
UKB_20002_1226_self_reported_hypothyroidism_or_myxoedema ENSG00000115705 1
UKB_20002_1226_self_reported_hypothyroidism_or_myxoedema ENSG00000116014 1
UKB_20002_1226_self_reported_hypothyroidism_or_myxoedema ENSG00000116127 1
UKB_20002_1226_self_reported_hypothyroidism_or_myxoedema ENSG00000121454 1
UKB_20002_1226_self_reported_hypothyroidism_or_myxoedema ENSG00000121879 1
UKB_20002_1226_self_reported_hypothyroidism_or_myxoedema ENSG00000125378 1
UKB_20002_1226_self_reported_hypothyroidism_or_myxoedema ENSG00000125885 1
UKB_20002_1226_self_reported_hypothyroidism_or_myxoedema ENSG00000130713 1
UKB_20002_1226_self_reported_hypothyroidism_or_myxoedema ENSG00000130948 1
UKB_20002_1226_self_reported_hypothyroidism_or_myxoedema ENSG00000134460 1
UKB_20002_1226_self_reported_hypothyroidism_or_myxoedema ENSG00000134595 1
UKB_20002_1226_self_reported_hypothyroidism_or_myxoedema ENSG00000136352 1
UKB_20002_1226_self_reported_hypothyroidism_or_myxoedema ENSG00000140274 1
UKB_20002_1226_self_reported_hypothyroidism_or_myxoedema ENSG00000140525 1
UKB_20002_1226_self_reported_hypothyroidism_or_myxoedema ENSG00000140650 1
UKB_20002_1226_self_reported_hypothyroidism_or_myxoedema ENSG00000141378 1
UKB_20002_1226_self_reported_hypothyroidism_or_myxoedema ENSG00000142208 1
UKB_20002_1226_self_reported_hypothyroidism_or_myxoedema ENSG00000147100 1
UKB_20002_1226_self_reported_hypothyroidism_or_myxoedema ENSG00000147255 1
UKB_20002_1226_self_reported_hypothyroidism_or_myxoedema ENSG00000151067 1
UKB_20002_1226_self_reported_hypothyroidism_or_myxoedema ENSG00000152422 1
UKB_20002_1226_self_reported_hypothyroidism_or_myxoedema ENSG00000158615 1
UKB_20002_1226_self_reported_hypothyroidism_or_myxoedema ENSG00000159459 1
UKB_20002_1226_self_reported_hypothyroidism_or_myxoedema ENSG00000161270 1
UKB_20002_1226_self_reported_hypothyroidism_or_myxoedema ENSG00000163599 1
UKB_20002_1226_self_reported_hypothyroidism_or_myxoedema ENSG00000165699 1
UKB_20002_1226_self_reported_hypothyroidism_or_myxoedema ENSG00000166037 1
UKB_20002_1226_self_reported_hypothyroidism_or_myxoedema ENSG00000166224 1
UKB_20002_1226_self_reported_hypothyroidism_or_myxoedema ENSG00000168610 1
UKB_20002_1226_self_reported_hypothyroidism_or_myxoedema ENSG00000170381 1
UKB_20002_1226_self_reported_hypothyroidism_or_myxoedema ENSG00000171316 1
UKB_20002_1226_self_reported_hypothyroidism_or_myxoedema ENSG00000171862 1
UKB_20002_1226_self_reported_hypothyroidism_or_myxoedema ENSG00000175325 1
UKB_20002_1226_self_reported_hypothyroidism_or_myxoedema ENSG00000182326 1
UKB_20002_1226_self_reported_hypothyroidism_or_myxoedema ENSG00000183337 1
UKB_20002_1226_self_reported_hypothyroidism_or_myxoedema ENSG00000183597 1
UKB_20002_1226_self_reported_hypothyroidism_or_myxoedema ENSG00000184058 1
UKB_20002_1226_self_reported_hypothyroidism_or_myxoedema ENSG00000187140 1
UKB_20002_1226_self_reported_hypothyroidism_or_myxoedema ENSG00000197943 1
UKB_20002_1226_self_reported_hypothyroidism_or_myxoedema ENSG00000198589 1
UKB_20002_1452_self_reported_eczema_or_dermatitis ENSG00000012174 1
UKB_20002_1452_self_reported_eczema_or_dermatitis ENSG00000013375 1
UKB_20002_1452_self_reported_eczema_or_dermatitis ENSG00000015285 1
UKB_20002_1452_self_reported_eczema_or_dermatitis ENSG00000037474 1
UKB_20002_1452_self_reported_eczema_or_dermatitis ENSG00000049768 1
UKB_20002_1452_self_reported_eczema_or_dermatitis ENSG00000051523 1
UKB_20002_1452_self_reported_eczema_or_dermatitis ENSG00000064012 1
UKB_20002_1452_self_reported_eczema_or_dermatitis ENSG00000066926 1
UKB_20002_1452_self_reported_eczema_or_dermatitis ENSG00000073282 1
UKB_20002_1452_self_reported_eczema_or_dermatitis ENSG00000077238 1
UKB_20002_1452_self_reported_eczema_or_dermatitis ENSG00000080503 1
UKB_20002_1452_self_reported_eczema_or_dermatitis ENSG00000081237 1
UKB_20002_1452_self_reported_eczema_or_dermatitis ENSG00000101003 1
UKB_20002_1452_self_reported_eczema_or_dermatitis ENSG00000101347 1
UKB_20002_1452_self_reported_eczema_or_dermatitis ENSG00000103522 1
UKB_20002_1452_self_reported_eczema_or_dermatitis ENSG00000104055 1
UKB_20002_1452_self_reported_eczema_or_dermatitis ENSG00000105141 1
UKB_20002_1452_self_reported_eczema_or_dermatitis ENSG00000107099 1
UKB_20002_1452_self_reported_eczema_or_dermatitis ENSG00000108061 1
UKB_20002_1452_self_reported_eczema_or_dermatitis ENSG00000113013 1
UKB_20002_1452_self_reported_eczema_or_dermatitis ENSG00000114054 1
UKB_20002_1452_self_reported_eczema_or_dermatitis ENSG00000115085 1
UKB_20002_1452_self_reported_eczema_or_dermatitis ENSG00000115267 1
UKB_20002_1452_self_reported_eczema_or_dermatitis ENSG00000115415 1
UKB_20002_1452_self_reported_eczema_or_dermatitis ENSG00000115935 1
UKB_20002_1452_self_reported_eczema_or_dermatitis ENSG00000116701 1
UKB_20002_1452_self_reported_eczema_or_dermatitis ENSG00000118402 1
UKB_20002_1452_self_reported_eczema_or_dermatitis ENSG00000119638 1
UKB_20002_1452_self_reported_eczema_or_dermatitis ENSG00000120071 1
UKB_20002_1452_self_reported_eczema_or_dermatitis ENSG00000121552 1
UKB_20002_1452_self_reported_eczema_or_dermatitis ENSG00000124302 1
UKB_20002_1452_self_reported_eczema_or_dermatitis ENSG00000125826 1
UKB_20002_1452_self_reported_eczema_or_dermatitis ENSG00000128039 1
UKB_20002_1452_self_reported_eczema_or_dermatitis ENSG00000129255 1
UKB_20002_1452_self_reported_eczema_or_dermatitis ENSG00000134160 1
UKB_20002_1452_self_reported_eczema_or_dermatitis ENSG00000134460 1
UKB_20002_1452_self_reported_eczema_or_dermatitis ENSG00000139531 1
UKB_20002_1452_self_reported_eczema_or_dermatitis ENSG00000141527 1
UKB_20002_1452_self_reported_eczema_or_dermatitis ENSG00000143631 1
UKB_20002_1452_self_reported_eczema_or_dermatitis ENSG00000143815 1
UKB_20002_1452_self_reported_eczema_or_dermatitis ENSG00000145623 1
UKB_20002_1452_self_reported_eczema_or_dermatitis ENSG00000146070 1
UKB_20002_1452_self_reported_eczema_or_dermatitis ENSG00000147065 1
UKB_20002_1452_self_reported_eczema_or_dermatitis ENSG00000147133 1
UKB_20002_1452_self_reported_eczema_or_dermatitis ENSG00000149534 1
UKB_20002_1452_self_reported_eczema_or_dermatitis ENSG00000151702 1
UKB_20002_1452_self_reported_eczema_or_dermatitis ENSG00000153113 1
UKB_20002_1452_self_reported_eczema_or_dermatitis ENSG00000157764 1
UKB_20002_1452_self_reported_eczema_or_dermatitis ENSG00000158014 1
UKB_20002_1452_self_reported_eczema_or_dermatitis ENSG00000158517 1
UKB_20002_1452_self_reported_eczema_or_dermatitis ENSG00000158813 1
UKB_20002_1452_self_reported_eczema_or_dermatitis ENSG00000160654 1
UKB_20002_1452_self_reported_eczema_or_dermatitis ENSG00000163599 1
UKB_20002_1452_self_reported_eczema_or_dermatitis ENSG00000164120 1
UKB_20002_1452_self_reported_eczema_or_dermatitis ENSG00000165168 1
UKB_20002_1452_self_reported_eczema_or_dermatitis ENSG00000167207 1
UKB_20002_1452_self_reported_eczema_or_dermatitis ENSG00000167768 1
UKB_20002_1452_self_reported_eczema_or_dermatitis ENSG00000168610 1
UKB_20002_1452_self_reported_eczema_or_dermatitis ENSG00000168685 1
UKB_20002_1452_self_reported_eczema_or_dermatitis ENSG00000171759 1
UKB_20002_1452_self_reported_eczema_or_dermatitis ENSG00000172893 1
UKB_20002_1452_self_reported_eczema_or_dermatitis ENSG00000175198 1
UKB_20002_1452_self_reported_eczema_or_dermatitis ENSG00000179344 1
UKB_20002_1452_self_reported_eczema_or_dermatitis ENSG00000183258 1
UKB_20002_1452_self_reported_eczema_or_dermatitis ENSG00000185115 1
UKB_20002_1452_self_reported_eczema_or_dermatitis ENSG00000186395 1
UKB_20002_1452_self_reported_eczema_or_dermatitis ENSG00000196735 1
UKB_20002_1452_self_reported_eczema_or_dermatitis ENSG00000198286 1
UKB_20002_1452_self_reported_eczema_or_dermatitis ENSG00000204539 1
UKB_20002_1453_self_reported_psoriasis ENSG00000052802 1
UKB_20002_1453_self_reported_psoriasis ENSG00000068724 1
UKB_20002_1453_self_reported_psoriasis ENSG00000077150 1
UKB_20002_1453_self_reported_psoriasis ENSG00000134760 1
UKB_20002_1453_self_reported_psoriasis ENSG00000136695 1
UKB_20002_1453_self_reported_psoriasis ENSG00000141527 1
UKB_20002_1453_self_reported_psoriasis ENSG00000151702 1
UKB_20002_1453_self_reported_psoriasis ENSG00000152056 1
UKB_20002_1453_self_reported_psoriasis ENSG00000163599 1
UKB_20002_1453_self_reported_psoriasis ENSG00000174405 1
UKB_20002_1453_self_reported_psoriasis ENSG00000204525 1
UKB_20002_1466_self_reported_gout ENSG00000058262 1
UKB_20002_1466_self_reported_gout ENSG00000070018 1
UKB_20002_1466_self_reported_gout ENSG00000124564 1
UKB_20002_1466_self_reported_gout ENSG00000131482 1
UKB_20002_1466_self_reported_gout ENSG00000137700 1
UKB_20002_1466_self_reported_gout ENSG00000147224 1
UKB_20002_1466_self_reported_gout ENSG00000152556 1
UKB_20002_1466_self_reported_gout ENSG00000169344 1
UKB_20002_1466_self_reported_gout ENSG00000185499 1
UKB_20002_1466_self_reported_gout ENSG00000275410 1
UKB_20002_1473_self_reported_high_cholesterol ENSG00000004864 1
UKB_20002_1473_self_reported_high_cholesterol ENSG00000015520 1
UKB_20002_1473_self_reported_high_cholesterol ENSG00000044446 1
UKB_20002_1473_self_reported_high_cholesterol ENSG00000068305 1
UKB_20002_1473_self_reported_high_cholesterol ENSG00000070018 1
UKB_20002_1473_self_reported_high_cholesterol ENSG00000073060 1
UKB_20002_1473_self_reported_high_cholesterol ENSG00000084674 2
UKB_20002_1473_self_reported_high_cholesterol ENSG00000096968 1
UKB_20002_1473_self_reported_high_cholesterol ENSG00000101384 1
UKB_20002_1473_self_reported_high_cholesterol ENSG00000101670 1
UKB_20002_1473_self_reported_high_cholesterol ENSG00000105204 1
UKB_20002_1473_self_reported_high_cholesterol ENSG00000105974 1
UKB_20002_1473_self_reported_high_cholesterol ENSG00000106341 1
UKB_20002_1473_self_reported_high_cholesterol ENSG00000107798 1
UKB_20002_1473_self_reported_high_cholesterol ENSG00000108557 1
UKB_20002_1473_self_reported_high_cholesterol ENSG00000109929 1
UKB_20002_1473_self_reported_high_cholesterol ENSG00000110243 1
UKB_20002_1473_self_reported_high_cholesterol ENSG00000112964 1
UKB_20002_1473_self_reported_high_cholesterol ENSG00000116133 1
UKB_20002_1473_self_reported_high_cholesterol ENSG00000120915 1
UKB_20002_1473_self_reported_high_cholesterol ENSG00000122126 1
UKB_20002_1473_self_reported_high_cholesterol ENSG00000130164 2
UKB_20002_1473_self_reported_high_cholesterol ENSG00000130811 1
UKB_20002_1473_self_reported_high_cholesterol ENSG00000135929 1
UKB_20002_1473_self_reported_high_cholesterol ENSG00000136710 1
UKB_20002_1473_self_reported_high_cholesterol ENSG00000137074 1
UKB_20002_1473_self_reported_high_cholesterol ENSG00000137561 1
UKB_20002_1473_self_reported_high_cholesterol ENSG00000138075 1
UKB_20002_1473_self_reported_high_cholesterol ENSG00000143815 1
UKB_20002_1473_self_reported_high_cholesterol ENSG00000143921 1
UKB_20002_1473_self_reported_high_cholesterol ENSG00000147155 1
UKB_20002_1473_self_reported_high_cholesterol ENSG00000147383 1
UKB_20002_1473_self_reported_high_cholesterol ENSG00000148584 1
UKB_20002_1473_self_reported_high_cholesterol ENSG00000157978 1
UKB_20002_1473_self_reported_high_cholesterol ENSG00000159459 1
UKB_20002_1473_self_reported_high_cholesterol ENSG00000160789 1
UKB_20002_1473_self_reported_high_cholesterol ENSG00000165029 1
UKB_20002_1473_self_reported_high_cholesterol ENSG00000166035 1
UKB_20002_1473_self_reported_high_cholesterol ENSG00000166311 1
UKB_20002_1473_self_reported_high_cholesterol ENSG00000169174 2
UKB_20002_1473_self_reported_high_cholesterol ENSG00000169218 1
UKB_20002_1473_self_reported_high_cholesterol ENSG00000171564 1
UKB_20002_1473_self_reported_high_cholesterol ENSG00000172893 1
UKB_20002_1473_self_reported_high_cholesterol ENSG00000174007 1
UKB_20002_1473_self_reported_high_cholesterol ENSG00000175445 1
UKB_20002_1473_self_reported_high_cholesterol ENSG00000184357 1
UKB_20002_1473_self_reported_high_cholesterol ENSG00000185000 1
UKB_20002_1473_self_reported_high_cholesterol ENSG00000186951 1
UKB_20002_1473_self_reported_high_cholesterol ENSG00000213398 1
UKB_20002_1473_self_reported_high_cholesterol ENSG00000220201 1
UKB_20002_1473_self_reported_high_cholesterol ENSG00000244045 1
UKB_21001_Body_mass_index_BMI ENSG00000001497 1
UKB_21001_Body_mass_index_BMI ENSG00000005339 1
UKB_21001_Body_mass_index_BMI ENSG00000011143 1
UKB_21001_Body_mass_index_BMI ENSG00000049239 1
UKB_21001_Body_mass_index_BMI ENSG00000054282 1
UKB_21001_Body_mass_index_BMI ENSG00000072364 1
UKB_21001_Body_mass_index_BMI ENSG00000079435 1
UKB_21001_Body_mass_index_BMI ENSG00000085224 1
UKB_21001_Body_mass_index_BMI ENSG00000085382 1
UKB_21001_Body_mass_index_BMI ENSG00000087460 1
UKB_21001_Body_mass_index_BMI ENSG00000096872 1
UKB_21001_Body_mass_index_BMI ENSG00000100360 1
UKB_21001_Body_mass_index_BMI ENSG00000101126 1
UKB_21001_Body_mass_index_BMI ENSG00000102383 1
UKB_21001_Body_mass_index_BMI ENSG00000103489 1
UKB_21001_Body_mass_index_BMI ENSG00000103707 1
UKB_21001_Body_mass_index_BMI ENSG00000104133 1
UKB_21001_Body_mass_index_BMI ENSG00000105204 1
UKB_21001_Body_mass_index_BMI ENSG00000105221 1
UKB_21001_Body_mass_index_BMI ENSG00000105429 1
UKB_21001_Body_mass_index_BMI ENSG00000108946 1
UKB_21001_Body_mass_index_BMI ENSG00000110274 1
UKB_21001_Body_mass_index_BMI ENSG00000112210 1
UKB_21001_Body_mass_index_BMI ENSG00000113448 1
UKB_21001_Body_mass_index_BMI ENSG00000113966 1
UKB_21001_Body_mass_index_BMI ENSG00000114062 1
UKB_21001_Body_mass_index_BMI ENSG00000114861 1
UKB_21001_Body_mass_index_BMI ENSG00000115138 1
UKB_21001_Body_mass_index_BMI ENSG00000116127 1
UKB_21001_Body_mass_index_BMI ENSG00000116678 1
UKB_21001_Body_mass_index_BMI ENSG00000117594 1
UKB_21001_Body_mass_index_BMI ENSG00000119333 1
UKB_21001_Body_mass_index_BMI ENSG00000119401 1
UKB_21001_Body_mass_index_BMI ENSG00000122507 1
UKB_21001_Body_mass_index_BMI ENSG00000124089 1
UKB_21001_Body_mass_index_BMI ENSG00000124222 1
UKB_21001_Body_mass_index_BMI ENSG00000125124 1
UKB_21001_Body_mass_index_BMI ENSG00000125676 1
UKB_21001_Body_mass_index_BMI ENSG00000125863 1
UKB_21001_Body_mass_index_BMI ENSG00000128655 1
UKB_21001_Body_mass_index_BMI ENSG00000128739 1
UKB_21001_Body_mass_index_BMI ENSG00000130741 1
UKB_21001_Body_mass_index_BMI ENSG00000131910 1
UKB_21001_Body_mass_index_BMI ENSG00000132170 1
UKB_21001_Body_mass_index_BMI ENSG00000132549 1
UKB_21001_Body_mass_index_BMI ENSG00000132600 1
UKB_21001_Body_mass_index_BMI ENSG00000135111 1
UKB_21001_Body_mass_index_BMI ENSG00000135324 1
UKB_21001_Body_mass_index_BMI ENSG00000136573 1
UKB_21001_Body_mass_index_BMI ENSG00000138002 1
UKB_21001_Body_mass_index_BMI ENSG00000138592 1
UKB_21001_Body_mass_index_BMI ENSG00000138686 1
UKB_21001_Body_mass_index_BMI ENSG00000138823 1
UKB_21001_Body_mass_index_BMI ENSG00000140443 1
UKB_21001_Body_mass_index_BMI ENSG00000140463 1
UKB_21001_Body_mass_index_BMI ENSG00000140691 1
UKB_21001_Body_mass_index_BMI ENSG00000140718 1
UKB_21001_Body_mass_index_BMI ENSG00000141646 1
UKB_21001_Body_mass_index_BMI ENSG00000147099 1
UKB_21001_Body_mass_index_BMI ENSG00000147274 1
UKB_21001_Body_mass_index_BMI ENSG00000148053 1
UKB_21001_Body_mass_index_BMI ENSG00000148384 1
UKB_21001_Body_mass_index_BMI ENSG00000148459 1
UKB_21001_Body_mass_index_BMI ENSG00000151729 1
UKB_21001_Body_mass_index_BMI ENSG00000152422 1
UKB_21001_Body_mass_index_BMI ENSG00000155465 1
UKB_21001_Body_mass_index_BMI ENSG00000156172 1
UKB_21001_Body_mass_index_BMI ENSG00000156531 1
UKB_21001_Body_mass_index_BMI ENSG00000157017 1
UKB_21001_Body_mass_index_BMI ENSG00000158290 1
UKB_21001_Body_mass_index_BMI ENSG00000159723 1
UKB_21001_Body_mass_index_BMI ENSG00000160050 1
UKB_21001_Body_mass_index_BMI ENSG00000160299 1
UKB_21001_Body_mass_index_BMI ENSG00000162512 1
UKB_21001_Body_mass_index_BMI ENSG00000163093 1
UKB_21001_Body_mass_index_BMI ENSG00000163421 1
UKB_21001_Body_mass_index_BMI ENSG00000163818 1
UKB_21001_Body_mass_index_BMI ENSG00000164326 1
UKB_21001_Body_mass_index_BMI ENSG00000164953 1
UKB_21001_Body_mass_index_BMI ENSG00000165533 1
UKB_21001_Body_mass_index_BMI ENSG00000166402 1
UKB_21001_Body_mass_index_BMI ENSG00000167632 1
UKB_21001_Body_mass_index_BMI ENSG00000169375 1
UKB_21001_Body_mass_index_BMI ENSG00000169379 1
UKB_21001_Body_mass_index_BMI ENSG00000171302 1
UKB_21001_Body_mass_index_BMI ENSG00000171862 1
UKB_21001_Body_mass_index_BMI ENSG00000174007 1
UKB_21001_Body_mass_index_BMI ENSG00000174483 1
UKB_21001_Body_mass_index_BMI ENSG00000174697 1
UKB_21001_Body_mass_index_BMI ENSG00000175426 1
UKB_21001_Body_mass_index_BMI ENSG00000175564 1
UKB_21001_Body_mass_index_BMI ENSG00000177239 1
UKB_21001_Body_mass_index_BMI ENSG00000179941 1
UKB_21001_Body_mass_index_BMI ENSG00000181004 1
UKB_21001_Body_mass_index_BMI ENSG00000181090 1
UKB_21001_Body_mass_index_BMI ENSG00000181555 1
UKB_21001_Body_mass_index_BMI ENSG00000181722 1
UKB_21001_Body_mass_index_BMI ENSG00000182636 1
UKB_21001_Body_mass_index_BMI ENSG00000184058 1
UKB_21001_Body_mass_index_BMI ENSG00000186487 1
UKB_21001_Body_mass_index_BMI ENSG00000188778 1
UKB_21001_Body_mass_index_BMI ENSG00000197594 1
UKB_21001_Body_mass_index_BMI ENSG00000198707 1
UKB_21001_Body_mass_index_BMI ENSG00000204104 1
UKB_21001_Body_mass_index_BMI ENSG00000204655 1
UKB_21001_Body_mass_index_BMI ENSG00000214413 1
UKB_21001_Body_mass_index_BMI ENSG00000254585 1
UKB_50_Standing_height ENSG00000010803 1
UKB_50_Standing_height ENSG00000049192 1
UKB_50_Standing_height ENSG00000066827 1
UKB_50_Standing_height ENSG00000075420 1
UKB_50_Standing_height ENSG00000089053 1
UKB_50_Standing_height ENSG00000102893 1
UKB_50_Standing_height ENSG00000103196 1
UKB_50_Standing_height ENSG00000103335 1
UKB_50_Standing_height ENSG00000113389 1
UKB_50_Standing_height ENSG00000113739 1
UKB_50_Standing_height ENSG00000115657 1
UKB_50_Standing_height ENSG00000116698 1
UKB_50_Standing_height ENSG00000135452 1
UKB_50_Standing_height ENSG00000137309 1
UKB_50_Standing_height ENSG00000138735 1
UKB_50_Standing_height ENSG00000138829 1
UKB_50_Standing_height ENSG00000140511 1
UKB_50_Standing_height ENSG00000140691 1
UKB_50_Standing_height ENSG00000146426 1
UKB_50_Standing_height ENSG00000154309 1
UKB_50_Standing_height ENSG00000156140 1
UKB_50_Standing_height ENSG00000157766 1
UKB_50_Standing_height ENSG00000159720 1
UKB_50_Standing_height ENSG00000160801 1
UKB_50_Standing_height ENSG00000163501 1
UKB_50_Standing_height ENSG00000166025 1
UKB_50_Standing_height ENSG00000172053 1
UKB_50_Standing_height ENSG00000174177 1
UKB_50_Standing_height ENSG00000174576 1
UKB_50_Standing_height ENSG00000174807 1
UKB_50_Standing_height ENSG00000175318 1
UKB_50_Standing_height ENSG00000175938 1
UKB_50_Standing_height ENSG00000176971 1
UKB_50_Standing_height ENSG00000180061 1
UKB_50_Standing_height ENSG00000186280 1
UKB_50_Standing_height ENSG00000197647 1
UKB_50_Standing_height ENSG00000255439 1
