cor	ci95_lower	ci95_upper	type
0.033030045411916	-0.121785675763361	0.186276778956225	real
0.0542925968387499	-0.100746274531128	0.206757150469115	shuffle
0.00613610477208461	-0.148199572286109	0.160180005570099	shuffle
0.00148100202043481	-0.15274933702434	0.15564091590047	shuffle
0.0160120354757266	-0.138525438121275	0.169788287687509	shuffle
-0.053008605747219	-0.205524172291236	0.102020736362833	shuffle
-0.114836663363366	-0.264351176584798	0.040068294240831	shuffle
0.0680782278547731	-0.0870308220722177	0.219964637936489	shuffle
-0.0161309221945387	-0.16990377463037	0.138408800707989	shuffle
0.0305510331572237	-0.124229648288299	0.183880261042012	shuffle
0.0949724412100975	-0.060103185638016	0.24557166800961	shuffle
0.0514143406031396	-0.103602461600903	0.203992573134408	shuffle
-0.0704697659338473	-0.222250225445507	0.084645458209279	shuffle
-0.0355818062255797	-0.188741721422718	0.119268020702698	shuffle
0.0488586959549907	-0.106136369680653	0.201535824221211	shuffle
-0.176294174702187	-0.321743434770695	-0.0227162306534974	shuffle
0.00945821508757788	-0.144948636631904	0.163415344523272	shuffle
0.0828018124520817	-0.0723169628068701	0.234009514396141	shuffle
-0.0523976682908796	-0.2049373373117	0.102626961061943	shuffle
0.0797009932431852	-0.0754213564873128	0.231056869302649	shuffle
0.101681133290717	-0.0533507981662169	0.251926689603701	shuffle
0.00112075285347229	-0.153101161951876	0.155289373149111	shuffle
-0.00962787297434041	-0.163580482227761	0.144782524063929	shuffle
0.0186416955387997	-0.135944528846482	0.172341761846746	shuffle
-0.0259551691688535	-0.179432506552843	0.12875558910764	shuffle
0.0101074804661785	-0.144312891782121	0.164047264910065	shuffle
-0.000110850577923159	-0.154303669746807	0.154087239810531	shuffle
-0.100776563337209	-0.2510705621416	0.0542620875073169	shuffle
-0.00483778022825582	-0.1589146922598	0.149469174983589	shuffle
0.0836380003503082	-0.071479296144069	0.234805267447388	shuffle
-0.00873761165660089	-0.162713843919909	0.145654084722898	shuffle
-0.0156262070399472	-0.169413463599883	0.138903937254221	shuffle
0.0332816960545161	-0.121537477089939	0.186519953485078	shuffle
-0.0963261329714249	-0.246855038856667	0.0587418189518443	shuffle
0.0567424095178495	-0.0983132310319919	0.209108289530555	shuffle
-0.0777493203529515	-0.229197027343329	0.0773737384537043	shuffle
0.0159064430989856	-0.13862902912335	0.169685711369768	shuffle
-0.100457664283145	-0.250768685037556	0.0545832938669878	shuffle
0.0178121190467752	-0.136758952586025	0.171536442630863	shuffle
0.00149589721377089	-0.152734789305688	0.155655450269737	shuffle
-0.0692306398408234	-0.221066203664569	0.0858816072495537	shuffle
0.193950310849734	0.0409804253432043	0.338036365152786	shuffle
-0.0487918573281722	-0.201471546259574	0.106202612822617	shuffle
0.0017628110534162	-0.152474090694271	0.155915887022111	shuffle
-0.135619428428331	-0.283878447438507	0.018972785180636	shuffle
-0.00370592396771041	-0.157811201493573	0.150575577062226	shuffle
0.118459134918912	-0.0364012213367886	0.267763657950774	shuffle
-0.0126189270818401	-0.166490429758068	0.141852543562286	shuffle
-0.0231727397335439	-0.17673669297278	0.131492557050941	shuffle
-0.0119699694985899	-0.165859297148789	0.142488480242627	shuffle
-0.0309109243230252	-0.184228289218269	0.123874960513869	shuffle
0.0965099580528422	-0.0585569071610588	0.247029273971961	shuffle
-0.0378505523024793	-0.190931658606968	0.11702792413575	shuffle
0.0810550932734876	-0.0740660652670138	0.232346606014792	shuffle
0.00418258058686421	-0.150109687020998	0.158275959521373	shuffle
-0.0586867338977138	-0.210973047375182	0.0963808954020848	shuffle
0.146923635058904	-0.00744038312928455	0.294448376382357	shuffle
0.129212413988229	-0.0254909229523339	0.277871566643365	shuffle
0.0154976373857788	-0.139030054535849	0.169288551042525	shuffle
-0.0320021764784214	-0.185283335771038	0.122799244098289	shuffle
0.0393063068347162	-0.115589722215881	0.192336042802024	shuffle
0.0858587807929904	-0.0692535256092834	0.236917676271323	shuffle
0.108702438194285	-0.0462685450472774	0.258563994571319	shuffle
0.093935792557201	-0.0611453217987904	0.244588513604264	shuffle
0.00348014088315807	-0.150796236309935	0.157591030711198	shuffle
-0.106484890816042	-0.256469254025293	0.048507026268656	shuffle
0.0199188508516768	-0.134690293044725	0.173581170913485	shuffle
-0.0462458434100723	-0.199022093601767	0.108724919632632	shuffle
0.203579436234172	0.0509844331779796	0.346885792577281	shuffle
0.0342408686207018	-0.12059128422673	0.187446646996702	shuffle
-0.0157532138321276	-0.169536852899024	0.138779348102465	shuffle
-0.0028599704007681	-0.156986196988793	0.151402253779989	shuffle
-0.0422910277261404	-0.195213480783652	0.112638957040082	shuffle
-0.0708535831034056	-0.222616883362302	0.0842624662985866	shuffle
-0.118610681546079	-0.267906338021591	0.0362477178661267	shuffle
0.0434613198479731	-0.11148123250293	0.196340989860111	shuffle
0.0965965868851691	-0.0584697625205125	0.247111380092939	shuffle
0.00612022043266999	-0.14821510830285	0.160164528164631	shuffle
-0.00404677458773765	-0.158143550549012	0.150242432455387	shuffle
-0.04676303907883	-0.199519828422665	0.10821270126523	shuffle
0.170106183175375	0.016339299856173	0.316012751549232	shuffle
-0.0793738767639256	-0.230745221587766	0.0757486748014765	shuffle
-0.0431515394622131	-0.196042573634344	0.111787727140207	shuffle
-0.136993614219819	-0.285165298147886	0.0175730519178615	shuffle
0.16084670963455	0.00682041171051833	0.307417645514428	shuffle
-0.119700784420183	-0.268932469182991	0.0351433236776713	shuffle
-0.0281599486270783	-0.18156701655154	0.126585157990212	shuffle
0.0109443551669598	-0.143493256353411	0.16486159633715	shuffle
-0.0303020191564515	-0.183639432714303	0.124475038835748	shuffle
-0.0656033705392974	-0.217597665395066	0.0894974188589587	shuffle
0.0284914418047331	-0.126258700972657	0.181887819609689	shuffle
0.0808333692481011	-0.0742880235788338	0.232135457434824	shuffle
-0.0345878619733976	-0.187781823460651	0.120248917143049	shuffle
-0.0388689353536793	-0.19191417104918	0.116021888396195	shuffle
-0.00569839265958914	-0.159753479296053	0.148627658076948	shuffle
-0.0536188617741678	-0.206110243250754	0.101415072859685	shuffle
-0.0816535335438714	-0.232916431641919	0.0734669159218799	shuffle
0.102897706539218	-0.0521247805622932	0.253077740914331	shuffle
-0.111579992487127	-0.261280091721735	0.0433615043694958	shuffle
-0.0588665410206653	-0.211145440374087	0.096202137908606	shuffle
-0.0772229127452191	-0.228695199061975	0.077900133671432	shuffle
-0.0764478841351005	-0.22795621199305	0.0786749866589521	shuffle
0.0423132581597541	-0.112616969254299	0.195234902293376	shuffle
0.0753036586093815	-0.0798186103786458	0.226864877787189	shuffle
-0.0542706406456141	-0.206736070663509	0.100768072051081	shuffle
-0.108225107259427	-0.258113217025661	0.046750513515549	shuffle
-0.0413729116062412	-0.194328645724811	0.113546919296644	shuffle
-0.0895012910420937	-0.240379346243751	0.0655994838876831	shuffle
0.119839033485517	-0.0350032351307895	0.269062581024133	shuffle
-0.109224819455559	-0.259057241557292	0.04574100586298	shuffle
0.0313883983105442	-0.123404328903309	0.184689965036214	shuffle
0.0203496067727883	-0.134267155606686	0.173999086126621	shuffle
0.00760405696712892	-0.146763481462959	0.161610024058698	shuffle
0.182593218601408	0.0292204654855265	0.327566038759889	shuffle
-0.0336014127988462	-0.186828874429959	0.121222118072346	shuffle
-0.0167199804905606	-0.170475925459539	0.137830823991169	shuffle
-0.0730013770512215	-0.224667864209176	0.0821184442574743	shuffle
-0.0375690763784938	-0.19066004302165	0.117305931267656	shuffle
-0.0131343351201263	-0.166991591226559	0.14134738598034	shuffle
-0.0594268676876643	-0.211682601910939	0.0956450180032545	shuffle
-0.00130849076907743	-0.155472578731966	0.152917819067914	shuffle
0.0403775829037954	-0.114530947968766	0.193369115715154	shuffle
0.0334871856882267	-0.121334791860459	0.186718507878254	shuffle
0.181992036439293	0.0285991387128233	0.32701080304117	shuffle
-0.00840470514889238	-0.16238971001537	0.145979936710937	shuffle
-0.0394345492128142	-0.192459729757403	0.115462994973005	shuffle
-0.0943463246929853	-0.24497789807395	0.0607326569404409	shuffle
0.120602012893952	-0.0342299943780629	0.269780554138436	shuffle
0.0212994101077838	-0.133333951519857	0.174920380581174	shuffle
-0.0506732958168473	-0.203280402322428	0.104337410768262	shuffle
0.00697202396897415	-0.147381876196739	0.16099440285302	shuffle
-0.0218724272167684	-0.1754760681859	0.132770816103349	shuffle
0.00387426661422679	-0.15041104471635	0.157975349667616	shuffle
-0.0792860132957233	-0.230661507737166	0.075836586787216	shuffle
-0.0118741673043743	-0.165766115681668	0.142582349428622	shuffle
-0.0398389868798083	-0.192849769155556	0.115063302554508	shuffle
-0.0570943818054258	-0.209445940407623	0.097963515664785	shuffle
0.0990700678190172	-0.0559805564297034	0.249454814203355	shuffle
0.0224795797843628	-0.132174024934952	0.176064752129444	shuffle
0.058004716291952	-0.0970588407925741	0.210319065795301	shuffle
-0.0478664714369849	-0.200581477814209	0.107119612817728	shuffle
0.107701289725917	-0.0472793371979112	0.257618463761901	shuffle
0.0139392577152055	-0.140558310758841	0.167774105679059	shuffle
-0.0285497063102188	-0.181944201805134	0.126201318178202	shuffle
0.0746120148310587	-0.0805096924195622	0.226205020319247	shuffle
0.0906315952939897	-0.0644647550106057	0.241452754454458	shuffle
-0.0214337882623013	-0.175050703581216	0.13320189968123	shuffle
0.0855090530111887	-0.0696041417062582	0.236585109543246	shuffle
-0.0410138346864005	-0.193982517365794	0.113901954643003	shuffle
-0.0439388824056056	-0.196800977765485	0.111008677554732	shuffle
0.0886215592394392	-0.0664823819163658	0.23954364198852	shuffle
-0.0112910079468735	-0.16519884972264	0.143153682409994	shuffle
0.0410998269061291	-0.113816933907758	0.194065412115345	shuffle
0.334585662604793	0.190203085389455	0.464801282487966	shuffle
-0.0284006135819621	-0.181799923698051	0.126348152635332	shuffle
0.175165479557202	0.0215521402255788	0.320698947066352	shuffle
-0.0209509960083968	-0.174582455564894	0.133676308403695	shuffle
-0.0816633607037317	-0.232925788045766	0.073457076183529	shuffle
-0.0149473742409995	-0.168753884015497	0.139569765182253	shuffle
0.00938055816329469	-0.145024667865796	0.163339753728194	shuffle
-0.10102864578411	-0.25130916843717	0.0540081584794625	shuffle
-0.0298798515267126	-0.183231100661277	0.124891020163535	shuffle
0.0168090715942965	-0.137743399737188	0.170562450397425	shuffle
-0.0423177148426423	-0.195239196788354	0.112612561198376	shuffle
0.134821927485302	-0.0197848346595756	0.283131385926785	shuffle
-0.041712641808428	-0.194656089960797	0.113210976482673	shuffle
-0.166472357263573	-0.312642505520084	-0.0126003423659271	shuffle
-0.0364156932348659	-0.189546818990623	0.118444847134675	shuffle
-0.0537143162892325	-0.206201904912725	0.101320326299118	shuffle
0.0138072751791318	-0.140687708267401	0.167645810674347	shuffle
-0.0334899715028135	-0.186721199586065	0.121332043976362	shuffle
0.0355169900230847	-0.11933199525758	0.188679134335522	shuffle
-0.0905014323335299	-0.241329162297853	0.0645954479367881	shuffle
0.000734391155698186	-0.153478445337975	0.154912305548711	shuffle
0.0846473378137258	-0.0704678821660235	0.235765527395639	shuffle
-0.0784341280544033	-0.229849739141714	0.0766888174104456	shuffle
-0.0607487449681245	-0.212949465521949	0.0943303207989388	shuffle
0.087841327365726	-0.0672652187297889	0.238802270856077	shuffle
-0.0944012506199619	-0.245029990926392	0.0606774416510582	shuffle
-0.0455103130473833	-0.198314103724703	0.109453229815398	shuffle
0.0475923278716034	-0.107391221461465	0.20031774855	shuffle
-0.00463466491095039	-0.158716695561905	0.149667750918336	shuffle
0.0300218834677203	-0.124751075584026	0.183368483737622	shuffle
-0.0807821476531135	-0.232086676899596	0.0743392971122622	shuffle
-0.0143866517323564	-0.168208960946885	0.140119640187212	shuffle
0.0526808759227229	-0.102345952404785	0.205209385577966	shuffle
-0.00813297582304188	-0.162125116543582	0.14624588307582	shuffle
0.0624507138601482	-0.0926367996074273	0.214579848869497	shuffle
0.0238699053516205	-0.130807003583298	0.177412372509846	shuffle
0.0575073522664277	-0.0975531444264608	0.209842061184217	shuffle
-0.0681459545670499	-0.220029387153168	0.0869632946717985	shuffle
0.0334909725373859	-0.121331056570879	0.186722166804423	shuffle
-0.0921362549846445	-0.242881101765274	0.062953582683558	shuffle
0.0692717251381357	-0.0858406283147032	0.221105469061907	shuffle
-0.0469456390203934	-0.199695538735149	0.108031838942338	shuffle
0.0492186404346518	-0.105779608395802	0.201881956202935	shuffle
0.101911597127317	-0.0531185810991257	0.252144773811597	shuffle
-0.0277125781293885	-0.181134021255662	0.127025678740319	shuffle
0.0268557296958959	-0.127869237473165	0.180304539545755	shuffle
0.0843205670322051	-0.0707953601315168	0.235454677651565	shuffle
0.10414377206214	-0.050868557111948	0.254256255504391	shuffle
0.178932587659083	0.0254390083320271	0.324183626107052	shuffle
-0.0272447132402201	-0.180681126469002	0.127486314798795	shuffle
-0.0830593011027528	-0.234254573469861	0.072059042113582	shuffle
-0.0086981012186248	-0.162675376381328	0.145692759659242	shuffle
0.170483737829082	0.0167280244599257	0.316362709198589	shuffle
-0.160918191884183	-0.307484090640355	-0.00689378985760937	shuffle
0.110364064720674	-0.0445902119644687	0.260132677774482	shuffle
-0.0766980721188673	-0.228194784440494	0.0784248758530422	shuffle
0.0998436407071456	-0.0552016696811936	0.250187353996508	shuffle
-0.00296762621882394	-0.157091198781769	0.151297063110433	shuffle
0.00176284679677939	-0.152474055781773	0.155915921896669	shuffle
0.0786233512630973	-0.0764995370644667	0.230030069728771	shuffle
0.0122563508460279	-0.142207860666084	0.166137827976782	shuffle
-0.0711663693578911	-0.222915654184846	0.0839503186798178	shuffle
-0.133289504826929	-0.281695378853758	0.0213446404279811	shuffle
0.00112433095395321	-0.153097667715631	0.155292864966912	shuffle
-0.004396236844156	-0.158484260202197	0.149900834524071	shuffle
-0.0208359056488136	-0.174470822073545	0.133789389796753	shuffle
-0.0830998613718404	-0.234293174048648	0.0720184118966152	shuffle
0.0337366432804176	-0.1210887213708	0.186959529497184	shuffle
0.03596883645042	-0.118885989356691	0.189115415269603	shuffle
-0.00857550476631283	-0.162556012949119	0.145812760640203	shuffle
0.0370285581550065	-0.117839720315874	0.190138393872529	shuffle
0.0147836179583866	-0.139730363356284	0.168594751601531	shuffle
0.00189171224868245	-0.152348183344431	0.156041652551554	shuffle
-0.0820861769437356	-0.23332832335967	0.0730336901455984	shuffle
0.0508944443908103	-0.104118099019924	0.203492950996706	shuffle
-0.123654351414223	-0.272651184490431	0.0311347495909757	shuffle
0.0863271729281222	-0.0687838837121827	0.237363029072646	shuffle
-0.0673874249292288	-0.219304128595601	0.0877195106392239	shuffle
-0.0377707112984889	-0.19085461688211	0.117106783678576	shuffle
0.0329983661224592	-0.121816919126265	0.186246165360087	shuffle
0.112799598817806	-0.0421286085195842	0.262430552133401	shuffle
-0.0745383222627836	-0.226134706284308	0.0805833163458702	shuffle
0.0656172469823237	-0.089483594034233	0.217610941917468	shuffle
0.0469454261300636	-0.108032049812779	0.199695333883046	shuffle
0.0178990372983945	-0.136673631751265	0.171620828980425	shuffle
0.0237075797771837	-0.130966638638033	0.17725506260559	shuffle
-0.0247949358774538	-0.178308670944709	0.129897152176021	shuffle
-0.0302405549909285	-0.18357998618715	0.124535605710387	shuffle
0.0661706715157854	-0.0889321794295442	0.218140394383456	shuffle
-0.0537042723819233	-0.206192260222678	0.101330295846489	shuffle
-0.014836776508965	-0.168646410031201	0.139678230881749	shuffle
-0.0640060535783162	-0.216069029311601	0.0910883947387621	shuffle
-0.0872888363458091	-0.238277191117697	0.0678194388669565	shuffle
-0.109404963340983	-0.259227320328158	0.0455590632156781	shuffle
0.0674201390808821	-0.0876868999608797	0.219335411284258	shuffle
-0.085384135180793	-0.236466312818252	0.0697293675422856	shuffle
-0.106493533452433	-0.256477420771914	0.0484983050661201	shuffle
-0.0566917146149799	-0.209059654360664	0.0983635977134618	shuffle
0.0620158869311677	-0.0930695536328582	0.214163391563815	shuffle
0.0130565224991854	-0.141423656217048	0.166915934545914	shuffle
-0.0290881761320886	-0.182465227932648	0.1256709479505	shuffle
-0.0124258414627489	-0.166302660812946	0.142041768372514	shuffle
-0.0884420145529017	-0.23937305541172	0.0666625429602676	shuffle
-0.0401041190393709	-0.193105436184795	0.11480125395772	shuffle
0.0845326185757802	-0.0705828534834387	0.235656401069873	shuffle
-0.0281566831272968	-0.181563856196433	0.126588373712659	shuffle
-0.0090641003357728	-0.163031696839552	0.145334482027151	shuffle
0.0156695719600252	-0.138861398357946	0.169455593913131	shuffle
0.00781600457881564	-0.146556080322987	0.161816441262764	shuffle
0.0345634396777722	-0.120273015034782	0.187758234035575	shuffle
-0.062384183851444	-0.214516133060173	0.0927030162515227	shuffle
0.00961133442120401	-0.14479871739596	0.163564384689562	shuffle
-0.0341996874322142	-0.187406865868705	0.120631913924459	shuffle
-0.00433151330486465	-0.158421160492095	0.14996410429955	shuffle
-0.104929384871376	-0.254999050093306	0.0500762877861633	shuffle
0.0238589906941451	-0.130817737583645	0.177401795348551	shuffle
0.00674577845204667	-0.147603210369805	0.160774003044701	shuffle
-0.0653960398356884	-0.217399291526593	0.0897039712059041	shuffle
-0.0688425304832034	-0.220695261573995	0.0862686859682994	shuffle
-0.0336369528962048	-0.186863212581877	0.121187060454799	shuffle
-0.0245145960579718	-0.178037065575675	0.130172919325549	shuffle
0.0717019305658267	-0.0834157802654271	0.223427151599074	shuffle
-0.0290389071074604	-0.182417558554884	0.125719479553813	shuffle
0.0277221050319501	-0.127016298341461	0.181143242653428	shuffle
0.0408124265013998	-0.114101078567967	0.193788355424612	shuffle
0.034497978588816	-0.120337605697287	0.187695004486411	shuffle
0.0745318987543112	-0.0805897337908756	0.22612857719523	shuffle
0.00863697353937936	-0.145752593781306	0.162615861277953	shuffle
-0.00590038588604738	-0.159950317684642	0.1484301143448	shuffle
-0.0471023684772975	-0.199846346840992	0.107876592738957	shuffle
0.0166079484408242	-0.137940756559467	0.170367116997305	shuffle
0.0485280616972164	-0.106464044791644	0.201217844107067	shuffle
-0.0341108295947297	-0.187321027269953	0.120719580027276	shuffle
-0.0558443059135165	-0.208246564236364	0.0992054023082189	shuffle
0.0159982872349746	-0.138538925972382	0.16977493232955	shuffle
0.0320255500311521	-0.122776199326216	0.18530592997036	shuffle
0.0165237898068505	-0.138023335555406	0.170285377460413	shuffle
-0.0424813796189517	-0.195396901403104	0.112450677947928	shuffle
0.107681314095027	-0.0472995020173235	0.257599594932383	shuffle
-0.0529678724069368	-0.205485049359743	0.102061159070112	shuffle
-0.0426777164882602	-0.195586077861732	0.112256467395598	shuffle
-0.00196023942167414	-0.156108510689597	0.152281245737951	shuffle
-0.068314073976306	-0.220190109679751	0.0867956638576597	shuffle
0.00108883174495989	-0.153132334716391	0.155258221618975	shuffle
-0.0734300743209184	-0.225077076875842	0.081690327893942	shuffle
-0.0331045212972045	-0.186348748295903	0.121712223503706	shuffle
-0.0121514412728038	-0.166035797120261	0.142310662421882	shuffle
-0.0862671109047841	-0.237305924936444	0.0688441098356367	shuffle
-0.0524742086686525	-0.20501086405662	0.1025510174243	shuffle
-0.054978532025751	-0.207415635083633	0.100065221498981	shuffle
-0.0991205787135244	-0.249502651070513	0.0559297043218716	shuffle
-0.0243520558385695	-0.17787957885165	0.130332797364102	shuffle
0.0517415382417664	-0.103277901512968	0.204306970500634	shuffle
0.00918823896761081	-0.145212953151474	0.163152543567943	shuffle
-0.0210813268035787	-0.174708866959795	0.133548247743559	shuffle
0.080670328328968	-0.0744512269711909	0.231980183887676	shuffle
-0.0693549310954898	-0.221184987849354	0.0857576361549217	shuffle
-0.0369431070897911	-0.190055917923243	0.1179240993672	shuffle
-0.0829880964055132	-0.234186807911187	0.0721303683611311	shuffle
0.0243141019305732	-0.13037012848183	0.177842803826035	shuffle
0.114447563877898	-0.0404619364539227	0.263984409914822	shuffle
0.0721308931174083	-0.0829875725376279	0.223836779778566	shuffle
-0.0211079069261066	-0.174734647124249	0.133522129966421	shuffle
-0.00833144522881825	-0.162318376146334	0.146051639705774	shuffle
-0.0926897229777575	-0.243406334930784	0.0623975401450652	shuffle
0.0158092403124944	-0.138724386560405	0.169591282062967	shuffle
0.0467148348717386	-0.108260445050172	0.19947344135649	shuffle
0.113316452631537	-0.0416059803891812	0.262917974474923	shuffle
-0.109445582780844	-0.259265668968863	0.0455180367645389	shuffle
-0.00490323302356815	-0.158978492967896	0.149405182327414	shuffle
0.0333776722564452	-0.121442812322816	0.186612692064336	shuffle
0.0112392029449077	-0.143204431837096	0.165148451686446	shuffle
-0.0117475690876924	-0.165642976420891	0.142706389001805	shuffle
-0.0185798619169942	-0.172281743359968	0.136005240244054	shuffle
0.0124820459017883	-0.141986688924053	0.166357318796266	shuffle
0.0595608288925591	-0.0955118090697849	0.211811011243243	shuffle
0.0210830866718402	-0.133546518493797	0.174710573869393	shuffle
0.0545251613766995	-0.100515381554263	0.206980423439277	shuffle
0.249919272613418	0.0995605217024988	0.389119459727596	shuffle
-0.107200955543399	-0.257145817449066	0.0477843719894045	shuffle
0.0792294564665033	-0.0758931735709435	0.230607620789491	shuffle
-0.0141001110375701	-0.167930457788652	0.140400600794629	shuffle
-0.0288216311898908	-0.182207328462489	0.125933494614927	shuffle
0.185892127905782	0.0326320266014174	0.33061104169494	shuffle
-0.014015914890907	-0.167848618696437	0.140483152577688	shuffle
0.040169477120863	-0.114736652696956	0.193168457812435	shuffle
0.0291930292066649	-0.125567661771426	0.182566674279676	shuffle
-0.0618848417802829	-0.214037871675963	0.0931999625768614	shuffle
0.060403391366651	-0.0946738507396031	0.212618534167085	shuffle
-0.0266896138939396	-0.180143704023988	0.128032750919916	shuffle
-0.121721481111	-0.270833687514712	0.0330951347712234	shuffle
-0.0160174322281914	-0.169793530201809	0.138520143566835	shuffle
0.00886255355065553	-0.145531781788624	0.162835484824631	shuffle
-0.0211335039167745	-0.174759473546188	0.133496978017131	shuffle
-0.0715631690684416	-0.223294632942388	0.0835542853300287	shuffle
0.0208039998794176	-0.133820737920275	0.174439873930557	shuffle
0.0873904249392256	-0.0677175395163198	0.238373746119573	shuffle
0.0432476936723437	-0.111692595963986	0.196135203499634	shuffle
0.00105964949274267	-0.153160832564567	0.155229742646424	shuffle
0.0802345327455865	-0.0748874160476306	0.231565112025101	shuffle
-0.0599110581529549	-0.212146700807915	0.0951635203101952	shuffle
0.040988286733378	-0.113927213534578	0.193957889238167	shuffle
0.0410519164684267	-0.113864303364247	0.194019227698051	shuffle
0.0163434801240021	-0.13820025363413	0.170110243563903	shuffle
0.21404064330907	0.0618877353613381	0.356471094175992	shuffle
-0.0446233910675258	-0.197460178673452	0.110331224281558	shuffle
-0.0209434781307908	-0.174575163615753	0.133683695175468	shuffle
0.140303409949258	-0.0141992350365232	0.288262551765042	shuffle
0.0267605883511242	-0.127962889371347	0.180212423438373	shuffle
0.0432984446850378	-0.111642383772289	0.196184093232908	shuffle
0.00554216957913141	-0.148780431438872	0.15960123460433	shuffle
-0.084055134229112	-0.235202154593945	0.0710613427639966	shuffle
0.0388291787327365	-0.116061168953086	0.191875820533213	shuffle
-0.0473492791698108	-0.200083914391001	0.107632003421472	shuffle
-0.00240623197447482	-0.156543606222651	0.151845563919236	shuffle
-0.0651157972235932	-0.217131135637897	0.0899831405340715	shuffle
0.00527459904334978	-0.149042076368514	0.159340461014143	shuffle
-0.00936426890946014	-0.163323897634598	0.145040615884762	shuffle
-0.120837487801285	-0.270002105464847	0.03399131511996	shuffle
0.00726849740920225	-0.147091815206532	0.161283192790175	shuffle
-0.0406059517498602	-0.193589296760465	0.114305198677706	shuffle
0.156342733026971	0.00220032026540852	0.30322816544339	shuffle
0.0263315446135311	-0.128385182114806	0.179796988691146	shuffle
-0.0652291257828116	-0.217239579156348	0.0898702489400574	shuffle
-0.161228620432241	-0.307772627708901	-0.00721247103213131	shuffle
0.00973013657256844	-0.144682393250286	0.163680017057334	shuffle
0.234266441831326	0.0830717719488165	0.374918774683174	shuffle
0.101196158513533	-0.0538394075776421	0.25146771595221	shuffle
0.0417205742625986	-0.113203132038049	0.194663735139311	shuffle
-0.0494578539343435	-0.202111969040051	0.105542488324633	shuffle
0.0823417939487605	-0.0727777015437763	0.23357165422686	shuffle
-0.0200449028668418	-0.173703471083131	0.134566476260384	shuffle
0.08237418241059	-0.0727452645390684	0.233602484597083	shuffle
-0.0710374138697925	-0.222792480431467	0.0840790145595344	shuffle
-0.0111487583450632	-0.165060461533887	0.143293031597748	shuffle
-0.0437043365307717	-0.196575071759621	0.111240772792071	shuffle
0.0476782673608955	-0.107306079117549	0.200400425709253	shuffle
0.153147795046536	-0.00107300015227498	0.30025287192506	shuffle
-0.0151148347097188	-0.168916607731382	0.139405525851682	shuffle
0.0345773712255494	-0.120259268563558	0.187771690499141	shuffle
0.0539329407635355	-0.101103312692582	0.206411832333652	shuffle
-0.084756908680175	-0.235869752790492	0.0703580666848575	shuffle
0.0899696863915369	-0.0651293036525678	0.240824208789655	shuffle
0.172224113299889	0.0185204900613752	0.317975360360756	shuffle
0.00220660088004083	-0.152040587228231	0.156348860147957	shuffle
0.0601288929788811	-0.094946873280057	0.212355474145197	shuffle
-0.0645592900969068	-0.216598562356432	0.0905374440819456	shuffle
0.105827494183321	-0.0491703297264212	0.255847992871949	shuffle
-0.0325417491120821	-0.185804875917405	0.122267218727075	shuffle
-0.0877951385456089	-0.238758377028678	0.0673115557727587	shuffle
-0.0838627032091398	-0.235019070001945	0.0712541586019721	shuffle
-0.0935892507980514	-0.244259785362157	0.0614936225892794	shuffle
0.109793187236884	-0.0451669278945566	0.259593821541807	shuffle
0.0286551669867265	-0.126097450793965	0.182046252873308	shuffle
0.0149121446825493	-0.139604316010195	0.168719649885727	shuffle
0.0680717411952578	-0.0870372895674507	0.219958436382261	shuffle
-0.049439868886911	-0.202094676321444	0.105560316592379	shuffle
0.0687395129502493	-0.0863714220702456	0.220596793444249	shuffle
0.0760109535692619	-0.0791117356130789	0.227539523272897	shuffle
-0.0744960688690891	-0.226094389340775	0.0806255296185667	shuffle
-0.0334947286593272	-0.186725796037166	0.121327351585822	shuffle
-0.0801770774457608	-0.231510384829858	0.0749449187970138	shuffle
0.0280979383811616	-0.126646222433299	0.18150700241037	shuffle
-0.183115085633466	-0.328047939979549	-0.0297599155238116	shuffle
0.0162001392956991	-0.138340891201648	0.169971010400773	shuffle
0.00439310195806318	-0.149903899026203	0.158481203995312	shuffle
0.11302953352494	-0.0418961154391863	0.262647402979476	shuffle
0.0747045798291126	-0.0804172112440339	0.226293339314007	shuffle
0.0588062829662983	-0.0962620453191867	0.21108766804139	shuffle
0.172528713125514	0.0188343083075962	0.318257519235437	shuffle
0.0464191858895921	-0.108553254505429	0.199188922396442	shuffle
0.101509958259225	-0.0535232645430496	0.251764699557924	shuffle
-0.127552993060128	-0.276313882817794	0.0271769829698052	shuffle
0.019913694772321	-0.134695357590571	0.173576168200137	shuffle
-0.077563801268278	-0.229020179808648	0.077559263041166	shuffle
-0.0398345504748187	-0.19284549095202	0.115067687179453	shuffle
-0.0192671917686574	-0.172948832387695	0.13533031952382	shuffle
0.128446066600106	-0.0262696820950328	0.277152300230614	shuffle
0.0428976196819617	-0.112038931686802	0.195797947670494	shuffle
-0.107618869878457	-0.257540609861375	0.0473625368263239	shuffle
0.0127897416112681	-0.141685135112528	0.166656531552629	shuffle
-0.0397769477496873	-0.192789941802202	0.115124617039358	shuffle
0.0249551997009275	-0.12973949169078	0.178463930975361	shuffle
0.0861255906208207	-0.0689860123078821	0.237171370004323	shuffle
0.0500632775076333	-0.104942284225305	0.202694031492113	shuffle
0.0360656540050901	-0.118790415126811	0.189208889726536	shuffle
-0.146802547835927	-0.294335345435188	0.00756413266192792	shuffle
0.0416658615316485	-0.113257237345564	0.194611003464592	shuffle
-0.108689293214078	-0.258551581705619	0.0462818187044104	shuffle
0.0459701941692415	-0.10899788251338	0.198756784186207	shuffle
-0.0140643239945201	-0.167895672855874	0.140435689173745	shuffle
-0.0591538425363793	-0.211420875706987	0.0959164927623426	shuffle
-0.0273772543909371	-0.180809433354708	0.127355828274798	shuffle
-0.0414161168993445	-0.194370290438322	0.113504197631803	shuffle
0.109265960584621	-0.0456994548398634	0.259096084841577	shuffle
0.0128577601733889	-0.141618470395803	0.166722671066764	shuffle
0.00969519678149859	-0.144716604701299	0.163646009940811	shuffle
0.0245291958886788	-0.130158558225854	0.178051211101943	shuffle
-9.19416115713704e-05	-0.15428521094176	0.154105699770015	shuffle
0.0308716496611573	-0.123913669256136	0.184190311024593	shuffle
-0.0523577552605127	-0.204898995098572	0.102666562197078	shuffle
0.0756195945694205	-0.0795028813907334	0.227166247789015	shuffle
0.0491381312280745	-0.105859409077964	0.201804539764823	shuffle
0.0808289913264407	-0.0742924059717385	0.232131288180855	shuffle
-0.125686323181828	-0.274560721640384	0.0290725673606934	shuffle
0.120708985963319	-0.034121567804627	0.269881203870918	shuffle
0.00354442915352261	-0.150733408538942	0.157653722524842	shuffle
0.00253387011869148	-0.151720865560209	0.156668114750528	shuffle
-0.0635914521439665	-0.215672132869512	0.0915012208954818	shuffle
-0.0770768723623626	-0.228555963414463	0.0780461552924795	shuffle
-0.0266925213183545	-0.180146519101404	0.12802988911527	shuffle
-0.0510493222381733	-0.203641797479184	0.10396449858772	shuffle
-0.0894012300647412	-0.240284304245838	0.0656999172341482	shuffle
-0.0406378341176502	-0.193620034810934	0.114273680750894	shuffle
-0.0589157762859811	-0.211192643832062	0.0961531883110738	shuffle
0.00352332196614471	-0.150754036351168	0.15763313962466	shuffle
-0.0211078985477027	-0.174734638998036	0.133522138199122	shuffle
-0.0616579921832856	-0.21382057487139	0.0934256982713906	shuffle
-0.00978591719339291	-0.163734307925091	0.144627774643424	shuffle
0.00781596621961786	-0.146556117860573	0.161816403905702	shuffle
-0.0570254911151428	-0.209379855672185	0.0980319676277604	shuffle
0.0349680177125002	-0.119873787524639	0.188148992011205	shuffle
0.0142542507468664	-0.140249465891113	0.168080276893294	shuffle
0.0517652012270481	-0.10325442799568	0.204329706547809	shuffle
-0.0494053902769303	-0.202061524688709	0.105594494365985	shuffle
-0.00576870854586675	-0.159822002121128	0.148558892502159	shuffle
0.0786072787477017	-0.0765156148675891	0.230014752951829	shuffle
-0.0210778440317971	-0.174705488990259	0.133551669918686	shuffle
0.0378154511138999	-0.117062594076678	0.190897788321902	shuffle
0.00695210222910101	-0.14740136609564	0.160974996465788	shuffle
-0.0343604052081042	-0.187562116783608	0.120473345512657	shuffle
-0.0835221808732067	-0.234695060644176	0.071595333499081	shuffle
-0.032162848394516	-0.185438647069389	0.122640828879761	shuffle
0.0161472079821991	-0.138392822709305	0.169919594368216	shuffle
0.163727931825145	0.00977936608224102	0.310094705513054	shuffle
-0.146099983243811	-0.293679442998307	0.00828205104647301	shuffle
0.0828845007938063	-0.0722341379829769	0.23408821327338	shuffle
-0.102243897881196	-0.252459197787035	0.05278372288022	shuffle
0.0355972287951938	-0.119252798207969	0.188756613406431	shuffle
0.0884517238277413	-0.0666528006132102	0.239382280495351	shuffle
0.0288296751600367	-0.125925571624692	0.1822151118327	shuffle
0.0868905901573133	-0.0682188720758568	0.237898648757424	shuffle
-0.0636437308473194	-0.215722181850538	0.0914491689808231	shuffle
-0.131594574935462	-0.280106314348843	0.0230689809736802	shuffle
0.0297574656122656	-0.125011602503551	0.183112715770468	shuffle
-0.0232214080885021	-0.17678386610816	0.131444704130011	shuffle
-0.031879671300445	-0.18516491267989	0.122920023344844	shuffle
-0.0630640106554613	-0.215167142417439	0.0920263269011426	shuffle
-0.0677314591657187	-0.219633093403421	0.0873765479301132	shuffle
0.0242814688917258	-0.130402225690526	0.177811184055738	shuffle
-0.0995199687504336	-0.249880871708916	0.0555275879799018	shuffle
-0.214333606929795	-0.356739097383048	-0.062193603392177	shuffle
0.0420442623537105	-0.11288301874943	0.194975684942128	shuffle
0.0495266164840124	-0.105474324274735	0.202178083719024	shuffle
-0.114816599905394	-0.264332265749662	0.0400885931150484	shuffle
0.0276035793440582	-0.127132999383993	0.18102851587855	shuffle
0.183717359886197	0.0303825929634889	0.328603996898547	shuffle
-0.0384712410787966	-0.191530521304935	0.116414798680787	shuffle
0.0335952107407716	-0.121228235893888	0.186822882083514	shuffle
-0.0276163527527311	-0.181040880082483	0.127120422821698	shuffle
0.0507001650520346	-0.104310765509285	0.203306227449732	shuffle
0.0147226733186647	-0.139790130577481	0.168535525764539	shuffle
-0.101417606419944	-0.251677299677932	0.0536163092440315	shuffle
0.00124117716301787	-0.152983558052158	0.155406891417602	shuffle
0.101617571230181	-0.0534148408188586	0.251866539167104	shuffle
0.113308168033872	-0.0416143582113961	0.262910162233514	shuffle
-0.0217297662540796	-0.175337730805799	0.132911026209496	shuffle
0.0147177880880667	-0.139794921379241	0.1685307782625	shuffle
0.153040947698823	-0.00118241174050728	0.300153320590357	shuffle
-0.0440274515572296	-0.1968862801105	0.110921029415685	shuffle
0.0230270659974364	-0.131635785728838	0.176595490499849	shuffle
-0.0917311022533265	-0.242496561610295	0.0633605590185191	shuffle
0.160153275532773	0.00610867199396346	0.306773001285812	shuffle
-0.0102938154607235	-0.164228598673273	0.144130413546637	shuffle
0.201033830001819	0.048336739962596	0.344548789860012	shuffle
-0.100658695038498	-0.250958988732667	0.0543808123475341	shuffle
-0.137279317857778	-0.285432777102325	0.0172819606717058	shuffle
0.0704808490040862	-0.0846343996117425	0.222260813628666	shuffle
0.030410625690176	-0.124368014985818	0.183744471360497	shuffle
0.167996429501262	0.0141679843949731	0.314056477272301	shuffle
0.0612165513276426	-0.0938649258170773	0.213397680227279	shuffle
0.228483447967769	0.0770008155092525	0.369655530103956	shuffle
0.106541858941922	-0.0484495398368082	0.256523084918753	shuffle
0.132141826925791	-0.0225123335674584	0.280619473942025	shuffle
-0.0107697218725655	-0.164691684542556	0.14366430976862	shuffle
-0.0275403224111655	-0.180967284709259	0.127195280753902	shuffle
-0.145986527267803	-0.293573509381151	0.00839797155692482	shuffle
0.0334369342241614	-0.121384358714073	0.186669953548951	shuffle
-0.0776207004592401	-0.229074420475422	0.0775023633046472	shuffle
0.00116138831157092	-0.153061478688989	0.155329028493076	shuffle
0.0837091919031029	-0.0714079685831097	0.234873007090885	shuffle
-0.0817938734231893	-0.233050046084902	0.0733263935474289	shuffle
-0.114462614356574	-0.263998597357895	0.0404467111552248	shuffle
-0.0989080426020569	-0.249301361585874	0.0561436707376732	shuffle
-0.0488038706177741	-0.20148309940308	0.106190706664339	shuffle
-0.0500652385039123	-0.202695916645369	0.104940339951663	shuffle
-0.11261390683624	-0.262255415459092	0.0423163543611815	shuffle
0.167011294315242	0.0131545999810394	0.313142583271635	shuffle
-0.124345507149488	-0.273300827021745	0.0304334659104468	shuffle
-0.0120027803922484	-0.165891209848841	0.142456330738142	shuffle
-0.0671582055953279	-0.219084930378967	0.0879479956380369	shuffle
-0.0837142253428105	-0.234877796415482	0.0714029254671997	shuffle
-0.0600151553301138	-0.212246469486475	0.0950599925801004	shuffle
-0.0105198100299603	-0.164448513587881	0.143909082515725	shuffle
-0.152699791859561	-0.299835438939296	0.00153173029937402	shuffle
-0.0792070054723106	-0.230586229383238	0.0759156361789399	shuffle
0.13342637670885	-0.0212053533692917	0.281823666197816	shuffle
-0.146021897092972	-0.293606534504823	0.00836183385992544	shuffle
0.0227498067588727	-0.131908373474309	0.176326723902857	shuffle
-0.0560562035554008	-0.20844990014545	0.0989949268006872	shuffle
0.0552635136094499	-0.099782225551065	0.20768917132301	shuffle
-0.0955478945415199	-0.246117292491325	0.0595245401867674	shuffle
0.0400360879701976	-0.114868495862373	0.19303983578383	shuffle
0.0322962123432414	-0.122509332086419	0.185567555680697	shuffle
-0.0258429440044794	-0.179323819501279	0.128866026283888	shuffle
0.0251414197283186	-0.12955628681074	0.178644327198364	shuffle
-0.129191371725162	-0.277851819348697	0.0255123085230289	shuffle
0.00246304647562985	-0.151790058586503	0.156599028268832	shuffle
-0.0445723344323248	-0.197411014481422	0.11038175963397	shuffle
0.165184287897306	0.0112760395130913	0.311446982246097	shuffle
-0.0108300324858917	-0.164750365591441	0.14360523653028	shuffle
-0.0446703047997777	-0.197505352843814	0.110284788827163	shuffle
0.0362603947059565	-0.118598166582349	0.189396897650349	shuffle
0.0820816262033003	-0.0730382473163886	0.233323991177295	shuffle
0.242177430604842	0.0913949027080989	0.382104103792778	shuffle
0.0193099527537898	-0.135288325809287	0.172990329468271	shuffle
0.0104308253120064	-0.143996232822837	0.164361924543028	shuffle
-0.0110428478861704	-0.164957422113886	0.143396778606756	shuffle
0.063837353522316	-0.0912563788722301	0.215907539426553	shuffle
0.0783152255478583	-0.076807750100416	0.229736419187294	shuffle
-0.0663798384358918	-0.218340477763795	0.088723747402796	shuffle
0.0344599682439664	-0.120375110022602	0.187658289314856	shuffle
-0.0475158762792682	-0.200244197291455	0.107466962004332	shuffle
0.0722689623052134	-0.0828497341167535	0.223968614455841	shuffle
-0.0073003595185001	-0.161314227581043	0.14706064066559	shuffle
-0.0972036821858301	-0.247686719568175	0.0578589861120489	shuffle
0.0294079091902776	-0.12535598241207	0.182774562504375	shuffle
0.067773074508888	-0.0873350597088728	0.219672883564559	shuffle
0.0574404526492005	-0.0976196265588347	0.2097778945449	shuffle
-0.00901393112833023	-0.162982856706373	0.145383595209595	shuffle
-0.0273806430433905	-0.180812713682108	0.127352492082344	shuffle
-0.0145876010880512	-0.168404258975557	0.139922589270633	shuffle
-0.0747111262712092	-0.226299585373123	0.0804106706289681	shuffle
0.0156908938551528	-0.138840482397478	0.16947630856407	shuffle
0.0337884851976741	-0.121037580968045	0.187009615947623	shuffle
-0.033491113040822	-0.186722302561452	0.121330917980373	shuffle
-0.0935125435431885	-0.244187016460131	0.0615707141017547	shuffle
0.0158602619639458	-0.138674333888439	0.169640848269624	shuffle
-0.0586947166366017	-0.210980701156677	0.0963729594748594	shuffle
0.109403063365856	-0.0455609822159685	0.259225526558142	shuffle
0.00864698582465073	-0.145742793448979	0.162625609511333	shuffle
-0.0534003397427255	-0.205900394042698	0.101631963597463	shuffle
-0.039189886450843	-0.192223753689669	0.115704762770367	shuffle
-0.0633214401861502	-0.215413624383789	0.0917700480304513	shuffle
-0.0598418543314504	-0.212080372816853	0.0952323437068996	shuffle
0.129523065842758	-0.0251751862901424	0.27816308595758	shuffle
0.0635252499512764	-0.0915671346822734	0.215608753098812	shuffle
-0.0650067870238076	-0.217026820794814	0.0900917266585646	shuffle
0.0366239525751572	-0.118239230201977	0.189747856174728	shuffle
-0.0239988502458341	-0.177537327566198	0.130680190213087	shuffle
-0.00643520982825663	-0.160471433843303	0.147907011987397	shuffle
0.0831796836338953	-0.0719384504741981	0.23436913826473	shuffle
-0.0730097849683698	-0.224675890494702	0.0821100482838195	shuffle
0.0496181290485053	-0.105383605963799	0.202266070209665	shuffle
-0.184905497017592	-0.329700664292096	-0.0316113295799979	shuffle
-0.0666349738629278	-0.218584516071133	0.0884694899854793	shuffle
-0.0647232485674882	-0.216755478826487	0.0903741448157322	shuffle
-0.0805878036313263	-0.231901587779148	0.0745338307389085	shuffle
0.0697151934541405	-0.0853982746510786	0.221529262330657	shuffle
0.131498872463904	-0.023166316648512	0.280016565175996	shuffle
-0.11488475310129	-0.264396503153938	0.0400196397174642	shuffle
-0.0718645728607663	-0.223582469523324	0.0832534309058592	shuffle
-0.063418208183721	-0.215506272170558	0.0916737072536505	shuffle
0.0677049498292635	-0.0874029760082451	0.21960774646033	shuffle
-0.0631929839305701	-0.215290633339254	0.0918979326797489	shuffle
-0.104772915970694	-0.254851123333959	0.0502340980108745	shuffle
-0.0591379388313434	-0.211405629492144	0.0959323054460958	shuffle
-0.0838694910957783	-0.235025528381556	0.0712473573383586	shuffle
-0.00411875658268534	-0.158213732689566	0.150172073361148	shuffle
-0.101363562573468	-0.25162615255713	0.0536707573011702	shuffle
0.00708982493644082	-0.147266626335473	0.161109154009825	shuffle
0.0432340483949504	-0.111706096235189	0.196122058529374	shuffle
0.0646023625509223	-0.0904945456108758	0.216639785613506	shuffle
-0.00327741296351567	-0.157393328954695	0.15099435050025	shuffle
-0.0218309323435874	-0.175435831510843	0.132811598750032	shuffle
0.167361427804152	0.013514737516697	0.313467427457904	shuffle
0.0842029270816017	-0.0709132464885659	0.235342761824404	shuffle
-0.0918053302236236	-0.242567016698373	0.0632860008053941	shuffle
0.0070780905476898	-0.147278106791425	0.161097723605525	shuffle
0.0595007002670294	-0.0955716007245087	0.211753375231682	shuffle
0.0962239034445796	-0.0588446482196325	0.246758138328031	shuffle
0.00772331054062073	-0.146646787658503	0.161726167573772	shuffle
-0.0458781695059118	-0.198668206455958	0.109089005140364	shuffle
-0.0482683507729112	-0.200968050356787	0.106721407721393	shuffle
-0.0547961926360124	-0.207240606247617	0.100246277263216	shuffle
0.130127929868674	-0.0245603331743714	0.278730618843479	shuffle
0.0418732496002737	-0.113052146850027	0.194810877683722	shuffle
-0.0396412400378079	-0.192659068282949	0.115258735508637	shuffle
0.0796374571444807	-0.0754849344045825	0.230996340144913	shuffle
-0.0331237506766099	-0.186367330228004	0.121693258144963	shuffle
-0.0661118447912448	-0.218084120038675	0.0889907970231708	shuffle
0.0442856700145486	-0.110665482361435	0.197134961165787	shuffle
0.112279853686234	-0.0426540747862083	0.261940326104286	shuffle
-0.0944832258021351	-0.245107736218166	0.060595032839494	shuffle
0.183073360049725	0.0297167808147176	0.328009412614049	shuffle
0.104367826572589	-0.0506426240673708	0.254468116434624	shuffle
0.0668875784579426	-0.0882177347766628	0.218826114901612	shuffle
0.022425884754488	-0.132226808148814	0.176012694845407	shuffle
-0.0336497808506239	-0.186875606610372	0.121174406553293	shuffle
0.0214312712357062	-0.133204373184244	0.175048262560868	shuffle
0.0524453279512218	-0.102579673188134	0.204983120665156	shuffle
-0.0339919178846585	-0.187206152317316	0.120836893150855	shuffle
-0.0267084971769307	-0.180161987482299	0.128014163884466	shuffle
-0.0501264347564585	-0.202754745517778	0.1048796649622	shuffle
0.0225460772187191	-0.132108655503473	0.176129220142641	shuffle
-0.0372409136390878	-0.190343346501534	0.117630019221851	shuffle
-0.052340107195193	-0.204882041441249	0.102684072197187	shuffle
0.0708856507310011	-0.0842304655460576	0.222647515404362	shuffle
0.0350371440588571	-0.119805570361319	0.18821575220685	shuffle
-0.00889864996259325	-0.162870626690842	0.145496446908328	shuffle
-0.0337952693447401	-0.187016170311505	0.121030888561892	shuffle
-0.0551935004109267	-0.207621972182163	0.0998517532504423	shuffle
-0.0881175582279224	-0.239064763707024	0.0669880874583997	shuffle
0.00379312693309197	-0.150490348932908	0.157896232748697	shuffle
0.0696213758479381	-0.0854918615480071	0.221439611846669	shuffle
0.0819885275745911	-0.0731314760749571	0.233235362471446	shuffle
-0.0227609231851278	-0.17633750026599	0.131897444796892	shuffle
-0.135546655747048	-0.28381028486291	0.0190468938864148	shuffle
0.0141842317317659	-0.140318120845143	0.168012221423184	shuffle
0.0781108509135679	-0.0770121663007924	0.22954163048486	shuffle
0.0865334125117328	-0.0685770720387078	0.237559103986337	shuffle
-0.00833710741537945	-0.162323889527714	0.146046097910258	shuffle
0.116145388545161	-0.0387439367813053	0.26558446869648	shuffle
-0.0295424590359441	-0.182904727388996	0.125223429503843	shuffle
0.0462180478781071	-0.108752445340668	0.198995341717822	shuffle
0.13079675767269	-0.0238803236702308	0.279358046963538	shuffle
0.0397182247384458	-0.11518265305174	0.192733311295641	shuffle
-0.03334266130474	-0.186578862474416	0.12147734520535	shuffle
0.111977576138166	-0.0429596402612848	0.261655180988044	shuffle
0.0338628641393154	-0.120964207071912	0.187081474884216	shuffle
-0.0308656940629833	-0.184184551982499	0.123919538997295	shuffle
-0.0920996766197052	-0.242846386309023	0.062990327807008	shuffle
-0.0384690798190333	-0.191528436242038	0.116416933809635	shuffle
0.11102403865679	-0.0439233596372003	0.26075551668334	shuffle
-0.00151283347297025	-0.155671976180595	0.152718248053896	shuffle
-0.00762866195588909	-0.161633987714099	0.146739404970243	shuffle
0.0308022301334557	-0.123982087346235	0.184123181936253	shuffle
0.0425557551913038	-0.112377109251427	0.195468565835318	shuffle
-0.132021390865012	-0.280506548023518	0.0226348455470478	shuffle
-0.0856851788533137	-0.236752597359721	0.0694275732910751	shuffle
-0.00117137178432605	-0.155338771091661	0.153051729079038	shuffle
-0.0841489942481313	-0.235291451914141	0.0709672908401247	shuffle
0.0804681995251191	-0.0746535456642011	0.231787673920925	shuffle
0.132467824674364	-0.0221806933935203	0.28092512252851	shuffle
-0.107053600428372	-0.257006603106018	0.0479330963926536	shuffle
-0.0373922187250367	-0.19048936884868	0.117480596984425	shuffle
0.0400444758092078	-0.114860205399523	0.193047924009378	shuffle
-0.0159207785246243	-0.169699637524871	0.138614965606596	shuffle
-0.120094597779047	-0.269303088677434	0.0347442543885063	shuffle
0.0206575224849805	-0.133964651226117	0.174297789043494	shuffle
-0.0955384124144859	-0.246108302647296	0.0595340757570203	shuffle
-0.0385207116756328	-0.191578247400315	0.116365925821443	shuffle
-0.0731044186110093	-0.224766227339019	0.0820155475502281	shuffle
-0.0829679703383491	-0.234167653653077	0.0721505284969975	shuffle
0.182060306759011	0.0286696906915841	0.327073860716885	shuffle
-0.0288176673141433	-0.182203492997075	0.125937398867412	shuffle
-0.029580513939557	-0.182941541113142	0.125185938394214	shuffle
-0.0253151762058041	-0.17881264034709	0.129385334153649	shuffle
0.00902543252528106	-0.145372335975835	0.162994053476904	shuffle
-0.107930574998723	-0.257835036704539	0.047047871325497	shuffle
-0.0803157710919004	-0.231642491360616	0.0748061088498931	shuffle
-0.0512236457984815	-0.203809323967966	0.10379160398285	shuffle
0.0417233633300256	-0.113200373910373	0.194666423195602	shuffle
0.00692060852147994	-0.147432176873712	0.160944317221423	shuffle
0.0178440312215042	-0.136727627171872	0.171567425475776	shuffle
-0.00577747368748564	-0.159830543646812	0.148550320508122	shuffle
-0.00423477206436483	-0.158326844016531	0.150058670266477	shuffle
0.0812026075753359	-0.0739183865788301	0.232487076511216	shuffle
0.0504364495393964	-0.104572273120064	0.203052750436249	shuffle
-0.0097851915483848	-0.163733601666131	0.144628485177939	shuffle
0.09416549008193	-0.0609144375238661	0.2448063847508	shuffle
-0.0323739968447559	-0.18564273917163	0.12243263409339	shuffle
0.0743197337117259	-0.0808016913332213	0.225926129921422	shuffle
0.104106971586171	-0.050905664616171	0.254221456420449	shuffle
-0.153112420096612	-0.300219912889204	0.00110922447813778	shuffle
-0.0261712687935983	-0.179641782671072	0.12854292160486	shuffle
-0.0315097041533314	-0.184807246458569	0.123284750324177	shuffle
0.044492387394307	-0.110460888811776	0.197334029181268	shuffle
-0.0386177880422803	-0.19167189842045	0.116270020217568	shuffle
-0.135976808748811	-0.284213166183575	0.0186088191034914	shuffle
-0.051310727840396	-0.203893007236477	0.103705232255974	shuffle
-0.0774008425825585	-0.228864829904061	0.0777222176980941	shuffle
0.020023143938547	-0.134587849690934	0.17368236013179	shuffle
-0.0606273209846012	-0.212833116282841	0.094451107805549	shuffle
-0.0922191565168386	-0.24295977975541	0.0628703016519784	shuffle
0.107912717290501	-0.0470658994657162	0.25781816962734	shuffle
-0.0350356576801934	-0.188214316720871	0.119807037205796	shuffle
0.044486124435278	-0.110467087617605	0.197327998161753	shuffle
-0.0763481266703406	-0.227861080918279	0.0787747079052243	shuffle
-0.084664540346518	-0.235781890923995	0.0704506414777359	shuffle
0.02314859505796	-0.131516296917102	0.17671328982317	shuffle
-0.00412707381862322	-0.158221841859075	0.15016394354427	shuffle
-0.113406339114706	-0.263002734711598	0.0415150810349555	shuffle
0.036426933224266	-0.118433750098004	0.189557669519963	shuffle
-0.00260442771209032	-0.156736940208374	0.151651930954781	shuffle
-0.058909463598973	-0.21118659169241	0.0961594644131785	shuffle
-0.0913642865069131	-0.242148367138915	0.0637289813259303	shuffle
-0.0534551678596707	-0.205953047429097	0.101577546164103	shuffle
0.000331505700923163	-0.153871816342736	0.154519063828827	shuffle
-0.130886114434721	-0.279441863037077	0.0237894621702039	shuffle
-0.0743792953247669	-0.225982964763559	0.0807421893886355	shuffle
-0.146154569746373	-0.293730409014697	0.00822627731640615	shuffle
-0.0179743252374389	-0.171693921981701	0.136599725629159	shuffle
-0.00943518278461677	-0.163392925203087	0.144971186960816	shuffle
-0.114535607761253	-0.264067404203227	0.0403728688694117	shuffle
-0.0145908766864475	-0.168407442353814	0.13991937711782	shuffle
0.0204108760704622	-0.134206965356263	0.174058524508791	shuffle
0.16294573196705	0.0089757966413323	0.309368161469699	shuffle
0.17109828646502	0.0173608539266508	0.316932253075998	shuffle
0.0106831333692873	-0.143749119836968	0.164607433714764	shuffle
-0.0508492644119396	-0.203449529120156	0.104162904966243	shuffle
-0.00247606659835466	-0.156611729147321	0.151777338347579	shuffle
0.15407861646359	-0.000119683635210314	0.301119997163317	shuffle
0.0752027921954186	-0.0799194041598857	0.226768655620459	shuffle
0.300547200640095	0.153463714923063	0.434601896020418	shuffle
-0.101384047479888	-0.251645539580627	0.0536501192902829	shuffle
0.0342502057050836	-0.120582072110692	0.187455666572978	shuffle
-0.0388555133309938	-0.191901223786426	0.116035149751586	shuffle
0.0735272850313651	-0.0815932409461858	0.225169861848299	shuffle
-0.0549318358909639	-0.20737081207189	0.100111589882281	shuffle
0.00643903961997077	-0.14790326582071	0.16047516516606	shuffle
0.062551730240281	-0.0925362564042463	0.214676589811621	shuffle
0.0426410659278575	-0.112292721931122	0.195550764812062	shuffle
0.0334144481326833	-0.121406538211923	0.186648226634257	shuffle
-0.0136968561414534	-0.167538472690412	0.14079596056823	shuffle
0.0454810818471906	-0.109482170636337	0.198285963734373	shuffle
-0.0304445289008039	-0.183777260082645	0.124334605096828	shuffle
-0.0511224069419979	-0.203712033616106	0.103892014110316	shuffle
0.0310076509367456	-0.123779625652202	0.184321820905754	shuffle
-0.0382331315187047	-0.19130079817097	0.116650020745864	shuffle
-0.0596264995718446	-0.211873958354471	0.0954465051414209	shuffle
0.00240477846247238	-0.151846983925406	0.156542188321742	shuffle
0.0340761863120433	-0.120753758030332	0.187287560473328	shuffle
0.208073228997981	0.0556636830002015	0.351006995927686	shuffle
0.0264809471542109	-0.128238136786721	0.17994165849213	shuffle
0.0530804960086838	-0.101949393088319	0.205593219153298	shuffle
0.0132480205768641	-0.141235950673986	0.167102123563534	shuffle
0.160659125143885	0.00662785987285441	0.307243272701131	shuffle
-0.109918517865608	-0.259712130206587	0.045040324339839	shuffle
-0.0779122409201448	-0.229352324417336	0.0772108041939631	shuffle
-0.0435507920625409	-0.196427174554321	0.111392703806957	shuffle
-0.00705164022702585	-0.1610719583404	0.147303984573203	shuffle
0.106152249155865	-0.0488426738596196	0.256154912348891	shuffle
-0.0777459312029057	-0.2291937966989	0.0773771278006149	shuffle
-0.0114690862289901	-0.165372085468213	0.142979226443031	shuffle
0.0591194016725582	-0.0959507364128364	0.211387858602146	shuffle
0.101073644591362	-0.0539628279328912	0.251351759718462	shuffle
0.171448222405579	0.0177212543731208	0.317256515443338	shuffle
0.0882566051819785	-0.0668485782073414	0.239196886979963	shuffle
0.0179328533084941	-0.136640436605043	0.171653659330986	shuffle
0.0384113950757972	-0.116473920581039	0.191472784708023	shuffle
-0.0444440693815133	-0.197287500255637	0.110508711577704	shuffle
-0.0213773775881789	-0.174995995878018	0.133257334458663	shuffle
-0.0828302797722013	-0.234036608477111	0.0722884487411783	shuffle
0.0712553906154792	-0.0838614736172621	0.223000681336826	shuffle
0.0510818429671969	-0.103932245146663	0.203673050866447	shuffle
0.106181607054086	-0.0488130520758654	0.256182656425059	shuffle
-0.00898419991684302	-0.162953912773075	0.145412700241815	shuffle
0.0122250746697196	-0.142238508797755	0.166107410362873	shuffle
0.0936833885873931	-0.0613990106968645	0.24434908754994	shuffle
0.00437657349075681	-0.149920056349983	0.158465090309795	shuffle
-0.0379223084009696	-0.191000897279411	0.116957048446675	shuffle
0.223746422986179	0.0720362666769264	0.365337487196743	shuffle
-0.0251274760684506	-0.178630819966897	0.129570005070225	shuffle
0.0157076272871707	-0.138824067446591	0.169492565335437	shuffle
0.00792336775356458	-0.146451015008243	0.161920997838568	shuffle
-0.00169143090753713	-0.155846241127948	0.152543810818729	shuffle
-0.000614481264372249	-0.154795271006871	0.153595528573971	shuffle
0.209414916567599	0.0570620405138947	0.352236368949596	shuffle
-0.0690420660650658	-0.220885976572074	0.0860696861094154	shuffle
0.070008561632048	-0.0851056102400117	0.221809583336109	shuffle
0.0439301536828465	-0.111017315378802	0.196792570869829	shuffle
-0.0993867045225002	-0.249754676161688	0.0556617674839373	shuffle
0.068644636665214	-0.0864660362470796	0.220506104294891	shuffle
-0.00266027233768347	-0.156791412829354	0.151597369820995	shuffle
-0.0494231266532952	-0.202078578489372	0.105576912790643	shuffle
-0.0891938263764279	-0.240087294549385	0.0659080827519287	shuffle
0.0603691544645583	-0.0947079048395685	0.212585725123274	shuffle
0.0588057564500917	-0.0962625687666255	0.21108716323996	shuffle
-0.0129567632979123	-0.166818936704384	0.14152143533122	shuffle
0.245543280588012	0.0949425046253001	0.385156088993402	shuffle
-0.106970483130817	-0.256928074956436	0.0480169830212636	shuffle
-0.0411569731168263	-0.194120498691124	0.113760432042984	shuffle
-0.0183753867262161	-0.17208326244139	0.136205996127787	shuffle
0.176789868829744	0.0232276011270817	0.322202035291178	shuffle
0.0688089267041945	-0.0863021983085242	0.220663142126633	shuffle
0.102883102505562	-0.0521395007398986	0.253063925942466	shuffle
0.0326507118291245	-0.12215976932571	0.185910186627042	shuffle
-0.0266921185786504	-0.18014612915386	0.128030285535826	shuffle
0.0761677711578154	-0.078954990057238	0.227689082298909	shuffle
0.0214728610186594	-0.133163502310837	0.175088596221629	shuffle
-0.117141633053244	-0.26652296332665	0.0377354275694099	shuffle
0.073398194159011	-0.0817221668269615	0.225046647531672	shuffle
-0.04340206887516	-0.196283914673978	0.111539857298159	shuffle
0.169054761693849	0.015257016992444	0.315037973455071	shuffle
0.0193032452605387	-0.135294912985109	0.172983820267319	shuffle
0.017949052792435	-0.136624534421573	0.171669386515975	shuffle
-0.10898627624851	-0.258832012089601	0.0459819151374019	shuffle
0.0552137915868026	-0.0998316029374054	0.207641447937882	shuffle
-0.0991483340093667	-0.249528936699207	0.0559017611898271	shuffle
-0.0824494790363779	-0.233674157799705	0.0726698537926379	shuffle
-0.0009614942863551	-0.155133951057551	0.153256683879178	shuffle
-0.0231990086227734	-0.176762154900427	0.131466728384181	shuffle
-0.00160189505709888	-0.155758878473049	0.152631262246994	shuffle
0.000886412447034692	-0.153330001444289	0.155060675262579	shuffle
0.0222448104253355	-0.132404801119119	0.175837137109929	shuffle
-0.0275087033549057	-0.180936677787579	0.127226411716421	shuffle
0.047437244875276	-0.107544860208633	0.200168547120624	shuffle
-0.0717148939971178	-0.22343953152277	0.0834028404845928	shuffle
-0.0949301606568196	-0.245531575321985	0.0601456966176199	shuffle
-0.0541907620213235	-0.206659379222385	0.100847372152204	shuffle
-0.0788872430498091	-0.230281542453649	0.0762355469234273	shuffle
0.147932071094999	-0.00640959121410811	0.295389558018892	shuffle
-0.0799406684259527	-0.231285190953249	0.0751815122006714	shuffle
0.0144896652509592	-0.140018626670821	0.168309078910315	shuffle
-0.0524260890350896	-0.20496463924372	0.102598762108432	shuffle
-0.0112101311077864	-0.165120169055731	0.14323291095285	shuffle
-0.0446695170665029	-0.197504594325059	0.110285568535209	shuffle
0.0667669053153453	-0.0883380046263441	0.218710701707852	shuffle
-0.116951703601727	-0.266344065475854	0.0379277195741829	shuffle
-0.0624288239383206	-0.214558885027712	0.0926585865764255	shuffle
0.0643474573955041	-0.090748412750036	0.216395816217066	shuffle
-0.0862532131387011	-0.237292711447869	0.068858045411816	shuffle
-0.060667655535286	-0.212871765586546	0.0944109853519173	shuffle
-0.0257538022664963	-0.179237485456994	0.128953745067751	shuffle
0.1080235967274	-0.046953960174923	0.257922896707257	shuffle
-0.0925536084545073	-0.243277172401503	0.0625342967545819	shuffle
-0.0859749659998733	-0.237028152466007	0.0691370368092134	shuffle
-0.104982277583074	-0.255049053632905	0.050022939903106	shuffle
-0.0445217850961114	-0.197362338027643	0.110431792077565	shuffle
-0.0236496055587101	-0.17719887782103	0.131023649999584	shuffle
0.022905606200651	-0.131755201949357	0.176477753918918	shuffle
0.0264233312380257	-0.128294844468246	0.179885868506238	shuffle
-0.0281930632155696	-0.181599064716086	0.126552547997073	shuffle
0.00107381267213325	-0.153147001582706	0.155243564531317	shuffle
-0.0513058233883047	-0.203888294262224	0.103710096765323	shuffle
-0.0489041695259111	-0.201579554895305	0.106091300460636	shuffle
-0.0166346317472185	-0.170393032863833	0.1379145736439	shuffle
-0.00750887921557328	-0.161517325421848	0.146856613148187	shuffle
-0.0876971642862966	-0.238665268793009	0.0674098422228446	shuffle
0.0616914919559348	-0.0933923639964938	0.213852664893269	shuffle
0.105783579260899	-0.0492146343611485	0.255806487429174	shuffle
-0.0671489918125034	-0.219076119087959	0.0879571795620689	shuffle
0.203078692879935	0.0504634388783994	0.346426223936251	shuffle
-0.12604884449627	-0.274901276174593	0.028704517706097	shuffle
0.0961293831573057	-0.0589397200929641	0.246668542495057	shuffle
-0.105046628824605	-0.255109888717839	0.0499580336904555	shuffle
0.0318228689456878	-0.122976023875637	0.185110001568208	shuffle
0.173582626356101	0.0199203509146989	0.319233587761187	shuffle
-0.0390425498605099	-0.19208163971248	0.115850347151412	shuffle
-0.021307869345989	-0.174928584702147	0.133325638887481	shuffle
-0.0023933539783604	-0.156531043715757	0.151858145034276	shuffle
0.126123647146377	-0.0286285691155645	0.274971541550992	shuffle
0.0102302396209285	-0.144192674674981	0.164166730378323	shuffle
-0.11554422451682	-0.265018015639494	0.0393523490857761	shuffle
0.0973941235662359	-0.0576673660738317	0.247867177510708	shuffle
-0.0483169865814918	-0.201014830497208	0.106673213199841	shuffle
-0.000457270383752215	-0.154641823369362	0.153749026937141	shuffle
0.0492459144595515	-0.105752573944289	0.20190818206111	shuffle
-0.0241066923138277	-0.177641828962553	0.130574126941925	shuffle
0.024477786413402	-0.130209126784365	0.178001401058965	shuffle
0.0550400605490149	-0.100004123804687	0.207474694534649	shuffle
0.0390960233889531	-0.115797510329502	0.192133218516579	shuffle
0.00463906428008808	-0.14966345000168	0.158720984195794	shuffle
0.0954642946532389	-0.0596086102860474	0.246038031960608	shuffle
0.0112027709850348	-0.143240120975642	0.165113008696367	shuffle
-0.0474022267086266	-0.200134856047569	0.107579551235448	shuffle
0.146189836643026	-0.00819024287267571	0.293763336364763	shuffle
-0.00135785137910457	-0.155520745926948	0.15286961224993	shuffle
-0.0089983540367742	-0.162967692127005	0.145398844259997	shuffle
-0.0341604651695788	-0.187368976600556	0.120670610447604	shuffle
0.0175005320641174	-0.137064794258707	0.171233913543059	shuffle
0.00697208257037189	-0.147381818865459	0.16099445993829	shuffle
0.10668734724086	-0.0483027232000816	0.256660556960615	shuffle
0.120756363485361	-0.0340735453725884	0.269925779795776	shuffle
0.0177824596539736	-0.136788066362376	0.171507646690889	shuffle
-0.000252006897150895	-0.154441462189962	0.153949431947271	shuffle
0.162381825526277	0.00839660769329602	0.308844272564053	shuffle
0.0674846836228232	-0.087622558595212	0.219397130654602	shuffle
0.0921957939686794	-0.0628937713657401	0.242937607647773	shuffle
0.193445571640114	0.0404568801588737	0.33757179228254	shuffle
-0.0321217536244392	-0.1853989241038	0.122681347209109	shuffle
-0.0520739108423617	-0.204626308157499	0.10294817437647	shuffle
0.0956825245565525	-0.059389148315685	0.246244930133042	shuffle
-0.0542699034927799	-0.206735362931879	0.100768803874071	shuffle
0.0497771870525608	-0.105225922312704	0.202418993680452	shuffle
0.00225700647125925	-0.151991346207201	0.156398033433579	shuffle
-0.0764637338696394	-0.227971326407998	0.0786591423930979	shuffle
0.0725844974671824	-0.0825347040536834	0.224269880795996	shuffle
-0.0435407049268731	-0.196417458173246	0.111402684692935	shuffle
0.00446313549596621	-0.149835437163397	0.158549479131312	shuffle
-0.0657489942110426	-0.217736990512794	0.0893523339080758	shuffle
-0.0896329995405133	-0.240504443938193	0.0654672804556719	shuffle
-0.0426847172821113	-0.195592823126338	0.112249542201378	shuffle
0.0789785592071186	-0.0761441916668772	0.230368556455022	shuffle
-0.00537117638683162	-0.159434587536705	0.148947640314996	shuffle
0.0660977783064821	-0.0890048133419592	0.21807066372223	shuffle
-0.0212343236573089	-0.17485725632149	0.133397909238815	shuffle
-0.0676585622754285	-0.219563392435516	0.0874492208463214	shuffle
0.0314760133655043	-0.123317961842585	0.184774673828083	shuffle
0.0609321212949591	-0.0941478977896485	0.213125169712009	shuffle
-0.0543489745682125	-0.206811277217533	0.100690303550904	shuffle
0.00932029459612964	-0.145083668603078	0.163281092279302	shuffle
-0.0995324190397594	-0.249892661341669	0.0555150518943136	shuffle
-0.0297589514677319	-0.183114153077221	0.125010138572229	shuffle
0.0141803532127675	-0.140321923762141	0.16800845162673	shuffle
-0.18561528359902	-0.330355620962055	-0.0323455912176322	shuffle
0.0421965697163886	-0.112732382337385	0.195122458297026	shuffle
0.0772744123091025	-0.0778486391363208	0.228744297531463	shuffle
0.072889895342768	-0.0822297655241701	0.22456144066043	shuffle
-0.0834327580789635	-0.23460996866778	0.0716849216419033	shuffle
-0.0896139308471729	-0.240486332664172	0.0654864211423588	shuffle
-0.0551887226774409	-0.207617386428854	0.0998564977980524	shuffle
-0.0488716124585276	-0.201548245726925	0.106123568095395	shuffle
-0.0109817809546627	-0.164898009068144	0.143456596571491	shuffle
0.0681124492023369	-0.086996701612261	0.219997354965009	shuffle
-0.123026370020146	-0.272060804003719	0.0317718010839632	shuffle
-0.16354200095346	-0.309922019656314	-0.00958833759082514	shuffle
-0.0336121619219664	-0.186839260063477	0.121211514916269	shuffle
0.0274044740012886	-0.12732902995452	0.180835782739354	shuffle
0.0949782278605543	-0.0600973674069185	0.24557715518176	shuffle
0.152298811773198	-0.00194225638620139	0.29946177257108	shuffle
0.0130523415144564	-0.141427754275324	0.166911869351684	shuffle
0.232033223837761	0.0807260206280836	0.372887342285955	shuffle
-0.13282594601251	-0.281260854803869	0.0218163343944087	shuffle
-0.05758721445327	-0.209918659129079	0.0974737788048656	shuffle
-0.0526355915508084	-0.205165887150809	0.102390886826672	shuffle
-0.0254947239597553	-0.17898655390912	0.129208674009461	shuffle
0.161378708829768	0.00736656069364228	0.307912122178828	shuffle
-0.0609952823754273	-0.213185685966927	0.0940850626530953	shuffle
0.0276442352638026	-0.127092969825078	0.181067869190077	shuffle
0.134496056961563	-0.0201165912335351	0.282826073888282	shuffle
0.027917616605849	-0.126823787211384	0.181332478685117	shuffle
-0.00787465933642906	-0.161873563144916	0.146498681366191	shuffle
0.0950701967903209	-0.0600048951421896	0.245664363119573	shuffle
0.0437519691817777	-0.111193639195469	0.196620951099845	shuffle
-0.0327280022109795	-0.185984884400687	0.122083550182083	shuffle
0.0855031015010206	-0.0696101080017681	0.236579449765826	shuffle
