cor	ci95_lower	ci95_upper	type
0.0577462186944219	-0.0973157573442473	0.210071158753048	real
0.103404747443957	-0.0516136654538827	0.253557348220888	shuffle
-0.0149047638770597	-0.168712477581548	0.139611554569871	shuffle
-0.0585070246477563	-0.210800738747458	0.0965595455995731	shuffle
-0.0246881460248152	-0.178205211064665	0.130002202983301	shuffle
0.144276177237246	-0.0101449718511817	0.291976119664331	shuffle
-0.0453694694698904	-0.198178515564855	0.109592671852841	shuffle
0.0593492594833878	-0.0957221878506958	0.211608207687172	shuffle
-0.057779481560086	-0.210103059948966	0.0972826990823432	shuffle
0.0130340794118324	-0.141445654101828	0.166894112948489	shuffle
-0.0294106469910092	-0.182777211134145	0.125353285299801	shuffle
-0.00609293452818771	-0.160137941108992	0.148241795685515	shuffle
-0.064516007368612	-0.216557137306467	0.0905805513981578	shuffle
-0.00892587451711064	-0.162897131051602	0.145469796453924	shuffle
-0.0292608312525377	-0.182632271665423	0.125500871154521	shuffle
0.106936363332225	-0.0480514179986789	0.256895838437965	shuffle
0.0504941696837561	-0.10451503805761	0.203108231400555	shuffle
0.263254905711859	0.113673775741804	0.401165949145839	shuffle
-0.171561694615738	-0.317361655275528	-0.0178381284408253	shuffle
-0.0868474940499393	-0.237857682143806	0.0682620936548475	shuffle
0.00438667072751753	-0.149910185854509	0.158474934166214	shuffle
0.0855069785267053	-0.0696062213456451	0.236583136747573	shuffle
0.0548777976724475	-0.100165247976006	0.207318940690644	shuffle
-0.0306445966436511	-0.1839707441202	0.124137441369582	shuffle
0.0198752725857878	-0.134733097431288	0.173538888620091	shuffle
-0.0291704252626646	-0.182544805024961	0.12558992821197	shuffle
-0.0517131788302692	-0.204279721781116	0.103306033625009	shuffle
-0.113701927521268	-0.263281449362499	0.0412161437546722	shuffle
-0.099218787703537	-0.249595658813569	0.0558308296037856	shuffle
0.223158399121588	0.0714205235109448	0.364801047597017	shuffle
0.0555477038741025	-0.0994999904268223	0.207961924287469	shuffle
-0.0559541021733936	-0.208351925818469	0.0990963446692284	shuffle
-0.117801562449553	-0.267144482288833	0.037067200063443	shuffle
0.142247401274717	-0.0122159999106456	0.290080265499206	shuffle
0.243681890634071	0.0929801289138533	0.383468650611637	shuffle
0.0951665009931921	-0.0599080610249644	0.24575567929197	shuffle
-0.0525732759937244	-0.20510602823663	0.10245271978529	shuffle
0.0138114287029252	-0.140683636175514	0.167649848230008	shuffle
0.00789299092851948	-0.146480742041042	0.161891415450002	shuffle
0.0386925530219379	-0.116196154951434	0.191744023412653	shuffle
0.00857196668581349	-0.145816223749078	0.162552568105269	shuffle
-0.0134371057881217	-0.167285955842253	0.141050599312451	shuffle
0.0804262595636623	-0.0746955234262982	0.231747728299302	shuffle
0.117655434238365	-0.0372151776649194	0.2670068700117	shuffle
-0.0119093915591694	-0.165800376675059	0.142547836219296	shuffle
0.0141211346473205	-0.140379987444024	0.167950892515785	shuffle
0.0101836304330732	-0.14423831923516	0.164121372268905	shuffle
0.0202176778292726	-0.134396757204061	0.173871095825759	shuffle
0.0470020005006986	-0.107976011725154	0.19974977167166	shuffle
0.0907019824012486	-0.0643940791018239	0.241519586286239	shuffle
0.182335076904219	0.0289536593707715	0.327327638278848	shuffle
-0.048865360111317	-0.201542232993899	0.106129764821817	shuffle
0.044824531588487	-0.110132129587913	0.19765385632655	shuffle
-0.0521535324982681	-0.204702802401029	0.102869181397213	shuffle
-0.0406087716697654	-0.193592015480321	0.114302411004313	shuffle
-0.0817207811310498	-0.232980457269948	0.0733995816558872	shuffle
-0.0490785555331081	-0.201747251447444	0.105918459189438	shuffle
0.00610538441551136	-0.148229618916863	0.160150072156497	shuffle
-0.0446729840030292	-0.197507932682576	0.110282136917532	shuffle
0.0233058321410713	-0.131361692885369	0.176865694758962	shuffle
-0.09277861460093	-0.243490683565128	0.0623082260542534	shuffle
0.0216415003042176	-0.132997772687408	0.175252136867772	shuffle
-0.00261541129319791	-0.156747654016218	0.151641199886485	shuffle
0.101448306088332	-0.0535853795527397	0.251706353484205	shuffle
-0.0926071901245174	-0.243328018047442	0.0624804630214585	shuffle
-0.0155663035405413	-0.169355264639042	0.13896269876165	shuffle
-0.0496971465230419	-0.202342041076591	0.105305272220114	shuffle
0.104701352574762	-0.0503062723019513	0.254783464473233	shuffle
0.0458838328817486	-0.109083397352798	0.198673657772945	shuffle
-0.0839832369465147	-0.235133750637399	0.0711333851812099	shuffle
0.198318042147613	0.0455144042149565	0.342053588605509	shuffle
-0.065916518913029	-0.217897261730177	0.0891854208057837	shuffle
-0.0282322266401947	-0.181636966499143	0.126513980907395	shuffle
-0.0614117431934474	-0.213584678549844	0.0936707200552149	shuffle
0.0435975967510231	-0.111346391712015	0.1964722585347	shuffle
0.0255778400471032	-0.129126891326561	0.179067058573442	shuffle
-0.0960609268023414	-0.246603651071146	0.0590085741779652	shuffle
0.0788392446408822	-0.0762835648398221	0.230235804411394	shuffle
0.0639037496315297	-0.0911902655854817	0.215971098786227	shuffle
-0.0871810785506874	-0.238174769328331	0.0679275227541145	shuffle
-0.0505188254953152	-0.203131930422363	0.104490589141282	shuffle
0.0650876491491161	-0.0900111794590699	0.21710420030771	shuffle
0.0844084978164066	-0.0707072423392284	0.235538327283075	shuffle
0.0671890994148224	-0.0879172017426574	0.219114474462309	shuffle
0.0251972862184684	-0.129501322812942	0.178698444519742	shuffle
0.047417976253357	-0.107563948869717	0.200150008771939	shuffle
-0.0896309424521177	-0.240502490139128	0.0654693453160425	shuffle
-0.00275660432407112	-0.156885375903654	0.151503249648729	shuffle
0.011443927438283	-0.143003874057462	0.165347611404188	shuffle
-0.0965398090303355	-0.247057566736005	0.0585268787107723	shuffle
-0.0391721877982637	-0.192206682737186	0.115722251292359	shuffle
0.0501851609594212	-0.104821437897622	0.202811198858688	shuffle
0.0166238105123682	-0.137925191974664	0.170382522884682	shuffle
-0.0291885538595679	-0.182562344405507	0.125572070308709	shuffle
-0.0577869114282916	-0.210110185619062	0.0972753148693727	shuffle
0.109594239766558	-0.045367885761955	0.259406011369867	shuffle
0.0750829997832667	-0.0800391061902656	0.226654375031865	shuffle
0.071304153358059	-0.0838128063427399	0.223047255268792	shuffle
0.087801414179845	-0.0673052600388931	0.238764340880492	shuffle
-0.0877645129768462	-0.238729272818277	0.0673422792520149	shuffle
0.0690503811968195	-0.0860613930338961	0.220893923876671	shuffle
0.0925082546362907	-0.0625798632245984	0.243234133823806	shuffle
-0.0438861392221963	-0.196750178875336	0.111060871127457	shuffle
0.0201635547006468	-0.134449924021571	0.173818587002093	shuffle
-0.0470819663369052	-0.199826715917764	0.107896802225848	shuffle
-0.0748928762123996	-0.226472990755155	0.0802290771306746	shuffle
0.0910414607930522	-0.0640531859650511	0.241841897425914	shuffle
-0.0569276818005398	-0.209286027792801	0.0981291515278391	shuffle
0.0331931922777971	-0.121624769040364	0.186434432838975	shuffle
0.21599712353735	0.0639309362947995	0.358260438573407	shuffle
0.0280017441604026	-0.126740947143977	0.181413902412412	shuffle
0.115543620393258	-0.0393529604355352	0.26501744634589	shuffle
0.0489186210075053	-0.106076977348235	0.201593452357571	shuffle
-0.170777154455471	-0.316634651394836	-0.0170301539143155	shuffle
-0.0712609941581251	-0.223006033388784	0.0838558810829051	shuffle
0.0244192873877087	-0.130266667948989	0.177944721076045	shuffle
0.00400471922090361	-0.150283538921767	0.158102546023697	shuffle
0.039403519822043	-0.115493658225692	0.192429803037809	shuffle
0.204525863843855	0.0519693628802369	0.347754210213843	shuffle
0.0317682518198093	-0.123029869094665	0.185057202025196	shuffle
-0.0588077404560988	-0.211089065420431	0.0962605963238299	shuffle
-0.0981859684729219	-0.248617399871714	0.0568704978385493	shuffle
-0.0581599756993516	-0.210467954864406	0.0969045210625188	shuffle
-0.0500865959616786	-0.202716448013953	0.104919164545513	shuffle
-0.135813220713893	-0.284059955791261	0.0187754268016877	shuffle
0.0501844903603402	-0.104822102803001	0.202810554219322	shuffle
-0.056785822468609	-0.209149938014792	0.0982700985246125	shuffle
-0.0745743931520442	-0.226169123653292	0.0805472792668284	shuffle
0.0167823330956793	-0.137769638224863	0.170536482319257	shuffle
-0.0432905739112977	-0.196176511167428	0.111650171034247	shuffle
-0.041941816194474	-0.19487695725698	0.112984336974865	shuffle
-0.0264265294380895	-0.179888965376675	0.128291696709872	shuffle
0.00271809331952858	-0.15154087676354	0.156847812262876	shuffle
-0.0727244376773141	-0.224403483487306	0.0823949779316343	shuffle
-0.0392909592958431	-0.1923212401123	0.115604888091543	shuffle
0.143140436269817	-0.0113045294668749	0.290914933418754	shuffle
0.0670356002685344	-0.0880702014828614	0.218967678873324	shuffle
0.0275475797124777	-0.127188135438325	0.180974309660451	shuffle
0.070869614075088	-0.0842464687985059	0.222632196705908	shuffle
0.131346191843426	-0.0233215967582123	0.279873376880297	shuffle
-0.0669386014877093	-0.21887491264056	0.0881668809068961	shuffle
0.0547885834405097	-0.100253832668626	0.207233301916309	shuffle
0.240781604245017	0.0899248252175204	0.380837541917522	shuffle
-0.0637671369256843	-0.215840321406256	0.0913262948851145	shuffle
-0.0397857997149062	-0.192798478252774	0.115115868541313	shuffle
-0.0897174687038103	-0.240584670729025	0.0653824910086504	shuffle
0.00448045526175795	-0.149818505855235	0.158566363805191	shuffle
-0.0825198692756226	-0.233741159234589	0.072599355264869	shuffle
0.0909621662811352	-0.064132814169483	0.241766615776303	shuffle
-0.00473073517012993	-0.158810346341544	0.149573829265086	shuffle
-0.0810473468514939	-0.2323392293099	0.0740738201334215	shuffle
0.0663670949854263	-0.0887364464686279	0.21832828809154	shuffle
-0.0474733709784565	-0.200203303763902	0.107509071200134	shuffle
0.131936069542181	-0.0227216347160855	0.280426544673362	shuffle
0.16079581857887	0.00676817190087217	0.307370339716373	shuffle
0.0559141253589736	-0.0991360529830156	0.208313564079543	shuffle
-0.024593229784724	-0.178113251699226	0.130095570621687	shuffle
-0.0453628869474808	-0.198172178518718	0.109599188723116	shuffle
-0.0363116667674285	-0.18944639521379	0.118547548734276	shuffle
0.130983845760232	-0.0236900821559096	0.279533531805617	shuffle
-0.116367477709277	-0.265793708424446	0.0385191408191693	shuffle
-0.0590609482692246	-0.211331820822395	0.0960088542634609	shuffle
0.0753588013699479	-0.0797635059845974	0.226917480328701	shuffle
0.197272838386368	0.0444288438957906	0.341092739792531	shuffle
0.0836701740420014	-0.0714470611825016	0.234835881295029	shuffle
0.00056234500805027	-0.153646434463239	0.154744383589146	shuffle
0.00582332369455508	-0.148505480468215	0.159875223554438	shuffle
0.0488855836288418	-0.106109721168896	0.201561681426243	shuffle
0.040808196370851	-0.11410526058927	0.193784277356786	shuffle
0.0666954355457893	-0.0884092334096639	0.218642345186417	shuffle
-0.00200474305174097	-0.156151929641091	0.152237773662827	shuffle
0.0292446433602543	-0.12551681769333	0.182616610264832	shuffle
0.160871989400539	0.00684636177287979	0.307441144060153	shuffle
0.048346223809268	-0.106644240899553	0.201042951862087	shuffle
0.167404795834183	0.013559347440439	0.313507660739166	shuffle
-0.0334224858618113	-0.1866559930103	0.121398610093474	shuffle
-0.101282850716714	-0.251549765256523	0.0537520711104544	shuffle
-0.0742432525489388	-0.225853148604379	0.0808780942563407	shuffle
0.000892758238716664	-0.153323804831803	0.155066868476039	shuffle
-0.0870009487358249	-0.238003551774439	0.0681081895407376	shuffle
-0.0746839376768539	-0.226273644243654	0.080437834935109	shuffle
0.0204100801502995	-0.134207747266353	0.174057752380354	shuffle
0.121716696376773	-0.0330999861396468	0.270829187062536	shuffle
0.00324978919665046	-0.151021344639655	0.157366389097952	shuffle
-0.0269567084286379	-0.180402304483618	0.127769836553443	shuffle
-0.00290329091069726	-0.157028449942712	0.151359925661533	shuffle
0.0742664497217793	-0.0808549210066397	0.225875284433857	shuffle
-0.0246495397498471	-0.178167807793783	0.130040179710299	shuffle
-0.0174238113774526	-0.171159418693659	0.137140095781952	shuffle
-0.00183220503856608	-0.155983593541992	0.152406309068554	shuffle
-0.0374083104854786	-0.190504898375074	0.117464705058135	shuffle
0.0480386706832574	-0.106948994015698	0.200747124153061	shuffle
-0.0469878773238678	-0.199736181957628	0.107990001116998	shuffle
0.0213475331840268	-0.133286662167484	0.174967052057118	shuffle
0.00684300014554301	-0.147508101061712	0.160868714616241	shuffle
-0.0402571693628798	-0.193253013204485	0.114649973838092	shuffle
-0.0721040078636128	-0.223811107881922	0.0830144121654171	shuffle
0.0652499373432986	-0.0898495171903293	0.217259493224288	shuffle
0.0123126295809456	-0.142152711296427	0.166192561066459	shuffle
0.100248021622457	-0.0547944358595464	0.250570216595186	shuffle
-0.0988025209344855	-0.2492014189079	0.0562498972439095	shuffle
0.0026251681152939	-0.151631667343482	0.156757171165671	shuffle
0.073097071629006	-0.0820228843135696	0.224759214036798	shuffle
-0.0446263141489736	-0.197462993385959	0.110328331020211	shuffle
-0.000264527587488667	-0.154453684211905	0.153937207978271	shuffle
0.0123428767562446	-0.142123070705673	0.16622197713835	shuffle
-0.0309565457685798	-0.184272404111673	0.123829995849068	shuffle
-0.0480940699528081	-0.200800413390343	0.106894101259734	shuffle
-0.0668292180895116	-0.218770298898919	0.088275900667851	shuffle
0.096234487828021	-0.0588340018944372	0.246768171110769	shuffle
0.247033903680006	0.0965148427218058	0.386506736787083	shuffle
-0.0904048284455851	-0.241237431942715	0.0646924417132348	shuffle
-0.0895440890788591	-0.24041999668158	0.0655565256218454	shuffle
-0.00570602920048908	-0.159760921176358	0.148620189977314	shuffle
-0.00677848902232273	-0.160805869392537	0.147571210837446	shuffle
-0.0763707425161835	-0.227882648176636	0.0787521005425332	shuffle
0.00853558615508599	-0.145851833159982	0.162517146068387	shuffle
0.0681540254871387	-0.0869552474084399	0.220037103159036	shuffle
-0.0516072557358684	-0.204177945057692	0.103411105557302	shuffle
-0.0219872376880248	-0.17558739472597	0.132657973533654	shuffle
-0.0321447299944727	-0.185421133550203	0.122658693194677	shuffle
0.0199137006582348	-0.134695351809152	0.173576173910981	shuffle
-0.0135194859837318	-0.167366044107136	0.14096984248432	shuffle
0.0295625425443389	-0.125203643593292	0.182924155917445	shuffle
-0.0414356557256598	-0.194389123339188	0.113484877329657	shuffle
-0.0984980651314741	-0.248913041897143	0.0565563670047007	shuffle
0.0333154378482723	-0.121504196670692	0.186552557357981	shuffle
0.00245831394099678	-0.151794682107162	0.156594411759982	shuffle
-0.089761832359456	-0.240626805442382	0.0653379582412211	shuffle
-0.0980415410085282	-0.248480577551106	0.0570158562582693	shuffle
-0.00359943682596237	-0.157707363217457	0.150679649540052	shuffle
-0.0340831010366291	-0.187294240402242	0.12074693620388	shuffle
0.0608775775681576	-0.094202159048379	0.213072909025501	shuffle
0.0998863027635132	-0.0551587090778919	0.2502277480961	shuffle
-0.145304593480035	-0.292936712792215	0.00909463116193492	shuffle
0.0875331729012559	-0.0675743494231148	0.23850941604973	shuffle
-0.110224217853487	-0.26000068372432	0.0447314986177618	shuffle
-0.0116834367462939	-0.165580594492013	0.142769223329865	shuffle
0.161098097318985	0.00707847419915468	0.307651312393983	shuffle
0.0640995545438439	-0.090995286767085	0.21615853050107	shuffle
-0.0254834218688426	-0.17897560675967	0.129219794622048	shuffle
-0.0267494801667727	-0.180201668288757	0.12797382347616	shuffle
-0.0676138463814465	-0.219520636194216	0.0874937985347443	shuffle
-0.043748261105798	-0.196617379538503	0.111197308446403	shuffle
0.108585656385505	-0.0463864681229661	0.258453715235072	shuffle
-0.0415873418405188	-0.194535325295015	0.113334883701732	shuffle
0.0587858096943534	-0.0962823992007314	0.211068039075898	shuffle
-0.0887849738773322	-0.239698895201219	0.0663183975019621	shuffle
-0.0118048079834953	-0.165698652012112	0.142650307547264	shuffle
0.0295785017587341	-0.125187920775086	0.182939594571359	shuffle
-0.086090740501416	-0.237138234250383	0.0690209555800637	shuffle
0.0466632613313995	-0.108311525194609	0.199423811211802	shuffle
-0.0465550731555335	-0.199319697239477	0.108418675692557	shuffle
-0.0478343827272927	-0.200550609250008	0.107151406008357	shuffle
-0.0730036942896866	-0.224670076271271	0.0821161303128573	shuffle
-0.0511696424312034	-0.203757427207981	0.103845165678321	shuffle
-0.0244192824434969	-0.177944716285532	0.130266672812201	shuffle
0.0866537395718905	-0.0684564050440484	0.237673494954129	shuffle
-0.0789588059743366	-0.230349734056701	0.0761639535782393	shuffle
0.0429263400172177	-0.112010519459161	0.1958256177561	shuffle
-0.0777452836230514	-0.229193179405033	0.077377775417677	shuffle
-0.0879838913389521	-0.238937747335613	0.0671221930398677	shuffle
0.0506903695133841	-0.104320479420191	0.203296812579153	shuffle
-0.156618181641563	-0.303484543586906	-0.00248268129994741	shuffle
-0.0207040894838816	-0.174342960302938	0.133918900090204	shuffle
0.0157281548664163	-0.13880393044508	0.169512508061438	shuffle
0.122150127809982	-0.0326604889558909	0.271236839985306	shuffle
0.0418796648334858	-0.113045802478219	0.19481706028495	shuffle
-0.0864857061064841	-0.237513749920561	0.0686249119624181	shuffle
0.00516531633723853	-0.149148932689656	0.159233948171795	shuffle
0.0310125071769797	-0.123774839210707	0.184326516668851	shuffle
0.04166355786662	-0.113259515415032	0.194608783192016	shuffle
-0.0808672217051908	-0.232167696172811	0.0742541363453813	shuffle
0.166545589578203	0.0126756509319041	0.312710462278824	shuffle
-0.0123441347280096	-0.166223200538819	0.142121837955593	shuffle
-0.0264216981861301	-0.179884287193691	0.128296451762609	shuffle
0.150966057584739	-0.00330636554721201	0.298219477655697	shuffle
0.00837799666227208	-0.146006077774707	0.1623637038987	shuffle
0.0143859868149784	-0.140120292184807	0.168208314709027	shuffle
-0.00236987233309232	-0.156508137202882	0.151881085220073	shuffle
0.137844612518266	-0.0167059288443644	0.285961944311069	shuffle
-0.0203840076562176	-0.174032459143428	0.134233360716562	shuffle
-0.132662650626378	-0.281107772840444	0.021982479110849	shuffle
-0.0436293941282773	-0.196502886557662	0.111314928600711	shuffle
0.0294574995178962	-0.125307128728091	0.182822537315645	shuffle
0.102613563354052	-0.0524111714058739	0.252808939101926	shuffle
0.0450169428639134	-0.10994166371518	0.197839117447649	shuffle
0.0330232860456296	-0.121792342142347	0.186270247000424	shuffle
0.0268909115689446	-0.127834605676789	0.180338602048732	shuffle
0.0737515741400376	-0.0813692261561479	0.225383929193467	shuffle
0.0391204644344718	-0.115773360010345	0.192156793262456	shuffle
-0.0134531229147922	-0.167301527509368	0.141034897977046	shuffle
-0.0928041961429523	-0.243514957287523	0.0622825224727385	shuffle
-0.0405386817825434	-0.193524440251652	0.114371698672345	shuffle
-0.0110316106018278	-0.164946489254627	0.143407786146115	shuffle
0.0763826295590295	-0.0787402178945186	0.227893984015139	shuffle
-0.0120743598960996	-0.165960828755268	0.142386192974898	shuffle
0.308100364112107	0.161581257569632	0.441329291599483	shuffle
0.0292143562434269	-0.125546653029438	0.182587307990944	shuffle
-0.0513169952552365	-0.203899029950889	0.103699015873297	shuffle
0.0369717079275623	-0.117895857586063	0.190083523217577	shuffle
-0.0295505992831208	-0.182912602174152	0.125215409893854	shuffle
-0.0378809908364868	-0.190961029449017	0.116997859259141	shuffle
0.0681056952301626	-0.0870034357019423	0.219990897914372	shuffle
-0.0675538978319942	-0.219463313945731	0.0875535608236795	shuffle
-0.00828263158859218	-0.162270844954988	0.146099415054458	shuffle
0.0634508145692149	-0.0916412441680098	0.215537489616887	shuffle
0.0921011993776653	-0.062988798115276	0.242847831521765	shuffle
-0.101940137263394	-0.252171779819709	0.0530898226800036	shuffle
0.133080058261062	-0.0215577711688977	0.281499058402316	shuffle
-0.0112856405547595	-0.165193628140203	0.143158940474242	shuffle
-0.115346243192156	-0.264831443091762	0.0395526923475162	shuffle
0.114035880486125	-0.0408783738924995	0.263596308480158	shuffle
0.0517858673083838	-0.103233927245065	0.204349562952583	shuffle
-0.02794796060803	-0.181361847685249	0.12679390784234	shuffle
-0.0252426798463881	-0.178742416198223	0.129456661794014	shuffle
-0.0671845777007763	-0.219110150317184	0.0879217088500238	shuffle
0.208927179373958	0.0565536332058324	0.351789517930437	shuffle
-0.0781314607682193	-0.229561274210512	0.0769915528457074	shuffle
0.0214890373203113	-0.133147605486218	0.175104283816623	shuffle
0.135119036822259	-0.0194823290982694	0.283409725067015	shuffle
-0.0108498364796367	-0.16476963425294	0.143585838609181	shuffle
-0.00412652311791274	-0.158221304935499	0.150164481836237	shuffle
-0.0933049935529819	-0.243990114126302	0.0617792945174767	shuffle
-0.076287523293321	-0.227803286694014	0.078835287763431	shuffle
0.0303543259862904	-0.124423494704021	0.183690021623448	shuffle
-0.0644544773321847	-0.216498247173553	0.0906418310712264	shuffle
0.0433368038161607	-0.111604431373187	0.196221045049088	shuffle
-0.0703694909767624	-0.222154426391257	0.0847455100107908	shuffle
0.0855733619496093	-0.0695396722973037	0.236646265514662	shuffle
0.0814390969724748	-0.0736816194468794	0.232712260374717	shuffle
-0.105252207056737	-0.255304226180322	0.0497506737597178	shuffle
-0.0490476416795096	-0.201717524103385	0.105949099886741	shuffle
-0.0172299354398444	-0.170971159693038	0.137330377481559	shuffle
-0.103864531796425	-0.253992191990878	0.0511501163961974	shuffle
0.0479425097789652	-0.107044273480892	0.200654623653252	shuffle
-0.0947067378121196	-0.24531970524602	0.0603703277626388	shuffle
0.011761738528908	-0.14269250617658	0.165656758958719	shuffle
-0.0817626243711247	-0.233020295059423	0.0733576837681812	shuffle
-0.0147313154414142	-0.168543924223765	0.139781655484524	shuffle
-0.0935812707695804	-0.244252215128485	0.0615016426791709	shuffle
-0.0419264441509232	-0.194862142902971	0.112999539493991	shuffle
-0.098715284056128	-0.249118791873116	0.0563377141759614	shuffle
-0.0942851631210473	-0.244919890187119	0.0607941396087893	shuffle
0.115073434753435	-0.0398287350158534	0.264574337043832	shuffle
0.0518262279176346	-0.10319388914494	0.204388341911188	shuffle
0.0103838043359036	-0.144042283499016	0.164316168521643	shuffle
-0.139039359794644	-0.2870800392589	0.0154881509821778	shuffle
-0.0806669229843549	-0.23197694069361	0.0744546356207034	shuffle
0.0462364212514572	-0.108734250352672	0.199013025245564	shuffle
-0.0260053268023417	-0.179481081659637	0.128706229352232	shuffle
-0.0601642243470786	-0.212389334490151	0.094911733179924	shuffle
-0.0399738049746615	-0.192979776885354	0.114930055126733	shuffle
-0.0224152329653619	-0.176002367843148	0.132237278951548	shuffle
0.0371185449822613	-0.117750859987654	0.190225245327847	shuffle
-0.0712956810896953	-0.22303916334441	0.0838212620771497	shuffle
0.0446916034098653	-0.11026370712966	0.197525861486887	shuffle
-0.00494094387743877	-0.159015251381723	0.1493683121508	shuffle
-0.130557359526046	-0.279133481868502	0.0241237406080395	shuffle
0.115582729998435	-0.039313382783256	0.265054300922652	shuffle
-0.0354314797569495	-0.18859656297749	0.119416393193633	shuffle
-0.0811967616912136	-0.232481509888061	0.0739242391069273	shuffle
0.125135767553279	-0.029631438551276	0.27404345518956	shuffle
-0.0905338802520095	-0.24135997265896	0.0645628684026465	shuffle
-0.0335527906633997	-0.186781896060366	0.12127007950519	shuffle
0.0985156915613261	-0.0565386247738595	0.248929738174728	shuffle
0.0355132081869134	-0.11933572794637	0.188675482523304	shuffle
-0.130428435524649	-0.279012539234259	0.0242548212666687	shuffle
0.0718483283360648	-0.083269646542656	0.223566956894664	shuffle
-0.0326183064117944	-0.185878867681407	0.122191725063406	shuffle
-0.0727726516840481	-0.224449512689645	0.0823468362727685	shuffle
-0.0288690486758609	-0.182253209490181	0.125886789994871	shuffle
-0.051247224121972	-0.203831982260095	0.103768218214996	shuffle
-0.00796237571224639	-0.161958985227258	0.146412841061922	shuffle
-0.0744568336546832	-0.226056951789944	0.0806647270795865	shuffle
-0.0501349229742853	-0.202762905281462	0.104871248954964	shuffle
-0.0122900676185285	-0.166170618862071	0.142174820615135	shuffle
-0.037942138479867	-0.191020031389111	0.116937461394132	shuffle
-0.123474185318982	-0.272481817466981	0.0313175307373692	shuffle
-0.0974548312779595	-0.247924700569824	0.0576062802353362	shuffle
-0.161232438074187	-0.307776175962251	-0.00721639035940087	shuffle
0.0486598019007217	-0.10633348768547	0.201344546162661	shuffle
0.00509849285183936	-0.149214270729115	0.159168816617658	shuffle
0.154654416853876	0.000470172431460092	0.301656273779537	shuffle
-0.0992705182808893	-0.249644648571886	0.0557787471381683	shuffle
0.148501129974896	-0.0058277721428931	0.295920539050224	shuffle
0.0330541202116951	-0.1217619320425	0.186300043679208	shuffle
-0.0643519839563958	-0.216400148748292	0.090743904797845	shuffle
-0.0389865871087276	-0.1920276589801	0.115905642618861	shuffle
0.0335242531254845	-0.121298228923695	0.186754322963058	shuffle
-0.0864876058417969	-0.237515555995038	0.0686230069238523	shuffle
-0.0192119091745537	-0.172895182995993	0.135384609345897	shuffle
0.0422238166944417	-0.112705433532537	0.195148714548226	shuffle
-0.0132723087559613	-0.167125737597158	0.141212142717752	shuffle
0.155379368194465	0.00121297293308364	0.302331331154328	shuffle
0.0901202192070047	-0.0649781825866542	0.240967165179388	shuffle
-0.071830117129146	-0.223549566101148	0.0832878252666224	shuffle
-0.14589379379744	-0.293486921633663	0.0084927163377863	shuffle
-0.104268799401177	-0.254374480334436	0.0507424834661724	shuffle
0.0843437662987582	-0.070772111760692	0.235476747615312	shuffle
0.0288362021959688	-0.125919142739735	0.182221427398581	shuffle
-0.100005059630711	-0.250340188975488	0.0550391181329144	shuffle
-0.0156927922275995	-0.169478152864584	0.138838620160312	shuffle
0.0298721612213245	-0.1248985972732	0.183223661897263	shuffle
0.0518014095562137	-0.103218509250001	0.20436449618785	shuffle
0.121448704642759	-0.0333716983908024	0.270577107485731	shuffle
-0.101210482804196	-0.251481273238263	0.0538249769977951	shuffle
0.00729701221377667	-0.147063915751571	0.161310967205378	shuffle
0.133149978835413	-0.0214866222511583	0.281564598403158	shuffle
0.0882930239754689	-0.0668120373280303	0.239231491418344	shuffle
0.0361082731809583	-0.118748342354019	0.189250036387936	shuffle
-0.0857531801696657	-0.236817261174619	0.0693593984988413	shuffle
-0.117892130543916	-0.267229769276487	0.036975482335136	shuffle
-0.0894145973279779	-0.240297001185148	0.0656865004075484	shuffle
-0.0233757267532305	-0.176933439033632	0.13129296629463	shuffle
-0.0031681333305051	-0.15728675352919	0.151101137981538	shuffle
-0.158049824339564	-0.304816725203826	-0.00395064721531063	shuffle
-0.0907613942931083	-0.241575996150839	0.0643344222293323	shuffle
0.064195673798811	-0.0908995686843422	0.216250535311224	shuffle
-0.0414356522341226	-0.194389119973808	0.113484880782155	shuffle
-0.141583821959915	-0.289459910787531	0.012893111694642	shuffle
-0.0180307468331906	-0.171748697557975	0.136544338453993	shuffle
0.0084773635893381	-0.145908820810876	0.162460456628315	shuffle
0.0789536588672118	-0.0761691029267301	0.230344829478849	shuffle
0.032906854923328	-0.121907169351763	0.186157730932198	shuffle
0.00826941363924577	-0.146112351727242	0.162257974149239	shuffle
0.102566496942914	-0.0524586076648635	0.252764411647653	shuffle
0.0420392036734819	-0.11288802180913	0.194970809948853	shuffle
0.176724369293862	0.0231600255580151	0.32214144110641	shuffle
0.158481640970282	0.00439355018236211	0.305218429363755	shuffle
0.00309297139385478	-0.151174583739944	0.157213449448021	shuffle
0.126396856830533	-0.0283511588097311	0.275228165758846	shuffle
0.0780698103049825	-0.0770532136839932	0.229502513371131	shuffle
0.0287771261488854	-0.125977329951089	0.182164264900775	shuffle
-0.00884627229671971	-0.162819633989838	0.145547719425506	shuffle
0.1218024072454	-0.0330130805206707	0.270909804485008	shuffle
0.0494770996912051	-0.105523410226978	0.20213047383204	shuffle
0.0494123002454942	-0.105587644718343	0.202068168741547	shuffle
0.113087361673144	-0.0418376412243693	0.262701938182676	shuffle
0.0340272704986947	-0.120802016250514	0.187240305235585	shuffle
-0.119929212964834	-0.269147449679705	0.0349118524835308	shuffle
0.0149026556517391	-0.139613622161603	0.168710428908761	shuffle
-0.0577718972557778	-0.210095786149091	0.0972902367648262	shuffle
-0.0498362777968184	-0.202475803522333	0.10516734016083	shuffle
-0.0142642038536227	-0.168089950765797	0.140239706563154	shuffle
0.0288944224165315	-0.12586179743666	0.182277760776815	shuffle
0.0386080514806497	-0.1162796394844	0.191662505539841	shuffle
-0.0132731608370065	-0.167126566024539	0.141211307480703	shuffle
0.0451950162507333	-0.109765380625085	0.198010563760366	shuffle
-0.0547031117969968	-0.2071512535464	0.100338698876914	shuffle
-0.0195180953046519	-0.173192312070367	0.135083910078037	shuffle
0.0587656126097259	-0.0963024783784793	0.211048674787565	shuffle
-0.0425677019260308	-0.195480076935165	0.112365291964521	shuffle
-0.12768752940458	-0.276440200021473	0.0270403196674892	shuffle
0.0784612045494534	-0.0766617334249283	0.229875543803317	shuffle
0.00706954644832399	-0.147286465969857	0.161089400818779	shuffle
0.0833478200648057	-0.0717700143943677	0.23452914212452	shuffle
0.182344058717371	0.0289629422877306	0.327335933523729	shuffle
-0.00672512555087839	-0.160753883005929	0.147623414167232	shuffle
0.0129763957026797	-0.141502192841729	0.166838025914634	shuffle
-0.0327995727211511	-0.186054052588807	0.122012970004924	shuffle
-0.0911219656575446	-0.241918326318529	0.0639723402941536	shuffle
0.21823543299973	0.0662700231032258	0.360306255445174	shuffle
-0.072794409321052	-0.224470284163715	0.0823251110472819	shuffle
0.0194006494602541	-0.135199254657135	0.173078343607911	shuffle
0.103822743792136	-0.0511922493194419	0.253952673245866	shuffle
0.0567718747163565	-0.098283956239278	0.209136557212214	shuffle
-0.00844469956917917	-0.162428652277096	0.145940791570543	shuffle
0.141556931820959	-0.0129205472216098	0.28943476961433	shuffle
0.159070360870301	0.00499748211818129	0.305766011120088	shuffle
-0.13470779849583	-0.283024460515105	0.0199010289828224	shuffle
0.293854982162622	0.146287996012225	0.428628795234028	shuffle
-0.019711650202862	-0.173380127140572	0.134893808995599	shuffle
0.00848660098392265	-0.145899779412071	0.162469450850232	shuffle
-0.0657981549570405	-0.217784023546566	0.0893033535414088	shuffle
-0.100538659364612	-0.250845359595125	0.0545017158079096	shuffle
0.0446950111484286	-0.110260334083774	0.197529142819761	shuffle
-0.0692931023199732	-0.221125899132874	0.0858193062669756	shuffle
0.0300383191058302	-0.124734881093463	0.183384381032202	shuffle
-0.0288471390882229	-0.182232009917064	0.125908370282987	shuffle
-0.0269559218097446	-0.180401542911731	0.127770610893271	shuffle
0.0362543561090464	-0.118604128075916	0.189391067994748	shuffle
0.00270256152505853	-0.151556051951739	0.156832662421555	shuffle
0.0670592056537433	-0.0880466733734307	0.218990253820497	shuffle
0.0622085263257676	-0.0928778398162951	0.214347899572431	shuffle
-0.0151392538922147	-0.168940335497419	0.139381575667165	shuffle
0.104187740346296	-0.0508242214369764	0.254297832066011	shuffle
-0.125175192495196	-0.2740804991785	0.0295914213534457	shuffle
-0.0779373911343306	-0.229376297098137	0.0771856511277634	shuffle
-0.065171987613487	-0.217184904403488	0.0899271672977451	shuffle
0.073442316270532	-0.081678101692047	0.22508876163432	shuffle
0.00722813165228504	-0.147131309450287	0.161243874716503	shuffle
-0.0166052070055079	-0.170364454396493	0.137943446572536	shuffle
-0.0759857316919784	-0.227515468164713	0.0791369451888921	shuffle
0.0175882934333615	-0.136978654090543	0.171319126604937	shuffle
0.0959641446018951	-0.0591059161635413	0.246511906594201	shuffle
-0.0622624114931167	-0.21439950828207	0.0928242114937453	shuffle
-0.0171712119644812	-0.170914135327964	0.137388010040078	shuffle
0.00293821990690606	-0.151325796411012	0.157062517765793	shuffle
0.0234024798805216	-0.131266659850205	0.17695936870454	shuffle
-0.0105032216348158	-0.164432371970358	0.14392532912446	shuffle
0.0865241807197767	-0.0685863297238372	0.237550327453162	shuffle
-0.00803341763407396	-0.162028167298067	0.14634331687561	shuffle
-0.0316884084196584	-0.184980014111104	0.123108582423614	shuffle
0.0351042758665369	-0.119739320104053	0.188280584780751	shuffle
0.0119753668989712	-0.14248319166333	0.165864546818242	shuffle
-0.0167500893624241	-0.170505167345552	0.137801278710566	shuffle
0.00712591454631889	-0.147231317446021	0.161144308443686	shuffle
-0.0235005607883104	-0.177054428876631	0.13117021468447	shuffle
0.0241517630798248	-0.130529798544862	0.177685502525455	shuffle
-0.0347755574673887	-0.187963112100172	0.120063708737638	shuffle
-0.0361519874735691	-0.189292239770518	0.118705187926835	shuffle
-0.0767559408923221	-0.228249963936262	0.0783670221500292	shuffle
0.0259874846759541	-0.12872378774443	0.179463802557074	shuffle
-0.0579256824903068	-0.210243272059488	0.0971373933939716	shuffle
-0.033529800073283	-0.186759682467837	0.121292757435613	shuffle
0.156907963308927	0.00277976160907031	0.303754239493127	shuffle
-0.13309776890338	-0.281515659591308	0.021539749539526	shuffle
0.0022533740117817	-0.151994894767979	0.156394489805277	shuffle
0.0212223851471239	-0.133409640571145	0.174845677589926	shuffle
-0.0487995055703074	-0.201478901555326	0.106195032790613	shuffle
-0.0327286492218636	-0.185985509700931	0.122082912131009	shuffle
0.00724531775937522	-0.147114494458429	0.161260614822196	shuffle
-0.0875199195863036	-0.238496820136882	0.067587644056452	shuffle
-0.0434105937172857	-0.196292126534618	0.111531422614898	shuffle
0.122892812201238	-0.031907271696287	0.271935228600201	shuffle
-0.0300285593213497	-0.183374940935693	0.124744497690036	shuffle
-0.0395196278517056	-0.19254178355215	0.115378918723677	shuffle
0.163294552897662	0.00933412274211145	0.309692183887348	shuffle
0.0857872444371169	-0.0693252467865001	0.236849653066265	shuffle
0.00559626233553888	-0.148727533992638	0.159653950659974	shuffle
0.0229555457719123	-0.131706103161021	0.17652616317978	shuffle
0.0524592327452189	-0.10256587673151	0.204996477917367	shuffle
0.0433861526383943	-0.111555605144805	0.196268582729339	shuffle
0.000796403914144515	-0.153417892717587	0.154972829589966	shuffle
-0.032288651979628	-0.185560248029928	0.122516786746863	shuffle
-0.0391685979170912	-0.192203220163378	0.115725798540276	shuffle
0.189214629331637	0.0360715989798526	0.333674778551759	shuffle
-0.129067772407611	-0.277735823958341	0.0256379215231768	shuffle
0.00430032265081262	-0.149994593925041	0.158390751921451	shuffle
-0.0705727357728509	-0.222348596042338	0.08454271426788	shuffle
0.0299217483883574	-0.124849739676246	0.183271626814525	shuffle
-0.021421665101846	-0.17503894648453	0.133213813194349	shuffle
0.0785291895127507	-0.076593728645186	0.229940334447797	shuffle
0.0615827689388528	-0.0935005486261791	0.213748516004824	shuffle
-0.0907591410536672	-0.241573856784072	0.0643366847800672	shuffle
0.0945835360242052	-0.0604941891236518	0.24520286783271	shuffle
-0.0638894356657624	-0.215957396488392	0.091204518694738	shuffle
0.213239063376235	0.0610509936230871	0.355737688796345	shuffle
0.0684527758935757	-0.086657358428478	0.220322702811208	shuffle
0.0236097721056567	-0.13106282129122	0.177160273288403	shuffle
-0.0958429982133296	-0.246397062335135	0.0592277591029964	shuffle
0.0553101126888994	-0.0997359487687713	0.207733896636796	shuffle
-0.00173053989797935	-0.155884400116357	0.152505611539704	shuffle
0.00223670830756554	-0.152011175494446	0.156378231607142	shuffle
0.0130632435580569	-0.141417068453852	0.166922469457107	shuffle
0.0429294721898835	-0.112007420872672	0.195828635376269	shuffle
0.00889359559119888	-0.145501394670574	0.162865706002476	shuffle
-0.12705975346881	-0.275850732422383	0.0276779709829642	shuffle
-0.0467908597881299	-0.199546600070643	0.108185145959875	shuffle
-0.0486680299382944	-0.201352459365418	0.106325333362748	shuffle
-0.0659277660066799	-0.217908021553537	0.089174214460981	shuffle
-0.0689583815680977	-0.220805992809648	0.0861531474330411	shuffle
-0.0453012801746112	-0.198112868574265	0.109660180402418	shuffle
-0.0952213373442977	-0.245807674226055	0.059852921632413	shuffle
-0.108219391407179	-0.258107818744464	0.046756284463286	shuffle
0.00867347826844906	-0.145716861685176	0.162651403130495	shuffle
0.0582097249120092	-0.0968550713700066	0.21051566135781	shuffle
-0.0786371138812772	-0.230043185161512	0.076485769854385	shuffle
0.0542760722404505	-0.100762679723191	0.20674128546791	shuffle
-0.0962735882018371	-0.246805233505218	0.0587946723922118	shuffle
-0.100088611914152	-0.250419295168099	0.0549549763619296	shuffle
0.0282354379802884	-0.126510818445089	0.181640074366365	shuffle
0.0740449797519495	-0.0810761557334057	0.225663941021067	shuffle
-0.00580077149775289	-0.159853246972149	0.148527535972789	shuffle
-0.0333053721544766	-0.186542831158728	0.121514124765838	shuffle
-0.0591178428064495	-0.21138636417015	0.0959522863439713	shuffle
-0.0177420987466139	-0.171468460360017	0.136827684358481	shuffle
0.11344842206884	-0.0414725229945543	0.263042416871697	shuffle
0.261809738636734	0.112141416667445	0.399862785708942	shuffle
0.00028442931540565	-0.153917777793925	0.154473111107129	shuffle
0.0753060881718744	-0.0798161825265284	0.226867195447521	shuffle
0.0318439915456149	-0.12295519955818	0.185130420999736	shuffle
-0.0639293991829411	-0.215995652124824	0.0911647249254142	shuffle
0.17177064268191	0.0180533516881595	0.317555250699211	shuffle
0.0707607281712524	-0.0843551257829089	0.22252818361748	shuffle
0.135042448276365	-0.0195603113853964	0.283337977473515	shuffle
0.152242442946626	-0.00199996299914248	0.299409239822576	shuffle
0.0520853458873741	-0.102936829740528	0.204637294166664	shuffle
-0.0150112619903416	-0.168815965638092	0.139507107330527	shuffle
-0.0709714218498748	-0.222729445297379	0.0841448717251446	shuffle
-0.0529231826625983	-0.205442125881402	0.102105507420893	shuffle
-0.000933754777000789	-0.155106879001479	0.153283771762885	shuffle
0.00502373802575784	-0.149287362203405	0.159095952950308	shuffle
-0.0155512774681218	-0.169340665961358	0.138977438208408	shuffle
0.0365964825634145	-0.118266352432838	0.189721339521433	shuffle
0.0167808394442418	-0.137771103938564	0.170535031698328	shuffle
0.0639081149615045	-0.091185918802272	0.21597527756392	shuffle
-0.00686052109763127	-0.160885782901296	0.147490960492721	shuffle
-0.0672362290499514	-0.219159544489618	0.0878702239742704	shuffle
-0.038032946431625	-0.191107650800532	0.116847764794623	shuffle
0.0834441442193756	-0.0716735145868256	0.234620803496971	shuffle
-0.109581812628287	-0.259394279540466	0.0453804380623496	shuffle
0.0527121376387259	-0.102314931904944	0.205239414029241	shuffle
0.0149333586893776	-0.139583510756185	0.168740264524699	shuffle
0.0865070363454569	-0.0686035221135383	0.237534028475173	shuffle
-0.0089592028558976	-0.162929577425619	0.145437170624277	shuffle
0.0870855668136253	-0.0680233204811391	0.238083984382739	shuffle
-0.13539167349083	-0.283665115645878	0.0192047157814745	shuffle
0.0898956690438873	-0.0652036076353755	0.240753914388216	shuffle
-0.0730636251400978	-0.224727286397139	0.0820562840704337	shuffle
0.0486159158720184	-0.106376980187838	0.201302339037309	shuffle
-0.119183206758133	-0.268445307337959	0.0356677339718855	shuffle
0.0596624514922063	-0.0954107534362697	0.211908418701403	shuffle
-0.0392359472898533	-0.192268180501627	0.115659248347157	shuffle
-0.10993066107058	-0.259723592818997	0.0450280575373687	shuffle
0.0199509990401359	-0.1346587153861	0.173612362685011	shuffle
-0.00911061881298868	-0.163076982282825	0.14528894204985	shuffle
-0.0131747579896395	-0.167030893391802	0.141307763640008	shuffle
-0.0886469644251763	-0.239567778868538	0.0664568887006076	shuffle
0.00367538676084033	-0.150605422168149	0.157781424247677	shuffle
-0.143550136170811	-0.291297780856168	0.0108862859898332	shuffle
0.0105822679402748	-0.143847910738062	0.164509288570793	shuffle
0.0394071212865829	-0.115490099272564	0.192433276534059	shuffle
0.0406755362234433	-0.114236409207912	0.193656383330636	shuffle
-0.079059853281316	-0.23044601850432	0.0760628605932984	shuffle
0.0162200193150905	-0.138321386471253	0.169990321092486	shuffle
-0.0779639096632386	-0.229401573830154	0.0771591293778052	shuffle
-0.0452633243954082	-0.198076327308236	0.109697756643071	shuffle
-0.0534335494279765	-0.205932286587407	0.101599002776255	shuffle
0.0415061241038634	-0.113415196103475	0.194457044802733	shuffle
0.174186873011855	0.0205431821047395	0.319793063885693	shuffle
-0.0711889479411033	-0.222937219956138	0.0839277850186181	shuffle
-0.0452201201798173	-0.198034732684468	0.109740528299376	shuffle
-0.0184518502163937	-0.172157485834593	0.136130924958418	shuffle
-0.0785375002962251	-0.229948254651507	0.0765854153402622	shuffle
-0.026334518229314	-0.179799868174155	0.128382255481875	shuffle
-0.0260057096929041	-0.179481452466716	0.128705852549519	shuffle
-0.0203507719656625	-0.174000216510383	0.134266010945305	shuffle
-0.0814398736670082	-0.232712999912127	0.0736808418113797	shuffle
0.0453753148704582	-0.109586884741403	0.198184142967284	shuffle
0.0676627932384832	-0.0874450029279376	0.219567437948419	shuffle
0.00468501004152851	-0.149618532101041	0.158765773122313	shuffle
0.112695785606435	-0.0422335713133414	0.262332641201498	shuffle
-0.101635003004275	-0.251883035425355	0.0533972773702148	shuffle
-0.00295146021906089	-0.157075431542661	0.151312859157227	shuffle
0.087456823822534	-0.0676509357715541	0.238436853405827	shuffle
-0.12123938246472	-0.270380199702256	0.0335839106616989	shuffle
0.146054616049916	-0.00832840422190937	0.293637084175328	shuffle
-0.0700057108209678	-0.221806859431909	0.0851084543410139	shuffle
-0.151010666366091	-0.298261066734597	0.00326071656480368	shuffle
-0.0292530529295377	-0.182624746332721	0.12550853351655	shuffle
0.0345742543821754	-0.120262344005732	0.187768679949243	shuffle
-0.0175352166864847	-0.171267591310638	0.137030750638938	shuffle
-0.149132078807513	-0.296509162259785	0.0051825531650835	shuffle
-0.0135791986058085	-0.167424094172412	0.140911305261883	shuffle
-0.0516494948574339	-0.204218531119672	0.103369206269759	shuffle
-0.0210745107691586	-0.174702256027507	0.133554945182521	shuffle
-0.0692547218548031	-0.221089219009776	0.0858575876432419	shuffle
0.022081916237531	-0.132564914799609	0.175679197293297	shuffle
-0.101644293145131	-0.251891826953987	0.0533879170151548	shuffle
-0.00619817942715361	-0.160240489235335	0.148138858116059	shuffle
0.0421056984489612	-0.112822257521116	0.195034889613435	shuffle
0.227477378524662	0.0759457949484226	0.368738955566089	shuffle
-0.0549590048969265	-0.207396891324806	0.100084611652445	shuffle
0.156573001418504	0.00243636558800343	0.303442492839452	shuffle
-0.0669613075743957	-0.218896628191908	0.0881442498392225	shuffle
-0.0568558298086193	-0.209217098827332	0.0982005421979134	shuffle
0.0448745706489072	-0.110082597549808	0.197702036946554	shuffle
-0.0260648427910927	-0.179538718884801	0.128647659114292	shuffle
-0.108170613715212	-0.258061750745811	0.0468055319059229	shuffle
-0.169357861582665	-0.315319010471569	-0.0155689765202482	shuffle
-0.041846732866648	-0.194785322382517	0.113078370550999	shuffle
0.0716927387644139	-0.0834249552656424	0.223418373507682	shuffle
-0.144782488354578	-0.292449077266066	0.00962790944487549	shuffle
0.0602890343216139	-0.094787595776181	0.212508945068872	shuffle
0.0366677069403128	-0.118196029306716	0.189790091564774	shuffle
0.0221498741646596	-0.132498117855238	0.175745089264525	shuffle
0.0299570462215965	-0.124814960718497	0.183305769430323	shuffle
0.0125921529457403	-0.141878783015138	0.166464393522735	shuffle
-0.0562634520412726	-0.208648762005062	0.0987890558256258	shuffle
0.019698714545802	-0.134906514182229	0.173367575436106	shuffle
0.0405798247953935	-0.114331026747692	0.193564107326947	shuffle
0.158549481600091	0.00446313802835528	0.305281534422146	shuffle
0.100440878673649	-0.0546002000352095	0.250752794587576	shuffle
-0.0860862165547425	-0.237133932822309	0.0690254915911298	shuffle
-0.0563730519244119	-0.208753921667957	0.0986801790502313	shuffle
0.118195032321803	-0.0366687166911265	0.267514991584309	shuffle
0.0563114559763823	-0.0987413690632312	0.208694821590366	shuffle
0.0670070602800056	-0.0880986478103313	0.218940384514213	shuffle
0.129960161267251	-0.0247308841368757	0.278573215024998	shuffle
-0.113275192076227	-0.262879066245138	0.0416477050234899	shuffle
-0.0204910800805715	-0.174136330083831	0.134128172138777	shuffle
-0.0486068322040694	-0.201293602803221	0.106385982328389	shuffle
0.00319404958342004	-0.15107581308151	0.157312028789477	shuffle
0.0115286025044638	-0.142920918656521	0.16542998118224	shuffle
0.103629366989234	-0.0513872150732407	0.253769791066012	shuffle
0.0631643757508142	-0.0919264128619103	0.215263241646363	shuffle
0.0725131418000741	-0.0826059482095221	0.224201754441706	shuffle
0.161900977979204	0.00790281022881823	0.308397478077485	shuffle
-0.0514412999598638	-0.204018479006144	0.103575720812352	shuffle
0.0160238894717459	-0.138513808592162	0.169799802887126	shuffle
-0.0338571259803396	-0.187075931196025	0.120969867754237	shuffle
-0.0306682615598899	-0.183993629500217	0.124114119145046	shuffle
-0.0280902922179161	-0.181499602297355	0.126653751893257	shuffle
0.153028858278989	-0.00119479106305285	0.300142056488167	shuffle
-0.0995546834034152	-0.249913744167961	0.0554926339827005	shuffle
-0.0680783388054624	-0.219964744010505	0.087030711449209	shuffle
0.158427239343037	0.00433774853480793	0.305167824275917	shuffle
0.0585081458690799	-0.0965584310167411	0.210801813825008	shuffle
-0.0640694011849502	-0.216129667319082	0.0910253136846384	shuffle
-0.0387897393163469	-0.19183777554114	0.116100135625061	shuffle
-0.03972492965804	-0.192739777347229	0.11517602662629	shuffle
-0.0458629144407811	-0.198653522552851	0.109104110421933	shuffle
-0.070809952903224	-0.2225752058932	0.0843060049968561	shuffle
0.0615165370153394	-0.0935664507797464	0.213685068855004	shuffle
0.0600860185727684	-0.0949895150644748	0.212314384326133	shuffle
-0.0721656959337663	-0.223870011597996	0.0829528284496875	shuffle
-0.0345956926085056	-0.187789387011155	0.120241190484448	shuffle
-0.071066115265644	-0.222819895416006	0.0840503713919629	shuffle
0.0915835354307207	-0.0635087772292507	0.242356490636237	shuffle
-0.0487979164672719	-0.201477373320242	0.106196607722865	shuffle
0.138620004982856	-0.0159156417226293	0.286687635259483	shuffle
0.0328494088726555	-0.121963822519784	0.186102215052494	shuffle
-0.0928548533487661	-0.24356302415929	0.0622316229942444	shuffle
-0.0761429648462525	-0.227665424664662	0.0789797854849606	shuffle
-0.0164300750486582	-0.170194353995079	0.138115288780828	shuffle
-0.089306729410774	-0.240194541013605	0.0657947666795664	shuffle
-0.0295227652120745	-0.182885675720037	0.125242831384675	shuffle
-0.07322238768052	-0.224878836425064	0.0818977402574351	shuffle
-0.14168280320832	-0.289552452423246	0.0127921208965575	shuffle
-0.0656930660924357	-0.217683482144782	0.0894080559044974	shuffle
0.19985834610338	0.0471148392034554	0.343469032067865	shuffle
-0.0331132467715894	-0.18635717999983	0.121703617844676	shuffle
0.0230195843407148	-0.131643141635487	0.176588238312055	shuffle
0.0194707149678085	-0.135130443220695	0.173146335084089	shuffle
0.0405416539826027	-0.114368760521429	0.19352730584571	shuffle
-0.0943158162178662	-0.244948962847612	0.0607633257312321	shuffle
-0.0378288167153339	-0.190910685270905	0.117049392727414	shuffle
-0.0767376807857846	-0.228232552518507	0.0783852776140182	shuffle
0.0517564009333116	-0.103263157846201	0.204321251002735	shuffle
-0.0346871006597667	-0.187877676004259	0.120150994777283	shuffle
0.124500727953366	-0.0302759496006257	0.273446706045198	shuffle
-0.0477485317555844	-0.200468021196481	0.107236464782287	shuffle
-0.137469529335353	-0.285610842426973	0.017088147783577	shuffle
0.0243274004541349	-0.130357048225266	0.177855689334346	shuffle
0.118802149061669	-0.0360537675800539	0.268086593961779	shuffle
-0.117258588085496	-0.266633120183553	0.037617012014346	shuffle
0.00484287244480548	-0.149464196411993	0.158919655990404	shuffle
-0.0974644861324421	-0.247933848844614	0.0575965651371826	shuffle
-0.144199979062387	-0.291904934830769	0.0102227809116115	shuffle
-0.189866629385137	-0.334275641262408	-0.0367469989018283	shuffle
0.143704264265238	-0.010728929833859	0.291441794869727	shuffle
0.0981776355198418	-0.0568788846831547	0.24860950587168	shuffle
-0.0433004408475264	-0.19618601617115	0.111640408786788	shuffle
-0.0615191892626124	-0.213687609611114	0.0935638117641807	shuffle
-0.0507567112826528	-0.203360575664596	0.104254689909036	shuffle
0.0265061943849083	-0.128213287224642	0.179966105291102	shuffle
-0.0596745796435239	-0.211920043594527	0.0953986927360336	shuffle
-0.12959028723596	-0.27822616369146	0.0251068605425791	shuffle
-0.0151389413445412	-0.168940031800496	0.13938188221315	shuffle
0.0657353166994462	-0.0893659611011099	0.217723904848157	shuffle
0.0632001594116694	-0.0918907892631026	0.215297503664535	shuffle
0.0524825240420325	-0.102542766772143	0.205018851924196	shuffle
-0.10644731935933	-0.256433751118022	0.0485449389951416	shuffle
-0.0439591230604648	-0.196820472063003	0.110988647590799	shuffle
0.0527139195493115	-0.102313163734541	0.205241125635372	shuffle
-0.00658122399662233	-0.160613690680544	0.147764182962036	shuffle
-0.0377480341914769	-0.190832734505768	0.117129181666671	shuffle
-0.00452667750318264	-0.158611424450954	0.149773319869692	shuffle
0.100010726380365	-0.055033411472175	0.250345554242277	shuffle
-0.0104776483485536	-0.164407487291559	0.143950375337	shuffle
0.0667966923678163	-0.0883083175433875	0.218739190785633	shuffle
0.0898790459561576	-0.0652202948601741	0.240738127195789	shuffle
-0.0196908284704942	-0.173359923408611	0.134914259728933	shuffle
0.0618960291478914	-0.093188829730182	0.21404858754622	shuffle
0.0286903632237758	-0.126062785543951	0.182080310459008	shuffle
-0.00980359252293449	-0.163751510998701	0.144610467327507	shuffle
-0.0993182420354677	-0.249689843116573	0.0557306980027391	shuffle
0.0387115647754457	-0.11617737171004	0.191762363588356	shuffle
0.0239730074663658	-0.130705606203956	0.177512284815678	shuffle
-0.0063956647632091	-0.160432905276197	0.147945693311232	shuffle
-0.0684026674096053	-0.220274801880074	0.0867073243640558	shuffle
0.0780209229850521	-0.0771021083875408	0.229455916667974	shuffle
-0.0789020980481187	-0.230295697756915	0.0762206857419606	shuffle
0.106262152599447	-0.0487317811410183	0.2562587730622	shuffle
0.0998939472679383	-0.0551510110169597	0.250234986155874	shuffle
0.0625864014687261	-0.0925017468523613	0.214709792919813	shuffle
0.161950241524983	0.00795339705995702	0.308443255808625	shuffle
-0.0032971570210686	-0.15741258404766	0.150975056327252	shuffle
0.0441739826275127	-0.110776016799403	0.19702740141094	shuffle
0.022268946797191	-0.132381076054286	0.17586053870967	shuffle
0.0972868914089803	-0.0577752633054175	0.247765568029519	shuffle
0.0171654902403621	-0.137393625414723	0.170908579101656	shuffle
-0.10065563878962	-0.250956095653098	0.0543838907476744	shuffle
-0.143689617555223	-0.291428109583345	0.0107438836337262	shuffle
0.000736084564186676	-0.153476791817472	0.154913958319544	shuffle
0.0157758740922272	-0.138757118677966	0.1695588672275	shuffle
-0.0105574339398152	-0.164485123862045	0.143872233498374	shuffle
0.105915416256182	-0.049081625577356	0.255931089263115	shuffle
-0.0507925375290013	-0.203395008817705	0.104219161332024	shuffle
0.026930125131323	-0.127796004782823	0.180376567532385	shuffle
-0.0812790039909336	-0.232559822518631	0.0738419023548151	shuffle
-0.106722501137707	-0.2566937730033	0.0482672473363435	shuffle
0.0854299530361191	-0.069683437283127	0.236509886074898	shuffle
0.0118516385608061	-0.142604423204499	0.165744202826449	shuffle
-0.0494394207178057	-0.202094245403254	0.105560760853422	shuffle
-0.0274466480523553	-0.180876608028133	0.127287508203916	shuffle
0.165577749957852	0.0116805124258004	0.311812223696424	shuffle
0.000595869483575909	-0.153613701228037	0.154777105134686	shuffle
0.124321090236782	-0.0304582432165488	0.273277878988369	shuffle
0.0111594231652348	-0.143282584441452	0.165070837064096	shuffle
-0.120997049835354	-0.270152223652766	0.0338295717212074	shuffle
-0.0842119181001806	-0.23535131549956	0.0709042367904966	shuffle
0.088089031956555	-0.0670167078228941	0.23903765717711	shuffle
-0.0274131813736033	-0.180844211685755	0.127320457302407	shuffle
0.0140155676248603	-0.140483493057127	0.167848281147643	shuffle
-0.0773909615365805	-0.228855409970593	0.0777320982332706	shuffle
0.0634994905541795	-0.0915927814928207	0.215584091565089	shuffle
0.135331062235583	-0.0192664354816563	0.283608340275526	shuffle
-0.0306393580633367	-0.183965678079322	0.124142604066885	shuffle
0.0254099111401417	-0.129292124035099	0.178904403703305	shuffle
-0.0997697202127486	-0.250117361948995	0.0552761061084706	shuffle
0.0456025793061503	-0.109361878395135	0.198402924002715	shuffle
-0.0530185746096163	-0.205533746956449	0.102010843445135	shuffle
0.039410612635824	-0.115486649131147	0.192436643823999	shuffle
-0.0876740775721993	-0.238643328307592	0.0674330020635068	shuffle
0.0845157553409022	-0.0705997534254905	0.235640359647767	shuffle
-0.0541051982308774	-0.20657722737675	0.100932314059314	shuffle
-0.058607994386548	-0.210897551607556	0.0964591721197718	shuffle
-0.054170729103917	-0.206640145331062	0.100867259671676	shuffle
0.0468274270941497	-0.108148927136362	0.199581788152438	shuffle
-0.0443887845021533	-0.197234261583232	0.110563428921503	shuffle
-0.0430337659259666	-0.195929113139234	0.111904243754156	shuffle
-0.0599830053170754	-0.212215656652297	0.095091967079632	shuffle
0.0673836926518862	-0.0877232310904223	0.219300559610511	shuffle
-0.0646018453212964	-0.216639290592923	0.0904950607546658	shuffle
0.0723475452042039	-0.0827712799097537	0.224043646467097	shuffle
-0.114549681398682	-0.264080670467804	0.0403586313672027	shuffle
-0.112221688064325	-0.261885459213091	0.0427128753381968	shuffle
-0.0768288806333875	-0.228319512635215	0.0782940999158032	shuffle
-0.00247647798743696	-0.156612130448602	0.151776936432914	shuffle
-0.0975266844924289	-0.247992783081151	0.057533977972305	shuffle
-0.127549257649733	-0.276310375539045	0.0271807773528	shuffle
0.172666466511214	0.0189762406120947	0.318385115361938	shuffle
0.025075780188748	-0.129620864765102	0.178580741633103	shuffle
0.0550348873500156	-0.100009260825442	0.207469728973246	shuffle
-0.0269750836281923	-0.180420094539695	0.127751748135799	shuffle
-0.0668834324473497	-0.218822149679495	0.0882218670061958	shuffle
-0.0134899596500631	-0.167337339470271	0.140998787214411	shuffle
0.0500341552275181	-0.10497115802213	0.202666035405179	shuffle
0.0711746700988488	-0.0839420344723313	0.222923582595109	shuffle
0.0268568688019208	-0.127868116183235	0.180305642414984	shuffle
0.111637070071172	-0.0433038153600542	0.261333942764458	shuffle
0.00528757967892757	-0.149029383700258	0.159353112406077	shuffle
0.019618130587144	-0.13498566125768	0.173289382224062	shuffle
-0.0666800470868603	-0.218627626859017	0.0884245697732865	shuffle
0.084529063800777	-0.0705864160037325	0.2356530195401	shuffle
-0.0130867562990271	-0.166945330878528	0.141394021922624	shuffle
0.0676846299165951	-0.0874232334870368	0.219588317405531	shuffle
0.108780625671048	-0.0461895910581851	0.258637826345175	shuffle
-0.115013548267979	-0.264517894677957	0.039889328309654	shuffle
-0.0384404212036919	-0.191500787877482	0.116445245789939	shuffle
-0.0807557950025528	-0.232061579836789	0.0743656761647606	shuffle
-0.00687447089210741	-0.160899372226419	0.147477313484558	shuffle
-0.0606836763437153	-0.21288711688585	0.0943950486482499	shuffle
0.154995822083602	0.000819962267744051	0.30197420053847	shuffle
-0.101953919860425	-0.252184821472167	0.0530759345776854	shuffle
-0.0418916691933812	-0.194828629304866	0.113033930682185	shuffle
-0.0956578304666618	-0.246221518988476	0.0594139825739175	shuffle
0.0745477335987953	-0.0805739138704591	0.226143686233159	shuffle
0.0842062903526359	-0.0709098762330564	0.23534596150109	shuffle
0.139792383809226	-0.0147203756756371	0.287784543741796	shuffle
-0.0588552763344025	-0.211134640451369	0.0962133371306336	shuffle
0.0547369905918794	-0.100305060331109	0.207183775698881	shuffle
-0.0598080340663876	-0.212047957474752	0.095265977517114	shuffle
0.133440757290537	-0.0211907186861534	0.281837144528398	shuffle
-0.0380805369506174	-0.19115356929903	0.116800755702645	shuffle
0.217820665391315	0.0658364549416946	0.359927260607783	shuffle
-0.067360219552128	-0.219278113397866	0.0877466297138142	shuffle
0.106276817321032	-0.0487169841287736	0.25627263122361	shuffle
-0.0675474734079188	-0.219457170908632	0.0875599652207934	shuffle
0.125215869258681	-0.0295501330087263	0.274118718925811	shuffle
-0.0353412176886713	-0.188509400782808	0.119505478691882	shuffle
-0.0749180636168714	-0.226497020989728	0.080203910594095	shuffle
-0.065883453434514	-0.21786562857003	0.0892183662588026	shuffle
0.0190724616484605	-0.135521548531093	0.172759851088214	shuffle
0.0381205637512001	-0.116761217383639	0.191192189300138	shuffle
-0.0735250069881009	-0.225167687549591	0.0815955161228714	shuffle
-0.108789140762321	-0.258645866968212	0.0461809923721464	shuffle
-0.0690334199787055	-0.220877712931554	0.0860783092388752	shuffle
-0.0374400818896676	-0.190535559485225	0.117433327971501	shuffle
-0.128117651126559	-0.276844010118161	0.0266033591100356	shuffle
-0.000350824171977367	-0.154537920995243	0.153852955207895	shuffle
-0.0092277029343352	-0.163190960062949	0.145174317856441	shuffle
0.04656067263074	-0.108413130012614	0.199325085931525	shuffle
-0.112594000095668	-0.262236639694238	0.0423364806323995	shuffle
-0.082014942626369	-0.23326050951881	0.0731050243766565	shuffle
-0.15305957411109	-0.30017067533883	0.00116333857678369	shuffle
-0.0314768408944739	-0.184775473896381	0.12331714608981	shuffle
-0.0630625901112606	-0.215165782230177	0.0920277410387869	shuffle
0.141161698468047	-0.0133237698985888	0.289065219156098	shuffle
0.0861536181395394	-0.0689579095967524	0.237198018523566	shuffle
-0.154922099380813	-0.30190555052067	-0.000744425807461256	shuffle
-0.0987098717432059	-0.249113665489992	0.0563431623972877	shuffle
-0.0593782512939364	-0.211635999069323	0.0956933600135972	shuffle
-0.0842177935520981	-0.235356905143595	0.0708983491182294	shuffle
-0.0716359153521201	-0.223364107090706	0.0834816742296774	shuffle
-0.0971818907773981	-0.247666069856897	0.0578809116608901	shuffle
-0.00230583400307877	-0.156445666511276	0.151943646055982	shuffle
0.0392047353973351	-0.115690090046705	0.192238075932242	shuffle
-0.0472548089468585	-0.199993021058416	0.10772558768158	shuffle
0.0153449311482592	-0.139179841500905	0.169140182034839	shuffle
0.0299814248974733	-0.124790940185262	0.183329350031845	shuffle
0.0816352066068745	-0.073485266236166	0.232898982555774	shuffle
0.0532680402114816	-0.101763268334384	0.205773338471785	shuffle
-0.0172357851733317	-0.170976840113403	0.137324636362335	shuffle
0.0144574456737678	-0.140050221052219	0.168277765318076	shuffle
-0.0503721299025959	-0.202990924844027	0.104636051003029	shuffle
-0.126419357539041	-0.275249299593323	0.0283283110884999	shuffle
-0.0131601750604942	-0.167016714823608	0.141322057827815	shuffle
-0.0379783440244834	-0.191054965940564	0.116901699253601	shuffle
0.128055994650083	-0.026665999540603	0.276786128548184	shuffle
0.00275328217941924	-0.151506495562417	0.156882135500736	shuffle
0.152720836367635	-0.00151018335577624	0.299855048703531	shuffle
0.0917259373782275	-0.0633657468079066	0.242491659197886	shuffle
-0.126324060509217	-0.275159790686141	0.0284250767101354	shuffle
0.0655943975678493	-0.0895063584204712	0.217589080322382	shuffle
-0.0355572646376939	-0.188718023999002	0.119292243765831	shuffle
-0.102617193605756	-0.252812373496411	0.052407512598591	shuffle
0.0915783419957465	-0.0635139934644074	0.242351560894042	shuffle
0.0268472226931084	-0.127877611410362	0.180296303152218	shuffle
0.0392155257313503	-0.115679427726719	0.192248483483646	shuffle
0.00151060295129405	-0.152720426557657	0.155669799707125	shuffle
-0.0808826074744859	-0.232182348405119	0.0742387346519961	shuffle
-0.0809669185260435	-0.232262638596229	0.0741543350256516	shuffle
-0.00801402758430588	-0.162009285022774	0.146362292828794	shuffle
-0.108914291029736	-0.258764041359242	0.046054610824228	shuffle
0.0282649552618012	-0.126481750280212	0.181668640425421	shuffle
0.121269199448176	-0.033553682850421	0.270408249074292	shuffle
-0.0502970853667912	-0.202918788681012	0.104710461839346	shuffle
0.158859020986526	0.00478066845394247	0.305569450257058	shuffle
-0.0374363104014164	-0.190531919812278	0.11743705266767	shuffle
-0.0803307116664685	-0.231656722014602	0.0747911553882909	shuffle
0.021594548227985	-0.133043915532365	0.175206605191924	shuffle
0.107115111053527	-0.0478710150194209	0.257064716275536	shuffle
0.0436320706909167	-0.111312280160928	0.196505464675614	shuffle
0.0570120194701564	-0.0980453533076661	0.209366932571851	shuffle
-0.0364681228177703	-0.189597431594815	0.118393084032452	shuffle
0.0201454512585028	-0.134467707392127	0.173801023327756	shuffle
-0.0949256387070498	-0.245527287336255	0.0601502431784294	shuffle
-0.105660008424277	-0.255689693584679	0.0493392985241987	shuffle
0.0458405800284138	-0.109126225412283	0.198632024235285	shuffle
0.0599379565995374	-0.0951367693286997	0.212172481085503	shuffle
0.0287558344587315	-0.125998301033531	0.182143662621717	shuffle
-0.131457283216488	-0.279977562233413	0.0232086147200909	shuffle
-0.102113249268668	-0.252335581460105	0.052915381154423	shuffle
-0.0524363539980604	-0.204974500057385	0.102588577190253	shuffle
0.00390208410703847	-0.150383856027307	0.158002473232057	shuffle
-0.0497755161908414	-0.20241738729905	0.105227578777723	shuffle
0.0584983086942418	-0.0965682099346842	0.210792381485745	shuffle
-0.0227532384177473	-0.176330050587621	0.131904999777818	shuffle
0.0127803239198313	-0.14169436524326	0.166647373920664	shuffle
-0.0698225703959958	-0.221631866732271	0.0852911584034467	shuffle
-0.0362647825235192	-0.189401133638397	0.118593834783282	shuffle
-0.0207946144036357	-0.174430770094623	0.133829959298741	shuffle
-0.0102371196678267	-0.164173425696662	0.144185936962454	shuffle
-0.0976426539964945	-0.248102663618294	0.0574172802824685	shuffle
0.0590573175509674	-0.0960124641046459	0.211328340112829	shuffle
-0.0804768640776703	-0.231795926390839	0.0746448732337364	shuffle
-0.0787410192519968	-0.230142202619827	0.0763818279065536	shuffle
-0.0737853855808494	-0.225416198440064	0.0813354547092496	shuffle
-0.012458047297583	-0.166333980625308	0.142010207288134	shuffle
-0.00421081601666104	-0.158303487979339	0.15008208721476	shuffle
-0.10263414542892	-0.252828410694608	0.052390427377205	shuffle
0.161866526377607	0.00786743367903664	0.308365463816377	shuffle
0.0617301977460394	-0.0933538489903137	0.213889741441991	shuffle
-0.108955136184868	-0.258802608834395	0.0460133627436438	shuffle
-0.0935948994625453	-0.244265143942232	0.0614879455551974	shuffle
-0.00598803138619571	-0.160035722673405	0.148344395662666	shuffle
0.0450611776718657	-0.109897874540827	0.197881706911935	shuffle
-0.0733220798565055	-0.224973995879174	0.0817981814146485	shuffle
0.141131779816098	-0.0133542912864782	0.289037242871099	shuffle
0.302689163956791	0.155763712870861	0.436511204851099	shuffle
0.0244816720763814	-0.130205304708195	0.178005165860141	shuffle
-0.0629898769363777	-0.215096157748294	0.0921001254467088	shuffle
-0.0662450400038275	-0.218211534717819	0.0888580737862256	shuffle
0.0507364191218926	-0.104274813292925	0.203341072391191	shuffle
0.0826980179331001	-0.0724209256169259	0.233910724846568	shuffle
-0.0056620451117113	-0.159718058031744	0.14866320365576	shuffle
0.0224660705483002	-0.132187304848041	0.17605165501789	shuffle
-0.093569096754692	-0.244240666244908	0.0615138777715941	shuffle
-0.0421056117808293	-0.195034806093966	0.112822343238027	shuffle
-0.0831698825573505	-0.23435981100263	0.0719482687451059	shuffle
-0.0536116280789683	-0.206103296874918	0.101422252790328	shuffle
-0.071844423239209	-0.223563227730243	0.0832735446827668	shuffle
-0.0470322243460086	-0.199778853699818	0.107946073975842	shuffle
0.0541009004085178	-0.100936580585197	0.206573100877807	shuffle
-0.0576233793992106	-0.209953345274308	0.0974378380757211	shuffle
0.0661934635828231	-0.0889094681002728	0.218162197274403	shuffle
0.0215591987518133	-0.133078655308757	0.175172324679164	shuffle
