cor	ci95_lower	ci95_upper	type
0.126032370375656	-0.0287212439621906	0.274885801104316	real
0.00232961102405207	-0.151920417763345	0.156468861622114	shuffle
0.0159517783858062	-0.138584553525839	0.169729752142703	shuffle
-0.0553063210437366	-0.20773025747886	0.0997397142145261	shuffle
-0.0332343494169986	-0.186474203014129	0.121584175737751	shuffle
0.00832397691935421	-0.146058949207067	0.162311104093188	shuffle
-0.00453766256806749	-0.158622133359454	0.149762580984052	shuffle
0.000346839328834296	-0.153856845724973	0.154534031315132	shuffle
-0.0790587091263322	-0.230444928295612	0.0760640052833429	shuffle
0.0805755462112622	-0.0745460997217072	0.231889913705177	shuffle
-0.0500395036852254	-0.202671177050374	0.104965855219257	shuffle
-0.119814211145039	-0.269039220107	0.0350283881946618	shuffle
-0.0518759260781462	-0.204436091843472	0.103144587416887	shuffle
0.11792639323332	-0.0369407840490782	0.267262033467829	shuffle
-0.101608088552534	-0.251857565362274	0.053424395085611	shuffle
-0.0194994363693952	-0.173174205871055	0.135102235459638	shuffle
0.0151811027342811	-0.139340530158984	0.168980998996733	shuffle
0.00496575650873629	-0.14934405242632	0.159039437102525	shuffle
0.00316440482339994	-0.151104781395506	0.157283117223493	shuffle
0.0255299170793203	-0.129174045738604	0.179020641547522	shuffle
-0.053868989409911	-0.206350426467619	0.101166794366836	shuffle
-0.0436208971861759	-0.19649470212135	0.111323336250183	shuffle
-0.00536917900452316	-0.159432640869873	0.148949593440325	shuffle
0.0873335696397412	-0.0677745691336237	0.238319708298977	shuffle
-0.0025502193704034	-0.156684062773727	0.151704892512698	shuffle
0.14447596834037	-0.0099409481369636	0.292162758050344	shuffle
0.0830286988323142	-0.0720896968181765	0.234225449448355	shuffle
-0.0395734892048011	-0.192593728839005	0.115325690813312	shuffle
0.149235835727194	-0.00507643727577444	0.296605948186972	shuffle
0.247351625667842	0.0968500791811278	0.386794546121436	shuffle
-0.0805810664504581	-0.231895171234616	0.0745405742809422	shuffle
-0.0150994878826561	-0.168901695350524	0.139420577833087	shuffle
0.0709057808260126	-0.0842103772676525	0.222666744173496	shuffle
-0.0392861858964481	-0.192316636157968	0.11560960497523	shuffle
-0.0408926189735841	-0.19386566417583	0.114021797085643	shuffle
-0.0426478275100778	-0.195557279669664	0.1122860334417	shuffle
-0.0416624995061877	-0.194607763143604	0.113260562015688	shuffle
-0.0401987010804391	-0.193196636650642	0.114707766715373	shuffle
-0.0865642896499309	-0.237588458262855	0.0685461081027476	shuffle
0.041224597697534	-0.113693568661333	0.194185684734561	shuffle
0.123653916246973	-0.0311351910870069	0.272650775418028	shuffle
-0.18334941059829	-0.328264295247504	-0.0300021645479659	shuffle
-0.0347831943931246	-0.187970488123804	0.120056172777988	shuffle
0.0490683227326821	-0.105928601604938	0.201737411424904	shuffle
0.0126573161579399	-0.141814920742647	0.166527760448868	shuffle
-0.0725907971596036	-0.224275895314717	0.0825284141299565	shuffle
-0.139824814630288	-0.287814881353374	0.0146873054611023	shuffle
0.130370323788662	-0.0243139033642902	0.278958023511403	shuffle
-0.0537042776797911	-0.206192265309978	0.101330290587852	shuffle
-0.0510892603310397	-0.203680179130024	0.103924888700493	shuffle
0.117589388395545	-0.037282057151623	0.266944671133022	shuffle
0.0299715814889463	-0.124800639007924	0.183319828884042	shuffle
-0.0386583792354882	-0.191711056524186	0.116229917706891	shuffle
0.0314401780685324	-0.123353286982796	0.184740027492536	shuffle
-0.00862218901063372	-0.162601466603504	0.145767065276708	shuffle
-0.0975897567039568	-0.248052544172891	0.0574705102487412	shuffle
-0.0444241182296589	-0.197268287640862	0.11052845802622	shuffle
0.0250359520925092	-0.129660048083697	0.178542159201602	shuffle
-0.119954479116795	-0.269171227449178	0.0348862487680817	shuffle
0.159335983679362	0.00527000520149558	0.306013041164061	shuffle
0.0783863058460853	-0.0767366522891321	0.229804162711597	shuffle
-0.0885434182432476	-0.239469400863997	0.0665607924050676	shuffle
0.0608520457871864	-0.0942275582901725	0.213048445630689	shuffle
-0.00699309118919923	-0.161014924958768	0.147361265517509	shuffle
-0.0960783274005387	-0.24662014564428	0.0589910726224998	shuffle
0.115490895495808	-0.0394063155528658	0.26496776083242	shuffle
0.085852980596234	-0.0692593408511641	0.236912160977435	shuffle
0.185214010289609	0.0319304607636566	0.329985362518237	shuffle
0.021156057143195	-0.13347481674669	0.174781347671113	shuffle
-0.00424392080085573	-0.158335763565463	0.150049727364617	shuffle
-0.0277109759048811	-0.181132470407981	0.127027256323268	shuffle
0.197055254938752	0.0442029046747367	0.340892678988174	shuffle
0.00412618473991942	-0.150164812589634	0.158220975022819	shuffle
0.043520540011094	-0.111422637114174	0.196398034332786	shuffle
-0.044259605566676	-0.197109860311204	0.110691278088881	shuffle
0.0898622456475139	-0.0652371599015207	0.24072217161293	shuffle
0.160312867205632	0.00627246282084902	0.306921376041185	shuffle
-0.0278550432034236	-0.181271915003689	0.126885401591365	shuffle
0.0017450529973406	-0.152491435911266	0.155898560558912	shuffle
0.00873795518146715	-0.14565374846026	0.162714178375198	shuffle
-0.0906600378614633	-0.241479760550937	0.0644361959293062	shuffle
-0.128363869403613	-0.277075142966143	0.026353199406797	shuffle
0.121061989972976	-0.0337637414680456	0.270213318164072	shuffle
0.0160795815340573	-0.138459170542561	0.169853902665013	shuffle
0.0819407548297604	-0.0731793145423293	0.233189882452772	shuffle
-0.00439604563222474	-0.158484073789378	0.149901021443028	shuffle
-0.00736127491112609	-0.161373560421774	0.147001038943007	shuffle
0.0432936332411302	-0.111647144167281	0.196179458279996	shuffle
0.0239585753900555	-0.130719799848792	0.177498299434454	shuffle
-0.165757720450617	-0.311979271610582	-0.0118655360963356	shuffle
-0.00964117547836023	-0.163593429949425	0.144769499172614	shuffle
-0.113326922578107	-0.262927847436893	0.0415953925957013	shuffle
-0.0867984920745322	-0.237811100834105	0.0683112375890604	shuffle
-0.197555826221428	-0.341352918284269	-0.0447227225979169	shuffle
-0.068263356279071	-0.220141624317765	0.0868462350823682	shuffle
-0.0551395284760048	-0.20757016857246	0.099905349889206	shuffle
0.0545896193056277	-0.100451383961856	0.207042303293092	shuffle
-0.0213797701016894	-0.174998316183664	0.133254983354946	shuffle
0.0176146991158297	-0.136952735738323	0.171344765101347	shuffle
0.0044305504566392	-0.149867291121504	0.158517712420384	shuffle
0.024980472181337	-0.129714629024521	0.178488413694999	shuffle
0.102324258259183	-0.0527027387944732	0.252535230255897	shuffle
-0.0441493747388539	-0.197003702461655	0.110800370145458	shuffle
0.0745036857653353	-0.08061791999593	0.226101657197165	shuffle
-0.0177057350760664	-0.171433154522483	0.136863378270286	shuffle
-0.108020929297258	-0.257920377325913	0.0469566531476988	shuffle
-0.116370381932242	-0.265796444524223	0.0385162010960107	shuffle
0.063143570738987	-0.0919471246294087	0.215243321162092	shuffle
-0.0315372389485915	-0.184833867156486	0.123257606968557	shuffle
0.0191211673041069	-0.135473719649599	0.172807119917135	shuffle
0.00580789154416756	-0.148520572755696	0.159860185305444	shuffle
-0.0325823982240323	-0.18584416304064	0.122227134589828	shuffle
0.067193243295061	-0.0879130712429895	0.219118437277218	shuffle
-0.0731848052724505	-0.224842962032151	0.0819352715974365	shuffle
0.0782928723317184	-0.0768301084979745	0.229715115011105	shuffle
0.0680072154228849	-0.0871016239920103	0.219896746014253	shuffle
0.0405205330749975	-0.114389639411824	0.19350694244	shuffle
-0.0391987719556137	-0.192232324026365	0.115695982724217	shuffle
0.00436637592991076	-0.14993002488547	0.158455148615735	shuffle
0.0200537990749273	-0.134557737622861	0.173712102323073	shuffle
-0.109548534371621	-0.259362863012604	0.0454140512459076	shuffle
0.0361710017866027	-0.118686416954699	0.189310596709651	shuffle
-0.00176870034570002	-0.155921633159729	0.152468338295205	shuffle
-0.021653843134812	-0.17526410619236	0.132985642477439	shuffle
0.227750982802371	0.0762326780776583	0.368988248573484	shuffle
0.162259734360146	0.00827122132232196	0.308730833873841	shuffle
0.0769765387293011	-0.0781464721787384	0.228460301224421	shuffle
0.123488241305307	-0.0313032711053992	0.272495031276154	shuffle
0.0579081765091718	-0.097154792527947	0.210226483504993	shuffle
0.0692157296562654	-0.0858964787045294	0.2210519538146	shuffle
-0.0155912876557606	-0.169379537968115	0.138938191072405	shuffle
0.047646673483245	-0.107337380205409	0.200370031412683	shuffle
0.234813122472455	0.083646255576424	0.375415853503751	shuffle
-0.0684932919542246	-0.220361433382174	0.0866169570571559	shuffle
-0.0567411608996933	-0.209107091652785	0.0983144715755794	shuffle
-0.017902901875656	-0.171624580931357	0.136669838145432	shuffle
-0.0432974420696502	-0.196183127395523	0.111643375750619	shuffle
0.212510590953979	0.060290751785499	0.355071020857244	shuffle
-0.0418647387320557	-0.194802675421562	0.113060563689371	shuffle
0.0849174824686403	-0.0701971276261081	0.236022486623165	shuffle
0.0800996487346499	-0.0750224098208718	0.231436631089808	shuffle
-0.0719788885889849	-0.223691632590009	0.0831393161441039	shuffle
-0.0944195002471423	-0.245047299046897	0.0606590956705881	shuffle
0.0453447794063033	-0.109617115596297	0.198154746180389	shuffle
-0.000337620571357174	-0.15452503269478	0.153865846244966	shuffle
0.00900086227870511	-0.145396388844601	0.162970133950643	shuffle
0.0320051101375058	-0.122796351714252	0.185286171620887	shuffle
0.00968278654298473	-0.144728756152395	0.16363393089022	shuffle
0.0213732110024974	-0.133261428924628	0.174991955038965	shuffle
-0.0406601254720255	-0.193641525908846	0.114251644019297	shuffle
-0.0363895945616544	-0.189521624479253	0.118470613729867	shuffle
-0.00295476206887429	-0.157078651953368	0.151309632875437	shuffle
0.00885533170538161	-0.145538851226215	0.162828453909377	shuffle
0.0772784588405564	-0.0778445929649252	0.228748155366453	shuffle
-0.131670476381178	-0.280177492398847	0.022991782152597	shuffle
0.0462946803777076	-0.108676556172173	0.199069096320175	shuffle
-0.0826055832592468	-0.233822744742131	0.0725135073256156	shuffle
0.000900572395881296	-0.153316174356046	0.155074494732952	shuffle
-0.0204816734798818	-0.174127204879115	0.134137413378083	shuffle
-0.0789498679888926	-0.230341217220019	0.0761728954505389	shuffle
-0.0438582507800422	-0.196723318164369	0.111088468612459	shuffle
0.00227906766283969	-0.151969794476231	0.156419555037253	shuffle
-0.0423081479499477	-0.195229978047459	0.112622023698987	shuffle
-0.113040292021855	-0.262657548920839	0.04188523682674	shuffle
0.0615291178235559	-0.0935539327161534	0.213697120791938	shuffle
-0.0336249900791942	-0.18685165438219	0.121198860911954	shuffle
-0.123431972840168	-0.272442133849194	0.0313603544193643	shuffle
-0.0745185490760462	-0.226115839356673	0.0806030708265829	shuffle
0.174516053367598	0.0208825370948032	0.320097811516708	shuffle
0.133925957892748	-0.0206969058659341	0.282291868869637	shuffle
-0.115013407882693	-0.264517762365137	0.0398894703504949	shuffle
-0.0244687323948209	-0.177992628644133	0.130218032620908	shuffle
0.138537169764585	-0.0160000773505416	0.286610117762573	shuffle
-0.0363883344645091	-0.189520408031782	0.118471857788331	shuffle
-0.0226320180237213	-0.176212536186757	0.13202417052851	shuffle
0.0230993409478166	-0.131564724683201	0.176665547856032	shuffle
0.0157031920406666	-0.138828418286984	0.169488256437424	shuffle
0.0191497004979868	-0.135445699760896	0.172834811047174	shuffle
-0.027421466222168	-0.180852231598051	0.127312300615306	shuffle
-0.0562773388715215	-0.208662086433088	0.0987752608219713	shuffle
-0.0135204011445179	-0.167366933795483	0.14096894534596	shuffle
0.0359911517402109	-0.118863960892888	0.189136960261439	shuffle
-0.125019713819224	-0.273934407613349	0.0297492328074253	shuffle
-0.0173446033590101	-0.171082506831239	0.137217836752604	shuffle
0.0971971463989399	-0.0578655621466979	0.24768052621909	shuffle
-0.0204309455678863	-0.174077994024335	0.134187249065719	shuffle
0.260940156856921	0.111219712865503	0.399078380899088	shuffle
-0.121101550814194	-0.270250535701912	0.0337236377194062	shuffle
0.0787262737681925	-0.0763965787863967	0.230128150983366	shuffle
-0.127464367996366	-0.276230669258875	0.0272670059952028	shuffle
0.222644676571155	0.0708826788413077	0.364332314270173	shuffle
0.0987053978141789	-0.0563476660019677	0.249109427910045	shuffle
0.135232480971552	-0.0193668170609791	0.283515995671642	shuffle
-0.0235656908033356	-0.177117551408105	0.131106169256123	shuffle
-0.0648199497843297	-0.216848023052449	0.0902778284815175	shuffle
0.0406461192444259	-0.114265490278699	0.193628022519976	shuffle
0.141189605785398	-0.013295300105795	0.28909131445785	shuffle
-0.0132665086427926	-0.167120098488636	0.141217828168044	shuffle
-0.19376548903272	-0.337866259308734	-0.0407887075398338	shuffle
-0.0317125684308982	-0.185003370791838	0.123084764568915	shuffle
0.00598754574128698	-0.14834487063744	0.160035249449555	shuffle
0.0230343721958618	-0.131628602314981	0.176602572594714	shuffle
-0.128772491349725	-0.277458691273063	0.025937993530642	shuffle
-0.0953492018841613	-0.245928909932077	0.0597243468002223	shuffle
-0.0226050574526305	-0.176186399268761	0.132050674631666	shuffle
0.0570470050155403	-0.0980105908952341	0.209400493449305	shuffle
-0.0447184999539733	-0.197551760245045	0.110237084310261	shuffle
0.0269479110537922	-0.127778496591142	0.180393787218573	shuffle
-0.104674289456039	-0.25475787754907	0.0503335660209082	shuffle
-0.00459569390834781	-0.158678705233259	0.149705849542766	shuffle
-0.0400607066538662	-0.1930635750295	0.114844162920823	shuffle
0.0577788281382544	-0.0972833484881958	0.210102433279148	shuffle
-0.140891791660289	-0.288812825991008	0.0135991037863767	shuffle
0.182600581551536	0.0292280758905614	0.327572838362499	shuffle
-0.0991639145904024	-0.249543692177759	0.0558860750595085	shuffle
-0.0363991686197199	-0.189530866877287	0.118461161515787	shuffle
0.0418570765163743	-0.113068141233151	0.194795291021303	shuffle
-0.0367993290568484	-0.189917140875812	0.118066068606904	shuffle
-0.0743705746787809	-0.225974643419136	0.0807509013674211	shuffle
-0.0565816229238571	-0.208954033097036	0.0984729738862491	shuffle
-0.0717308561225684	-0.223454775096708	0.0833869074085512	shuffle
-0.0591249377160373	-0.21139316581326	0.0959452320942951	shuffle
0.102764860409175	-0.0522586807193693	0.252952070258435	shuffle
-0.0730010414459459	-0.224667543836447	0.0821187793855638	shuffle
-0.0317970138212131	-0.185085006977043	0.123001513701816	shuffle
-0.0306385931367484	-0.183964938345901	0.124143357912492	shuffle
0.0372791193732724	-0.11759228958365	0.190380218941622	shuffle
-0.111960513531036	-0.261639084673147	0.0429768875972126	shuffle
-0.085320391656103	-0.236405691052901	0.0697932663535098	shuffle
0.131615710034446	-0.0230474847999803	0.280126134361088	shuffle
0.210444762385166	0.0581357904268106	0.353179670706688	shuffle
0.0817254698174829	-0.0733948868732295	0.232984921263642	shuffle
-0.0252047270542957	-0.178705652314381	0.129494002107975	shuffle
0.0250048083734711	-0.12969068728	0.178511989205565	shuffle
-0.142942365367993	-0.290729827466124	0.0115067114150242	shuffle
0.0577706501191643	-0.097291476233406	0.210094590069132	shuffle
-0.00433114754127857	-0.158420803901464	0.149964461844081	shuffle
0.0129380186057073	-0.141539807629894	0.166800710537593	shuffle
0.0434004649383844	-0.111541444269179	0.196282369621822	shuffle
-0.0147266323736722	-0.168539373197279	0.139786248043536	shuffle
-0.0162535924163764	-0.170022932452959	0.13828844688065	shuffle
0.0730802333286055	-0.0820396991307416	0.224743140426569	shuffle
0.0550362047761276	-0.100007952613401	0.20747099352234	shuffle
-0.0314173643800424	-0.184717970529518	0.123375775687766	shuffle
-0.0227780768713472	-0.176354129130748	0.131880580750932	shuffle
0.00998390926554065	-0.144433899516126	0.163927004622842	shuffle
-0.172285170119896	-0.318031920976981	-0.018583392280543	shuffle
-0.0130997400053735	-0.16695795485613	0.141381295584954	shuffle
0.0310208653747344	-0.12376660112846	0.184334598648961	shuffle
-0.0170236512137277	-0.170770839567287	0.137532824908966	shuffle
-0.0407131148358894	-0.19369261237274	0.114199259314014	shuffle
-0.0241621546207179	-0.17769557184063	0.130519578077232	shuffle
-0.0797606924899732	-0.231113742125622	0.075361616798015	shuffle
0.0251171284874106	-0.129580185343505	0.178620796221694	shuffle
-0.0880045180548044	-0.238957348118399	0.06710149899315	shuffle
0.0243468723197326	-0.130337895851811	0.177874556362836	shuffle
-0.0520175060075157	-0.204572117687557	0.103004132666814	shuffle
0.0750292040033458	-0.0800928599263106	0.226603053116258	shuffle
0.194586990664085	0.0416409469073271	0.338622278870469	shuffle
-0.0911120443555298	-0.241908907434433	0.0639823037066348	shuffle
-0.0418797431291932	-0.19481713574139	0.113045725047273	shuffle
0.00341945415210884	-0.150855543217793	0.157531849860796	shuffle
0.104338816999712	-0.0506718777585841	0.254440686443731	shuffle
0.0386096477449935	-0.116278062451989	0.191664045461189	shuffle
-0.156901424739079	-0.303748154393478	-0.0027730580542521	shuffle
-0.0445497681509906	-0.197389284387116	0.110404095260665	shuffle
-0.0290801814020747	-0.18245749282132	0.125678823071816	shuffle
-0.033799963613478	-0.187020705574522	0.121026257764744	shuffle
-0.122143208158484	-0.271230332302991	0.0326675059162633	shuffle
-0.20808579032666	-0.351018508015474	-0.0556767721198242	shuffle
0.0638636371121604	-0.0912302074040836	0.215932700213716	shuffle
0.0559353487960367	-0.0991149721527241	0.208333930141664	shuffle
0.00699082971508476	-0.147363477990364	0.161012722006694	shuffle
-0.108093752558096	-0.257989157988517	0.046883131741004	shuffle
-0.0141459728003382	-0.167975034768421	0.140355633815356	shuffle
-0.0251636932459307	-0.178665903447869	0.129534373223479	shuffle
-0.151296870729913	-0.298527883764348	0.00296782310451523	shuffle
-0.11448403632818	-0.264018790823474	0.040425040230955	shuffle
-0.10498994025113	-0.255056297674523	0.0500152112201546	shuffle
-0.0942009367338519	-0.244840005015039	0.0608788062558895	shuffle
-0.100674653658455	-0.250974095298232	0.0543647380138699	shuffle
-0.0571802257936964	-0.209528285976518	0.0978782163169044	shuffle
0.174109425182987	0.0204633455854295	0.319721360082215	shuffle
0.127364425651249	-0.0273685218085418	0.27613682678331	shuffle
0.0296481464396198	-0.125119306797623	0.183006966684455	shuffle
-0.0200320359688652	-0.173690987376115	0.13457911521598	shuffle
0.0224174716574836	-0.132235078300296	0.176004538277449	shuffle
0.00623275076348849	-0.14810504397242	0.160274173997665	shuffle
-0.0450532311217459	-0.197874055981649	0.109905741079544	shuffle
0.0812644079237297	-0.0738565153394463	0.232545924018136	shuffle
-0.0321525834137461	-0.185428724795866	0.122650949920902	shuffle
-0.029904980837315	-0.183255407897511	0.124866260612302	shuffle
0.082419188142895	-0.0727001908086697	0.233645324761754	shuffle
-0.0598142450110203	-0.212053910436503	0.095259800840644	shuffle
-0.0142762089642248	-0.16810161903379	0.140227935142231	shuffle
0.121634626384599	-0.0331831979368822	0.270751992193834	shuffle
0.167693204822691	0.0138560309339288	0.313775209467634	shuffle
0.107874840018409	-0.04710413790013	0.257782393240734	shuffle
0.149339858950472	-0.00497004553942473	0.296702979487052	shuffle
-0.0734247079780116	-0.225071954767755	0.0816956873190098	shuffle
0.0485298992824569	-0.106462223745652	0.20121961145257	shuffle
-0.0204533953695375	-0.174099772542068	0.134165194217318	shuffle
0.0363265704292058	-0.118532835086978	0.189460782921981	shuffle
-0.0100903678000915	-0.164030611026328	0.144329649723945	shuffle
-0.0598048180052606	-0.212044874994134	0.0952691758293065	shuffle
-0.00700988687218156	-0.161031285957914	0.147344833712368	shuffle
0.0361350757631265	-0.118721883112011	0.189275912651631	shuffle
-0.0631874683569019	-0.215285352319331	0.0919034235955982	shuffle
-0.00348039887758174	-0.157591282301385	0.150795984179113	shuffle
0.0711035704167813	-0.084012991842852	0.222855671447022	shuffle
0.0121714177800023	-0.142291087534613	0.166055225726443	shuffle
-0.0941150093445206	-0.244758504406567	0.0609651804968084	shuffle
0.00540994278168284	-0.148909732647707	0.159472369377873	shuffle
-0.139161057533889	-0.287193906508975	0.0153640816006416	shuffle
-0.0564699867968081	-0.208846926481287	0.0985838806319419	shuffle
0.102658071412836	-0.0523663129591744	0.252851045626648	shuffle
-0.117279249282614	-0.266652580013992	0.0375960923501766	shuffle
-0.0815167057462447	-0.232786155474536	0.0736039157177137	shuffle
-0.0526336348182988	-0.205164007575186	0.102392828423622	shuffle
-0.0536070478642197	-0.206098898576447	0.101426798954206	shuffle
0.0824654107806252	-0.0726538976746689	0.233689322666131	shuffle
0.0688099434632633	-0.0863011843212944	0.22066411397869	shuffle
-0.0376914226112757	-0.190778106242978	0.117185095761257	shuffle
-0.0618496311829857	-0.214004144808353	0.0932350013244423	shuffle
-0.03071619443922	-0.18403998293305	0.124066879857845	shuffle
-0.124683964180377	-0.273618905598915	0.0300899936629411	shuffle
-0.107642036641551	-0.257562493414121	0.0473391510978533	shuffle
0.147667056819498	-0.00668051233063521	0.295142245740467	shuffle
0.0189827054110805	-0.13560968713553	0.172672740823698	shuffle
0.0636870340810878	-0.0914060529577807	0.21576363756682	shuffle
-0.0648215456995725	-0.216849550339584	0.0902762388938757	shuffle
0.00436240301589813	-0.149933908563962	0.158451275377568	shuffle
-0.0644570656675037	-0.216500724480435	0.0906392532914082	shuffle
-0.0759723193801754	-0.227502676233822	0.0791503508782982	shuffle
0.0237065798948939	-0.130967621922584	0.177254093594178	shuffle
-0.0629191573852431	-0.215028440722231	0.0921705236726337	shuffle
-0.0782721827570117	-0.229695396272084	0.0768508027294454	shuffle
-0.0543056430864844	-0.206769675905216	0.100733322495621	shuffle
0.160789098059075	0.00676127333152471	0.307364092600767	shuffle
-0.0110035368116796	-0.164919175835788	0.143435285803883	shuffle
-0.000608150230932717	-0.154789091666605	0.153601710244587	shuffle
0.0782527168279505	-0.0768702729178267	0.22967684364697	shuffle
-0.0569426068552114	-0.209300345488175	0.0981143220984954	shuffle
0.0411765190542233	-0.113741106263695	0.194139339942292	shuffle
0.00375357047535659	-0.150529009862196	0.157857661691651	shuffle
0.000637297809676837	-0.153573250220367	0.15481754076186	shuffle
-0.110965467971866	-0.260700246659071	0.0439825463420937	shuffle
0.0264961270948518	-0.128223195968305	0.179956357194552	shuffle
-0.0535065435797759	-0.20600238455494	0.101526554425829	shuffle
-0.112380594068189	-0.262035350936268	0.0425522321930281	shuffle
-0.0484628795209292	-0.201155152806948	0.106528639620984	shuffle
0.214230588746251	0.0620860442239855	0.356644858990151	shuffle
0.0982899466420333	-0.0567658453734823	0.248715899126453	shuffle
0.11695671253686	-0.037922648479613	0.266348783611043	shuffle
0.0281019227025429	-0.126642298917495	0.181510858511124	shuffle
0.0300798338120698	-0.124693975133535	0.183424535581724	shuffle
0.0516282219362934	-0.103390308108798	0.204198090795756	shuffle
-0.0393760122838965	-0.192403272779048	0.115520840935769	shuffle
-0.0294197525951949	-0.182786020150152	0.125344315004214	shuffle
-0.0478036764523234	-0.200521070270721	0.107181829198944	shuffle
-0.0488520485272068	-0.201529431522971	0.106142957946172	shuffle
-0.035998149139945	-0.189143716088673	0.11885705340171	shuffle
0.0246496477598289	-0.130040073462256	0.178167912438702	shuffle
0.0169964718815419	-0.1375594977544	0.170744445097721	shuffle
0.0922642645541877	-0.0628249862156509	0.243002588863447	shuffle
0.0437454458890691	-0.11120009418386	0.196614667962652	shuffle
-0.0754561940247505	-0.227010384311088	0.0796661787763439	shuffle
0.0416246511762346	-0.113297989574917	0.194571284683314	shuffle
-0.156428610413845	-0.303308099457484	-0.0022883501199478	shuffle
0.0127477669856611	-0.141726273573646	0.166615715806897	shuffle
-0.00596816123892288	-0.160016360675549	0.148363829183515	shuffle
-0.0164842563851523	-0.170246979676311	0.138062126202207	shuffle
0.0603155362165532	-0.0947612360727761	0.212534342347616	shuffle
-0.0389035060288498	-0.191947518655047	0.115987731292347	shuffle
0.268074380086281	0.118789175155772	0.405507825479696	shuffle
0.0363000732642996	-0.11855899437882	0.189435203023566	shuffle
-0.0132121565510403	-0.167067254660953	0.141271105274006	shuffle
-0.0328772896736984	-0.186129159188763	0.121936326661496	shuffle
0.140135842072541	-0.014370128754962	0.288105818809621	shuffle
0.0174834392424841	-0.137081571055522	0.171217316774276	shuffle
-0.0426170697580285	-0.195527644133955	0.112316458588697	shuffle
0.123276424680648	-0.0315181498875751	0.272295899877592	shuffle
-0.0594647728210358	-0.211718936641643	0.0956073262930759	shuffle
0.0807490565786268	-0.0743724213048621	0.232055162436748	shuffle
0.0334928329428001	-0.121329221494078	0.1867239643622	shuffle
-0.0759539067052834	-0.22748511514438	0.0791687543704573	shuffle
0.016904982430843	-0.137649280652345	0.170655595983351	shuffle
0.048128652004723	-0.106859834911329	0.200833677832355	shuffle
-0.0560618040427657	-0.208455274166206	0.0989893637123617	shuffle
0.0954349675371299	-0.059638101832513	0.246010226628282	shuffle
-0.0485079097564822	-0.20119846238756	0.10648401528593	shuffle
-0.0213877614330856	-0.175006066318276	0.133247130325465	shuffle
0.0139627010647273	-0.140535326021856	0.167796893487205	shuffle
0.0324431593003487	-0.12236443615893	0.185709587419244	shuffle
-0.0156427599029182	-0.169429545266287	0.138887699760838	shuffle
-0.0661914388580823	-0.218160260428889	0.0889114856592316	shuffle
-0.0859747196684493	-0.237027918242744	0.0691372837887786	shuffle
0.0250657885005637	-0.129630694743097	0.178571062489618	shuffle
-0.0171771287518279	-0.170919880965117	0.137382203217391	shuffle
-0.091280243202165	-0.242068584794445	0.0638133867671901	shuffle
0.0848758292338931	-0.0702388763885483	0.235982867809307	shuffle
0.0565500352721403	-0.0985043555488917	0.208923727449881	shuffle
0.0247746375480594	-0.129917120219651	0.178289005828865	shuffle
0.00292519942353133	-0.151338518816151	0.157049818344843	shuffle
-0.11536996434869	-0.26485379789446	0.0395286888518801	shuffle
0.0902594718757402	-0.0648383794131119	0.241099403332325	shuffle
0.109112535338295	-0.0458544059517788	0.258951226349118	shuffle
-0.140037663609655	-0.288013984872445	0.0144702516438795	shuffle
-0.0807684193330504	-0.232073602698668	0.0743530392134092	shuffle
0.0868312354659967	-0.0682783994233781	0.237842226800334	shuffle
0.149031900519339	-0.00528500576316945	0.296415711658321	shuffle
0.0487817260830852	-0.106212653685408	0.201461803039444	shuffle
0.0579116496080884	-0.0971513406345079	0.210229814277203	shuffle
0.107191935934073	-0.0477934756103345	0.257137296315354	shuffle
-0.0143399702342248	-0.168163590550583	0.1401654143075	shuffle
0.032615220044909	-0.122194768585023	0.185875884776356	shuffle
-0.0166784657717793	-0.170435605714161	0.137871561167905	shuffle
-0.134347920152069	-0.282687272779868	0.0202673925144302	shuffle
-0.0178547742002083	-0.171577855534609	0.136717081651877	shuffle
0.00387405353174531	-0.150411252981283	0.15797514189974	shuffle
0.000209879730295973	-0.153990560417697	0.154400339577526	shuffle
0.0522456775588936	-0.102777761454618	0.204791325823878	shuffle
-0.0658649669704795	-0.217847942756747	0.0892367854702785	shuffle
0.132218748991909	-0.022434083188905	0.280691597157034	shuffle
0.0439711000225925	-0.110976795241109	0.196832007327679	shuffle
-0.124665456243837	-0.273601512864744	0.0301087767926904	shuffle
0.0437809633270112	-0.111164948484933	0.196648877671505	shuffle
0.00796859164098099	-0.146406757990811	0.161965038485729	shuffle
-0.0529869684836376	-0.205503390526162	0.102042208684097	shuffle
-0.00872632679959127	-0.162702856980562	0.145665130994489	shuffle
-0.0773619979500908	-0.228827797846001	0.0777610601469174	shuffle
0.000434431141161122	-0.153771326214408	0.154619530223389	shuffle
-0.0515880340170387	-0.204159475421538	0.103430172446023	shuffle
0.195890676597348	0.0429938692365836	0.339821666090854	shuffle
-0.16338479614607	-0.309776005991912	-0.009426831505554	shuffle
0.123095771967017	-0.0317014029279697	0.272126055966422	shuffle
0.0943480682336251	-0.0607309042290137	0.244979551696282	shuffle
-0.0907013326012189	-0.241518969314361	0.0643947315751284	shuffle
0.0459958832329498	-0.108972444791825	0.198781510578698	shuffle
0.0931271820287777	-0.0619579780514464	0.243821414744387	shuffle
-0.100474757965667	-0.250784867048094	0.054566077321723	shuffle
-0.0947960753880201	-0.245404425072777	0.0602805089219238	shuffle
-0.175213839546089	-0.320743706368258	-0.0216020082188677	shuffle
-0.0644421117885841	-0.216486412031494	0.0906541461581718	shuffle
0.0735355815493847	-0.081584954854434	0.225177780521141	shuffle
0.0178522685692798	-0.136719541231798	0.171575422890403	shuffle
-0.0413319415654766	-0.19428915501678	0.113587430200763	shuffle
-0.0128294276927011	-0.166695121453776	0.14164623911542	shuffle
0.0419481056265427	-0.112978116882368	0.194883018491692	shuffle
-0.0567049799534396	-0.209072380801477	0.0983504183374524	shuffle
-0.0491180317688736	-0.20178521213059	0.105879331339664	shuffle
0.149591599947519	-0.00471255817379132	0.296937787116393	shuffle
0.0297573077733707	-0.125011758013457	0.183112563088749	shuffle
-0.0159797923839784	-0.169756965915888	0.138557070443205	shuffle
-0.124073570995627	-0.273045240506266	0.0307094051019012	shuffle
-0.0945723593960698	-0.245192268351875	0.0605054253507132	shuffle
-0.00494315259112209	-0.159017404298029	0.149366152662035	shuffle
-0.0446474900506493	-0.197483384147	0.110307371068137	shuffle
0.00711333145046407	-0.147243628378563	0.161132051453075	shuffle
0.085313763862179	-0.0697999102204456	0.236399387779381	shuffle
-0.109583335054174	-0.259395716787717	0.0453789003057105	shuffle
0.00603276054953421	-0.148300648941372	0.160079307521277	shuffle
0.0378597875559051	-0.11701880228246	0.190940569944526	shuffle
0.141647311365575	-0.0128283336687298	0.289519269959212	shuffle
0.138449259837689	-0.0160896833218016	0.286527849214326	shuffle
-0.101710361493093	-0.251954348624711	0.053321348541626	shuffle
-0.0216399986062827	-0.175250680609572	0.132999248513565	shuffle
0.178358058232173	0.024845913985725	0.323652425141735	shuffle
-0.0164129160615496	-0.170177687494166	0.138132124946196	shuffle
0.0377694447598147	-0.117108034632339	0.190853394733934	shuffle
-0.013716542739503	-0.167557610234905	0.140776660548048	shuffle
0.00679113884678737	-0.147558835898762	0.160818192653383	shuffle
-0.0521923310318778	-0.204740076314573	0.102830688500491	shuffle
0.150417407634202	-0.00386775650413023	0.297707921737759	shuffle
-0.125444414229822	-0.274333450250715	0.0293181420095664	shuffle
0.102656825169158	-0.052367569022369	0.25284986663464	shuffle
0.0460727762483274	-0.10889630288578	0.198855520945048	shuffle
0.151417578172063	-0.00284428658240158	0.298640407647897	shuffle
-0.0636160810778571	-0.215695711462136	0.0914766989092246	shuffle
-0.148575723996296	-0.295990134954664	0.00575149772880611	shuffle
0.0299058013165746	-0.124865452202543	0.183256201532643	shuffle
0.00967395398470246	-0.144737404499307	0.163625334015376	shuffle
-0.0416141947328517	-0.194561206622323	0.113308329693508	shuffle
0.00147254657898794	-0.152757595187727	0.155632665255587	shuffle
0.0923216798321611	-0.0627673060271306	0.243057077124776	shuffle
0.130924868123909	-0.0237500550873753	0.27947821304679	shuffle
-0.0122102013644467	-0.166092945242003	0.142253083334106	shuffle
-0.0962273810459999	-0.246761434699271	0.0588411502705415	shuffle
-0.0936252989013663	-0.244293982074638	0.0614573932673479	shuffle
0.089438997042881	-0.0656620100783595	0.240320177202127	shuffle
-0.0239188576772798	-0.177459810726144	0.13075886106024	shuffle
0.0547491357141026	-0.100293001248854	0.207195434399805	shuffle
0.044719935818121	-0.110235663052574	0.197553142836683	shuffle
0.0720182050979032	-0.0831000678132189	0.223729176068895	shuffle
-0.0345348618622493	-0.187730630581397	0.12030121301653	shuffle
0.0204528943079643	-0.134165686465523	0.174099286464654	shuffle
0.0676843252877115	-0.087423537178958	0.219588026131154	shuffle
0.135868996187646	-0.0187186227358267	0.284112193849897	shuffle
-0.0291723705553252	-0.18254668709632	0.125588011970947	shuffle
0.031501195712566	-0.123293137760563	0.184799020434662	shuffle
0.138318796176273	-0.0162226594405441	0.286405753675616	shuffle
0.185874821197165	0.0326141195762624	0.330595074885749	shuffle
-0.0180270769367734	-0.171745134754445	0.136547941096757	shuffle
0.0177676832017453	-0.136802570886206	0.171493300316985	shuffle
-0.0569514623722397	-0.209308840608434	0.0981055232865133	shuffle
0.000514273914807169	-0.153693370398187	0.154697463235256	shuffle
-0.0380197599397541	-0.191094927477454	0.116860790060555	shuffle
-0.0809147702889649	-0.232212977592899	0.0742065383103457	shuffle
0.0886581273217423	-0.0664456870601055	0.239578384419668	shuffle
0.0357936738747139	-0.119058895214005	0.188946293981755	shuffle
-0.00151231041701839	-0.155671465799048	0.152718758911814	shuffle
-0.0943610870200404	-0.244991899046925	0.0607178169353167	shuffle
-0.00742953692171629	-0.16144004769611	0.146934247703961	shuffle
-0.146197538603615	-0.29377052734365	0.00818237323363626	shuffle
0.0662395060101649	-0.0888635882799177	0.218206240996869	shuffle
0.0327397534215234	-0.122071961682421	0.185996241276573	shuffle
-0.00734965496482535	-0.161362242441887	0.147012408386037	shuffle
-0.0251637795233584	-0.178665987024112	0.129534288339964	shuffle
-0.0931351653025289	-0.243828989102246	0.0619499558398728	shuffle
-0.108123272973984	-0.258017039220764	0.0468533278389446	shuffle
-0.188538348036353	-0.333051414970928	-0.0353711941575876	shuffle
0.122104971406258	-0.0327062801047021	0.271194371772766	shuffle
-0.00312406179258102	-0.157243771559099	0.151144203437223	shuffle
-0.0532909747239736	-0.205795364296746	0.101740506659442	shuffle
0.0358391121700727	-0.119014043228042	0.188990166001031	shuffle
-0.0544829019563275	-0.206939853575015	0.100557338476006	shuffle
-0.0501484291993298	-0.202775888835369	0.104857857583709	shuffle
0.18747271918516	0.0342678586782558	0.332068913120199	shuffle
0.0533433638265122	-0.101688511759278	0.205845677112852	shuffle
-0.0254584236559739	-0.178951393479123	0.129244391298951	shuffle
-0.0806437384209113	-0.231954860008212	0.0744778425885029	shuffle
-0.134496964861521	-0.282826924552499	0.0201156669818917	shuffle
-0.0283901235335937	-0.181789772153979	0.126358483538165	shuffle
0.0806385289191578	-0.0744830571013299	0.231949898523083	shuffle
0.110968717970533	-0.0439792621899132	0.260703313534795	shuffle
-0.0564521425623573	-0.20882980591788	0.0986016079229672	shuffle
-0.00870676047885316	-0.162683807115748	0.145684283551155	shuffle
0.013244976235235	-0.141238934810667	0.16709916370855	shuffle
-0.0161573047445768	-0.169929402152099	0.138382916727643	shuffle
-0.025717783689129	-0.179202600684719	0.128989188000053	shuffle
-0.0571509469876994	-0.209500200619117	0.0979073096184315	shuffle
0.0399511313417947	-0.114952464995587	0.192957912632802	shuffle
0.132018413333674	-0.0226378743423288	0.280503756112773	shuffle
-0.0208353629673811	-0.174470295682803	0.13378992299584	shuffle
0.0231230465064231	-0.131541416928673	0.176688525724059	shuffle
0.0184571197626949	-0.136125751299699	0.172162600938428	shuffle
-0.128248670657613	-0.276967004419007	0.0264702446497563	shuffle
-0.0644678012560936	-0.21651099953761	0.0906285614614792	shuffle
-0.111522929306803	-0.261226253336984	0.0434191777880919	shuffle
-0.0323455654087687	-0.185615258653251	0.122460668608165	shuffle
0.0188641015886067	-0.135726149666321	0.172557629700248	shuffle
0.162736694695664	0.00876108217089938	0.309173968863108	shuffle
-0.238212492053597	-0.378504974956413	-0.0872207661564847	shuffle
-0.122288359418506	-0.271366838964774	0.0325203102422344	shuffle
0.0226819441001269	-0.131975089163813	0.176260936435547	shuffle
-0.00679054513817924	-0.160817614272831	0.147559416706924	shuffle
0.0319023730449678	-0.122897641783183	0.185186858298641	shuffle
-0.0778316649524477	-0.229275519780352	0.0772913879692132	shuffle
-0.0326147024773318	-0.18587538455851	0.122195278967387	shuffle
-0.100855160517582	-0.251144959531323	0.0541829167299636	shuffle
-0.0430436015912542	-0.195938588764573	0.111894513221724	shuffle
-0.00441607898328306	-0.15850360427586	0.14988143780871	shuffle
0.033293985412278	-0.121525355813232	0.186531828431029	shuffle
0.0499175325741894	-0.105086782984263	0.202553920188163	shuffle
-0.0811968085934704	-0.232481554549812	0.0739241921514076	shuffle
0.0257496391024066	-0.128957841716799	0.179233453362134	shuffle
-0.00244369080986187	-0.156580147096129	0.151808968351697	shuffle
-0.0341086258109796	-0.187318898337304	0.120721754223849	shuffle
0.000701875252134043	-0.153510195166761	0.154880569779812	shuffle
0.0276644409355465	-0.127073075262231	0.181087427293035	shuffle
0.00156328848190265	-0.152668969303983	0.155721208204484	shuffle
0.0379326031117915	-0.116946879917109	0.191010830694964	shuffle
-0.095555502775609	-0.246124505710461	0.0595168890506415	shuffle
-0.05271177960151	-0.205239070118105	0.102315287181243	shuffle
0.0744582280404036	-0.0806633340438115	0.226058282295924	shuffle
0.0427554575965381	-0.112179564947593	0.195660980604881	shuffle
0.162880771687132	0.0089090705983677	0.309307815615518	shuffle
0.0440897488965576	-0.110859378449741	0.196946278272935	shuffle
-0.00798764790862874	-0.161983595980439	0.146388108954046	shuffle
-0.0133836426024633	-0.167233978989735	0.141103007863317	shuffle
-0.0984623683219113	-0.248879228545628	0.0565922980328862	shuffle
0.108852477336813	-0.0461170332860622	0.258705673722426	shuffle
-0.106394426612407	-0.256383769769806	0.048598311421546	shuffle
0.00996393959242446	-0.144453454487777	0.163907569579035	shuffle
0.076805103020508	-0.0783178720039958	0.228296840637391	shuffle
0.186050483468456	0.0327958796010702	0.330757133394615	shuffle
-0.0601638191026905	-0.212388946120205	0.094912136232693	shuffle
-0.0352043562401724	-0.188377234968684	0.11964055138896	shuffle
0.104410476315456	-0.0505996149398275	0.25450844344466	shuffle
-0.0874086652822537	-0.238391082359668	0.0676992430338152	shuffle
0.00199260437047926	-0.152249631039342	0.1561400868727	shuffle
-0.0979761902079524	-0.248418665966982	0.0570816261390435	shuffle
0.111864758477616	-0.0430736776320789	0.261548750890104	shuffle
0.0773098884129317	-0.0778131660151507	0.228778119163828	shuffle
-0.0361834734046876	-0.189322637093562	0.118674104885465	shuffle
0.00927323758989318	-0.145129738760924	0.1632352855355	shuffle
-0.0653580745151813	-0.21736296497493	0.08974179255263	shuffle
0.047121242809655	-0.107857896519245	0.199864507599354	shuffle
0.096145493540067	-0.0589235158947286	0.24668381371779	shuffle
-0.112045070351285	-0.261718852042266	0.0428914144149901	shuffle
-0.0388025372823555	-0.191850121071277	0.116087491115378	shuffle
0.0147016182976872	-0.13981077856481	0.168515064293648	shuffle
0.036213650393716	-0.118644313752291	0.189351770454972	shuffle
0.146851452037346	-0.00751415378718455	0.294380996398465	shuffle
0.0821782843463691	-0.0729414511996186	0.233416005836664	shuffle
-0.0407640771237449	-0.193741743772296	0.114148877741238	shuffle
-0.147237304671467	-0.294741157474559	0.00711979496469761	shuffle
0.115069095479303	-0.0398331255424151	0.264570247359237	shuffle
0.104924647978534	-0.050081065399464	0.254994571905811	shuffle
-0.0927088274299956	-0.243424463203108	0.0623783451062787	shuffle
0.00154678002456328	-0.152685092983617	0.155705099981929	shuffle
-0.0474296352490905	-0.200161225909361	0.107552398777759	shuffle
-0.0519489107193723	-0.20450621408216	0.103072183579093	shuffle
-0.11755412696899	-0.26691146306497	0.0373177630869089	shuffle
-0.0692096685613709	-0.221046161131827	0.0859025240358167	shuffle
-0.112330840321325	-0.261988420352847	0.042602530703333	shuffle
-0.0132171784364919	-0.167072137226745	0.14126618274986	shuffle
0.144630213661644	-0.00978342630541981	0.292306841345749	shuffle
-0.0518669962125715	-0.204427512092976	0.103153446106816	shuffle
-0.0925077412433452	-0.243233646635359	0.0625803790210039	shuffle
0.174720006079867	0.0210928115437152	0.320286611150035	shuffle
-0.108273635008298	-0.258159048210197	0.0467015175876326	shuffle
-0.137170208566511	-0.285330630482411	0.0173931305655288	shuffle
-0.0540640047469644	-0.206537675759049	0.100973207340227	shuffle
0.0592956457251455	-0.0957754976920411	0.211556813199471	shuffle
-0.0173466845896573	-0.171084527753198	0.137215794093735	shuffle
0.0115775692061251	-0.142872945428881	0.165477613780148	shuffle
-0.0402394290991093	-0.193235907713239	0.114667509283348	shuffle
0.0215426433169816	-0.133094925068538	0.175156269750389	shuffle
-0.109515906233803	-0.259332059925312	0.0454470074268647	shuffle
0.111245490745156	-0.0436995685848247	0.260964480309762	shuffle
0.0516767168963501	-0.10334220295368	0.204244687525815	shuffle
0.140024175703095	-0.0144840064365785	0.288001368373835	shuffle
-0.0162085639714091	-0.169979193823478	0.138332625579056	shuffle
-0.0533092110136592	-0.205812877936747	0.10172240768502	shuffle
0.0538450257377742	-0.101190581716866	0.206327416324109	shuffle
-0.109414306526561	-0.259236141231826	0.0455496264566387	shuffle
-0.103294639246385	-0.253453203734556	0.0517246653023542	shuffle
0.0565130466326317	-0.0985411025864705	0.208888239645388	shuffle
0.0761137527662098	-0.0790089845020192	0.227637565045425	shuffle
-0.122833281055639	-0.27187925384612	0.0319676536047551	shuffle
-0.0216696474558843	-0.175279432193075	0.132970110337839	shuffle
0.0720151448838116	-0.0831031227379201	0.223726253875368	shuffle
0.128544297197006	-0.0261698710480016	0.277244505289956	shuffle
0.00218951130076895	-0.152057281796255	0.156332188197776	shuffle
0.0178503193163409	-0.136721454658086	0.171573530416112	shuffle
0.0600412067394641	-0.0950340831560379	0.212271437147222	shuffle
0.0377349195441886	-0.117142134821721	0.190820079398481	shuffle
-0.0364074179059661	-0.189538830373862	0.118453017191345	shuffle
0.122980048278715	-0.0318187868820941	0.272017251371379	shuffle
-0.0996773447593831	-0.250029893508014	0.0553691238798338	shuffle
-0.0953186467720857	-0.245899939305731	0.0597550721149877	shuffle
0.0828463446328532	-0.0722723573888426	0.234051898278972	shuffle
0.179472810263838	0.0259967858784406	0.324683023974875	shuffle
-0.078532266453239	-0.229943266784439	0.076590650773684	shuffle
-0.0765485705273961	-0.228052225982036	0.0785743336744105	shuffle
0.141128839501123	-0.0133572908209898	0.289034493432462	shuffle
0.0649305619687728	-0.0901676529895876	0.216953876891117	shuffle
-0.0465907052994715	-0.199353987911509	0.108383385709052	shuffle
0.0516786942312149	-0.103340241497345	0.204246587447527	shuffle
0.0177236945233018	-0.136845749656566	0.171450591571913	shuffle
-0.0313466568885667	-0.184649607410279	0.123445474933194	shuffle
-0.0927704804695606	-0.243482965239994	0.0623163989472635	shuffle
0.0661601864146422	-0.0889426273344941	0.218130364284932	shuffle
-0.10668457781741	-0.256657940186231	0.0483055179714628	shuffle
-0.0460660594426834	-0.198849056015786	0.108902954152549	shuffle
-0.0207384742401982	-0.174376314039689	0.133885117338549	shuffle
-0.0218342738152836	-0.175439071682191	0.132808314651426	shuffle
-0.0573523362091906	-0.209693375828303	0.0977071909993503	shuffle
0.00355349203591878	-0.150724551446658	0.157662560250734	shuffle
0.0542862633850849	-0.100752562229416	0.206751069831533	shuffle
-0.0468909774606463	-0.199642940626151	0.108085981419247	shuffle
-0.0703704016693306	-0.222155296447068	0.0847446013589861	shuffle
-0.129814277708041	-0.278436337696085	0.0248791797853425	shuffle
-0.0944906702581313	-0.245114796446916	0.0605875488993667	shuffle
0.0340238738939062	-0.12080536716633	0.187237023911126	shuffle
0.0672499043276438	-0.0878565926335486	0.21917262202391	shuffle
-0.0234071359667396	-0.176963881455495	0.131262081481951	shuffle
0.00343138157308771	-0.150843887076104	0.157543481402135	shuffle
-0.0606704908286564	-0.21287448239856	0.0944081649488323	shuffle
-0.0465601382944673	-0.199324571709874	0.108413659215829	shuffle
0.0266947270246092	-0.128027718016557	0.18014865474729	shuffle
0.0316978643324168	-0.123099260447695	0.184989155631423	shuffle
-0.0497856096617499	-0.202427091239759	0.105217572262419	shuffle
0.0504751058473116	-0.104533941794536	0.203089907229933	shuffle
-0.0301385116438645	-0.18348129006425	0.124636156820243	shuffle
-0.0351575706081169	-0.188332053251158	0.119686724227611	shuffle
-0.0776590117960411	-0.229110941246126	0.0774640510312399	shuffle
-0.0929380409352315	-0.243641956378893	0.0621480358054648	shuffle
-0.0622424182554785	-0.214380359787118	0.0928441095381839	shuffle
-0.0728049544913488	-0.224480351325531	0.0823145815326786	shuffle
-0.0208245212449886	-0.174459779398418	0.133800575260605	shuffle
0.0230846071019017	-0.131579211193593	0.176651266211287	shuffle
-0.088950739162763	-0.239856373777403	0.0661520456833611	shuffle
0.047157697150196	-0.107821785879432	0.199899583428786	shuffle
-0.0640804714859048	-0.216140263984058	0.091014289837267	shuffle
-0.0269020990684626	-0.180349433522136	0.12782359301733	shuffle
-0.0468141489600364	-0.199569010880763	0.108162078778852	shuffle
0.057231247733197	-0.097827517008538	0.20957722758358	shuffle
0.0815262943747219	-0.0735943152266941	0.232795285154281	shuffle
0.00919319741535095	-0.145208098848004	0.163157370431807	shuffle
0.126208286464065	-0.0285426310097742	0.275051045018909	shuffle
0.0105017790500482	-0.143926741982353	0.164430968235036	shuffle
0.0280033696352516	-0.12673934652412	0.181415475624411	shuffle
0.0438251734127285	-0.111121200577317	0.196691459450488	shuffle
-0.0588045667014505	-0.211086022559075	0.0962637515805729	shuffle
0.00343329309055889	-0.150842019030523	0.15754534549724	shuffle
0.0932326258843147	-0.0618520182858052	0.243921456116947	shuffle
-0.00297615266487615	-0.157099514877524	0.151288731757232	shuffle
-0.0797825658828988	-0.23113457967741	0.0753397283084904	shuffle
-0.0547239279973651	-0.20717123622279	0.100318030335143	shuffle
0.0821118662669889	-0.0730079644009417	0.233352778791167	shuffle
-0.0328931533034479	-0.186144489771714	0.121920681950571	shuffle
0.115257820749461	-0.0396421656558176	0.264748112422729	shuffle
0.111934176970326	-0.0430035091101601	0.261614239445217	shuffle
0.117846229980818	-0.0370219658670841	0.267186545508733	shuffle
0.0651010694165116	-0.0899978112619642	0.217117042399148	shuffle
0.103935650445472	-0.0510784094638084	0.254059447454414	shuffle
-0.0483003527106722	-0.200998831359453	0.106689696228594	shuffle
0.0106116776463888	-0.14381910622762	0.164537905428125	shuffle
0.122630027716268	-0.0321738031341927	0.271688135264109	shuffle
-0.142980364489752	-0.290765340171093	0.0114679245841896	shuffle
0.0624726861844593	-0.0926149304741549	0.214600891486666	shuffle
-0.0257031356945095	-0.179188413674284	0.129003601778926	shuffle
0.00616123070833757	-0.148174997173044	0.160204487661307	shuffle
0.00914577969305823	-0.145254520332473	0.163111210746637	shuffle
-0.153897977874868	-0.300951738700902	0.000304709625320349	shuffle
0.0734319489855952	-0.0816884556438113	0.225078866218169	shuffle
0.0878509850878372	-0.067255529930857	0.23881144863513	shuffle
0.0778104571910651	-0.0773125974486381	0.229255304327508	shuffle
0.00473624705555831	-0.149568440568198	0.158815719328904	shuffle
0.0192040170385361	-0.135392359678184	0.172887523941352	shuffle
-0.00184029584917172	-0.155991487512698	0.15239840615234	shuffle
0.216431666862413	0.0643849137776101	0.358657718464497	shuffle
-0.0487508338290644	-0.201432093766954	0.106243270150046	shuffle
0.0347557576740203	-0.120083246679264	0.187943988651364	shuffle
-0.145522271924963	-0.293139997332392	0.00887226840893776	shuffle
0.00294249534387064	-0.151321618840581	0.157066687766818	shuffle
-0.00507420709010545	-0.159145145424813	0.149238016299095	shuffle
0.0173003049614062	-0.137261313849192	0.171039491779972	shuffle
-0.0509489669815273	-0.203545351133878	0.104064026968803	shuffle
-0.0194546066898565	-0.17313070376206	0.135146263315817	shuffle
0.014068750330074	-0.140431349273767	0.167899975265755	shuffle
-0.00140899192284232	-0.155570649248146	0.152819666329585	shuffle
0.0658657725591367	-0.0892359828145114	0.217848713457353	shuffle
0.129904540925021	-0.0247874249281126	0.278521029158144	shuffle
-0.0483403582293778	-0.201037310167069	0.106650053350729	shuffle
0.0898639576610414	-0.0652354412955461	0.24072379754951	shuffle
-0.0328368026397041	-0.186090032254454	0.121976254623845	shuffle
0.00184125988211431	-0.152397464505998	0.155992428090541	shuffle
-0.033365522392216	-0.18660095220972	0.121454796324977	shuffle
0.225259894562162	0.0736216149583369	0.366717757424049	shuffle
-0.125994166775233	-0.274849914011786	0.0287600319330392	shuffle
0.0566784779294535	-0.0983767485680005	0.209046955357329	shuffle
-0.0994962391980819	-0.249858401207434	0.0555514809197409	shuffle
0.0340368868699574	-0.12079252921344	0.187249595209899	shuffle
-0.0369131319169886	-0.190026985872158	0.117953697961012	shuffle
-0.145561270659468	-0.293176415880541	0.00883242883239951	shuffle
-0.00900243686266759	-0.16297166683863	0.145394847422262	shuffle
-0.0330962836351248	-0.186340787959835	0.121720348027548	shuffle
0.0657388125210384	-0.0893624781459132	0.217727249405371	shuffle
-0.073850068285012	-0.225477929935026	0.0812708475226219	shuffle
-0.14220306091682	-0.290038817281593	0.01226124892487	shuffle
-0.0505398320544024	-0.20315212166298	0.1044697587075	shuffle
-0.0647442697578926	-0.216775596590623	0.0903532075390217	shuffle
0.105552038903338	-0.0494482193814749	0.255587641848302	shuffle
-0.0872786190946507	-0.238267479953742	0.0678296871933623	shuffle
-0.0232934692116329	-0.176853712028869	0.131373849060929	shuffle
0.045577428608238	-0.109386779978347	0.198378712887475	shuffle
-0.0270294337153941	-0.180472713304383	0.127698245688438	shuffle
0.152398860546561	-0.00183983065212892	0.299555010509747	shuffle
0.0330907206491061	-0.121725834598306	0.186335412243815	shuffle
-0.0607518754338498	-0.212952465097192	0.0943272066949205	shuffle
-0.0457888741571223	-0.198582253423121	0.109177422716172	shuffle
-0.0231037579290623	-0.176669829261698	0.131560381836486	shuffle
-0.0730642608028876	-0.224727893196677	0.0820556492990516	shuffle
-0.0610835099285453	-0.213270217098809	0.0939972883314967	shuffle
0.0161796616298576	-0.138360982170964	0.169951119054644	shuffle
0.0535843032955727	-0.101449374336101	0.20607705728187	shuffle
-0.0570430007209885	-0.209396652234286	0.098014569670127	shuffle
-0.041860518884008	-0.194798608578252	0.113064736907894	shuffle
-0.089819074097559	-0.240681170370639	0.0652804973879286	shuffle
-0.00648821212359386	-0.160523072989116	0.147855166624799	shuffle
-0.0673633572306042	-0.219281113820375	0.087743502000597	shuffle
0.0434285281681944	-0.11151367776614	0.19630940246917	shuffle
0.114065796240611	-0.0408481144894598	0.263624512238479	shuffle
0.155461002654042	0.00129662798829654	0.302407337980527	shuffle
0.00391382771889575	-0.150372377805236	0.158013923820837	shuffle
0.0265083551812033	-0.12821116045398	0.179968197573259	shuffle
0.0607700509048014	-0.0943091261600112	0.212969880561865	shuffle
0.0193317828754022	-0.135266887176619	0.173011514137362	shuffle
-0.0301235313303637	-0.183466800874505	0.124650917800598	shuffle
0.0587044938717786	-0.0963632395476081	0.210990075460362	shuffle
0.0553478128703947	-0.0996985088453831	0.207770080414137	shuffle
0.0806357834368028	-0.0744858052211794	0.231947283745888	shuffle
0.103330525812018	-0.0516884885497725	0.253487146984276	shuffle
0.00203293445852106	-0.152210235399247	0.156179433635831	shuffle
0.0353325856573074	-0.119513998073712	0.1885010650752	shuffle
-0.175222947546361	-0.320752136151347	-0.0216114003184824	shuffle
-0.0898150176550375	-0.24067731782475	0.0652845693919368	shuffle
-0.0239920207968103	-0.177530709559465	0.130686906894821	shuffle
0.083332725671409	-0.0717851360501319	0.234514778164724	shuffle
0.0208403452869855	-0.133785027729612	0.174475128435435	shuffle
0.264071533241787	0.114539988082928	0.401902087222742	shuffle
-0.0255875849968204	-0.179076497212119	0.129117302574073	shuffle
0.0264644121429408	-0.128254411250084	0.179925647599883	shuffle
-0.143969641607383	-0.291689742123044	0.0104579765003706	shuffle
-0.104437893050298	-0.254534366770592	0.0505719668764495	shuffle
-0.0449027786081449	-0.19772919694254	0.110054675069344	shuffle
0.0513842343037434	-0.103632323553986	0.203963643039843	shuffle
-0.00850707083647212	-0.162489381746602	0.145879743789735	shuffle
-0.0309111202663791	-0.184228478692327	0.123874767392736	shuffle
0.112959443112234	-0.0419669874920382	0.262581302488245	shuffle
-0.0142231336944504	-0.168050032638181	0.140279976926481	shuffle
-0.0485227602781879	-0.201212745323559	0.106469298489244	shuffle
-0.0820887923748563	-0.233330813176965	0.073031071015851	shuffle
-0.00637890968157924	-0.160416580738994	0.14796208228684	shuffle
-0.0629407306003818	-0.215049098162962	0.0921490486430689	shuffle
-0.13319394485921	-0.28160580921528	0.0214418830435084	shuffle
0.00729495328381073	-0.147065930258046	0.161308961743878	shuffle
0.0058924354896461	-0.148437889843212	0.159942570412804	shuffle
0.229840284888707	0.0784242078858767	0.370891234628193	shuffle
0.156157917273142	0.00201088031283841	0.303056133343519	shuffle
-0.00137726502455762	-0.155539689998567	0.152850652192528	shuffle
0.0144225190066433	-0.140084469639186	0.16824382040612	shuffle
-0.00162219889465783	-0.155778689711521	0.152611431300783	shuffle
-0.0885991013321932	-0.239522305094354	0.0665049174725674	shuffle
0.0898015231847505	-0.0652981155930746	0.2406645016183	shuffle
-0.0177972767626587	-0.171522032472451	0.13677352186373	shuffle
0.0264461334934908	-0.128272401779544	0.179907948243855	shuffle
-0.142099842510183	-0.289942329241406	0.0123665801112418	shuffle
-0.024563136306185	-0.178084095146773	0.130125172538626	shuffle
-0.145684246221697	-0.293291252479538	0.00870679861487756	shuffle
0.037455080024758	-0.11741851587208	0.190550033386725	shuffle
-0.123953281258836	-0.27293217624919	0.0308314580384064	shuffle
-0.0482288460580599	-0.20093005240645	0.106760553462303	shuffle
0.019408018481953	-0.135192017600428	0.17308549456578	shuffle
0.0115864136925082	-0.142864280308845	0.165486217220866	shuffle
-0.0957484085676971	-0.24630739037706	0.0593228893951121	shuffle
-0.0486542707215319	-0.201339226615417	0.1063389692992	shuffle
-0.133849377032703	-0.282220102612072	0.0207748510359061	shuffle
0.0977711992496857	-0.0572879229273082	0.248224455092261	shuffle
-0.0842759323653108	-0.235412215289685	0.0708400887994894	shuffle
0.0305820844386247	-0.124199047512712	0.183910290304336	shuffle
-0.00534048580458444	-0.159404676085906	0.148977650738067	shuffle
-0.0952471913143198	-0.245832188238321	0.0598269244576415	shuffle
-0.0285447818847935	-0.181939436508649	0.126206168122847	shuffle
-0.0924835579650574	-0.243210697628903	0.0626046754199621	shuffle
0.128099125454397	-0.0266221805545987	0.276826618790313	shuffle
0.0346246512810761	-0.120212616167104	0.187817357813472	shuffle
0.158288727211534	0.0041956761397872	0.305038974782373	shuffle
-0.135326858233289	-0.283604402292012	0.0192707163220987	shuffle
0.0317178532373474	-0.123079554582662	0.185008479853173	shuffle
0.0147701222436325	-0.13974359843795	0.168581636597962	shuffle
-0.0162914375732815	-0.170059693087201	0.138251315436438	shuffle
0.0544627570041238	-0.10057733903384	0.206920513845128	shuffle
-0.134593427105073	-0.28291730430337	0.0200174659043615	shuffle
-0.0816089224979969	-0.232873957272182	0.0735115836889204	shuffle
-0.0166353840347695	-0.170393763511722	0.137913835460832	shuffle
0.109827962576592	-0.0451317998565522	0.259626648956312	shuffle
-0.0181170105345248	-0.171832442801599	0.136459654423211	shuffle
0.0745078177169983	-0.0806137919824299	0.226105599797475	shuffle
0.241072026126459	0.090230641973653	0.381101111759411	shuffle
-0.0111735552864122	-0.16508458579011	0.143268740697081	shuffle
0.111857368676975	-0.0430811471854935	0.261541779361594	shuffle
-0.0665860241383156	-0.218537696889054	0.0885182728240552	shuffle
-0.0369932167698501	-0.190104283216466	0.117874618602025	shuffle
-0.0232554020128774	-0.176816815231493	0.131411279343299	shuffle
-0.0756165235816904	-0.22716331852625	0.0795059505164366	shuffle
-0.04471325916106	-0.197546713887508	0.110242271785344	shuffle
0.0134030837108124	-0.141083950357726	0.167252879713647	shuffle
-0.130698021666121	-0.279265430585354	0.0239807193863796	shuffle
-0.0413686092270135	-0.194324498717773	0.113551173484849	shuffle
-0.02589599506267	-0.179375198490393	0.128813820921358	shuffle
-0.134987145876246	-0.283286169554654	0.0196166189967346	shuffle
0.00184314624445353	-0.152395621947617	0.155994268556527	shuffle
-0.00161085352756158	-0.155767619613957	0.152622512441225	shuffle
-0.0267318395153117	-0.180184588208217	0.127991187598627	shuffle
-0.0823989281122454	-0.233626039667732	0.072720481528138	shuffle
-0.0421752283501491	-0.195101892770718	0.112753489998416	shuffle
0.0654360021781776	-0.0896641599271458	0.217437528444132	shuffle
0.128195362237818	-0.0265244061035307	0.276916961843477	shuffle
0.00863410954397305	-0.145755397142397	0.162613072808565	shuffle
-0.00310065013157499	-0.157220938460313	0.151167080409544	shuffle
0.0413669465000124	-0.113552817586094	0.19432289603551	shuffle
-0.0229225741199877	-0.176494201969513	0.131738519787128	shuffle
0.0398203321379836	-0.115081739524558	0.192831779599478	shuffle
0.0768874593079662	-0.0782355340992386	0.228375366808695	shuffle
-0.00156400577627218	-0.155721908106747	0.152668268726388	shuffle
0.157588740277261	0.00347779214708754	0.304387736904179	shuffle
0.0994083734698255	-0.0556399500927282	0.249775196079537	shuffle
0.00409429127590364	-0.150195987250264	0.158189879293616	shuffle
-0.00703133756243554	-0.161052181366443	0.147323847626615	shuffle
-0.0840191779509521	-0.235167945537029	0.0710973718271711	shuffle
0.0275612153091212	-0.127174710205977	0.180987508656811	shuffle
0.0261419573080386	-0.128571768395826	0.179613397531775	shuffle
0.0117527654395578	-0.142701297767531	0.165648030890858	shuffle
0.0196164209123982	-0.134987340426042	0.173287723250572	shuffle
-0.0558901051918384	-0.208290514108972	0.0991599115833995	shuffle
0.0174199260478421	-0.137143909194013	0.171155646039313	shuffle
-0.00464367653714963	-0.158725480352824	0.149658940955001	shuffle
0.0606494417304051	-0.0944291034428729	0.212854312844774	shuffle
-0.161975304864762	-0.308466545443639	-0.00797913393740394	shuffle
0.141947542058987	-0.0125219917431058	0.289799954067049	shuffle
0.107266304536896	-0.0477184135448441	0.257207554183969	shuffle
0.060174753805163	-0.0949012606488185	0.21239942548303	shuffle
-0.0753055942049841	-0.226866724232175	0.0798166761458225	shuffle
-0.122218008519605	-0.271300678618348	0.0325916528520896	shuffle
-0.0762808709038958	-0.227796942598255	0.07884193750143	shuffle
-0.0126750224855356	-0.166544978465076	0.141797567687803	shuffle
0.0696957703715292	-0.0854176501945655	0.221510702179054	shuffle
-0.0481853119510797	-0.200888178218373	0.106803691424317	shuffle
-0.0641886732791221	-0.216243834544336	0.090906540082769	shuffle
0.171410370022581	0.0176822681232027	0.31722144180141	shuffle
-0.105758907811259	-0.255783169385091	0.0492395244839744	shuffle
-0.107755968880617	-0.257670112692105	0.0472241395326612	shuffle
-0.120480745133605	-0.26966645075303	0.0343529054648576	shuffle
0.0301830735053758	-0.124592247002887	0.183524390588568	shuffle
0.0874510333912995	-0.0676567441231154	0.238431350074843	shuffle
0.00570545905266071	-0.148620747549844	0.159760365562589	shuffle
-0.0329739990281268	-0.186222617773894	0.121840950705611	shuffle
0.068286003106206	-0.0868236537579698	0.22016327443941	shuffle
-0.0335726860790616	-0.186801118957517	0.121250454526059	shuffle
-0.0600037486881222	-0.212235537302593	0.095071336987521	shuffle
0.0327645464693741	-0.122047511788278	0.186020202211284	shuffle
0.00499384231199482	-0.149316592242731	0.159066813072917	shuffle
0.0249649542208819	-0.129729895371477	0.178473380690729	shuffle
-0.0624784317588235	-0.214606393927293	0.0926092118586835	shuffle
0.0813170234724421	-0.0738038384944689	0.232596024705233	shuffle
-0.0230409658860909	-0.176608964022549	0.131622119421295	shuffle
-0.110158022203926	-0.259938203205281	0.0447983736197141	shuffle
0.0300310337109056	-0.124742059605536	0.183377334277715	shuffle
0.0402860436758968	-0.114621432684259	0.193280854153569	shuffle
-0.0253950157882798	-0.178889975755189	0.129306779818441	shuffle
-0.0155220893210062	-0.169312307835684	0.139006069389482	shuffle
-0.0905941384692486	-0.241417189002747	0.0645023648881259	shuffle
0.0126703540481056	-0.141802142990813	0.16654043878458	shuffle
-0.0813741030997767	-0.232650375193772	0.0737466913914092	shuffle
0.0184867906163721	-0.136096620195904	0.172191402029336	shuffle
-0.109455285753045	-0.259274829433819	0.0455082364901335	shuffle
0.154647755287836	0.000463347638584521	0.301650070004854	shuffle
0.115089271992989	-0.0398127106672996	0.264589263299851	shuffle
-0.161474098411946	-0.308000775452447	-0.00746449710472667	shuffle
-0.0193816365961777	-0.173059893297007	0.135217926961234	shuffle
0.0741419960581697	-0.0809792443581731	0.225756523082157	shuffle
-0.0673844744295587	-0.219301307184675	0.0877224517902593	shuffle
0.0818838591122681	-0.073236287601853	0.233135716431014	shuffle
0.0188650705276947	-0.135725198237917	0.172558570122588	shuffle
-0.120780924714284	-0.269948888382403	0.0340486495311038	shuffle
-0.0482385703868723	-0.200939405878533	0.106750917541717	shuffle
-0.0799636406463246	-0.231307074092673	0.0751585228295171	shuffle
-0.065384569826904	-0.217388316663854	0.0897153977647677	shuffle
0.000716559090513903	-0.153495857319082	0.154894901357025	shuffle
0.0410361120267824	-0.113879929195375	0.194003992478149	shuffle
0.0118919355973041	-0.142564939857769	0.165783398119742	shuffle
0.0170725811091862	-0.13748480625691	0.170818355948892	shuffle
-0.00656973035929657	-0.160602493036972	0.147775426111392	shuffle
-0.0646129297456195	-0.216649899052039	0.0904840210124178	shuffle
0.0336675772765513	-0.121156851510421	0.186892800963163	shuffle
0.00726092555036766	-0.147099223623348	0.161275817494318	shuffle
-0.119792430485255	-0.269018721645995	0.0350504588900613	shuffle
0.0427017753950842	-0.112232668231224	0.195609258556958	shuffle
-0.0502668162452749	-0.202889692179242	0.104740474867757	shuffle
0.0523286938765436	-0.102695396175445	0.204871077159899	shuffle
0.156621685202771	0.00248627294179885	0.303487804444815	shuffle
0.0859500454856745	-0.0691620227973174	0.23700445680444	shuffle
-0.124067308404474	-0.273039354193609	0.0307157596036438	shuffle
-0.00753863773782218	-0.1615463091097	0.146827494648407	shuffle
-0.146291938435708	-0.293858662921635	0.00808591668064058	shuffle
0.0524991952535576	-0.102526225253761	0.205034866469178	shuffle
-0.0742816628710685	-0.225889801448877	0.0808397234555497	shuffle
0.0106025854253009	-0.14382801137608	0.164529058349583	shuffle
-0.115236473940905	-0.264727994527686	0.0396637657904908	shuffle
0.041980456824836	-0.112946122156873	0.194914195717732	shuffle
0.108007432727896	-0.0469702789222445	0.257907629817407	shuffle
-0.00255150106491076	-0.156685313010652	0.151703640307196	shuffle
0.0276357628346967	-0.127101311766237	0.181059668256572	shuffle
0.0865285060033247	-0.0685819923121332	0.23755443944172	shuffle
-0.11435339394481	-0.263895638474111	0.0405571985921274	shuffle
-0.0177777695440736	-0.171503093096774	0.136792670168205	shuffle
0.00198412509410296	-0.152257913788569	0.156131814275105	shuffle
0.139406309063668	-0.0151140361575851	0.287423364924422	shuffle
-0.13302153348795	-0.281444199183028	0.0216173228832416	shuffle
0.116272576794202	-0.0386152002942964	0.265704299924221	shuffle
-0.0302868983140198	-0.18362480833652	0.124489939041995	shuffle
-0.113118408839319	-0.262731217015962	0.0418062467557277	shuffle
0.0510709122941016	-0.103943086016901	0.203662546199388	shuffle
0.146873615826886	-0.00749150269281597	0.294401685571806	shuffle
-0.0625960520862658	-0.214719034828557	0.0924921411706509	shuffle
-0.0591979410507718	-0.211463150715166	0.0958726462264851	shuffle
-0.0592043315075783	-0.211469276874591	0.0958662922347719	shuffle
-0.040340270081139	-0.193333139219569	0.11456783126598	shuffle
0.00454171227103464	-0.149758622027196	0.158626081246746	shuffle
0.0220620951038984	-0.132584397047449	0.175659978473067	shuffle
-0.162059580891732	-0.308544856061511	-0.00806567624592313	shuffle
0.0365947099643508	-0.118268102582181	0.189719628433502	shuffle
0.00881238006059848	-0.145580896106485	0.162786637490417	shuffle
-0.0613334935007364	-0.213509714873278	0.0937485758498986	shuffle
-0.0349143007215714	-0.188097112741178	0.119926796994249	shuffle
0.20499392174715	0.0524565717876469	0.348183597307389	shuffle
-0.0449634344748971	-0.19778759856832	0.109994632242091	shuffle
