cor	ci95_lower	ci95_upper	type
0.0832621903994717	-0.0728375326353357	0.235380093991363	real
-0.0925673488925479	-0.244218473773581	0.0635034736050826	shuffle
-0.0501127090379219	-0.203687695988409	0.10586921447204	shuffle
-0.010938167396907	-0.165815498603658	0.144465758368042	shuffle
-0.0543173223828259	-0.207725398062404	0.101698518530341	shuffle
0.193793728092723	0.0398327040062207	0.338766183644603	shuffle
0.173411727885983	0.0187576832372303	0.31996147895139	shuffle
-0.00457969534730754	-0.159625014405553	0.150686124533095	shuffle
0.152182462066817	-0.00304826015948307	0.300251536088273	shuffle
-0.0383398733583061	-0.192354347597305	0.117517958922792	shuffle
0.167637281674923	0.0128117755919809	0.314612824677789	shuffle
0.0694751344553167	-0.086617317416033	0.222238224061403	shuffle
-0.00851411778250585	-0.163456930033488	0.146838607233219	shuffle
-0.0652014930587287	-0.218153272981343	0.0908766130023219	shuffle
-0.0492509379126227	-0.20285948913484	0.10672335679535	shuffle
0.104191697563012	-0.051804532994164	0.255224420359991	shuffle
-0.0833313239946222	-0.235445852508868	0.0727682850021593	shuffle
-0.0395590200688411	-0.193529892902035	0.116313650098327	shuffle
0.0422990072086704	-0.113605336901241	0.19617027511507	shuffle
0.0913485858277945	-0.0647275779338069	0.243062280195755	shuffle
-0.112978256396934	-0.263517652080167	0.0429330872931958	shuffle
0.0849756282129435	-0.0711208247349933	0.237009471983236	shuffle
0.0510808227917088	-0.104909396302421	0.204617841549951	shuffle
0.118069709823276	-0.0377811694928723	0.268313080815529	shuffle
0.105933058841276	-0.0500483024710908	0.256869779362399	shuffle
0.060957683879575	-0.0951005335313088	0.214091526380079	shuffle
-0.152900089902903	-0.300919876481808	0.00231354142559027	shuffle
-0.0145987886529748	-0.169373880207758	0.140879066074646	shuffle
-0.111422321050923	-0.262050695333556	0.0445058479819276	shuffle
-0.0136088282298888	-0.168411966892546	0.141849436294462	shuffle
-0.154937501223857	-0.302816564156324	0.000226693841855595	shuffle
-0.0859838646985345	-0.237967845681342	0.0701102316850827	shuffle
0.0715185042232302	-0.0845787883932579	0.224189481377309	shuffle
-0.0506581372316841	-0.204211767281014	0.105328495695062	shuffle
0.0570479959336085	-0.0989869318119248	0.210344874594544	shuffle
0.12683942258217	-0.0288878426241159	0.276555488003184	shuffle
0.035365598650503	-0.120454112388627	0.189484588660376	shuffle
0.0902602174820993	-0.0658203192144231	0.242029422567081	shuffle
0.223686783585321	0.0709919531463749	0.366137992052327	shuffle
-0.00544758014407754	-0.160470689313255	0.149837814091562	shuffle
-0.054573372750836	-0.20797111520278	0.101444356359892	shuffle
0.00648840350626665	-0.148820163963056	0.161484577093136	shuffle
0.100462563338492	-0.0555622669362223	0.25169793064347	shuffle
-0.00654214278716427	-0.16153691676788	0.148767612218721	shuffle
0.0901867506064134	-0.0658940677855879	0.241959690372565	shuffle
0.103697996963427	-0.0523022737396298	0.254757778556489	shuffle
0.0938885715121697	-0.062175929981292	0.24547137991392	shuffle
-0.0511790508986141	-0.20471220178356	0.104811993651861	shuffle
-0.0437068399624114	-0.197526062640826	0.112212876854873	shuffle
-0.0992969471889645	-0.250594830688021	0.0567359165142786	shuffle
0.0157253852570861	-0.139774400007596	0.170468199970013	shuffle
-0.0290556013680223	-0.183387593165468	0.12667422060293	shuffle
-0.0875749525957511	-0.239479643827385	0.0685147728589556	shuffle
-0.0212052107612411	-0.175785590964931	0.13439571989476	shuffle
-0.0842858041504218	-0.236353592950334	0.0718120765463413	shuffle
-0.0178280735357367	-0.172509625962556	0.137711607133839	shuffle
-0.0687253705728835	-0.221521951549088	0.0873649774508852	shuffle
-0.0232158202903561	-0.177734342109456	0.132419919841671	shuffle
0.0189171401400009	-0.136642673298613	0.173566440280544	shuffle
-0.00314206499865961	-0.158223673339867	0.152090827515194	shuffle
-0.0617533176979348	-0.214853430461682	0.0943090562375922	shuffle
0.0923714955526505	-0.0637002169525873	0.244032704325526	shuffle
-0.0103531440514252	-0.165246440701479	0.145038588525019	shuffle
-0.0476067499871174	-0.201278729168386	0.108352351247105	shuffle
-0.10195741829384	-0.253112036262069	0.0540564781288452	shuffle
-0.0176894397445752	-0.172375072201574	0.137847652113325	shuffle
0.0808433163614089	-0.075259449487456	0.233078431344323	shuffle
0.0330211948840739	-0.122766548227723	0.187220709857117	shuffle
-0.101452115780848	-0.252634101523436	0.0545655559879615	shuffle
0.0802551615254793	-0.0758480659674353	0.232518518825365	shuffle
0.00967168002031734	-0.145705718010893	0.164583443943237	shuffle
-0.187882176273565	-0.333324005965023	-0.0337060138857768	shuffle
-0.0578664520302741	-0.211129573457113	0.0981737449401893	shuffle
0.0829689544710711	-0.0731312355358699	0.235101158254278	shuffle
-0.0378964667498882	-0.191926689280065	0.117955855298913	shuffle
-0.0871358754360812	-0.239062521071352	0.0689551359984825	shuffle
-0.112973118068454	-0.263512808740645	0.0429382824578206	shuffle
-0.0929831201794308	-0.244612801370964	0.0630857727315237	shuffle
-0.022918147864643	-0.177445904278212	0.132712516717565	shuffle
-0.0272582311284797	-0.181648719946758	0.128443748182423	shuffle
-0.0461025999354693	-0.199831903421259	0.109841868654576	shuffle
-0.0786523172480326	-0.230992128264376	0.0774516162649988	shuffle
0.0299119696942771	-0.125830769319972	0.184215750660818	shuffle
-0.100772018353799	-0.251990722476711	0.0552506067105172	shuffle
-0.0144002027298672	-0.16918094417103	0.141073746160796	shuffle
-0.0658100799560794	-0.218735316936856	0.0902704174955231	shuffle
-0.0536566648711637	-0.20709131276546	0.102354210082664	shuffle
0.157801540811861	0.00270912648126525	0.305480805817542	shuffle
-0.088714928822933	-0.240562358095832	0.0673711738154137	shuffle
0.083529297781709	-0.0725699763248432	0.235634153581316	shuffle
-0.10773832959217	-0.258574601247419	0.0482265978211053	shuffle
0.138537244937069	-0.016986632600565	0.287515762759512	shuffle
-0.0954717147541629	-0.246971996883104	0.0605844850366578	shuffle
0.0250510991538713	-0.130615334579794	0.179512099458961	shuffle
0.0649661883057104	-0.0911109621437168	0.217928201650217	shuffle
-0.0637103714868992	-0.216726725211639	0.0923613866266451	shuffle
-0.0149905411492863	-0.169754452333769	0.140494983403858	shuffle
0.055296807765326	-0.100726146109052	0.208665250497099	shuffle
0.0922640046666239	-0.0638081911486361	0.24393074308676	shuffle
0.0428722996645537	-0.113038378377065	0.196722444922162	shuffle
-0.0354880734129171	-0.189602811671789	0.120333261178181	shuffle
0.00120908169939187	-0.153978549981462	0.156338498026314	shuffle
0.0823823391562652	-0.0737187037745797	0.234543075102177	shuffle
-0.0809441793353213	-0.233174440890973	0.075158496417278	shuffle
-0.100222458752041	-0.251470735861561	0.0558040615892312	shuffle
-0.0299460477499751	-0.184248701571372	0.125797200622217	shuffle
0.0406120377020915	-0.115273079397069	0.194544894829434	shuffle
-0.0714280733007139	-0.224103152843096	0.0846690327282463	shuffle
-0.012907526285318	-0.167730355455044	0.142536679510603	shuffle
-0.0811837247896617	-0.233402447759743	0.0749187241629723	shuffle
-0.0220742556106376	-0.176628047476145	0.133541872512866	shuffle
0.0132538442939416	-0.142197322735886	0.168066968368268	shuffle
-0.0983029561787	-0.249653840527891	0.0577364175539849	shuffle
0.159120583758277	0.00406212806908605	0.306707053962587	shuffle
0.0327251704063928	-0.123058415927658	0.186934736630519	shuffle
0.0801678547542171	-0.0759354319933773	0.232435395791203	shuffle
-0.00504837910617548	-0.160081732424776	0.150228039909303	shuffle
-0.107967054657463	-0.258790532549526	0.0479957165237405	shuffle
-0.00495016353359801	-0.159986029843957	0.150324039889884	shuffle
-0.0369567722720841	-0.191020176159232	0.118883671853311	shuffle
-0.0725131664864804	-0.225138862814995	0.083586009412973	shuffle
0.0511197664681509	-0.104870780245809	0.204655252104409	shuffle
0.02857369026484	-0.127148763797101	0.182921461029053	shuffle
-0.122528334751212	-0.272506368166824	0.03326278073884	shuffle
0.0512013487631554	-0.104789882749827	0.204733621240136	shuffle
0.0582077537721771	-0.0978345789240019	0.211456739847572	shuffle
0.101443441492824	-0.0545742943774866	0.252625896400833	shuffle
0.102915747060737	-0.0530907664336664	0.254018258214165	shuffle
-0.00847214164190515	-0.163416072190934	0.14687968101165	shuffle
0.0984773151928639	-0.0575609392608874	0.249818923175771	shuffle
-0.0475740294977605	-0.201247262814717	0.10838476087821	shuffle
-0.0373047567524136	-0.191355903674313	0.118540117693315	shuffle
-0.0253431786434739	-0.179794931539113	0.13032804471995	shuffle
-0.0495164606975433	-0.203114693762893	0.106460209077992	shuffle
0.0314252635331596	-0.124339750578107	0.185678657504961	shuffle
-0.178177519679341	-0.324368829137626	-0.0236732399802551	shuffle
-0.0151136204961234	-0.169874009544592	0.140374304072537	shuffle
0.0350166906651363	-0.120798369856088	0.189147768628772	shuffle
0.0625445021763728	-0.0935218093618967	0.215610889081064	shuffle
-0.0947533572357912	-0.246291176028218	0.0613067078252518	shuffle
0.0720510405354662	-0.0840472989225958	0.224697810645618	shuffle
0.0647267734380448	-0.091349386966789	0.217699182253736	shuffle
0.186195824539724	0.0319604126346362	0.331769770908792	shuffle
0.0255877414232805	-0.130087472263586	0.180031731675854	shuffle
0.0668365508870245	-0.0892477178911081	0.219716772813826	shuffle
-0.0456347897989925	-0.199381785174083	0.110304985096557	shuffle
-0.0518500120630469	-0.205356666575236	0.104146590837434	shuffle
-0.0122169954545812	-0.167059068047578	0.14321322112554	shuffle
0.0634775071104987	-0.0925931970204284	0.21650388613868	shuffle
0.0376354287705316	-0.118213621005898	0.191674895121331	shuffle
0.0379250008651692	-0.117927677602949	0.191954211722016	shuffle
-0.023359037351927	-0.177873106735932	0.132279135078892	shuffle
-0.0654076025726232	-0.218350405409828	0.0906713263302375	shuffle
-0.0349238720338632	-0.189058159600635	0.120889945017225	shuffle
-0.00620603406102052	-0.161209547456194	0.14909627916303	shuffle
-0.0397866477507405	-0.193749330768814	0.116088742018435	shuffle
-0.14719415687595	-0.295601811877264	0.00815073881883216	shuffle
0.0114248066951989	-0.143989182344227	0.16628877881577	shuffle
-0.100234857144001	-0.251482468032096	0.0557915763746145	shuffle
-0.0902230873266919	-0.241994180115309	0.0658575919518364	shuffle
0.102251247905872	-0.0537604158848871	0.253389917797863	shuffle
0.0732211585484799	-0.0828791690259325	0.225814447855559	shuffle
0.0346602493199355	-0.121150021575383	0.188803638774955	shuffle
0.0780052590256987	-0.0780987307522475	0.230375721393619	shuffle
0.043397906856576	-0.11251848904483	0.197228600664195	shuffle
-0.0104925197955906	-0.165382022203424	0.144902127133364	shuffle
-0.0693851483091398	-0.222152266233148	0.0867070603458978	shuffle
0.0662874753900571	-0.0897948169888432	0.219191815071164	shuffle
-0.0730366653400388	-0.225638413620383	0.0830633772560201	shuffle
-0.0654415683395245	-0.218382890602189	0.090637494890258	shuffle
-0.0206825799115998	-0.175278840903243	0.134909099974456	shuffle
-0.0178540191601605	-0.172534807358926	0.137686145359337	shuffle
0.103713354277149	-0.052286791918907	0.254772295225167	shuffle
-0.0459764961138784	-0.199710575047635	0.109966713900974	shuffle
0.0918011251347264	-0.0642731101777448	0.243491637128211	shuffle
-0.0536088403396453	-0.20704540677369	0.102401669870423	shuffle
-0.104085183780375	-0.255123750348349	0.051911924978032	shuffle
-0.0347844228410165	-0.188923527637321	0.121027521055783	shuffle
-0.10256247786128	-0.253684228045681	0.0534467911665179	shuffle
-0.071592987520421	-0.224260583948945	0.0845044568553097	shuffle
0.0712224673076831	-0.084874204961368	0.223906865225003	shuffle
-0.0556215936752121	-0.208976832057	0.100403652956661	shuffle
-0.179264525796233	-0.325373191886226	-0.0247954525251373	shuffle
-0.0803174961047737	-0.232577864973052	0.075785687615413	shuffle
-0.0224620500436305	-0.177003904322837	0.133160785094387	shuffle
-0.0879684334693883	-0.239853402530757	0.0681200878653365	shuffle
0.095788716708352	-0.0602657254170877	0.247272386832411	shuffle
0.129468209326845	-0.0262171902322392	0.279021927360042	shuffle
0.050513499815272	-0.105471893248928	0.204072801892776	shuffle
-0.0408658811936204	-0.19478952484316	0.115022185210908	shuffle
0.0525508674736759	-0.103451392268552	0.206029702957404	shuffle
-0.0493940207226463	-0.202997014371153	0.106581556557602	shuffle
0.0880127022627819	-0.0680756805440032	0.239895449652387	shuffle
-0.0103486267770325	-0.165242046303426	0.145043011244116	shuffle
0.00920258484246363	-0.146164863708293	0.164126979610707	shuffle
-0.040698719285935	-0.194628432380271	0.115187407167891	shuffle
-0.0752076594723502	-0.227709237040986	0.0808950605555235	shuffle
-0.017244990122879	-0.171943663931075	0.138283762632793	shuffle
0.0187430162626331	-0.136813602609277	0.173397496931729	shuffle
0.224927531518246	0.0722917294544863	0.367268789466813	shuffle
-0.0170785374001026	-0.17178208010624	0.138447076720208	shuffle
0.00693123745124089	-0.148387089639601	0.161915851693118	shuffle
0.075124245376316	-0.080978399082358	0.227629697186169	shuffle
0.0832454145094317	-0.0728543359708148	0.23536413688435	shuffle
0.0235583358482355	-0.132083210879497	0.178066199072214	shuffle
-0.0516373662764793	-0.205152432616653	0.104357490149608	shuffle
-0.130826033171228	-0.280295123006867	0.0248368709500417	shuffle
0.0807216250989866	-0.075381245191849	0.232962591795485	shuffle
-0.0474773056496174	-0.201154244416931	0.108480563871119	shuffle
0.00532007632397077	-0.149962456507209	0.160346462681857	shuffle
-0.012767028571376	-0.167593784705637	0.142674342702704	shuffle
-0.100674062017212	-0.251898043776293	0.0553492643835099	shuffle
-0.109377848417501	-0.260122080238739	0.046571254435568	shuffle
0.0750136894265867	-0.0810888515102193	0.22752427296871	shuffle
0.0355677039181602	-0.120254683794499	0.189679675381111	shuffle
0.061728304012359	-0.0943339422514693	0.214829480031754	shuffle
0.0093453052132382	-0.146025177512309	0.164265864118817	shuffle
0.0631039591336029	-0.092965018923427	0.216146386883577	shuffle
0.0509359947558985	-0.105053001822024	0.204478711121217	shuffle
0.132625577113541	-0.0230065984535118	0.281981697981489	shuffle
-0.0290637520873258	-0.183395476413197	0.126666193886421	shuffle
0.0655720451460743	-0.0905075307399571	0.218507676746876	shuffle
-0.0281297677680084	-0.182492012243682	0.12758583612008	shuffle
0.076766372675434	-0.0793373579039368	0.22919518019357	shuffle
-0.00918033499024762	-0.16410532720924	0.146186639979843	shuffle
-0.041012496775269	-0.19493081015667	0.114877264034958	shuffle
-0.104042994659747	-0.255083874985779	0.0519544609484764	shuffle
0.0631243553013704	-0.0929447181248043	0.216165907831088	shuffle
-0.0911913431251953	-0.242913078696753	0.0648854755547744	shuffle
0.227307348298382	0.0747862173125523	0.369436538723983	shuffle
0.0297171200627589	-0.126022699723452	0.184027339096322	shuffle
0.0939956556056457	-0.0620683093774049	0.245572904827654	shuffle
0.117109611965769	-0.0387533034187501	0.267409373789319	shuffle
0.109432152759307	-0.0465164112923091	0.26017332278027	shuffle
0.0589637863478101	-0.0970831481903417	0.212181338308329	shuffle
0.113141668502249	-0.0427678632537787	0.26367167881664	shuffle
0.0280123049210954	-0.127701476278708	0.182378369316889	shuffle
-0.00732207646403194	-0.162296439410427	0.148004814833817	shuffle
-0.00710488443657016	-0.162084949793004	0.148217253400215	shuffle
-0.0689198753974678	-0.221707783833595	0.0871710353002996	shuffle
0.105047082684873	-0.0509419644124059	0.25603275691751	shuffle
0.0505584282395087	-0.105427350655218	0.204115969089145	shuffle
0.0588132987674097	-0.0972327339608909	0.212037121087968	shuffle
-0.0372370615785128	-0.191290595733611	0.118606953938111	shuffle
-0.0931152853905758	-0.244738139565613	0.0629529826901961	shuffle
0.0232214401376133	-0.132414395556353	0.177739787358689	shuffle
0.0190343627682542	-0.136527596080087	0.173680170178312	shuffle
-0.0269347939438425	-0.181335706775948	0.12876206985216	shuffle
-0.0870961690425875	-0.239024797282042	0.0689949556861747	shuffle
-0.040591596332951	-0.194525194565054	0.115293282400888	shuffle
-0.062291078208247	-0.2153682878788	0.0937739933234924	shuffle
0.0490525653517829	-0.106919940679695	0.202668811668136	shuffle
-0.0666330349531283	-0.219522206499702	0.0894505122548012	shuffle
0.121691446078351	-0.0341113729060796	0.271719717742191	shuffle
-0.11127253258931	-0.26190943601835	0.0446572154284006	shuffle
-0.059735754174389	-0.212921035668813	0.0963156955929828	shuffle
-0.0559027080919112	-0.209246492476995	0.100124496536966	shuffle
-0.0154385963784161	-0.170189663766537	0.140055642931255	shuffle
0.0797239214854513	-0.0763796294821535	0.232012701374775	shuffle
-0.00885583873742116	-0.163789527330477	0.14650421232837	shuffle
0.0213614532167137	-0.134242226771746	0.175937069894487	shuffle
0.0853089585154245	-0.0707867507916885	0.237326350031984	shuffle
0.0823066184991301	-0.0737945266339215	0.234471030083975	shuffle
0.0957408853444205	-0.060313824028269	0.247227063863545	shuffle
0.066861680188481	-0.0892226767884942	0.219740796209898	shuffle
-0.129763468520652	-0.279298828870892	0.0259170899003922	shuffle
-0.075416323501981	-0.227908200572997	0.0806865760059383	shuffle
0.113129725683107	-0.0427799387852711	0.263660422178296	shuffle
0.112675530933272	-0.0432391468837117	0.263232292990323	shuffle
-0.116428464980314	-0.266768073234227	0.0394428106005336	shuffle
-0.0116663446968878	-0.166523659691056	0.143752612363024	shuffle
0.071324311009361	-0.0847725777703494	0.224004094764108	shuffle
0.0468818088052056	-0.109070327499377	0.200581499744349	shuffle
-0.159167659714756	-0.306750809067974	-0.00411042648634793	shuffle
-0.0032442131318519	-0.158323263627616	0.151991039666309	shuffle
-0.0102035956349484	-0.165100956947767	0.145185003303644	shuffle
-0.0262904285994455	-0.180712015335217	0.129396148230209	shuffle
0.125252975641703	-0.0304984800702786	0.275066061166932	shuffle
-0.04343582069226	-0.197265108229634	0.112480984356643	shuffle
-0.0105082513993623	-0.165397325176207	0.144886724106781	shuffle
-0.0232492582367231	-0.177766741062743	0.132387050343997	shuffle
0.081118292219249	-0.0749842204763828	0.233340168650731	shuffle
0.0853041880417442	-0.070791532155028	0.237321815243745	shuffle
-0.0670240518425389	-0.219896017645312	0.0890608702699291	shuffle
-0.0416872808666556	-0.195580979862095	0.114210192723612	shuffle
-0.0468307676036846	-0.200532403786967	0.109120872187635	shuffle
0.00905811114514494	-0.146306259645993	0.163986382643785	shuffle
-0.0700663063730364	-0.222802872548774	0.0860276803337722	shuffle
0.00492030480020905	-0.150353224475844	0.159956934513024	shuffle
0.0703554816727337	-0.0857392159763227	0.223079036433052	shuffle
-0.117546832593259	-0.267820947288242	0.0383106382483809	shuffle
0.14265614861793	-0.0127855976292015	0.291365703798776	shuffle
0.031901801152626	-0.123870081725578	0.18613918668669	shuffle
0.0421887624169187	-0.113714352031499	0.196064081044544	shuffle
-0.00344958198110686	-0.158523480379442	0.151790406591625	shuffle
-0.056618602471949	-0.209933112458903	0.099413477502318	shuffle
0.00396490667549537	-0.151286908876238	0.159025820955948	shuffle
-0.10397941247696	-0.255023778840093	0.0520185647907641	shuffle
-0.0650456299700584	-0.21800419020971	0.0910318450380262	shuffle
0.0204302403121475	-0.135156943164652	0.175034139628926	shuffle
0.0120675833192962	-0.14335958726073	0.166913800772902	shuffle
-0.00905062299856826	-0.163979095258574	0.146313588097655	shuffle
0.157168947568587	0.00206044858288152	0.304892541729043	shuffle
-0.121079265769554	-0.271144159494766	0.0347319720315262	shuffle
0.012907450788971	-0.142536753485436	0.167730282070445	shuffle
0.123231070016405	-0.0325500445120888	0.273166763548428	shuffle
-0.0997604098140792	-0.251033483198215	0.0562693113433034	shuffle
0.176875663763147	0.0223297312096373	0.323165517341524	shuffle
0.166811501103723	0.0119623689183065	0.313847171368802	shuffle
0.0275527631842403	-0.128153846561761	0.181933732354023	shuffle
0.0791234998208861	-0.0769803099447099	0.231440913835201	shuffle
-0.0307576470799124	-0.185033354451111	0.124997626701915	shuffle
0.0522813293036302	-0.103718772943545	0.205770880739022	shuffle
0.0400215244454323	-0.115856654776166	0.193975740687773	shuffle
0.00658965273458229	-0.148721151420745	0.161583188622075	shuffle
-0.0149899700268945	-0.169753897544449	0.140495543378742	shuffle
-0.0302315973563568	-0.184524792882859	0.125515905053857	shuffle
0.10550918784966	-0.0504758816809378	0.256469357181055	shuffle
0.0318853485685263	-0.123886298327043	0.186123287927473	shuffle
0.0993382956943961	-0.0566942904111095	0.250633968246486	shuffle
0.0659479216666741	-0.0901331013564398	0.218867131698411	shuffle
0.0597431011186396	-0.0963083907294668	0.212928074646332	shuffle
-0.163820200691697	-0.311072073536858	-0.00888735533899566	shuffle
0.0143343302080011	-0.141138320429947	0.169116943140955	shuffle
-0.0681794165389896	-0.221000281098561	0.0879092889084719	shuffle
-0.061157777260373	-0.2142831546325	0.0949015040408274	shuffle
0.0362441307839275	-0.11958712399879	0.190332523340978	shuffle
0.0050845560690374	-0.150192678305053	0.160116983011654	shuffle
0.0485876951498557	-0.107380571493989	0.202221928663716	shuffle
-0.0436135076847969	-0.197436198910557	0.112305208954914	shuffle
-0.049359932415266	-0.202964250660063	0.106615339878369	shuffle
-0.0434592103872842	-0.197287630159652	0.112457846850152	shuffle
0.0643771183807337	-0.091697563959603	0.21736467906412	shuffle
0.0908540005431126	-0.0652241968071795	0.242592963188424	shuffle
0.0218541000749273	-0.133758199918993	0.17641464899119	shuffle
0.0360056953632491	-0.119822449924538	0.190102414860547	shuffle
-0.0714270660855322	-0.224102191306623	0.0846700378508052	shuffle
0.0243769490865897	-0.131278329891756	0.178859195882431	shuffle
0.0314849438564593	-0.124280934304293	0.185736336685708	shuffle
-0.0781350463149579	-0.230499370422464	0.0779689427227041	shuffle
0.00122210019598102	-0.153965840101278	0.156351198321295	shuffle
-0.0353606520649585	-0.189479813703263	0.12045899330413	shuffle
0.0138765335689722	-0.141587058012889	0.168672116813481	shuffle
-0.0101297833940885	-0.165029148407791	0.145257266374241	shuffle
-0.0224972938346138	-0.177038060959858	0.133126148573459	shuffle
0.0811772512961238	-0.0749252040228813	0.233396286305823	shuffle
0.00951189874825984	-0.145862117848591	0.164427972388686	shuffle
-0.0236625093263571	-0.178167123850674	0.131980796309113	shuffle
-0.036905068492908	-0.19097029045272	0.118934714188547	shuffle
-0.0535950980844136	-0.207032215680915	0.102415307186115	shuffle
0.000233000131061195	-0.154931346314753	0.155386127977061	shuffle
0.112744683739153	-0.0431692350285776	0.263297481046744	shuffle
-0.0568466506108734	-0.210151803484687	0.0991869489366801	shuffle
0.02966058181009	-0.126078388740392	0.183972666813124	shuffle
-0.0476040196808299	-0.201276103523474	0.108355055627025	shuffle
0.072603350628353	-0.0834959807008113	0.225224927102606	shuffle
-0.130312706193712	-0.279813851643381	0.0253587721427105	shuffle
-0.00977363223739307	-0.164682642220668	0.145605919339092	shuffle
0.0183001847229129	-0.137248268001276	0.172967799490294	shuffle
-0.0349596625523894	-0.189092712812235	0.120854634290303	shuffle
0.0767950883737479	-0.0793086536692781	0.229222548608239	shuffle
-0.000561745177293692	-0.155706919179065	0.154610475988385	shuffle
0.0133486467786003	-0.142104419475994	0.168159107847314	shuffle
0.00449822634756214	-0.150765744335405	0.159545618579656	shuffle
0.1822033013394	0.0278313606631891	0.328086887470219	shuffle
0.0363815349728606	-0.119451503778563	0.190465121239352	shuffle
0.085313684623444	-0.0707820138882109	0.237330842639916	shuffle
0.0445400630455819	-0.111388463520382	0.198328205754721	shuffle
0.005227803070831	-0.150052655911818	0.160256558034573	shuffle
-0.0938182587787139	-0.245404715597753	0.0622465930203229	shuffle
0.0157148004938824	-0.13978478052741	0.170457920234864	shuffle
0.0445777408774428	-0.111351178987321	0.198364473301871	shuffle
0.00610160968847126	-0.149198384489752	0.161107831354377	shuffle
-0.0594661764893472	-0.212662747054214	0.0965837176071256	shuffle
0.0870190234094392	-0.0690723200169667	0.238951502343462	shuffle
0.14629903958506	-0.00906548852200028	0.294766705877188	shuffle
-0.0865673661527027	-0.238522354643359	0.0695252199933942	shuffle
-0.0326330941936712	-0.186845781455384	0.123149193711033	shuffle
0.0729794611185168	-0.0831204909502959	0.225583830175944	shuffle
-0.124317450935144	-0.274187411844213	0.03144789090317	shuffle
0.0517554220829749	-0.10424040567585	0.205265820030195	shuffle
-0.185431333440818	-0.331064913172458	-0.0311693711868236	shuffle
0.17157413733491	0.0168643414451292	0.31826040006418	shuffle
-0.050430925742032	-0.20399346322768	0.105553756570874	shuffle
-0.0181986554217934	-0.172869273185229	0.137347916584375	shuffle
-0.0572864042979575	-0.210573470192706	0.0987500798316386	shuffle
-0.131345201889758	-0.280781794893437	0.0243089441208783	shuffle
-0.0169620882650651	-0.171669032268441	0.138561325060031	shuffle
0.0323246861664847	-0.123453233677664	0.186547808879246	shuffle
0.0524455338683612	-0.103555885424127	0.205928559626175	shuffle
0.14972179975269	-0.00556625327662836	0.297958770225662	shuffle
-0.125661390060076	-0.275449567504304	0.0300839153516654	shuffle
0.00826374500305369	-0.147083589810786	0.163213219635028	shuffle
0.0680054241939031	-0.0880827381899796	0.220834009411339	shuffle
0.0590979560302739	-0.0969497765864319	0.212309911920592	shuffle
-0.0719996856219215	-0.224648793747507	0.0840985567542436	shuffle
-0.010885888818396	-0.165764650917843	0.14451695158307	shuffle
-0.0140111801969689	-0.168802955173779	0.141455082456134	shuffle
-0.0342745873006386	-0.18843125488372	0.121530457276327	shuffle
0.0413293870530688	-0.114564013320205	0.195236157940287	shuffle
-0.127278672502536	-0.276967748228864	0.0284417519333535	shuffle
0.00862910795626648	-0.146726086262149	0.163568853999723	shuffle
0.154089483187178	-0.00109545262314834	0.302027260864529	shuffle
0.0620300159842375	-0.0940337572275095	0.215118354861615	shuffle
-0.0267147524236815	-0.181122739061583	0.128978612835958	shuffle
-0.0270171564123909	-0.181415417764518	0.128681013081456	shuffle
-0.054350121167185	-0.20775687429263	0.101665962752085	shuffle
-0.0277639139900256	-0.18213804253586	0.127945998949862	shuffle
-0.00434871705954865	-0.159399908695322	0.150911854795688	shuffle
0.0379531018126755	-0.11789992741877	0.191981316117313	shuffle
0.0697726330898357	-0.0863206048336408	0.222522387975884	shuffle
-0.0589095248411131	-0.212129338483031	0.0971370853429783	shuffle
-0.104109459969355	-0.255146694936877	0.0518874489504358	shuffle
-0.0259581661403096	-0.180390364691513	0.129723056542402	shuffle
-0.0438684064799916	-0.197681618681966	0.112053035369335	shuffle
-0.0469298887872841	-0.200627746631948	0.109022714487096	shuffle
0.0623190844889295	-0.0937461250621374	0.215395099047354	shuffle
0.159486842891479	0.00443791724176127	0.307047459844453	shuffle
-0.0598417376739661	-0.213022575048084	0.0962103175021028	shuffle
0.109949987239139	-0.0459933916869133	0.26066191794376	shuffle
0.15761611961195	0.00251897713963503	0.305308389739834	shuffle
-0.144839508505311	-0.2934045394978	0.0105564737242116	shuffle
-0.037219065922497	-0.191273234455039	0.118624721024257	shuffle
0.0448442540863969	-0.111087435232895	0.198620998872534	shuffle
0.0459581207593663	-0.109984905450101	0.19969289515916	shuffle
0.026326798973987	-0.129360361880375	0.180747222105244	shuffle
-0.0958890090298213	-0.247367417424317	0.060164870381409	shuffle
-0.0259446930745407	-0.18037732123235	0.129736311786389	shuffle
-0.034355450307566	-0.188509337495402	0.121450693881111	shuffle
0.112514575689211	-0.0434018629248999	0.263080560496154	shuffle
-0.0187110444002369	-0.173366475306164	0.136844986892804	shuffle
-0.0496621485678269	-0.203254711368882	0.106315815083487	shuffle
-0.0531882950255708	-0.206641703055174	0.102818977226971	shuffle
-0.0122158016771787	-0.167057907413544	0.143214390592868	shuffle
0.0458789900016312	-0.110063243483332	0.19961675817977	shuffle
-0.0675863185578303	-0.220433464505746	0.0885004968617433	shuffle
-0.0436392115853381	-0.197460947823995	0.11227978077397	shuffle
-0.0482572705375489	-0.201904250248564	0.107707942089978	shuffle
-0.0931935285851829	-0.244812338706767	0.0628743669854378	shuffle
-0.0406635947759288	-0.194594582142597	0.115222122953673	shuffle
-0.00159589600407997	-0.156715835830753	0.153600883586511	shuffle
0.00303886461145973	-0.152191640090524	0.158123053942846	shuffle
-0.0822261621789932	-0.234394477450121	0.0738750895706206	shuffle
0.0505181649512221	-0.105467268204752	0.204077284179688	shuffle
-0.0206529567188436	-0.175250115394686	0.134938196323732	shuffle
-0.0421049670536774	-0.195983362157574	0.113797210236938	shuffle
0.208984902620463	0.0556300066880317	0.352706834272815	shuffle
0.0335202036864304	-0.122274485501542	0.187702716095809	shuffle
0.233407643969478	0.0811891841653354	0.374986176025559	shuffle
0.0554199485233632	-0.100603878495862	0.208783388564381	shuffle
-0.117747686558579	-0.268010000884378	0.038107262617304	shuffle
-0.00555414287025458	-0.160574509325396	0.149733639029272	shuffle
-0.0695127664501511	-0.222274170718949	0.0865797863824464	shuffle
0.116040791791738	-0.039835175702202	0.266403019087823	shuffle
-0.0225353143000026	-0.177074908202685	0.13308878279552	shuffle
-0.0509177970541369	-0.204461228887375	0.105071045454069	shuffle
0.0331517410332542	-0.122637826645397	0.187346815122228	shuffle
0.000977434288811519	-0.154204697373219	0.15611250402672	shuffle
0.00908118849660578	-0.14628367434319	0.164008841172283	shuffle
0.0562189143685166	-0.0998104633187355	0.20954978707165	shuffle
0.0845700841388863	-0.0715272263386671	0.236623900807678	shuffle
0.0515957098684129	-0.104398802787443	0.205112422483938	shuffle
0.127005291562392	-0.0287193977300738	0.276711171646027	shuffle
0.210409725984098	0.0571156293778504	0.354011103050171	shuffle
0.0752162588604102	-0.0808864688339916	0.22771743690717	shuffle
0.105797691638191	-0.0501848601432676	0.256741906390156	shuffle
-0.0141674460085408	-0.168954794414177	0.141301909660598	shuffle
0.0322342522233387	-0.123542381237232	0.186460429524922	shuffle
0.0910933483214552	-0.0649838745555819	0.242820091598938	shuffle
-0.0207618434261222	-0.175355701167415	0.134831244828581	shuffle
-0.005162804637504	-0.160193226532683	0.150116191948616	shuffle
-0.0021181331036197	-0.157225206897263	0.153090925117034	shuffle
0.00783352889667758	-0.147504499414657	0.162794407344852	shuffle
-0.0193015893076196	-0.173939419096265	0.136265244628043	shuffle
0.0133106445973134	-0.142141660669792	0.168122173473667	shuffle
-0.0227309106652851	-0.17726446207501	0.132896547478725	shuffle
0.101623387699379	-0.054393013504845	0.252796105420336	shuffle
-0.0614499913875277	-0.214562985206386	0.094610821191088	shuffle
0.0505951672865352	-0.105390926645851	0.204151267494219	shuffle
-0.0478504706846731	-0.201513098375566	0.108110935565626	shuffle
0.142264715791631	-0.0131850717704423	0.291000038400205	shuffle
-0.0464346509194906	-0.20015135735964	0.109513108156452	shuffle
0.0678848434995811	-0.0882029369762659	0.220718774098612	shuffle
0.07711952919039	-0.0789843243873894	0.229531750561471	shuffle
-0.0933122048249068	-0.244924877693707	0.0627551220399867	shuffle
-0.00108801880994772	-0.156220391732096	0.15409674049546	shuffle
0.0382140490364585	-0.117642225780129	0.192232998071065	shuffle
0.0515262237978092	-0.104467714225085	0.205045681384587	shuffle
-0.063992578092945	-0.216996760856827	0.0920804346578993	shuffle
0.0487204671906988	-0.107249017099579	0.202349569890594	shuffle
0.125663249611083	-0.0300820276751899	0.27545131353734	shuffle
-0.0573129158860315	-0.210598889541705	0.0987237402248962	shuffle
-0.0376694716478553	-0.191707733629446	0.118180006068007	shuffle
0.0523550725748065	-0.103645622184565	0.205841694354001	shuffle
-0.059470774093161	-0.212667152304211	0.0965791467247125	shuffle
0.128465697289518	-0.0272359303397297	0.278081560698099	shuffle
-0.055768163209001	-0.209117432530365	0.100258107362939	shuffle
-0.0867204657551938	-0.238667830763782	0.0693717063511862	shuffle
-0.0596081628936002	-0.212798790180367	0.096442553394556	shuffle
-0.122363954097713	-0.272351871071162	0.0334294779072922	shuffle
0.01789544835908	-0.137645488331336	0.17257501584212	shuffle
-0.0483209289505832	-0.201965455539665	0.107644874682962	shuffle
0.0879517759724556	-0.0681367973275274	0.239837580858698	shuffle
0.0537502872690874	-0.102261299659292	0.207181177430079	shuffle
-0.0635933481032706	-0.216614741925072	0.092477882457811	shuffle
-0.0489999165460209	-0.202618203212444	0.106972112716497	shuffle
0.132075470026603	-0.0235662097636344	0.281466222603215	shuffle
0.000680307407733917	-0.154494745751167	0.155822604818899	shuffle
0.0470784905359338	-0.108875551487342	0.200770678469009	shuffle
0.0833745355222516	-0.0727250014313997	0.235486953757702	shuffle
-0.065692890799718	-0.218623247333825	0.0903871551586297	shuffle
0.0580252325737407	-0.0980159624890453	0.211281782218222	shuffle
0.0966882893341959	-0.059360991627108	0.248124660195436	shuffle
0.00558953111051598	-0.149699042941757	0.160608985983565	shuffle
0.101965003138966	-0.0540488359959944	0.253119209741111	shuffle
-0.0170259185641729	-0.171730998688844	0.138498701614993	shuffle
0.0661526923972467	-0.0899291004321139	0.219062938792066	shuffle
0.0818960305108207	-0.0742056373818527	0.234080343787441	shuffle
0.0139258317091213	-0.141538738472732	0.168720021266421	shuffle
0.0209041530445382	-0.134691458972367	0.175493691264262	shuffle
0.0342573749674627	-0.121547435288675	0.188414634128171	shuffle
0.108240877177863	-0.0477192907088534	0.259049018951335	shuffle
-0.0465566094772564	-0.200268680959522	0.10939234958886	shuffle
0.0201193305043844	-0.135462286136826	0.174732614800882	shuffle
-0.0694867608379892	-0.222249329804445	0.0866057222725751	shuffle
-0.0492062402698201	-0.202816526380402	0.10676765247481	shuffle
-0.113647109882737	-0.264148042222238	0.0422567634877766	shuffle
0.0661363394812908	-0.0899453923528362	0.219047302161391	shuffle
-0.0679611038050399	-0.220791654255744	0.0881269187338497	shuffle
-0.0372419953076038	-0.191295355523535	0.118602082856814	shuffle
-0.0890639926342376	-0.240893812588287	0.067020918651093	shuffle
-0.0103387060001925	-0.165232395364352	0.145052724338101	shuffle
0.0225845512602887	-0.133040393005929	0.177122625181853	shuffle
-0.0355314952557221	-0.189644725038298	0.120290413835736	shuffle
-0.00103842019404432	-0.156172003131429	0.154145161036909	shuffle
0.0367404557100692	-0.119097215602478	0.190811460689051	shuffle
-0.0504398127826166	-0.204002002154098	0.105544946126476	shuffle
0.0714364249585662	-0.0846606984098307	0.224111125729382	shuffle
-0.0157421156602973	-0.170484448173541	0.139757992364218	shuffle
0.00972201618185842	-0.145656445499542	0.16463242081289	shuffle
0.0608590328573659	-0.0951986554372862	0.213997044538743	shuffle
0.182468462922507	0.0281054265249537	0.328331622035466	shuffle
0.0634151888420351	-0.0926552303566162	0.216444248098656	shuffle
-0.040725944680045	-0.194654669819646	0.11516049831845	shuffle
-0.0401301159342139	-0.194080412154073	0.115749347191997	shuffle
0.0777384817731101	-0.0783654929110554	0.230121545858491	shuffle
-0.13487694736583	-0.284090436171322	0.020715314385223	shuffle
-0.00183346479994742	-0.156947562022554	0.153368910662598	shuffle
0.0611027001046481	-0.0949562895974936	0.214230408740508	shuffle
-0.105431650212943	-0.256396103368407	0.0505540914662947	shuffle
-0.0437008160544115	-0.197520262679937	0.112218836290091	shuffle
-0.0254379279920624	-0.17988667558212	0.130234843491202	shuffle
0.189795396541844	0.0356875942836662	0.335086378957676	shuffle
-0.123539258109828	-0.273456338698943	0.0322374204600342	shuffle
0.0799130014351472	-0.0761904445710462	0.232192742309498	shuffle
0.243413753966957	0.0917190321564556	0.384067138939821	shuffle
0.139580585812457	-0.0159230064709419	0.288491429430031	shuffle
-0.0636150056631797	-0.21663546701606	0.0924563228544259	shuffle
-0.0784907629070178	-0.230838238257257	0.0776131969749898	shuffle
0.00995332604716056	-0.145430013518205	0.164857474501346	shuffle
-0.0641782879321484	-0.21717444865803	0.0918955368917398	shuffle
-0.086478945839794	-0.2384383340481	0.0696138760609486	shuffle
0.0138199331646798	-0.141642533949016	0.168617115633888	shuffle
-0.0580127579976498	-0.211269824222535	0.0980283589340785	shuffle
-0.0015919086849436	-0.156711946427278	0.153604776839411	shuffle
-0.0374347766309564	-0.191481334647343	0.118411743570409	shuffle
-0.0614764908024526	-0.214588360376729	0.0945844593238194	shuffle
0.0975679480705368	-0.0584760379906588	0.248957840093442	shuffle
-0.00072309257194237	-0.155864350872267	0.154452981513451	shuffle
-0.0562794579206376	-0.209607855077725	0.0997503322931387	shuffle
-0.0442445611878956	-0.198043749954601	0.111680865570494	shuffle
-0.127141532230975	-0.276839040452813	0.0285810346537672	shuffle
0.0944198498837576	-0.0616419541452104	0.24597504474676	shuffle
0.00879270131674565	-0.146565998839608	0.163728078277673	shuffle
0.0224388589326299	-0.133183576402324	0.176981428377556	shuffle
0.109519696533034	-0.0464279969397943	0.260255928852456	shuffle
0.00360614909793209	-0.151637441294329	0.15867611112301	shuffle
-0.0333277105035049	-0.187516790467414	0.122464308302297	shuffle
0.00938225777942092	-0.145989009532346	0.164301822518343	shuffle
0.144852064509277	-0.0105436500737184	0.293416260469135	shuffle
-0.107513673970757	-0.258362497089532	0.048453355087982	shuffle
-0.0676507270798975	-0.22049502395097	0.088436298913104	shuffle
-0.00167197852681091	-0.156790049091048	0.153526595029961	shuffle
-0.021521113218125	-0.176091854613814	0.134085368526114	shuffle
0.0868894171010563	-0.0692022895155983	0.238828361386434	shuffle
-0.0821532160333138	-0.234325068970924	0.0739481306197742	shuffle
-0.105168830590184	-0.256147791185937	0.0508191751552771	shuffle
-0.0326788208839456	-0.186889958498796	0.123104112169802	shuffle
0.0365969396258927	-0.119238884097796	0.190672979892045	shuffle
0.0558070795125189	-0.100219461808234	0.209154762897965	shuffle
0.0122539375574476	-0.143177031096848	0.167094984298419	shuffle
0.0243819193870065	-0.131273442341358	0.178864010036942	shuffle
-0.0798700239572329	-0.23215182029715	0.0762334468935026	shuffle
-0.0669366720735576	-0.219812486704819	0.0891479469369273	shuffle
-0.0518978584107668	-0.205402618377791	0.104099135521518	shuffle
0.160521934833332	0.00550017902676763	0.308009283325946	shuffle
0.0164235398052772	-0.139089641551333	0.171146160969234	shuffle
0.0104988098198447	-0.144895968494357	0.165388140855542	shuffle
-0.103203830471673	-0.254290625931242	0.052800406583317	shuffle
-0.079970279250248	-0.232247279884911	0.0761331327419239	shuffle
-0.0669639268181468	-0.21983854119655	0.0891207869893326	shuffle
0.0209286906164197	-0.134667355931283	0.175517483433668	shuffle
0.0206591537459309	-0.13493210953192	0.1752561246524	shuffle
-0.0804187145980631	-0.2326742284548	0.0756843954413748	shuffle
0.0270900748497905	-0.128609248888744	0.181485987058754	shuffle
-0.061009738265299	-0.214141379693078	0.0950487571178177	shuffle
-0.0686510856988973	-0.221450975944665	0.0874390443072473	shuffle
0.129736229185604	-0.0259447770328685	0.279273284177577	shuffle
0.0156084514950227	-0.139889075521127	0.170354634095373	shuffle
0.0381032085439155	-0.117751690235659	0.192126095589363	shuffle
0.0948251840382685	-0.061234501896147	0.246359256361763	shuffle
0.0551363235171256	-0.100885485350902	0.208511279330471	shuffle
0.00647466885297638	-0.148833594965707	0.161471200010445	shuffle
0.157977108463367	0.00288918135205474	0.305644050532523	shuffle
0.0825782114522059	-0.0735225587320574	0.234729431593511	shuffle
-0.173428348061706	-0.319976860130461	-0.0187748127206038	shuffle
-0.0520973041152819	-0.205594159451213	0.103901312166454	shuffle
-0.10916392549029	-0.259920210503621	0.0467872907352787	shuffle
-0.169706217555229	-0.31653027639998	-0.0149408867097224	shuffle
0.0544231000823544	-0.101593523338492	0.2078269093197	shuffle
-0.0580869591691008	-0.211340951999515	0.097954621788518	shuffle
-0.0622982881878027	-0.215375190208928	0.0937668188992185	shuffle
0.145783477190973	-0.00959224064377413	0.294285605347759	shuffle
-0.0191442936608496	-0.173786821854881	0.13641967332888	shuffle
-0.0310761417480404	-0.18534122083267	0.124683795861445	shuffle
0.130187670606886	-0.0254858833759557	0.279696612744457	shuffle
0.0612949504811853	-0.0947650529571405	0.214414517808437	shuffle
-0.0223140644613844	-0.176860479541246	0.133306216653968	shuffle
0.19506109443374	0.0411477021592187	0.339931660337925	shuffle
-0.0773966217121445	-0.229795803796733	0.078707300955946	shuffle
-0.121466230828611	-0.27150798787478	0.0343396993289454	shuffle
-0.163083167941062	-0.310387925607752	-0.00813014599801081	shuffle
-0.0711038935953384	-0.223793659821109	0.084992522504833	shuffle
-0.0291744628451557	-0.183502552153927	0.126557165431658	shuffle
-0.0352320600769875	-0.189355680829116	0.120585875482933	shuffle
-0.149341366315325	-0.297604141884718	0.00595537472553126	shuffle
0.0920988994611665	-0.0639740315983854	0.2437741248479	shuffle
-0.0867043280642548	-0.238652496958828	0.0693878880331524	shuffle
-3.1244805718408e-06	-0.155161794626152	0.155155696103976	shuffle
-0.136607748852765	-0.285710604553533	0.0189527161419363	shuffle
0.0145063822292703	-0.140969656521789	0.169284104276921	shuffle
0.0339683422732966	-0.121832519605331	0.188135522123043	shuffle
0.0229905702465129	-0.132641331691347	0.177516082368063	shuffle
-0.0662332956007513	-0.21914001029175	0.0898487966523424	shuffle
0.0257098369216146	-0.129967362033864	0.180149945054175	shuffle
-0.00337382514447361	-0.158449625542434	0.151864417976226	shuffle
-0.000945911044520593	-0.15608174885922	0.154235470902349	shuffle
0.0266954452219845	-0.128997612355464	0.181104051848897	shuffle
0.00274172338316783	-0.152481888138488	0.157833326080266	shuffle
-0.0558188495120375	-0.209166053152773	0.100207773602326	shuffle
-0.0286136789326737	-0.182960143009002	0.1271093892256	shuffle
0.100452805701929	-0.0555720936123413	0.251688697974793	shuffle
-0.104459629258288	-0.255477637775958	0.0515343762610626	shuffle
0.0925816055334845	-0.063489151704639	0.244231995948907	shuffle
-0.0786271980294766	-0.230968201232437	0.0774767401219321	shuffle
0.0829982894733462	-0.073101855036987	0.235129063809082	shuffle
0.120996820619023	-0.0348155418027375	0.271066638206241	shuffle
0.0055345509423717	-0.149752792235521	0.160555421912383	shuffle
0.010860704135556	-0.144541613105983	0.165740155259345	shuffle
-0.0505310591050381	-0.204089672916323	0.105454484827076	shuffle
-0.0270595718563994	-0.181456466944427	0.128639269240812	shuffle
-0.0535564750453748	-0.206995141402495	0.102453634975265	shuffle
-0.152624799623529	-0.300663510620591	0.002595407782678	shuffle
-0.00990239969847546	-0.164807926928819	0.14547986732473	shuffle
0.0395592384995088	-0.116313434285042	0.193530103481171	shuffle
-0.0164409903884333	-0.171163104931803	0.139072523902266	shuffle
0.0602787140900299	-0.0957758002745744	0.213441193143172	shuffle
-0.0701347866487041	-0.222868273776212	0.0859593707829165	shuffle
0.0564394406458792	-0.0995914341598376	0.209761291115542	shuffle
-0.0443178719168319	-0.198114322695626	0.111608326387573	shuffle
0.0293564645088642	-0.126377921192932	0.183678570115218	shuffle
-0.00385477932486823	-0.158918475118594	0.151394515513758	shuffle
0.0503050260316466	-0.105678568538063	0.20387249262318	shuffle
0.169540066598526	0.0147698513895089	0.31637633504565	shuffle
0.00670269092652155	-0.148610606664402	0.161693278337213	shuffle
0.0113203858118898	-0.144091449970368	0.166187230477476	shuffle
-0.0729101938499464	-0.225517735063257	0.0831896472288985	shuffle
-0.0725661613194514	-0.225189436989976	0.0835331062237773	shuffle
-0.0677006467892026	-0.220542734650828	0.0883865415163541	shuffle
-0.0269032643360076	-0.181305191658054	0.12879309906833	shuffle
-0.000154168003050183	-0.155309198293751	0.155008285241338	shuffle
0.123351651812883	-0.0324277307306475	0.273280066073499	shuffle
0.0523747149191203	-0.103626137377859	0.205860556080549	shuffle
0.0223356116458528	-0.13328504176041	0.176881363066503	shuffle
0.178082499336999	0.0235751605802136	0.32428101737371	shuffle
0.115097528661469	-0.0407896541816226	0.265514611046595	shuffle
0.124273680136398	-0.0314923045158781	0.274146295970325	shuffle
0.0159695798830541	-0.139534907865922	0.170705348127538	shuffle
0.0827446850090464	-0.0733558438712839	0.234887808794026	shuffle
0.117927880030298	-0.0379247958782251	0.268179597963894	shuffle
0.0145087116936315	-0.14096737286819	0.169286367461008	shuffle
0.199544726731377	0.0458041279843522	0.344051263281076	shuffle
-0.023397305972263	-0.177910184593522	0.132241515322974	shuffle
0.163751163581945	0.00881642076559925	0.311007996572046	shuffle
0.0156612578097711	-0.139837289529168	0.170405920009211	shuffle
0.114155976884761	-0.0417421173089506	0.264627560009826	shuffle
-0.220193589058324	-0.362952090405471	-0.0673353534162499	shuffle
-0.00611029696630286	-0.161116293451188	0.1491898902644	shuffle
-0.0246980027913592	-0.179170148239357	0.130962605834112	shuffle
-0.00150239769738138	-0.15662463227369	0.153692174873834	shuffle
0.160297750473502	0.00527008042799478	0.307800993316884	shuffle
0.0704328398491932	-0.085662043549116	0.223152909729579	shuffle
-0.0156237062503772	-0.170369449721492	0.139874115605293	shuffle
-0.0556783789010341	-0.209031305450588	0.100347265226865	shuffle
-0.0308644377002487	-0.185136584802992	0.124892403326689	shuffle
-0.0511644529297447	-0.204698178811287	0.104826469136561	shuffle
-0.0654685543418335	-0.218408700037654	0.0906106153546698	shuffle
-0.0340504300008586	-0.188214794823019	0.12175155586393	shuffle
0.0607550135533513	-0.0953021135477936	0.213897418185954	shuffle
0.0948413174330465	-0.0612182831190957	0.246374548036833	shuffle
0.0434400465273283	-0.112476804097195	0.197269177296917	shuffle
-0.0250922978376002	-0.179551995314905	0.130574813071218	shuffle
-0.0641325112218175	-0.217130650288614	0.0919411144289073	shuffle
-0.130804560940964	-0.280274993153901	0.024858703536313	shuffle
-0.11686433389825	-0.267178459587467	0.039001609058182	shuffle
0.00771153490509231	-0.147623844174408	0.162675636906836	shuffle
0.113947049754024	-0.0419534272250644	0.264430691881823	shuffle
-0.0303528927816944	-0.184642063256314	0.125396409075314	shuffle
0.245300555566158	0.0937084012842867	0.385776446298667	shuffle
0.110589226139384	-0.045347634091811	0.261264956019821	shuffle
0.0504897775575069	-0.105495411535255	0.204050009324385	shuffle
-0.0678421958319292	-0.220678015994533	0.0882454484803646	shuffle
0.0087838753412902	-0.146574635874959	0.163719488223257	shuffle
-0.0805462185676168	-0.232795612357986	0.0755567940713865	shuffle
0.133766540575063	-0.0218456115204505	0.283050557854904	shuffle
0.0730040872359699	-0.0830959039300541	0.22560732818005	shuffle
0.0658679172896211	-0.0902128014103951	0.218790626088032	shuffle
-0.0722752726489369	-0.224911825179637	0.0838234810214769	shuffle
0.0300545626517146	-0.125690305295167	0.184353624989244	shuffle
0.0226287188058514	-0.132996984775455	0.177165428624684	shuffle
-0.160929198489669	-0.308387636401573	-0.00591822876553991	shuffle
-0.000560999857671802	-0.155706191929139	0.154611203491734	shuffle
-0.0587881677339178	-0.212013036537926	0.0972577137075373	shuffle
0.0240358389414094	-0.131613742850114	0.178528784306011	shuffle
-0.0537282522572134	-0.20716002707308	0.102283167345431	shuffle
-0.117107144020977	-0.267407050457189	0.038755801922305	shuffle
-0.0733050721183795	-0.225894510709719	0.0827953815441659	shuffle
0.197829232112903	0.0440217309358999	0.34247570773677	shuffle
-0.0988769553533865	-0.250197268220423	0.0571586972744061	shuffle
0.0212970647760839	-0.1343054831007	0.175874645417834	shuffle
0.0592650181714832	-0.0967837003433949	0.212469998668824	shuffle
0.158618103394608	0.00354664444453594	0.306239980904461	shuffle
0.017140210885439	-0.138386567137525	0.171841950555145	shuffle
-0.125615056766243	-0.275406062349168	0.0301309490718794	shuffle
-0.0619522451549038	-0.215043895562669	0.0941111371775729	shuffle
0.0648024398490461	-0.0912740353906131	0.217771565025314	shuffle
0.0841652970402077	-0.0719328176900004	0.236239001563115	shuffle
0.0306049025989419	-0.125148123435419	0.184885696366286	shuffle
-0.0347726911236486	-0.188912200924267	0.121039094913637	shuffle
0.0769028231022935	-0.0792009596422169	0.229325226488615	shuffle
0.162663767587927	0.00769934369400608	0.309998550644705	shuffle
-0.0535986923596035	-0.20703566580542	0.102411740363436	shuffle
0.00252548992097549	-0.152693088514413	0.157622470631182	shuffle
0.140542861558767	-0.0149417095099255	0.289391015047498	shuffle
0.0127056872224349	-0.142734444612466	0.167534156007061	shuffle
-0.105187824153608	-0.256165736987315	0.0508000187080996	shuffle
-0.0848523071027168	-0.236892229460423	0.0712444120935048	shuffle
-0.0500692836348173	-0.203645967176677	0.105912260960972	shuffle
-0.00313245342867181	-0.158214302286462	0.152100216832686	shuffle
0.0762838689891765	-0.07981963025364	0.228735278573948	shuffle
-0.0848253521855386	-0.236866602581003	0.0712714245676583	shuffle
0.0601413796910272	-0.0959123682004712	0.21330963451841	shuffle
0.114682411825369	-0.0412096165990748	0.265123554200422	shuffle
-0.0232402013503635	-0.177757965627529	0.132395953296113	shuffle
0.0285351431553241	-0.127186718483387	0.182884173050042	shuffle
-0.0867185043057928	-0.238665967026437	0.0693736731518447	shuffle
0.00842585975444998	-0.146924967355213	0.163371022696032	shuffle
0.00242031946766031	-0.152795805878096	0.15751991079424	shuffle
-0.0409933505780846	-0.194912360389746	0.114896189340228	shuffle
-0.134916534411168	-0.284127502330992	0.0206750108865774	shuffle
0.0569570864866202	-0.0990772431253727	0.210257702518889	shuffle
-0.0032936119125299	-0.158371424303763	0.151942781182521	shuffle
0.0302625014530563	-0.125485459855876	0.184554671879054	shuffle
0.0259788695467259	-0.129702687743702	0.180410407836447	shuffle
-0.0809231393716777	-0.23315441359469	0.0751795554390897	shuffle
0.0437810740502813	-0.112139436360048	0.197597536089767	shuffle
-0.0414842416886755	-0.195385361258298	0.114410925951261	shuffle
0.0381392016686615	-0.117716144365331	0.192160810328474	shuffle
-0.0556378646699348	-0.208992440726521	0.100387495961193	shuffle
-0.0720744198229141	-0.224720125297326	0.0840239635579656	shuffle
0.0457188142250224	-0.110221808704153	0.199462636700592	shuffle
-0.00903480650755957	-0.163963702760889	0.146329067224423	shuffle
-0.0346814915216501	-0.188824148331505	0.121129065908334	shuffle
-0.0700153710075575	-0.222754226475887	0.0860784877630568	shuffle
-0.14438510996919	-0.292980330517388	0.0110205239245172	shuffle
-0.00546665864348893	-0.160489277021877	0.149819163321872	shuffle
0.0204185747952936	-0.135168400344223	0.175022826765596	shuffle
-0.0508917347107021	-0.204436191050575	0.105096886963407	shuffle
-0.0959343960130768	-0.247410422270135	0.0601192276963143	shuffle
0.137687445185451	-0.0178526946385339	0.286720855013057	shuffle
-0.0298065144923349	-0.184113781233897	0.125934646044504	shuffle
0.0720294871773972	-0.0840688116365562	0.224677238633081	shuffle
-0.0371327380019049	-0.191189948399905	0.118709951072529	shuffle
0.047343908958103	-0.10861268581265	0.201025953550047	shuffle
0.0672385041969907	-0.0888471516915628	0.22010101448623	shuffle
0.0381953825649223	-0.117660660780672	0.192214995049647	shuffle
0.0086262461423498	-0.146728886672655	0.163566068544335	shuffle
-0.0400863833495973	-0.194038258684891	0.115792563152833	shuffle
-0.0991476414531891	-0.250453504365761	0.0568862201146922	shuffle
-0.132229914797147	-0.281610953088602	0.0234091064916017	shuffle
-0.0869025766613541	-0.238840864710989	0.0691890933205126	shuffle
-0.0747943278848683	-0.227315083059315	0.0813079962969625	shuffle
0.191842907629597	0.0378096069892332	0.336971329081478	shuffle
-0.0539081540282931	-0.207332702008637	0.102104627271887	shuffle
0.0995838684477628	-0.0564470577994492	0.250866399782563	shuffle
-0.0230860428440285	-0.177608593970651	0.132547487815155	shuffle
-0.0151543593339404	-0.169913581564078	0.140334358613855	shuffle
-0.0408916555566881	-0.194814362631698	0.114996709197502	shuffle
-0.0298420754418203	-0.18414816710312	0.125899617761029	shuffle
-0.0276440212197055	-0.182022035550927	0.128064017823948	shuffle
0.0961349871360828	-0.0599174986647553	0.247600478213613	shuffle
-0.0702428074282902	-0.222971434870694	0.0858516163212681	shuffle
-0.0535959782740766	-0.207033060570367	0.102414433719574	shuffle
0.0901054530278028	-0.0659756750976198	0.241882523720697	shuffle
0.0700015191629758	-0.0860923046750426	0.222740997071608	shuffle
-0.00326103327841436	-0.158339662285901	0.151974607870749	shuffle
-0.00109172180622147	-0.156224004359648	0.154093125423458	shuffle
-0.0252977478989633	-0.179750940835846	0.130372732190807	shuffle
-0.0687226615818793	-0.221519363267641	0.0873676785216301	shuffle
-0.000181112972862097	-0.155335493216068	0.154981987583063	shuffle
0.00952730470620799	-0.145847038263628	0.164442963143086	shuffle
-0.0406865262323963	-0.194616681716679	0.115199458380854	shuffle
-0.128277952279999	-0.277905422048466	0.0274266785047963	shuffle
0.00076883572894329	-0.154408329252256	0.155908982465525	shuffle
-0.0220269595024419	-0.176582204213453	0.133588347473071	shuffle
0.0517375917525701	-0.104258089580115	0.205248695045683	shuffle
0.0873746253972101	-0.0687156943256357	0.239289340193319	shuffle
0.0681773449797372	-0.0879113540576648	0.220998301513999	shuffle
0.0541240126137521	-0.101890389279275	0.207539876720561	shuffle
0.038886912091281	-0.116977634736691	0.192881876784498	shuffle
-0.0835101251218585	-0.235615918169504	0.072589181956742	shuffle
-0.0632168903966766	-0.216254470614775	0.0928526140786399	shuffle
0.0695240400121733	-0.086568542979529	0.222284939317129	shuffle
-0.0204093659292797	-0.175013896258676	0.135177444717488	shuffle
0.0460061101653668	-0.109937395853677	0.199739068062905	shuffle
-0.0326283055417916	-0.186841155051627	0.123153914763556	shuffle
0.281619639253037	0.132239184206161	0.418492060222196	shuffle
0.00252343149113769	-0.152695098963771	0.157620463329267	shuffle
-0.0123268721944892	-0.167165892393579	0.143105580056225	shuffle
-0.122473888719579	-0.272455196616082	0.0333179950047804	shuffle
0.0458758277740798	-0.110066373991726	0.199613715551173	shuffle
-0.159631420913152	-0.307181822097697	-0.00458626923056908	shuffle
0.0300225337041607	-0.125721856589877	0.184322656459599	shuffle
0.0151352565115802	-0.140353089476341	0.1698950259359	shuffle
-0.0945485008535697	-0.246096996690952	0.0615126365375941	shuffle
0.035561475753798	-0.120260829661135	0.189673663685073	shuffle
0.125776095002709	-0.0299674734323041	0.275557268330408	shuffle
-0.0321948009071194	-0.186422309992092	0.123581270587925	shuffle
0.0684380921450708	-0.0876514031816541	0.221247461929405	shuffle
-0.0419072715245118	-0.195792916589693	0.113992686167998	shuffle
-0.0307457688974306	-0.185021872062269	0.125009330345221	shuffle
-0.151840605607614	-0.299933107561204	0.00339819928796714	shuffle
0.0338669777558093	-0.121932493328435	0.188037630918735	shuffle
-0.0166008162094287	-0.171318286475437	0.138915743023512	shuffle
0.027088869129691	-0.128610435536449	0.181484820195109	shuffle
-0.0370362060438427	-0.19109681523129	0.118805252669149	shuffle
0.060092399035076	-0.095961074070575	0.213262712462874	shuffle
0.0129302758110853	-0.142514388387616	0.167752468563914	shuffle
-0.0819342161798018	-0.234116680624412	0.0741674053326521	shuffle
0.0592172253035416	-0.0968312120545502	0.212424202149851	shuffle
-0.0661703231752858	-0.219079797224322	0.0899115353220658	shuffle
-0.0356999289710202	-0.189807302045753	0.120124203118654	shuffle
0.0300032849926632	-0.125740818090677	0.184304044889163	shuffle
0.0467015772653714	-0.109248802197971	0.20040813360425	shuffle
-0.0280515236509075	-0.182416313102792	0.127662866582485	shuffle
-6.24718496386693e-05	-0.155219712663154	0.155097776888001	shuffle
-0.115382184075591	-0.265782739354367	0.0405016442005541	shuffle
-0.00241404842209341	-0.157513795307358	0.152801930546248	shuffle
-0.143831483819749	-0.292463407385353	0.0115858189379623	shuffle
-0.103448978181891	-0.254522381327906	0.052553300936073	shuffle
-0.142134326772156	-0.290878223042378	0.0133181283915084	shuffle
0.101638138959014	-0.0543781523785821	0.252810058049935	shuffle
-0.0792211888517699	-0.231533951242186	0.0768825865254382	shuffle
-0.0659670077334659	-0.218885382811922	0.0901140875944626	shuffle
0.0912475938051383	-0.0648289914876699	0.242966453608939	shuffle
0.0217473054080037	-0.133863132267229	0.17631112685049	shuffle
-0.0519637311689407	-0.20546588170173	0.104033799956661	shuffle
-0.0843223187276333	-0.236388314183157	0.0717754901520446	shuffle
0.128341702440436	-0.0273619098728382	0.277965232314609	shuffle
-0.119104626091536	-0.269286915768389	0.0367329487354424	shuffle
0.0495993083807305	-0.106378097984294	0.203194317732129	shuffle
0.11721069627541	-0.0386509657810069	0.267504533421434	shuffle
-0.0306944207784341	-0.184972234432428	0.12505992345123	shuffle
-0.0417923279704814	-0.195682182950184	0.114106333660672	shuffle
0.0609481295069007	-0.0951100367915892	0.214082375918781	shuffle
0.00654563801745572	-0.14876419419603	0.161540320936872	shuffle
0.0265000911477557	-0.129189846811289	0.180914964673905	shuffle
-0.0531809389615313	-0.206634641114742	0.102826276164879	shuffle
-0.110340175055868	-0.261030022966253	0.0455992403925182	shuffle
-0.0237625522919162	-0.178264043868759	0.131882439382055	shuffle
-0.0332528347580854	-0.187444466375913	0.12253814224698	shuffle
0.0324843393965383	-0.123295845307619	0.186702063543668	shuffle
0.0477642731352288	-0.108196319994411	0.201430210211373	shuffle
0.00343646383487064	-0.151803222617881	0.158510691710008	shuffle
0.0447041735610403	-0.111226062859079	0.198486170520964	shuffle
-0.0180093100189424	-0.172685519900928	0.137533746162342	shuffle
0.18691633566537	0.0327061236192852	0.332433930535629	shuffle
-0.0690672476595707	-0.221848577702729	0.087024081485372	shuffle
0.0105713283567962	-0.144824963845968	0.165458682758886	shuffle
-0.0634707128598775	-0.216497384155494	0.0925999602651464	shuffle
-0.0756416676634765	-0.228123054499559	0.0804614103300001	shuffle
-0.0529198289287413	-0.206383960904292	0.103085347573474	shuffle
-0.0723254661494776	-0.224959729496924	0.083773378083307	shuffle
0.00274121134336783	-0.15248238827671	0.15783282679228	shuffle
0.125407430151322	-0.0303417059353062	0.27521110152333	shuffle
0.134214847678011	-0.0213893219195291	0.2834704325835	shuffle
0.0143555530581996	-0.141117515996069	0.169137563175293	shuffle
0.0136003796040325	-0.14185771644591	0.168403756360276	shuffle
0.029720071653151	-0.126019792440615	0.184030193247193	shuffle
0.0602262326553694	-0.0958279895001723	0.213390919538305	shuffle
0.0189571373568295	-0.136603408583123	0.173605246215835	shuffle
0.0212641087462946	-0.134337859189484	0.175842694125608	shuffle
0.0386774689881969	-0.11718451796264	0.192679913760001	shuffle
0.0149917037736823	-0.140493843471952	0.169755581708899	shuffle
-0.0154111964389802	-0.170163050997237	0.140082511694603	shuffle
0.0873696079718809	-0.0687207264725567	0.239284573669873	shuffle
0.0496959175124108	-0.10628234510679	0.203287165107967	shuffle
-0.121305664525246	-0.271357027051656	0.0345024737998729	shuffle
0.0212088882877931	-0.134392107165893	0.175789156455037	shuffle
-0.0234519486438464	-0.177963126248491	0.132187798369187	shuffle
-0.0948222682041486	-0.246356492645979	0.0612374331528538	shuffle
-0.0584769924366787	-0.211714803495721	0.0975669994665277	shuffle
0.198827605890597	0.0450589211154901	0.343392739541528	shuffle
0.0868300376712899	-0.0692618335719222	0.238771942440014	shuffle
0.0423969428148968	-0.113508490512001	0.196264609248851	shuffle
0.000622683732593577	-0.154550993551408	0.155766379757348	shuffle
0.151002903458816	-0.00425554690802104	0.299152674848876	shuffle
-0.0167391826409633	-0.171452626004733	0.138780006401686	shuffle
-0.0213378115271121	-0.175914149463639	0.134265452927963	shuffle
0.024647061087961	-0.131012703988137	0.179120811380275	shuffle
-0.0111661698073066	-0.166037250838651	0.144242479823828	shuffle
-0.0754726498672548	-0.227961906222004	0.0806302957478452	shuffle
-0.165589458270196	-0.312713757699694	-0.0107057725997798	shuffle
0.0421836884595854	-0.113719369303957	0.196059193432597	shuffle
-0.0756923150809936	-0.228171342131575	0.0804108008352697	shuffle
4.41122563756187e-05	-0.155115694784393	0.155201795359384	shuffle
-0.0530100463296685	-0.206470576924304	0.102995836940701	shuffle
0.0628085710881018	-0.0932590112356102	0.215863660520577	shuffle
-0.102668010404155	-0.253784017064601	0.0533404396140922	shuffle
-0.00459655718927842	-0.15964144690703	0.150669645172528	shuffle
-0.029935260085134	-0.184238270750323	0.125807827084551	shuffle
0.024717407959615	-0.13094352178911	0.179188941871644	shuffle
0.06905061495714	-0.0870406673011773	0.221832687768656	shuffle
-0.0756995890120294	-0.228178277090995	0.080403532284568	shuffle
-0.0697922050002914	-0.222541081708774	0.0863010836653343	shuffle
-0.0139316753397644	-0.168725699645735	0.14153301079283	shuffle
-0.0015252723648344	-0.156646945767565	0.15366984040571	shuffle
-0.138032672608226	-0.287043807550962	0.0175008888807299	shuffle
-0.118219210958461	-0.268453777291366	0.0376297676192541	shuffle
-0.101436925246568	-0.252619732583888	0.0545808587619663	shuffle
-0.111698014006042	-0.262310673107818	0.0442272301116067	shuffle
-0.0313202921447622	-0.185577203335793	0.124443199538875	shuffle
-0.0640371203871259	-0.217039379998597	0.0920360881196252	shuffle
-0.0409064067467336	-0.19482857771235	0.114982128666745	shuffle
-0.0435936293955114	-0.197417059032698	0.112324873874514	shuffle
0.0285300606321199	-0.127191722860226	0.182879256512895	shuffle
-0.0989677736050404	-0.250283240711702	0.0570672806929916	shuffle
0.102052853298772	-0.0539603209792358	0.253202294113125	shuffle
-0.0355575367402018	-0.189669861571287	0.120264716619222	shuffle
-0.0599059802355388	-0.213084122167662	0.0961464402098863	shuffle
-0.135491682631666	-0.284665975057723	0.0200893964817287	shuffle
-0.00744808308785893	-0.162419131184817	0.147881559418215	shuffle
-0.0852397910620452	-0.237260599150998	0.0708560754330821	shuffle
0.0652800415706976	-0.0907983796403563	0.218228401790413	shuffle
0.14426341397362	-0.0111447934437776	0.292866709887953	shuffle
0.0927137566352305	-0.0633563926239385	0.244357336157534	shuffle
-0.0474071685514283	-0.201086792508246	0.108550031420199	shuffle
0.0868040335878155	-0.0692879094002695	0.238747234520518	shuffle
0.000613837208825976	-0.154559628758519	0.155757747863053	shuffle
-0.153591992800645	-0.301564121106328	0.00160500158481143	shuffle
0.0132340580230295	-0.142216712273258	0.168047737553297	shuffle
-0.0265713224910906	-0.180983912259794	0.129119754320134	shuffle
0.0698427911648757	-0.0862506280952245	0.222589397588166	shuffle
0.0367675708770304	-0.119070448796449	0.190837623826832	shuffle
-0.0372256892031348	-0.191279624264993	0.118618181880104	shuffle
0.0622095566885712	-0.0938551117003791	0.215290243813669	shuffle
-0.036788396423346	-0.190857718027561	0.119049890651641	shuffle
-0.0441208292928012	-0.197924635545753	0.111803291501951	shuffle
-0.109667758147879	-0.260395634376815	0.0462784573656503	shuffle
0.0338008929306839	-0.1219976697197	0.187973808878465	shuffle
-0.0496383175948886	-0.203231808342251	0.106339434860029	shuffle
-0.0690870197655877	-0.221867466738144	0.0870043650032023	shuffle
-0.169937775609056	-0.316744805512313	-0.015179267016266	shuffle
-0.0452901305095657	-0.199050118877105	0.110646142988033	shuffle
0.0591311969257667	-0.0969167325507713	0.212341765554913	shuffle
-0.00435169567162493	-0.159402811679395	0.150908943963284	shuffle
-0.0435391241371487	-0.197364577859289	0.112378793457511	shuffle
-0.057604211499475	-0.210878170547116	0.0984343198538748	shuffle
-0.0157928156611637	-0.170533686397202	0.139708269936869	shuffle
-0.0859442755466656	-0.237930220010059	0.0701499194137209	shuffle
0.0509084453426428	-0.105080317949924	0.204452244813305	shuffle
-0.0228380576411996	-0.177368294134971	0.132791236708772	shuffle
-0.0330291594795711	-0.187228403660714	0.122758695098835	shuffle
-0.0444251137557267	-0.198217556425021	0.111502210203437	shuffle
0.140147775776829	-0.0153446411603251	0.289021700039664	shuffle
-0.0343102989819571	-0.188465738894176	0.121495231466691	shuffle
-0.0161811369227867	-0.170910785995509	0.139327410095837	shuffle
-0.016698520526348	-0.171413147883625	0.138819896293344	shuffle
0.0304946547180973	-0.125256744483952	0.184779115414993	shuffle
0.0127132129914624	-0.142727070967861	0.167541471717594	shuffle
-0.0387779069681702	-0.192776766312973	0.117085309254235	shuffle
