cor	ci95_lower	ci95_upper	type
0.0611432750253182	-0.0954119486638213	0.214746786233329	real
-0.0346105812631534	-0.189238355752372	0.121692188624241	shuffle
0.0380883336138537	-0.118259961131846	0.192593780807877	shuffle
-0.0887893868368607	-0.241104574111166	0.0677947333460491	shuffle
0.0805944094367938	-0.0760062444613876	0.233314848327562	shuffle
-0.0778587674663942	-0.230710116108896	0.0787426849031656	shuffle
-0.00653488351170337	-0.162017298975856	0.149264147636447	shuffle
-0.0256020762473903	-0.180529893324164	0.130565421974338	shuffle
0.131418773833932	-0.0247343761266241	0.28131176066252	shuffle
-0.0196208812065553	-0.174734462598713	0.136443016103783	shuffle
0.0467353317592912	-0.109709932009725	0.200920996585676	shuffle
0.0657146975403281	-0.0908618749712065	0.219120672685353	shuffle
0.00867399428697297	-0.147171909159349	0.164099655284828	shuffle
0.122988401136038	-0.0332961903768066	0.273401931415185	shuffle
0.158176326396105	0.00259295502748933	0.306282940293306	shuffle
-0.109609381443386	-0.260807118317029	0.0468368834094874	shuffle
0.0198052142874284	-0.136262039817613	0.174913231308291	shuffle
0.039421209426111	-0.116943542056166	0.193878816697664	shuffle
-0.0807885435249636	-0.233499609196537	0.0758119640290106	shuffle
-0.0339302194800186	-0.188581502568498	0.122363207387835	shuffle
-0.0849185253911811	-0.237427575574959	0.0716760498725941	shuffle
-0.0108036401255752	-0.166171422653874	0.145087541917314	shuffle
0.0803407412193098	-0.0762600859838703	0.233073411148501	shuffle
0.0451185843132036	-0.111310310593502	0.199365731324208	shuffle
-0.00311215476879152	-0.158682498404773	0.1526089778993	shuffle
-0.0474635110411596	-0.2016212306448	0.108988860186303	shuffle
-0.0717025700845406	-0.22484049080146	0.0848920603477121	shuffle
0.0354566535670415	-0.120857535593742	0.190055000643646	shuffle
0.106165552488072	-0.0503130481875168	0.257556797323332	shuffle
0.0308330227410756	-0.125416067392782	0.185589573807241	shuffle
0.062096534806489	-0.0944636802066225	0.21565936335917	shuffle
0.0161211820435352	-0.139877008877365	0.171338465806772	shuffle
-0.0837732870638727	-0.236338855368817	0.0728234730590817	shuffle
-0.0322860057497206	-0.186993530025096	0.123984252377674	shuffle
0.00339017681121844	-0.152337416464102	0.158953510717627	shuffle
0.0604699128943302	-0.0960816138313666	0.214101999768034	shuffle
0.272115699439044	0.121619571603274	0.410381586685418	shuffle
0.175762003642386	0.0206805494969247	0.322584317072016	shuffle
-0.0323968956304844	-0.187100652290975	0.123874951278664	shuffle
0.0246352516205128	-0.131516244493997	0.179593824746396	shuffle
-0.045418025867782	-0.199653844267008	0.111013961961053	shuffle
0.0875045575466522	-0.0690835586335843	0.239884577100467	shuffle
0.11124768179081	-0.045181869100865	0.262352160651394	shuffle
-0.0565198563570941	-0.210316874753321	0.100007131321893	shuffle
0.0181873461391036	-0.137850090382799	0.173343851840596	shuffle
0.0969379309682959	-0.0596086607164814	0.248830752265742	shuffle
-0.0764712639419047	-0.229388171480865	0.0801296919802114	shuffle
-0.0416285194603404	-0.19600573632234	0.114762276124301	shuffle
-0.170638982578428	-0.317844409057693	-0.0154008109780659	shuffle
0.0220986096881543	-0.13400953691598	0.177136542306701	shuffle
-0.0359506399040987	-0.190531706644745	0.120370114279018	shuffle
-0.0130502069941143	-0.168355447797758	0.142887238761861	shuffle
0.087575310693042	-0.0690125990320648	0.239951772579137	shuffle
0.0403984798172611	-0.115977988564007	0.194820673982156	shuffle
-0.0562060260181559	-0.210015950304839	0.10031880323369	shuffle
0.0431267381921176	-0.113280875229625	0.197448562724186	shuffle
0.0648911503466004	-0.0916820591977607	0.21833316690583	shuffle
0.074021037789872	-0.0825775613162549	0.227052338814064	shuffle
-0.00505125165207576	-0.160572216805327	0.150714451195507	shuffle
0.102323019393858	-0.0541871908045216	0.253926126803437	shuffle
-0.106441909055275	-0.257817751972951	0.0500342366132339	shuffle
0.160642284561336	0.00512317277782175	0.308574055148033	shuffle
-0.0144940664094963	-0.169758307444116	0.141472298730277	shuffle
-0.0378356703725232	-0.192350126457303	0.118509442845038	shuffle
-0.0401879815463507	-0.194617827546548	0.11618598806122	shuffle
0.109007983568119	-0.047444201310416	0.260239759779294	shuffle
0.0677266946490696	-0.0888572001028543	0.22104377723327	shuffle
-0.0423178856905675	-0.196669698250817	0.114080734565652	shuffle
0.0983737781220821	-0.0581640154031502	0.25019017439565	shuffle
-0.105145255865647	-0.256593172611999	0.0513421973886161	shuffle
-0.00998642493597567	-0.165376579486281	0.145887545862076	shuffle
0.0973166757719343	-0.0592276588153882	0.249189395953603	shuffle
0.153367335727665	-0.00233562765528701	0.301809979175649	shuffle
0.126289741136132	-0.029946108054818	0.276501851347526	shuffle
-0.015112924882166	-0.170359400245152	0.140865640344726	shuffle
0.0967854925487438	-0.0597619947076349	0.248686392450361	shuffle
-0.0742454439142887	-0.227266341377736	0.0823534496200333	shuffle
0.121437054937206	-0.0348692293294151	0.271944155502866	shuffle
-0.0157145595418506	-0.170943652941496	0.140275753912438	shuffle
0.0827104059402729	-0.0738880111535396	0.23532808513697	shuffle
-0.0257621720229848	-0.180684869149072	0.130407948248326	shuffle
-0.057177044870123	-0.210946942788825	0.0993543632186785	shuffle
0.0114549509646579	-0.144449802240421	0.166804758717849	shuffle
-0.0464977493706966	-0.200692497763731	0.109945159832187	shuffle
-0.0710423435803206	-0.224210337396629	0.0855508477082278	shuffle
-0.0798806830209898	-0.232635487381536	0.0767204067054722	shuffle
0.0559467493274594	-0.10057627352938	0.209767314066694	shuffle
-0.0876548708586827	-0.240027330491307	0.0689328048200994	shuffle
0.0405738998931793	-0.115804640379011	0.194989707262121	shuffle
-0.0993781080811855	-0.2511406918055	0.0571531415896181	shuffle
-0.076353317466403	-0.229275771899476	0.0802475682950781	shuffle
0.0325237719100612	-0.123749888175312	0.187223213285841	shuffle
-0.0717906113722153	-0.224924512158942	0.0848042006229663	shuffle
-0.00162337925157898	-0.157230860183724	0.154062757624204	shuffle
-0.0737120583900035	-0.226757659642196	0.0828861094098865	shuffle
-0.0779173557932279	-0.230765923751084	0.0786841041949948	shuffle
0.20181149468981	0.0476613965333369	0.346572381550036	shuffle
-0.0464416683493758	-0.200638558459144	0.11000068250474	shuffle
-0.0718546243754499	-0.224985600924079	0.08474031810143	shuffle
-0.028832654828703	-0.183655668351547	0.127386228336633	shuffle
-0.0325201780491201	-0.187219741724692	0.123753430745067	shuffle
-0.0596203523136017	-0.213288301178386	0.0969263079164616	shuffle
0.0310352515902477	-0.125216823727848	0.185785016875351	shuffle
-0.0153131705227049	-0.170553872663531	0.140669317231931	shuffle
0.122782156981114	-0.0335053631173376	0.273208166802494	shuffle
-0.0698651116783176	-0.223086410129136	0.0867251738700371	shuffle
-0.0312238068466357	-0.185967234137213	0.125031040459445	shuffle
-0.0533350809082386	-0.207261715943847	0.103168577704302	shuffle
-0.0524591121242447	-0.206420871249853	0.104037575736459	shuffle
0.0430196911850417	-0.113386743683746	0.197345495646064	shuffle
-0.0936763313219513	-0.245740530612744	0.0628878110149827	shuffle
-0.10070886375413	-0.25239969417749	0.0558132206228736	shuffle
0.141152208308077	-0.0148206088401816	0.290418928901639	shuffle
0.123666887819212	-0.0326079728324449	0.274039277707874	shuffle
-0.0293566663524714	-0.184162385414222	0.126870248896092	shuffle
-0.0197314328801421	-0.174841678331223	0.136334478880011	shuffle
0.203681341774232	0.0496067884795211	0.348287005673028	shuffle
-0.040922290680042	-0.195325386438169	0.11546033619584	shuffle
-0.0881254913702202	-0.240474238804289	0.0684607588776044	shuffle
0.0174740777952539	-0.138549958348914	0.172651710304482	shuffle
0.0246191532937638	-0.131532073942706	0.179578236154608	shuffle
-0.00534389698559322	-0.160857311035253	0.15042843291993	shuffle
-0.0576561500722364	-0.211406196037395	0.0988783956675185	shuffle
0.0341138402691725	-0.122182122234714	0.188758792326668	shuffle
0.00242078880931707	-0.153284176138766	0.158008462108642	shuffle
-0.0113493091868665	-0.16670204113474	0.14455325159416	shuffle
0.0331396657421411	-0.123142725470516	0.187818091060068	shuffle
-0.0858478874542669	-0.238310791600729	0.0707446100532476	shuffle
-0.0247660852956962	-0.179720512837822	0.131387593080117	shuffle
-0.0782725508460775	-0.23110423921757	0.0783289321755345	shuffle
0.014669900220625	-0.141299943194561	0.169929105315024	shuffle
-0.0194951742568075	-0.174612544437007	0.136566427895195	shuffle
0.0253200750574724	-0.130842785384522	0.180256891976411	shuffle
-0.0176000731732975	-0.172773984880115	0.138426341413893	shuffle
-0.108089714007055	-0.259373263091687	0.0483712870194132	shuffle
-0.0997349363682144	-0.251478330583927	0.0567939110470349	shuffle
0.0320044590224789	-0.124261748190631	0.186721532650294	shuffle
-0.0508334481101103	-0.204859789334326	0.105649670142743	shuffle
-0.0260406860961707	-0.180954457858143	0.130133976901904	shuffle
0.0781041253994908	-0.078497351656298	0.230943822295874	shuffle
0.063832861293261	-0.0927357149043435	0.217320898928516	shuffle
-0.0441720665016007	-0.19845484720561	0.112246868933306	shuffle
-0.049494761301611	-0.203573695407979	0.106976565515578	shuffle
0.0828514219830932	-0.0737467958048572	0.23546220644787	shuffle
0.0680912228165284	-0.088493862771827	0.221392072558312	shuffle
-0.0594774144087558	-0.213151376070647	0.0970684048775637	shuffle
-0.0827956806036826	-0.235409191140092	0.0738026167172379	shuffle
-0.122242673346079	-0.272701268828759	0.0340524424680563	shuffle
-0.0179237958327483	-0.173088125671794	0.13810870744555	shuffle
0.101461353017535	-0.0550552991332592	0.253111382559921	shuffle
-0.0912691379313676	-0.243457837005811	0.0653057913577087	shuffle
-0.0398312700172697	-0.194274052699323	0.116538433842201	shuffle
-0.0789512748318742	-0.231750606097358	0.0776501416265651	shuffle
-0.0718973725046935	-0.225026395565501	0.0846976563914416	shuffle
-0.0264315603695185	-0.181332766773208	0.129749437789809	shuffle
-0.002826167562214	-0.158403697290245	0.152888294872945	shuffle
-0.0605484014041736	-0.21417716433194	0.0960035635435223	shuffle
-0.0217418095988234	-0.176790749664565	0.134360081053554	shuffle
-0.0334268076019566	-0.188095396038656	0.122859614239398	shuffle
0.081256158759491	-0.0753439474740061	0.233944601676683	shuffle
0.0733590932828892	-0.0832385450762385	0.226420996224472	shuffle
0.0299339204389108	-0.126301745112491	0.184720492586428	shuffle
-0.0262653878791026	-0.181171941799134	0.129912922752355	shuffle
-0.113044797753082	-0.264046087667081	0.0433654308074496	shuffle
-0.0373516431544435	-0.191883304367899	0.118987320084547	shuffle
0.175487113084354	0.0203970300287094	0.322330170372974	shuffle
0.0886413846863433	-0.0679432224408281	0.24096406465361	shuffle
-0.0383151859280003	-0.192812528307865	0.118035948517117	shuffle
-0.0724416322445806	-0.225545737004499	0.0841544467301078	shuffle
-0.0305849305447344	-0.185349789608799	0.125660480182578	shuffle
0.0716608484769975	-0.0849336950645641	0.224800673390615	shuffle
0.0211515881682026	-0.134939868084735	0.176218652798356	shuffle
-0.05764872003974	-0.211399074390078	0.0988857775876814	shuffle
0.0222026458602083	-0.13390731750451	0.177237361707727	shuffle
-0.0516224218335292	-0.205617517695497	0.104867384789893	shuffle
-0.0214705737503281	-0.176527855956693	0.134626535053964	shuffle
-0.0447822812174424	-0.199042119605941	0.1116431068602	shuffle
0.0146619323631573	-0.141307753639532	0.169921365861468	shuffle
-0.10603110447263	-0.257429834385416	0.0504486817501576	shuffle
-0.0282363862479342	-0.183078978902603	0.127973254444536	shuffle
-0.0868313560337895	-0.239245153011964	0.0697586452726203	shuffle
-0.0166887733325166	-0.171889489053825	0.1393203288726	shuffle
-0.103781575973418	-0.255304767394893	0.0527171904396546	shuffle
-0.0192637404659504	-0.17438807358496	0.136793623498312	shuffle
-0.0235014009417216	-0.178495685822921	0.132630962652893	shuffle
-0.0199504826362126	-0.175054107308322	0.136119409536268	shuffle
0.0783015596464436	-0.0782999235002839	0.231131867828747	shuffle
0.00925401123888737	-0.146604361121896	0.164664044720264	shuffle
0.0592250907542131	-0.0973192284658036	0.21290965187765	shuffle
0.0164653458822209	-0.139539472957975	0.17167259506088	shuffle
0.124659902965847	-0.0316004486171893	0.274971842804958	shuffle
-0.0370344676535025	-0.191577365191168	0.119300426323062	shuffle
0.0848786272968274	-0.0717160310529702	0.23738965291316	shuffle
-0.00668615624881495	-0.162164603689306	0.149116235420947	shuffle
0.00222686048959892	-0.153473543302866	0.157819368720465	shuffle
-0.0939931138779202	-0.246040803682586	0.0625694720003481	shuffle
0.14037931723514	-0.0156089418173068	0.28969675401115	shuffle
0.0288465804633323	-0.127372517248618	0.183669135449272	shuffle
0.0193425501511967	-0.136716258878078	0.174464514004988	shuffle
-0.0955413441792482	-0.247507926424559	0.0610131762733795	shuffle
-0.0570929722249314	-0.21086634673198	0.0994378778867578	shuffle
0.0996614802310052	-0.0568678650220442	0.251408827789045	shuffle
0.0744832586656993	-0.0821159296022128	0.227493114809885	shuffle
-0.0380689841932716	-0.192575121978513	0.118279067603046	shuffle
-0.0539712073905018	-0.207872192879917	0.102537363584344	shuffle
-0.0621593575803635	-0.215719495599689	0.0944011763964859	shuffle
-0.0638679103078428	-0.217354429077874	0.0927008249529819	shuffle
0.124155049271531	-0.0321127184786987	0.274497757548851	shuffle
0.208485618607168	0.0546105324085208	0.352688029028564	shuffle
0.0938438004085759	-0.0627195230658318	0.245899275491971	shuffle
0.0973367040268536	-0.0592075099340293	0.249208360089761	shuffle
0.11170817792687	-0.0447165203225051	0.262786304229397	shuffle
0.00143232325376389	-0.154249273787892	0.157044521354174	shuffle
-0.115969209015319	-0.266800591787225	0.040407364532563	shuffle
-0.0718468801659178	-0.224978210549063	0.0847480465939083	shuffle
-0.132666999632299	-0.282481184680101	0.0234647387359846	shuffle
0.0519455299529153	-0.104546959850989	0.205927776631245	shuffle
-0.0589265498595997	-0.212623627611906	0.097615968851809	shuffle
-0.00253924409316884	-0.158123958506241	0.153168501273447	shuffle
-0.0363041481341264	-0.190872803913076	0.120021257860156	shuffle
-0.00983665508260956	-0.165230887830212	0.146034139334605	shuffle
0.223173769224469	0.0699565986698899	0.366103857729764	shuffle
-0.140939264595854	-0.290219975268537	0.0150378263955067	shuffle
0.105140997448079	-0.0513464920578656	0.256589150095255	shuffle
0.0665700049938344	-0.0900098352609924	0.219938337253718	shuffle
-0.0869164035250752	-0.239325940599971	0.0696733675424051	shuffle
0.17516044685997	0.0200601420681976	0.322028127588271	shuffle
0.17319962975249	0.0180387088149348	0.320214484349138	shuffle
-0.108339029471351	-0.259608546012374	0.0481196045779578	shuffle
0.0568787916898145	-0.0996506269738884	0.210661013583985	shuffle
0.0903101156150264	-0.0662685992603645	0.242547945341207	shuffle
0.094300148857677	-0.0622608980505885	0.246331809333055	shuffle
-0.053709849879778	-0.207621388194081	0.102796718068064	shuffle
0.119324145415721	-0.0370104390138896	0.269957575537036	shuffle
0.069615414808007	-0.0869741984919358	0.222847967064326	shuffle
0.04590773201686	-0.110529254013875	0.200124966162203	shuffle
-0.0156190395417165	-0.170850899920843	0.140369416072143	shuffle
-0.0286636337321772	-0.183492208070346	0.127552640633575	shuffle
-0.0657351809208473	-0.219140257091701	0.0908414725272382	shuffle
0.00303933886624551	-0.152680097838279	0.158611514524886	shuffle
-0.0108171693792734	-0.16618457983311	0.145074295885752	shuffle
-0.0978096076036354	-0.249656104044565	0.0587317210817039	shuffle
0.0501674171342462	-0.106309904238524	0.204219991137293	shuffle
-0.159110907134829	-0.307151458616984	-0.0035516553246507	shuffle
-0.02158178856707	-0.1766356529219	0.134517283668416	shuffle
-0.0557402508771316	-0.20956927587085	0.100781318297374	shuffle
-0.0676441741811639	-0.220964926063984	0.0889394452097738	shuffle
0.0363481942064294	-0.119977788684734	0.190915301001514	shuffle
0.0280421338668118	-0.128164472178856	0.182891081995147	shuffle
0.0553331828473003	-0.101185481763237	0.209178848479875	shuffle
-0.048282379349447	-0.202408485174822	0.108177787782596	shuffle
-0.0727298285027261	-0.225820703298298	0.0838667688131371	shuffle
-0.0300762652660037	-0.184858100642013	0.126161542243361	shuffle
0.109241722802494	-0.0472081749405424	0.260460281696052	shuffle
-0.0507412028084161	-0.204771185124721	0.105741120808009	shuffle
-0.117320951100332	-0.268072965976786	0.039039139227721	shuffle
-0.0737394690918336	-0.226783802850758	0.0828587381843587	shuffle
0.000499407624637992	-0.1551598623224	0.156134480225682	shuffle
0.0532937732618792	-0.10320956200242	0.207222069736447	shuffle
-0.0873038094535356	-0.239693915238849	0.0692848838771427	shuffle
0.0614958331509932	-0.0950612696607269	0.215084329349848	shuffle
-0.0879732044643247	-0.240329631937502	0.0686135147085087	shuffle
-0.0312124177639605	-0.185956228183045	0.125042262419924	shuffle
0.0732699977978592	-0.0833275007281069	0.226336009832184	shuffle
-0.0551272336336968	-0.208981299630344	0.101389941782454	shuffle
0.0997540600664564	-0.0567746574590243	0.251496424805415	shuffle
-0.127739036775756	-0.277861736483696	0.0284743049021486	shuffle
-0.0492696640908603	-0.203357389338132	0.107199625297201	shuffle
-0.0590001802226934	-0.212694173394595	0.0975427851412807	shuffle
0.0291109320218803	-0.127112227122709	0.183924771538138	shuffle
-0.0643619593136277	-0.217827029704936	0.0922089771822799	shuffle
0.0914870409774612	-0.0650869875213415	0.243664539552866	shuffle
-0.00650462286336194	-0.16198783126053	0.149293735208062	shuffle
-0.0698051095609226	-0.223029113972937	0.0867850162324756	shuffle
0.0303930407716393	-0.125849511068576	0.185164313111452	shuffle
0.0935399457481004	-0.0630248568868213	0.245611243941789	shuffle
0.0761234618946082	-0.080477274552141	0.229056714465485	shuffle
-0.10561305647576	-0.257035026829678	0.050870379173432	shuffle
-0.0393159271330102	-0.193777332500246	0.117047544441398	shuffle
-0.0532739961585908	-0.207203087911013	0.103229184106259	shuffle
-0.0102987599679007	-0.16568038789185	0.145581812936699	shuffle
-0.0813723278462686	-0.234055140700638	0.0752276679874524	shuffle
0.0137212872023027	-0.142229679040275	0.16900755030055	shuffle
0.0155204085238084	-0.140466125811451	0.170755123113726	shuffle
-0.108753642052636	-0.259999782658476	0.047701011707525	shuffle
-0.0751487830247085	-0.228127651849199	0.0814511354905626	shuffle
0.0889174370817064	-0.0676662562035513	0.241226136587544	shuffle
0.0155223657168641	-0.140464206772398	0.170757023697534	shuffle
0.111922876547662	-0.044499536033252	0.262988695503075	shuffle
0.148149862673419	-0.00767430924122319	0.296949675797639	shuffle
-0.066715045170458	-0.220076972708637	0.0898653264846202	shuffle
-0.0190699018903582	-0.174200054447195	0.136983899724528	shuffle
0.0453772585733736	-0.111054309807367	0.199614620867987	shuffle
-0.051485536469818	-0.205486066576666	0.105003123621467	shuffle
0.171361703652272	0.016145116579068	0.318513529213768	shuffle
-0.0480559307632875	-0.202190798939738	0.108402101338808	shuffle
0.038966633450188	-0.1173925672284	0.193440616031074	shuffle
-0.113703336406065	-0.264666580437198	0.0426995526483048	shuffle
-0.0855282544883386	-0.23800705796497	0.0710649884282375	shuffle
0.0219847032481045	-0.134121450423633	0.177026154092053	shuffle
-0.0882374797692514	-0.240580575158675	0.0683484209565382	shuffle
0.0320001157258546	-0.124266028804155	0.186717336481512	shuffle
-0.0345099188413519	-0.189141180249843	0.12179147771281	shuffle
-0.0935186224622453	-0.245591030049185	0.0630462828736442	shuffle
-0.0551124848778615	-0.208967151972627	0.101404583384458	shuffle
0.0842862971984407	-0.072309535466854	0.236826595549875	shuffle
0.0950993015315907	-0.0614575993739619	0.247089112254196	shuffle
-0.00678795708427545	-0.162263730294145	0.149016692164517	shuffle
0.126578057140237	-0.0296533684848391	0.276772428390903	shuffle
0.0397761920756271	-0.116592849622556	0.194220968861144	shuffle
-0.0403870788983993	-0.194809687837114	0.115989254496655	shuffle
-0.0492027362542465	-0.203293072458022	0.10726594431009	shuffle
-0.0512167501603059	-0.205227934710353	0.105269641650773	shuffle
0.0916863692073802	-0.0648868221014155	0.24385360994696	shuffle
0.0578642834144871	-0.0986716030680525	0.211605684124545	shuffle
0.0895093999062968	-0.0670722523742826	0.241788045026764	shuffle
-0.0739557338518381	-0.226990059617361	0.0826427765982756	shuffle
-0.137177275335108	-0.286703013877593	0.0188728938836332	shuffle
0.0113996683206679	-0.144503938007725	0.166751006733866	shuffle
-0.0351373033052506	-0.189746782901326	0.121172601617039	shuffle
0.0210862047125608	-0.13500408906458	0.176155270696933	shuffle
-0.0269904957729712	-0.181873654550852	0.129199479792913	shuffle
-0.0284219640579243	-0.183258474484587	0.127790564917724	shuffle
0.0698071498556959	-0.0867829813885234	0.223031062272371	shuffle
0.00496154746883855	-0.150802118773941	0.160484822055106	shuffle
0.0453442096619261	-0.111087018305441	0.199582823186811	shuffle
0.0861142118220854	-0.0704776399193042	0.238563845563226	shuffle
-0.0110734289996487	-0.166433781488497	0.144823390264523	shuffle
0.00602886144618426	-0.149758877762646	0.161524499972718	shuffle
0.162258037462028	0.00678211058410593	0.310074316437816	shuffle
0.0659300664944197	-0.0906473504359266	0.219326583348625	shuffle
-0.00589719411389867	-0.161396260576063	0.149887594134902	shuffle
-0.124703810503371	-0.275013070931653	0.0315558922088607	shuffle
-0.0124318456650457	-0.167754452957582	0.143493019910679	shuffle
-0.159788529609254	-0.307781028019492	-0.00424694468273861	shuffle
0.142015699835764	-0.0139396358704963	0.291225558099834	shuffle
0.0709995902025597	-0.0855935031734409	0.224169527005057	shuffle
0.0189211354376037	-0.137129924349411	0.174055746600963	shuffle
0.0568847339503621	-0.0996447246206934	0.210666710564169	shuffle
-0.0488966864045024	-0.202998945132494	0.107569192369853	shuffle
0.030206099466188	-0.126033656302247	0.184983609091171	shuffle
0.148861233374228	-0.00694693512323515	0.297612802835407	shuffle
0.149447149760897	-0.00634771376392162	0.298158875829132	shuffle
0.10174630527465	-0.0547682427128986	0.253380841520535	shuffle
0.0125962438885406	-0.143331977669848	0.167914245374966	shuffle
-0.0190590653941641	-0.174189542951325	0.136994536728605	shuffle
-0.00974927912600012	-0.165145887967442	0.146119659024341	shuffle
0.0928068734720857	-0.0637613771165444	0.244916235556372	shuffle
-0.0526663480987452	-0.206619818133204	0.103832010472352	shuffle
-0.0301845556119312	-0.184962783373672	0.126054877234255	shuffle
-0.0803203873114698	-0.233054037822403	0.0762804529177089	shuffle
-0.0274630939962209	-0.182330919798732	0.128734397281527	shuffle
0.0855831527465076	-0.0710099644410201	0.238059227570018	shuffle
0.0877468021550477	-0.068840600589462	0.240114634908675	shuffle
-0.0738360105379781	-0.226875878385242	0.0827623338936296	shuffle
0.173793111441487	0.0186504033984155	0.320763534583982	shuffle
0.0773858990484407	-0.0792154522433271	0.230259653877523	shuffle
0.0742159064098511	-0.0823829492754719	0.227238174088825	shuffle
0.0216987697637542	-0.134402363609497	0.176749035041075	shuffle
-0.0490795070699795	-0.203174647152888	0.107388048871183	shuffle
0.32352921804542	0.176784229793759	0.456203644910125	shuffle
0.0292892314225851	-0.126936654919331	0.184097180717862	shuffle
0.0551420310271955	-0.101375251828012	0.208995493878734	shuffle
-0.00407095407187931	-0.159617024668419	0.151672359639005	shuffle
0.0515903577816958	-0.104899180800783	0.205586727060507	shuffle
0.0918955700843726	-0.0646767290166886	0.244052032481805	shuffle
0.0984931409114473	-0.0580438916947016	0.25030315698686	shuffle
0.0180667868859289	-0.137968395598411	0.173226874280912	shuffle
0.0123738656377141	-0.143549814379118	0.167698095360819	shuffle
-0.00914653994413614	-0.164559476727444	0.146709529798138	shuffle
0.0650633972317469	-0.0915105332531244	0.218497892171761	shuffle
-0.0163668748796962	-0.171576998766605	0.139636051305056	shuffle
0.0092399763733068	-0.146618095484497	0.164650389200306	shuffle
-0.0649325441279737	-0.218372753915623	0.0916408395184477	shuffle
0.0424048316207586	-0.113994765062276	0.196753430025412	shuffle
0.00916506318862279	-0.146691403673405	0.164577499821692	shuffle
-0.0783940912186792	-0.231219995259697	0.0782073905550655	shuffle
-0.0539539737271914	-0.207855655682905	0.102554465825292	shuffle
0.0152841366369147	-0.140697783145494	0.17052567659464	shuffle
-0.0403520723337346	-0.194775954594899	0.116023846334193	shuffle
0.229461916755942	0.0765486508548531	0.371829206048046	shuffle
0.225552262814906	0.0724484717472545	0.368270745496729	shuffle
-0.0167468002710663	-0.171945816709483	0.139263411878366	shuffle
0.0838124942794379	-0.0727841978967055	0.236376134021248	shuffle
-0.0439660243826686	-0.198256526654977	0.112450706205511	shuffle
0.0133802324641294	-0.142563879631899	0.168676157353622	shuffle
-0.0365155767718361	-0.191076791880283	0.119812592958388	shuffle
-0.0161157325030245	-0.171333174868162	0.139882353178869	shuffle
0.0924696720748728	-0.0641001072556538	0.24459649043314	shuffle
-0.0585477459819476	-0.212260667553638	0.0979924480922295	shuffle
-0.00669299477321359	-0.162171262669183	0.149109548649541	shuffle
-0.0559570906394652	-0.209777231362662	0.100566004667256	shuffle
0.0354716555306191	-0.120842734114255	0.190069478890849	shuffle
-0.0169487410434425	-0.172141835860617	0.139065325810527	shuffle
-0.00691522437173938	-0.162387649953023	0.148892242769336	shuffle
0.129970755117189	-0.0262066027417943	0.279954598831697	shuffle
-0.0163887047661461	-0.171598191615528	0.139614641254563	shuffle
-0.0779526352139489	-0.230799528275634	0.0786488288402072	shuffle
-0.0755546386111788	-0.228514546713116	0.0810456568199877	shuffle
0.0788967287018195	-0.0777046984716667	0.231698665354251	shuffle
0.0447344102957372	-0.111690475751324	0.198996052497588	shuffle
0.0337827067416962	-0.122508675572001	0.18843906859534	shuffle
-0.126233738439851	-0.276449291516637	0.0300029668791036	shuffle
0.0240176526797068	-0.132123471083622	0.178995725582736	shuffle
-0.0340505344417748	-0.188697670349078	0.1222445550416	shuffle
-0.0694138895486417	-0.222655511151156	0.0871751669238187	shuffle
-0.0734960622879051	-0.226551643660015	0.0831017861731391	shuffle
-0.0436721660359187	-0.197973658990174	0.112741397213636	shuffle
-0.0938644281927313	-0.245918828119161	0.0626987938034982	shuffle
-0.0560634372567091	-0.209879215703573	0.100460401165684	shuffle
-0.0258243428460047	-0.180745049641391	0.1303467935353	shuffle
0.0102928208305532	-0.145587626810851	0.165674611165732	shuffle
0.030824502405654	-0.125424461679294	0.185581339102518	shuffle
0.022954775196391	-0.133168223604584	0.177966138619265	shuffle
-0.00277443864997671	-0.158353265537298	0.152938814627195	shuffle
0.02536013379379	-0.13080338694209	0.180295673724869	shuffle
0.00446806492951542	-0.151284353692514	0.160004000606721	shuffle
0.0626662728064182	-0.0938967897154263	0.216204658374977	shuffle
-0.0598850417687247	-0.213541840321709	0.0966631588517893	shuffle
-0.0295715726105258	-0.184370175121157	0.126658612285191	shuffle
-0.0341374617578725	-0.188781598642153	0.122158826181838	shuffle
-0.0389347368474832	-0.19340986613391	0.117424071943138	shuffle
0.0168069958779571	-0.139204366608945	0.172004248452959	shuffle
-0.0659427794872725	-0.219338737601846	0.0906346868339813	shuffle
0.013529554553886	-0.142417562830643	0.168821253596149	shuffle
0.00952475151755801	-0.146339405950121	0.164927455554409	shuffle
-0.0865051495642069	-0.238935266171592	0.0700857136191422	shuffle
0.132914715409228	-0.0232127138298534	0.282713208963375	shuffle
0.0153552416619686	-0.140628068647147	0.170594729325033	shuffle
0.0495558597732595	-0.106916017348361	0.203632405091787	shuffle
0.0650263358552018	-0.0915474402935194	0.21846244991727	shuffle
-0.122463610557096	-0.272908871184315	0.0338284058730498	shuffle
-0.101782736800488	-0.253415290511334	0.0547315403015797	shuffle
0.170393702676721	0.0151482447312811	0.31761728711417	shuffle
0.122928416729492	-0.0333570279501995	0.273345577839102	shuffle
0.0453849351077959	-0.111046712294975	0.199622006722679	shuffle
0.00206670048185909	-0.153629927756944	0.157663193144225	shuffle
0.103058476586467	-0.053446048023775	0.254621364456837	shuffle
-0.0311044718865164	-0.18585191167448	0.125148622325767	shuffle
0.0607748455318205	-0.0957783729234836	0.21439400847739	shuffle
-0.0499115747502134	-0.203974190554532	0.106563483192368	shuffle
0.160680644530983	0.00516254809269438	0.308609681735645	shuffle
-0.0794717333445505	-0.232246161181513	0.0771295337023882	shuffle
-0.0657264922973459	-0.21913194980942	0.090850126835192	shuffle
-0.0441211042069138	-0.198405795933457	0.112297287108314	shuffle
-0.0707006684540607	-0.223884175158215	0.0858917243030454	shuffle
0.0329638493504772	-0.123316061360627	0.187648285598745	shuffle
0.0152991970454503	-0.140683017386751	0.170540302443933	shuffle
-0.0613141774647349	-0.214910414734429	0.0952419619811644	shuffle
-0.047424625109819	-0.201583841015219	0.109027370730002	shuffle
-0.024916877656167	-0.179866520829764	0.131239309360113	shuffle
0.00304382491657788	-0.152675716319683	0.158615887754248	shuffle
-0.0132230852899824	-0.168523450209284	0.142717856667842	shuffle
-0.158100188598983	-0.306212173561064	-0.00251486487110356	shuffle
-0.0244258128561711	-0.179391011539174	0.131722178941824	shuffle
0.0533719191726439	-0.103132027354396	0.207297072106245	shuffle
-0.0274438381856557	-0.182312290032673	0.128753348210504	shuffle
0.0887033058380285	-0.067881098405382	0.241022851788718	shuffle
0.00943440920538999	-0.1464278203377	0.164839561441583	shuffle
-0.0570409743514052	-0.210816498038183	0.0994895295547054	shuffle
0.0286940095734391	-0.127522734284328	0.183521585173729	shuffle
-0.0284507140409072	-0.183286281276439	0.127762261443394	shuffle
0.0268290106514878	-0.129358381072735	0.181717393295879	shuffle
-0.0627569032060922	-0.216291391706307	0.093806602919569	shuffle
-0.111285473558582	-0.262387792034767	0.0451436816457744	shuffle
0.12905364447565	-0.0271386952968089	0.279094722702528	shuffle
-0.0699993747455034	-0.223214614397677	0.0865912641832632	shuffle
0.0509030449617232	-0.105580671073175	0.204926637399194	shuffle
0.0131337566883544	-0.142805379874211	0.168436642170982	shuffle
-0.107943996361209	-0.259235738744339	0.0485183788954603	shuffle
-0.0505047918986157	-0.204544094263786	0.105975483099231	shuffle
-0.0958689084058084	-0.247818241161606	0.0606838080271282	shuffle
0.0158493137755937	-0.140143615867712	0.171074498998152	shuffle
-0.12787160341504	-0.277986094742638	0.0283396456878147	shuffle
0.104970480332137	-0.0515184560210913	0.256428074695284	shuffle
0.0954470026398893	-0.061108031063841	0.24741854711527	shuffle
0.0201091923139094	-0.135963574624142	0.175208010964543	shuffle
-0.0185660207611662	-0.173711247954362	0.137478466697263	shuffle
0.0210001266653718	-0.135088634699731	0.176071825494123	shuffle
0.0172816898810332	-0.138738705134179	0.172464994620488	shuffle
-0.0876744672327898	-0.240045940791545	0.0689131504907821	shuffle
-0.1263958801387	-0.276601462800627	0.0298383437031494	shuffle
0.017464784042977	-0.138559076468412	0.172642690819022	shuffle
-0.0790344965098544	-0.231829851026901	0.0775669017933928	shuffle
-0.0276323073927712	-0.182494626951034	0.128567858172485	shuffle
0.190581402829143	0.0360021418967775	0.336254149308789	shuffle
0.252704297656281	0.101030908816614	0.392897769379954	shuffle
-0.14272654388529	-0.291889432726687	0.0132142189871999	shuffle
-0.0151742685723538	-0.17041897663872	0.140805499593651	shuffle
0.109479481933836	-0.0469680714143603	0.260684580009497	shuffle
0.02799467627952	-0.128211186609674	0.182845175387175	shuffle
-0.00541186880410412	-0.160923525268871	0.150361996615548	shuffle
0.0841139351128151	-0.0724822184381748	0.236662732285916	shuffle
-0.121896468182745	-0.272375930994189	0.0344034727287417	shuffle
-0.00940389435475818	-0.164809872959643	0.146457683432191	shuffle
-0.153787359900823	-0.302200914686707	0.00190545942167992	shuffle
-0.0949729369474284	-0.24696937744415	0.0615846330381898	shuffle
-0.00492741551664377	-0.160451568189115	0.15083547516568	shuffle
-0.0874453222551966	-0.239828319203583	0.0691429655529334	shuffle
0.07655650847589	-0.0800444954272209	0.229469404518471	shuffle
0.0488022552612433	-0.107662753148736	0.202908187048832	shuffle
0.195455191565599	0.0410570213782072	0.340736496261244	shuffle
-0.0156553654425245	-0.170886173873844	0.140333797030118	shuffle
-0.0693054972758461	-0.22255199197225	0.0872832544306526	shuffle
0.0200333841963378	-0.136038010565437	0.175134499402067	shuffle
-0.0458490826596663	-0.200068546295594	0.110587308687258	shuffle
0.0837128715504759	-0.0728839923228365	0.236281410753929	shuffle
-0.0487163423013129	-0.202825613518964	0.107747871848102	shuffle
0.0127803038934161	-0.143151665219654	0.16809313904238	shuffle
0.0556368068264801	-0.100884029136879	0.209470065184679	shuffle
0.0676260628407568	-0.0889574958290521	0.220947619781795	shuffle
-0.014321121613391	-0.169590306746479	0.141641813176939	shuffle
-0.171595567859334	-0.318730017382872	-0.016386002134231	shuffle
-0.0497175351989852	-0.203787754092691	0.106755792509261	shuffle
-0.0444896316056073	-0.198760486602031	0.111932676295577	shuffle
0.00275335949987757	-0.152959400820942	0.158332714737253	shuffle
-0.0101319176343322	-0.165518103959181	0.145745132277982	shuffle
-0.0342284013472158	-0.188869398365758	0.122069137869349	shuffle
-0.0283374772332034	-0.183176757957123	0.127873738126671	shuffle
-0.0331641497942805	-0.187841737301348	0.123118586094612	shuffle
-0.111046522051312	-0.262162493370163	0.0453851273299538	shuffle
-0.131446118649606	-0.281337383942404	0.024706567644119	shuffle
0.0458467478764651	-0.110589619774486	0.200066300245431	shuffle
-0.0917993967450822	-0.243960815718975	0.0647733142434053	shuffle
0.249127039828034	0.0972508215762475	0.389664640743045	shuffle
-0.0360046023964834	-0.190583777036808	0.120316864375319	shuffle
0.00277489517886892	-0.152938368773178	0.158353710621777	shuffle
-0.0950451250500977	-0.247037778734278	0.0615120633323071	shuffle
-0.0276149735846957	-0.182477857583939	0.128584918438093	shuffle
-0.0166605747140679	-0.171862115848007	0.139347987733255	shuffle
0.0189251800311108	-0.137125954389144	0.174059670064055	shuffle
0.097555576012387	-0.0589873114095698	0.249415595623708	shuffle
-0.0391100830294828	-0.19357890474456	0.117250876208369	shuffle
-0.0669728397421635	-0.220323368230248	0.0896084601501447	shuffle
0.0945711917048482	-0.0619884717631483	0.246588679107908	shuffle
-0.0703061790573885	-0.223507553864615	0.0862852461409909	shuffle
-0.030860479961855	-0.185616110420457	0.125389016218907	shuffle
-0.0428948072186535	-0.197225250461816	0.11351024822945	shuffle
-0.0991358996339117	-0.250911487798116	0.0573969575521011	shuffle
0.0547184472213621	-0.101795733144444	0.208589149810426	shuffle
-0.0786966060261048	-0.231508094043033	0.0779048524269906	shuffle
-0.0248421587955604	-0.179794173516645	0.131312786042016	shuffle
-0.0342051968286494	-0.188846995263153	0.122092023349547	shuffle
0.0185307369435139	-0.137513095384909	0.17367701686025	shuffle
-0.153594095881306	-0.302021041315864	0.00210339814360669	shuffle
-0.0517595618640885	-0.205749207798996	0.104731387577209	shuffle
-0.0245396089503691	-0.179501209348877	0.13161028854894	shuffle
-0.0733153034828424	-0.226379226305641	0.0832822664611434	shuffle
0.0847383753078746	-0.071856571116999	0.237256341384755	shuffle
0.00960873113043756	-0.146257216247134	0.165009157178114	shuffle
-0.0612517466895466	-0.214850642133409	0.0953040592882787	shuffle
-0.0940635524436461	-0.246107567295685	0.062498683016815	shuffle
0.264198875676028	0.113206941738856	0.40326317027219	shuffle
-0.0122615227664426	-0.167588893243185	0.143659857172807	shuffle
-0.0673522609665126	-0.220685976774988	0.0892303672093103	shuffle
0.11413463832796	-0.0422633684902824	0.265072896936519	shuffle
0.291284135412388	0.1420784153292	0.427547388033133	shuffle
0.232557844603102	0.0797991226550531	0.374644070041083	shuffle
-0.10441687264133	-0.255905062858819	0.0520766971391542	shuffle
0.0191614169964381	-0.136894067910527	0.174288823488695	shuffle
-0.132056147753947	-0.281908952140908	0.0240861318688371	shuffle
-0.0197234973143562	-0.174833982346862	0.136342269970372	shuffle
-0.0380985982504762	-0.192603679048747	0.118249825329973	shuffle
-0.117378882359686	-0.26812748403705	0.038980488446075	shuffle
0.0739228991127457	-0.0826755662545343	0.226958745241581	shuffle
-0.0740061981843863	-0.227038186657849	0.0825923808933893	shuffle
-0.0625355138736144	-0.216079517749783	0.0940269041016169	shuffle
0.0493799807627347	-0.107090309106049	0.203463399486835	shuffle
0.0104877944091451	-0.145396759823069	0.165864247439949	shuffle
0.0263479125444129	-0.129831733829889	0.181251811813815	shuffle
-0.056145123976433	-0.209957549408817	0.100379282851329	shuffle
0.1097950280557	-0.0466493859684955	0.260982236169597	shuffle
-0.0208735814094227	-0.17594914679471	0.135212922995817	shuffle
-0.0969216020053157	-0.248815288992822	0.0596250859649705	shuffle
-0.0290120328866398	-0.183829135483943	0.127209609314961	shuffle
-0.0240517173605715	-0.179028717706542	0.132089981560181	shuffle
-0.054708742226502	-0.208579839183463	0.101805366400926	shuffle
0.303788518057587	0.15549364474744	0.438692656043071	shuffle
-0.114273220209784	-0.26520343935922	0.0421232052376225	shuffle
-0.0634250590612119	-0.216930742366195	0.0931416381436566	shuffle
0.0640309596276858	-0.0925385105462208	0.217510407818134	shuffle
0.0818086001377582	-0.0747909430570522	0.234470234079365	shuffle
0.069226086477731	-0.0873624396099154	0.222476149127198	shuffle
-0.0355986643070037	-0.190192051114843	0.120717419879686	shuffle
-0.0335320885647188	-0.188197064117247	0.122755804738751	shuffle
0.038278936122526	-0.118071745621892	0.192777574639874	shuffle
0.0471183669028206	-0.109330656041297	0.201289351692422	shuffle
0.0324739339375233	-0.123799014510417	0.187175070964495	shuffle
0.0046116742096968	-0.151144025251306	0.160143932973448	shuffle
0.106271699011172	-0.0502059615990776	0.257657030695445	shuffle
0.02975190971368	-0.126481007907766	0.184544529742306	shuffle
-0.0402517842775992	-0.194679312375972	0.116122944165226	shuffle
-0.0479801996167622	-0.202117994785499	0.108477114912918	shuffle
0.00113929067428048	-0.15453532182794	0.156758702212266	shuffle
0.0708249237657664	-0.0857677636311706	0.224002792944558	shuffle
-0.00686558211221036	-0.162339314062916	0.148940786460488	shuffle
-0.0462599127031378	-0.200463737579286	0.110180621862267	shuffle
-0.118306506944313	-0.269000323262366	0.0380411957404604	shuffle
-0.0232649938005171	-0.178266675903918	0.132863330926415	shuffle
-0.00182884840363682	-0.157431243942529	0.153862158405392	shuffle
-0.050275177013633	-0.204323515632927	0.106203091615433	shuffle
-0.0284378633364257	-0.183273852191369	0.127774912598308	shuffle
-0.0495814630551658	-0.203657007023963	0.106890644326169	shuffle
-0.0965010688742497	-0.248417024007465	0.0600480696134966	shuffle
-0.0705760026424786	-0.223765160935782	0.0860160896292971	shuffle
0.0334268441799696	-0.122859578173212	0.188095431362012	shuffle
-0.106526287716364	-0.257897423637773	0.0499491035159706	shuffle
-0.0424241690751647	-0.196772052320446	0.113975644454421	shuffle
0.0192005655923348	-0.136855638614288	0.17432679659518	shuffle
-0.0638614058210146	-0.217348206493359	0.0927072999495024	shuffle
0.0667869336596515	-0.0897936989377126	0.220145684431082	shuffle
0.0186508427946175	-0.137395218030678	0.173793537714391	shuffle
0.176207138982907	0.0211397106937461	0.322995816609229	shuffle
-0.0167418421946889	-0.171941003866948	0.139268275156504	shuffle
-0.10506916005223	-0.256521291438722	0.0514189401292722	shuffle
0.183492304653796	0.0286637335987219	0.329722614466203	shuffle
0.0174878041506684	-0.138536491344964	0.172665031535454	shuffle
0.013574604397213	-0.142373418331843	0.168865027197678	shuffle
-0.0380875627960291	-0.192593037503091	0.118260722273574	shuffle
-0.0782549886499249	-0.231087512480936	0.0783464941670696	shuffle
0.019717648304346	-0.136348012480569	0.174828309911264	shuffle
0.00960781301138718	-0.146258114809374	0.165008263975034	shuffle
0.122375885486947	-0.0339173634612041	0.272826442513425	shuffle
0.0419726814559681	-0.114422038951658	0.196337233066015	shuffle
-0.109678861936604	-0.260872659459521	0.046766711512052	shuffle
0.0125505223322466	-0.143376766707093	0.167869805580173	shuffle
-0.0367470066859712	-0.191300061928543	0.119584172396844	shuffle
-0.0801500746056775	-0.232891925449371	0.0764508694979795	shuffle
-0.0420101387532281	-0.196373309795795	0.114385006603379	shuffle
0.0635721564010222	-0.0929952245714818	0.217071480434578	shuffle
-0.0606859706926471	-0.214308903246545	0.0958667576962497	shuffle
-0.00673719172324868	-0.162214298892844	0.149066332125831	shuffle
-0.0787670585464139	-0.231575185375002	0.0778343903346024	shuffle
0.0135452180937916	-0.142402214143541	0.168836473464482	shuffle
-0.109097709297275	-0.260324413628458	0.0473535996821085	shuffle
0.1521890620031	-0.00354205054483707	0.300713039976689	shuffle
-0.151188626088626	-0.299781354123886	0.00456603131397441	shuffle
-0.0662818459594204	-0.219662884438746	0.0902969189741686	shuffle
0.0829649480212758	-0.0736331047509319	0.235570177606348	shuffle
-0.0463524847370769	-0.20055277881567	0.110088976184388	shuffle
-0.031004285076818	-0.185755090235988	0.125247333948899	shuffle
0.00932654594302117	-0.146533378513271	0.164734617948584	shuffle
0.0879387674049095	-0.0686480567893736	0.240296930649041	shuffle
-0.0779967724601856	-0.230841569585565	0.0786046961285426	shuffle
-0.0865207918271886	-0.238950126583947	0.0700700307958795	shuffle
-0.026213015069686	-0.181121252656527	0.129964446770084	shuffle
-0.0665413472243218	-0.219910944228442	0.0900383872537434	shuffle
0.00623998936636159	-0.149552470669378	0.161730120254124	shuffle
-0.040797778644416	-0.195205421583006	0.115583392027789	shuffle
-0.0803693790032311	-0.233100669056545	0.0762314296511913	shuffle
-0.115327706868854	-0.266196571577204	0.0410564840621213	shuffle
0.184773331182134	0.0299885771126212	0.330903924367655	shuffle
-0.114177001315083	-0.265112802934864	0.0422205227484305	shuffle
-0.0157963334013525	-0.171023055827571	0.140195568316185	shuffle
-0.128692283878363	-0.278755847593308	0.0275058845026695	shuffle
0.0774957458574287	-0.0791056351957417	0.230364301596364	shuffle
0.234482583530658	0.0818215805795448	0.376392752127126	shuffle
0.0011244345176322	-0.154549823187535	0.156744211067962	shuffle
-0.0337148813990041	-0.188373576250385	0.122575558589147	shuffle
-0.0425093652838949	-0.196854096381539	0.11389140224008	shuffle
-0.121619898702343	-0.272116006864639	0.0346838690798755	shuffle
0.0596064070136716	-0.0969401714532287	0.213274942764374	shuffle
0.0271616158139993	-0.129031089003026	0.182039230510226	shuffle
0.0123864760562849	-0.143537461902151	0.167710352993775	shuffle
-0.0888490136232015	-0.241161180453125	0.067734908420256	shuffle
-0.0219347019091699	-0.176977695911223	0.134170575670428	shuffle
0.0847004991350998	-0.0718945240204175	0.237220338553763	shuffle
-0.0142162358573042	-0.169488415039421	0.141744614074947	shuffle
0.0579764971696339	-0.0985601065560861	0.21171323153117	shuffle
-0.0840723484805301	-0.236623194905786	0.0725238810862694	shuffle
0.0562891588273417	-0.100236245176782	0.210095667215967	shuffle
0.131040473999555	-0.0251190657299358	0.280957255354168	shuffle
-0.142779502878413	-0.291938886672256	0.0131601677241069	shuffle
-0.0781897162513777	-0.231025344394572	0.0784117649532139	shuffle
-0.0119417833745198	-0.167278071896563	0.143973029204627	shuffle
-0.188912788537839	-0.334718032897204	-0.0342733441702894	shuffle
-0.116570515238302	-0.267366657088212	0.0397987983519787	shuffle
-0.0152475867248111	-0.170490181024322	0.140733617687253	shuffle
0.284469603047999	0.134790499327936	0.421456045119955	shuffle
-0.0712278580638478	-0.224387414696062	0.08536575143478	shuffle
0.140275685936985	-0.0157146288646001	0.289599909945881	shuffle
-0.139272010414957	-0.288661810969979	0.0167380341208936	shuffle
0.055842382001712	-0.100679907804726	0.209667224254224	shuffle
-0.075720053656708	-0.228672220056635	0.0808803805247734	shuffle
-0.0818972556702009	-0.234554579008781	0.0747021881985832	shuffle
-0.0535626125075406	-0.207480086909669	0.102942817652476	shuffle
0.0296039623225409	-0.126626714126376	0.184401491058454	shuffle
0.0811065293380676	-0.0754937128184066	0.233802218135624	shuffle
0.1615021744829	0.00600593879159134	0.309372573048577	shuffle
-0.0570178479913848	-0.210794327281529	0.0995125016667404	shuffle
0.0904455527463642	-0.0661326451916619	0.242676460280413	shuffle
-0.0431010607557002	-0.197423840266986	0.113306270289561	shuffle
0.0682590874063371	-0.0883265325465146	0.221552448801282	shuffle
0.0178594962919248	-0.138171800172289	0.173025731845718	shuffle
-0.0984943694205116	-0.250304319807972	0.0580426553305174	shuffle
-0.121244655002275	-0.27176331211362	0.0350642656595948	shuffle
-0.0449692323440912	-0.19922201973978	0.111458109513188	shuffle
-0.0401112759958189	-0.194543907040315	0.116261779649336	shuffle
-0.0589010749722085	-0.212599219565221	0.0976412888106106	shuffle
-0.0523731683648309	-0.206338361362037	0.104122822705887	shuffle
-0.00237330597975727	-0.15796216415406	0.153330543238842	shuffle
-0.0195594370474877	-0.174674870951357	0.136503339020186	shuffle
0.360696283626987	0.217245536497012	0.488896190885756	shuffle
-0.0609169881365714	-0.214530117284009	0.0956370089783942	shuffle
-0.0344378396728396	-0.189071596023513	0.121862571586389	shuffle
-0.0453437222049361	-0.199582354182489	0.111087500738946	shuffle
-0.0370324916705188	-0.191575459115625	0.119302376857343	shuffle
-0.0127854897741142	-0.168098179213628	0.143146584776165	shuffle
-0.0793629914040353	-0.232142628990086	0.0772383139178185	shuffle
-0.04257671658551	-0.196918954243746	0.113824803520641	shuffle
0.00128603096800063	-0.154392082405442	0.156901833531375	shuffle
-0.0136771688533505	-0.168964683764035	0.142272912749033	shuffle
0.00565966761417575	-0.15011978377831	0.161164904754446	shuffle
-0.00782777396266863	-0.163276052280877	0.147999753823981	shuffle
-0.0547206304014693	-0.208591244271945	0.101793566098147	shuffle
-0.0396539719272522	-0.194103170477126	0.116713597055707	shuffle
-0.03644105961274	-0.191004898678518	0.119886137626184	shuffle
0.0346724896728445	-0.121631123274883	0.189298118167238	shuffle
0.0040731260701577	-0.151670237570585	0.15961914136377	shuffle
-0.0884239229594122	-0.240757600465864	0.0681613870582343	shuffle
0.0545415725636237	-0.101971295754636	0.208419458175372	shuffle
-0.0470609927311068	-0.201234179194429	0.109387470033576	shuffle
-0.00493244218520734	-0.160456465562653	0.150830562737447	shuffle
-0.0815180462823534	-0.234193791401889	0.0750818050479185	shuffle
-0.0597068966303815	-0.213371202005459	0.0968402696622935	shuffle
-0.034532657062982	-0.189163131090387	0.121769049981284	shuffle
-0.00958964147364998	-0.164990585525148	0.146275899223132	shuffle
0.126143278038697	-0.0300948080366506	0.276364390431447	shuffle
0.159501656656005	0.00395257405775123	0.3075145142565	shuffle
-0.0804001708246452	-0.233129976944721	0.0762006175972223	shuffle
0.163065914141326	0.00761190077243425	0.310824171326832	shuffle
0.19784013139498	0.0435334595685594	0.342927483897366	shuffle
-0.00947297003158844	-0.164877077604312	0.146390082712522	shuffle
0.0170881792965771	-0.138928541908594	0.172277178115865	shuffle
0.0790144205511035	-0.0775869823316226	0.231810734583577	shuffle
0.0107254368951113	-0.145164106942047	0.166095369043709	shuffle
0.221050341215714	0.0677335641776424	0.364168032848728	shuffle
0.0375800744479661	-0.118761800230366	0.192103624604826	shuffle
-0.0230533343607805	-0.178061625078138	0.133071359736164	shuffle
-0.0483717435532593	-0.20249438726994	0.108089261748853	shuffle
-0.171505373959735	-0.318646526680509	-0.0162930981921587	shuffle
-0.0983827698875616	-0.250198685675907	0.0581549664744456	shuffle
0.00103773694099646	-0.154634448901225	0.156659642294299	shuffle
-0.0847613371726735	-0.237278167360054	0.0718335625146065	shuffle
4.42738995932431e-05	-0.155604007537819	0.15569041017327	shuffle
-0.103253050286049	-0.254805271408099	0.0532499412889505	shuffle
0.111199956777056	-0.0452300931517992	0.262307163272039	shuffle
0.0261898021797002	-0.129987283185394	0.181098785744965	shuffle
0.0177995371180003	-0.138230632853818	0.17296754862425	shuffle
-0.0507828218896171	-0.204811161736609	0.105699860577261	shuffle
-0.0636332457273151	-0.21712992688868	0.0929344172229363	shuffle
0.139303305829033	-0.0167061284544064	0.288691065987428	shuffle
-0.118618644644938	-0.26929397051327	0.0377250696807463	shuffle
0.0911319797599028	-0.0654435088070884	0.243327721852393	shuffle
-0.0382461258255164	-0.192745937160229	0.11810414582167	shuffle
-0.0478387472241668	-0.201982004934136	0.108617222235225	shuffle
-0.0654486345293465	-0.218866275410935	0.0911268747388102	shuffle
-0.00922554515953764	-0.164636347982853	0.146632217646345	shuffle
-0.0503781757437624	-0.204422462890333	0.106100994913486	shuffle
0.0645423900950479	-0.0920293312613596	0.217999609421882	shuffle
0.00272297700368648	-0.152989072555248	0.158303093542836	shuffle
0.072337474169207	-0.0842584110482039	0.225446354418217	shuffle
-0.0895815740068539	-0.24185654781093	0.0669998218352665	shuffle
-0.0450667794761251	-0.199315883685687	0.111361577517351	shuffle
-0.138195700221567	-0.287655504186021	0.0178351387543905	shuffle
0.0287968461415003	-0.127421485059738	0.183621038489486	shuffle
-0.0359177269133336	-0.190499947263325	0.120402592203578	shuffle
0.130769173144507	-0.0253949205869135	0.280702993747556	shuffle
0.0840466849951935	-0.0725495912089612	0.236598795780319	shuffle
0.0175727742678904	-0.13845312540431	0.172747492551679	shuffle
0.199838684728646	0.0456101488591819	0.344762292536325	shuffle
0.109573097185554	-0.0468735281202468	0.260772890721706	shuffle
-0.088185498413643	-0.240531217752267	0.0684005650426498	shuffle
-0.0766069644389689	-0.229517485086275	0.079994066785983	shuffle
-0.104935134273988	-0.256394684733707	0.0515541008313905	shuffle
-0.0840834693797747	-0.236633767853262	0.07251273991277	shuffle
-0.0123068750657992	-0.167632978093558	0.143615433868261	shuffle
-0.0866689573474298	-0.239090882773742	0.0699214772442092	shuffle
0.04491767270265	-0.111509131400412	0.199172405744657	shuffle
-0.108700463462754	-0.259949605063466	0.0477547038852679	shuffle
0.0855953921611244	-0.0709976968655371	0.238070858519034	shuffle
0.0801700486827845	-0.0764308837121776	0.232910938240341	shuffle
-0.112899254462978	-0.263908936011585	0.0435125774503986	shuffle
0.0753082944636036	-0.0812917783719859	0.228279717010746	shuffle
0.039541329078312	-0.116824878499617	0.19399459895394	shuffle
0.061654215233225	-0.0949037190996824	0.21523595419299	shuffle
-0.102401411650947	-0.254000239526551	0.0541082007315954	shuffle
0.0802781194804967	-0.0763227473815902	0.233013805923829	shuffle
0.00532354771507973	-0.150448322217569	0.160837487674797	shuffle
0.204659243638069	0.050624664967527	0.349183343069051	shuffle
0.034301284347575	-0.121997255854807	0.188939763154425	shuffle
-0.0420477946401453	-0.196409577374535	0.114347777480307	shuffle
0.0113176540149875	-0.144584249150603	0.166671261530504	shuffle
-0.0918978609639214	-0.244054205261295	0.0646744282900789	shuffle
-0.061356965020825	-0.214951379819724	0.0951994022670468	shuffle
-0.0597615797318433	-0.213423581823988	0.0967859051107147	shuffle
0.0666724389462461	-0.0899077772914481	0.220036248543744	shuffle
-0.06186303693095	-0.215435855370732	0.0946959817481701	shuffle
0.0160554239274327	-0.139941496496269	0.171274620898661	shuffle
-0.0638904186202018	-0.217375961791122	0.0926784185875302	shuffle
0.0745463764604	-0.0820528870445952	0.227553299369956	shuffle
0.0452775277176151	-0.111153012374683	0.199518664828919	shuffle
0.0879125149886167	-0.0686743890145157	0.240272001231359	shuffle
-0.0980422436814253	-0.249876339492189	0.0584976395453587	shuffle
0.0770576968474879	-0.0795435428799464	0.229946964542863	shuffle
-0.135723551681817	-0.285342894462128	0.0203536276943723	shuffle
0.0390898035967306	-0.117270907420382	0.193559355274699	shuffle
-0.0329915526382889	-0.187675042361385	0.123288749556914	shuffle
-0.0650200132496248	-0.218456403490645	0.09155373652667	shuffle
-0.0634688471038646	-0.216972638043397	0.0930980543532714	shuffle
-0.0916612790018565	-0.243829811570748	0.0649120183804279	shuffle
0.191958834212317	0.0374299517996211	0.33752162070922	shuffle
0.0647803855038038	-0.0917923555252965	0.218227234285494	shuffle
0.116694607584574	-0.0396731933165438	0.267483463765263	shuffle
-0.00745957747537421	-0.162917629092661	0.148359886766368	shuffle
0.067619167435918	-0.0889643680889242	0.220941030855802	shuffle
0.00804925519835978	-0.147783103144836	0.163491634820318	shuffle
0.117041675904514	-0.0393218679836094	0.267810131594368	shuffle
0.10040067775327	-0.0561235793614065	0.252108171015901	shuffle
0.0244463126786201	-0.131702022716175	0.179410863435049	shuffle
-0.0398780516250998	-0.194319139863027	0.116492213917641	shuffle
-0.0799761060115138	-0.232726324449788	0.076624934750744	shuffle
0.0151540602106586	-0.140825311800031	0.170399350600315	shuffle
0.00469925743454035	-0.151058439835164	0.160229270684416	shuffle
-0.0651731166637671	-0.21860281585365	0.0914012682082615	shuffle
-0.0427070509829906	-0.197044459643176	0.113695921485251	shuffle
-0.0135660347719782	-0.168856700393252	0.14238181578532	shuffle
-0.076500164235425	-0.229415712003018	0.0801008082099576	shuffle
0.183275329969205	0.0284393912407596	0.329522483990941	shuffle
0.05575268822741	-0.100768968878312	0.209581204019286	shuffle
-0.0338928844826655	-0.18854545360516	0.122400025549866	shuffle
-0.0613638082880549	-0.214957931558274	0.0951925953868437	shuffle
0.0376987491221434	-0.118644631740604	0.19221807927336	shuffle
-0.0319694534698628	-0.186687712739438	0.124296248372447	shuffle
-0.0502563337600783	-0.204305413241355	0.106221769489107	shuffle
0.0764154498949837	-0.0801854733719995	0.229334982816033	shuffle
-0.0956425373884954	-0.247603794140728	0.0609114293942333	shuffle
-0.00766236108195483	-0.163115035147176	0.14816154925645	shuffle
0.0239521296537601	-0.132187886798579	0.178932264628074	shuffle
-0.0692502303734384	-0.222499208426038	0.0873383645202554	shuffle
-0.00591094995880072	-0.161409658535641	0.149874146836341	shuffle
0.0557346781388324	-0.100786851621147	0.209563931273096	shuffle
0.0158597937978675	-0.14013333907718	0.171084674846647	shuffle
0.0804051881176255	-0.0761955969791637	0.233134752415786	shuffle
0.0575848535025818	-0.0989492298538013	0.211337857974702	shuffle
-0.0637730817421866	-0.217263709116078	0.0927952222702725	shuffle
-0.0309393492534729	-0.185692334064228	0.125311311981569	shuffle
0.0617540304148371	-0.0948044239283809	0.21533150703971	shuffle
-0.0685629525713596	-0.221842737618282	0.0880236121978569	shuffle
0.0939339177857104	-0.0626289613631351	0.245984694879816	shuffle
-0.052812151129876	-0.206759781659167	0.103687374873855	shuffle
0.0181670987374818	-0.137869959539724	0.173324206274671	shuffle
0.00107214591455741	-0.154600862492522	0.156693206650867	shuffle
0.112183967035268	-0.0442356461039601	0.263234801370148	shuffle
0.0418588445736433	-0.114534581699222	0.196227589316264	shuffle
-0.0622200966830759	-0.215777632299788	0.0943407445047253	shuffle
-0.0287122246943766	-0.183539201260714	0.127504800561865	shuffle
0.0307754676864785	-0.125472770549355	0.185533947771826	shuffle
0.208068064939531	0.0541753356028084	0.352305776268158	shuffle
-0.0446413022718669	-0.198906450903548	0.111782605299563	shuffle
0.138396506601568	-0.017630481277965	0.287843275127383	shuffle
-0.0323417652701148	-0.187047395509715	0.123929292229318	shuffle
0.0192358668934557	-0.136820985521507	0.174361037531503	shuffle
-0.0895939306933417	-0.241868275791427	0.0669874210793457	shuffle
-0.0489235550126059	-0.203024768156618	0.107542570901125	shuffle
0.0198754297348656	-0.136193100287755	0.174981324507216	shuffle
0.0309243217596524	-0.125326117637633	0.185677810807017	shuffle
0.039259021186561	-0.117103757159301	0.193722478079483	shuffle
0.0780164206839556	-0.078585049725946	0.230860284594611	shuffle
-0.0321417928799539	-0.186854211454154	0.124126393356004	shuffle
-0.0806517760963256	-0.233369446346881	0.0759488357947631	shuffle
0.0328783251856652	-0.123400375462289	0.187565682049414	shuffle
0.0286019307696763	-0.127613389034429	0.183432533009618	shuffle
0.0140549217966626	-0.141902715063207	0.169331699340757	shuffle
0.161547175515298	0.00605214368407166	0.309414356528126	shuffle
-0.0771340558278644	-0.230019717143332	0.0794672128844572	shuffle
0.112603216169553	-0.0438118560611102	0.263629947646263	shuffle
0.0202318721632229	-0.135843111626725	0.175326970647965	shuffle
-0.106718920600388	-0.258079302935982	0.049754739764964	shuffle
-0.0544143710398786	-0.208297416680951	0.102097547677055	shuffle
-0.105651678205195	-0.257071503589874	0.050831422627799	shuffle
0.0563871046848339	-0.100138973718268	0.210189585888343	shuffle
-0.0355677974893476	-0.190162262951448	0.120747875332789	shuffle
-0.0631530282152425	-0.216670455068601	0.0934123866416739	shuffle
0.000899238876354241	-0.154769632457055	0.156524540225496	shuffle
-0.110525481173127	-0.261671165792112	0.0459115434674311	shuffle
0.0759464216915206	-0.0806541884103888	0.228887980683	shuffle
-0.0512199099758708	-0.205230969398191	0.105266508631382	shuffle
0.0264390481827222	-0.129742070877974	0.181340013429648	shuffle
0.00912284503785331	-0.146732716556852	0.164536421461305	shuffle
-0.0173249595917582	-0.172506989569485	0.13869625533288	shuffle
0.0204268109526696	-0.135651685931017	0.17551598876315	shuffle
-0.0642013423641428	-0.217673393588494	0.0923688868853156	shuffle
0.0276619271789111	-0.128538705598188	0.182523282019237	shuffle
-0.0299995296998248	-0.184783919339179	0.126237123893519	shuffle
-0.00851711252954286	-0.16394698293922	0.147325400720891	shuffle
0.0330339480066524	-0.123246952832798	0.187715988782717	shuffle
-0.00496840797249604	-0.160491506021305	0.150795414114698	shuffle
0.100164196957532	-0.0563617068580423	0.25188445746715	shuffle
0.0426203870209282	-0.113781620306661	0.196961007216643	shuffle
0.0479749386802675	-0.108482325934478	0.202112937119767	shuffle
0.102498360677805	-0.0540105096665339	0.254091893519394	shuffle
0.044419326903341	-0.112002237074144	0.198692824679472	shuffle
-0.0952056696752786	-0.247189896148277	0.0613506640963661	shuffle
-0.0477626092614429	-0.201908804770333	0.108692633629138	shuffle
-0.0671253413030825	-0.220469117330292	0.0894564978930574	shuffle
0.00342259332398568	-0.152305751707466	0.158985108391518	shuffle
0.371466757140407	0.229063486606431	0.498303190031012	shuffle
-0.0713461230718784	-0.224500295741926	0.0852477473927001	shuffle
0.00333439824712357	-0.152391900745377	0.158899140370253	shuffle
-0.0444568814981837	-0.198728967766204	0.111965080051032	shuffle
-0.098938872422466	-0.250725026642558	0.0575952786436495	shuffle
-0.0787131295534633	-0.231523829387166	0.0778883267950881	shuffle
-0.120879271467457	-0.271419846157934	0.0354346231560913	shuffle
-0.0326416877338106	-0.187337114267701	0.123633653023664	shuffle
-0.016338533222939	-0.171549483958877	0.139663847672804	shuffle
0.206480870755432	0.0525216101034088	0.350852327708002	shuffle
0.00657892165907051	-0.149221088515309	0.162060182676946	shuffle
0.124953733002714	-0.0313022644962575	0.275247731648334	shuffle
0.0565192194810712	-0.100007763848787	0.210316264097559	shuffle
0.230589603964653	0.0777322542571784	0.372854819379409	shuffle
-0.0888531485384826	-0.241165105872413	0.0677307597229262	shuffle
-0.0286914200026178	-0.183519080757093	0.127525283841562	shuffle
0.107675029733859	-0.0487898642635927	0.258981879249276	shuffle
0.320583173592419	0.17359814310471	0.453596862617784	shuffle
-0.0253147518421567	-0.180251738417691	0.13084802081939	shuffle
0.0254033905682772	-0.130760842621319	0.180337551023873	shuffle
-0.0101730749597462	-0.165558137582173	0.145704844807601	shuffle
0.0715422657949069	-0.0850520277969152	0.22468750009356	shuffle
-0.0164159978299391	-0.171624688013835	0.139587872890259	shuffle
0.0329302736076172	-0.123349162316488	0.187615856714735	shuffle
0.180759764255056	0.0258395442938442	0.327201247191753	shuffle
-0.0724213578690547	-0.225526392427962	0.0841746836579957	shuffle
-0.0627466284993067	-0.216281558929302	0.0938168274644309	shuffle
-0.0528940542210669	-0.206838401715099	0.103606124670386	shuffle
0.0481226812417573	-0.10833598186122	0.202254968114258	shuffle
0.0193322852017883	-0.136726335715822	0.174454557757914	shuffle
0.124951453110487	-0.0313045782798604	0.275245591061083	shuffle
0.0529155719671287	-0.103584778105842	0.206859056605711	shuffle
0.00304097239809134	-0.152678502370897	0.158613106975276	shuffle
-0.0409060017928217	-0.195309692683918	0.1154764348528	shuffle
0.0116953274116382	-0.144214401717053	0.167038468911212	shuffle
-0.0105737853844225	-0.165947880803658	0.145312576327618	shuffle
0.047789066350026	-0.108666429219223	0.201934241201961	shuffle
0.159695044999072	0.00415101381067921	0.307694180503198	shuffle
0.089345297810013	-0.0672369313923081	0.241632284745186	shuffle
0.120075650375758	-0.0362490328981229	0.270664295454627	shuffle
0.0256590152033134	-0.130509416467829	0.180585012222514	shuffle
-0.0131768538483627	-0.168478523569708	0.142763154043265	shuffle
-0.0471533977604989	-0.201323037796673	0.109295966708891	shuffle
-0.0271966552771891	-0.182073133653995	0.128996607284908	shuffle
-0.0782312720498395	-0.23106492397104	0.0783702103365787	shuffle
-0.00680391927595104	-0.162279272886579	0.149001083670862	shuffle
0.07147266835077	-0.085121476485801	0.224621075551248	shuffle
-0.0223445400683918	-0.177374863339084	0.133767895808138	shuffle
-0.0914737690156889	-0.243651950182492	0.0651003147787231	shuffle
-0.017132168109192	-0.172319873541618	0.138885389233208	shuffle
-0.0845083525535873	-0.23703768901839	0.0720870528728956	shuffle
0.0474242312930313	-0.109027760742654	0.201583462349911	shuffle
-0.0597771552127402	-0.213438501095237	0.0967704201919988	shuffle
-0.0378507695715743	-0.192364687818733	0.118494534329207	shuffle
-0.0897079101508839	-0.241976453896675	0.0668730328393055	shuffle
-0.0602054576472027	-0.213848730664736	0.0963445783851507	shuffle
-0.0953116956741044	-0.247290352587345	0.0612440692110642	shuffle
0.0361906669801078	-0.120133249924351	0.190763310921576	shuffle
-0.0234515395766462	-0.178447386026317	0.13267997359605	shuffle
0.00864964715996644	-0.147195730639929	0.164075961921919	shuffle
-0.0551374053664566	-0.208991056767939	0.101379843910667	shuffle
0.0281936274576393	-0.128015346245919	0.183037620048723	shuffle
-0.00314933045735384	-0.158718738145878	0.152572667452053	shuffle
-0.0588146975525874	-0.212516458042868	0.0977271394071216	shuffle
-0.0111370677362351	-0.166495664395423	0.144761078016	shuffle
-0.0358805130022957	-0.190464037320287	0.12043931379286	shuffle
-0.0298257990198769	-0.184615965039568	0.126408235385126	shuffle
-0.0576442743910307	-0.211394813251217	0.0988901944408581	shuffle
-0.0113921830028786	-0.166743728597786	0.14451126796568	shuffle
-0.0123007881535879	-0.1676270613268	0.143621396132898	shuffle
-0.0853120265857964	-0.23780156885744	0.0712817022712888	shuffle
-5.05943341770634e-05	-0.155696577397601	0.155597840131356	shuffle
0.102889829717765	-0.0536160138858328	0.25446195412892	shuffle
-0.0995496058121507	-0.251302971342528	0.0569804943526047	shuffle
0.00152292531980988	-0.15416082597315	0.157132887838552	shuffle
0.00851956527863785	-0.147323001033167	0.163949369934066	shuffle
0.0874267815481752	-0.0691615597514593	0.239810710213815	shuffle
0.0961151276137751	-0.0604362103509629	0.24805147397385	shuffle
-0.0629537763183928	-0.216479791009889	0.0936106845781341	shuffle
-0.0488692108416598	-0.202972538551423	0.107596414978477	shuffle
0.120039014739515	-0.0362861554213631	0.270629846838581	shuffle
0.00571244375932469	-0.150068194917082	0.161216311310078	shuffle
-0.156908733150636	-0.305104554868365	-0.0012931047265447	shuffle
0.0359843134111319	-0.120336885544891	0.190564199551246	shuffle
0.196704859135136	0.0423543959874877	0.341884733042252	shuffle
-0.0794755208747372	-0.232249767191432	0.0771257447718764	shuffle
-0.123447151579614	-0.273832879749325	0.0328308767575513	shuffle
-0.0577672428073375	-0.211512675896562	0.0987680202462242	shuffle
-0.0635886974873015	-0.217087306022064	0.0929787599512958	shuffle
0.0281992419349107	-0.128009819380256	0.183043050737479	shuffle
-0.0114942672591248	-0.166842985865046	0.144411301021774	shuffle
0.0328394030096103	-0.123438746189721	0.187528088325395	shuffle
-0.0741481291310999	-0.22717353996298	0.0824506386679796	shuffle
0.0811760982303643	-0.0754240816087119	0.233868418933785	shuffle
