cor	ci95_lower	ci95_upper	type
0.252966916925254	0.102780554503748	0.39187669434435	real
-0.0885022014034989	-0.239430240368989	0.0666021506216499	shuffle
0.0194837639253682	-0.135117627655842	0.173158997613507	shuffle
0.0440536503114841	-0.110895102634994	0.196911512099871	shuffle
0.0718022132161064	-0.0833156792077496	0.223522919069736	shuffle
0.0162707443608099	-0.138271618454434	0.170039592929866	shuffle
0.017696710178437	-0.13687223688204	0.171424392101402	shuffle
0.0776217654208244	-0.077501298323218	0.229075435669404	shuffle
-0.0587728957472604	-0.211055657629698	0.0962952377731172	shuffle
0.0243920789999691	-0.130293430472482	0.177918358393272	shuffle
0.0670423635497991	-0.0880634603599044	0.218974146935945	shuffle
-0.0672570342191872	-0.219179440247803	0.0878494856264236	shuffle
0.128740755590638	-0.0259702425448094	0.277428904563918	shuffle
-0.118708954661099	-0.26799885795987	0.0361481718950557	shuffle
-0.00605208520729083	-0.160098137606495	0.148281748548173	shuffle
0.0876372220407298	-0.0674699739875021	0.238608302291255	shuffle
0.0370069955803988	-0.117861012591302	0.190117582237411	shuffle
-0.0375470239302392	-0.190638762099005	0.11732771092539	shuffle
-0.0595823466596643	-0.211831636740522	0.0954904116199435	shuffle
-0.106227790547206	-0.256226300682449	0.0487664529073433	shuffle
-0.0127636644312574	-0.166631174401031	0.141710692879282	shuffle
0.0518934676619633	-0.10312718557696	0.204452945602551	shuffle
0.127658226119938	-0.0270700867163179	0.276412687381028	shuffle
0.0357588967825978	-0.11909322313575	0.188912715256765	shuffle
0.068019426151189	-0.087089449573234	0.219908420269492	shuffle
0.126772812156586	-0.0279693841662645	0.275581263657952	shuffle
-0.0138251143559068	-0.167663151737282	0.140670218799601	shuffle
0.0951400357290384	-0.0599346722052007	0.245730585049942	shuffle
-0.0927022564710095	-0.243418228012197	0.0623849472353701	shuffle
-0.0897625120797564	-0.240627451007393	0.0653372759250593	shuffle
0.0893225192159643	-0.0657789187909854	0.240209539438051	shuffle
0.0939726776336582	-0.0611082472712018	0.24462350061345	shuffle
0.136489372127766	-0.0180867387468963	0.284693164721834	shuffle
0.0857772714835002	-0.0693352453788897	0.236840169766821	shuffle
-0.0689976210400412	-0.220843497269827	0.0861140128776584	shuffle
0.252441220055776	0.102224897110729	0.391401269092126	shuffle
0.0404614833216385	-0.11444801180825	0.193450009808141	shuffle
-0.0235131681037307	-0.177066647699026	0.1311578174149	shuffle
0.0108240413296326	-0.143611104816995	0.164744536362153	shuffle
0.145349453194843	-0.00904880734241672	0.292978607267264	shuffle
0.06993412195774	-0.0851798738737009	0.221738456646133	shuffle
-0.037219793567499	-0.190322963287494	0.117650875916412	shuffle
0.0606316106748733	-0.0944468406963215	0.212837226765101	shuffle
-0.114263554722994	-0.263810947116097	0.0406480771655963	shuffle
-0.0358856457552368	-0.189035094921369	0.118968109430224	shuffle
0.102543901043267	-0.0524813808745326	0.252743034438232	shuffle
0.123742552895774	-0.0310452641192813	0.272734095849422	shuffle
-0.0343257194760978	-0.18752861154438	0.120507568042558	shuffle
-0.148993386732777	-0.296379783596204	0.00532439305155979	shuffle
-0.0112182437757996	-0.165128061516494	0.143224963712967	shuffle
-0.126339279280925	-0.275174085277751	0.0284096236014462	shuffle
-0.0504724402647197	-0.203087345061885	0.104536584982441	shuffle
0.0603302247368242	-0.0947466262676685	0.212548418552242	shuffle
-0.0524391838316174	-0.204977218470066	0.10258576941764	shuffle
0.0978914482971321	-0.0571669094768927	0.248338381938142	shuffle
-0.0850519066190321	-0.2361503418234	0.0700623914801976	shuffle
-0.0655686501097178	-0.21756444578829	0.0895320098718587	shuffle
-0.0589607296383849	-0.211235741459889	0.0961084951273344	shuffle
-0.0132517054539274	-0.167105706174087	0.141232338665353	shuffle
-0.0698291356545478	-0.22163814007834	0.0852846089679837	shuffle
0.0498856590464367	-0.105118383109063	0.202523277868008	shuffle
-0.0182869045839317	-0.171997370319689	0.136292864886367	shuffle
0.0750716204283927	-0.080050476726889	0.226643519040644	shuffle
-0.03264351636819	-0.185903232438614	0.122166864965251	shuffle
0.0380342424084462	-0.116846484660314	0.191108901254053	shuffle
0.0991199425596511	-0.0559303447781202	0.249502048598945	shuffle
-0.0246784606625469	-0.178195827548141	0.130011730450159	shuffle
-0.00506129991060248	-0.159132564798795	0.149250636309882	shuffle
-0.030436321540784	-0.183769322551626	0.124342693064713	shuffle
-0.0585935686654358	-0.210883719969817	0.0964735128454461	shuffle
0.205724031376016	0.0532166995075537	0.348853265548088	shuffle
-0.0821176947256136	-0.233358327274681	0.0730021276502073	shuffle
-0.0772024228440925	-0.228675664259244	0.0779206213416187	shuffle
-0.0769710754756194	-0.228455092250901	0.0781519344303624	shuffle
0.177892170324639	0.0243650510531136	0.323221605174491	shuffle
-0.0740540202286322	-0.225672568407772	0.0810671251586509	shuffle
0.0270782755821625	-0.127650164787476	0.180519998563776	shuffle
0.0383669482621709	-0.116517828903066	0.191429903836128	shuffle
0.0562849476958304	-0.0987677022857023	0.208669387083914	shuffle
0.0288461650889803	-0.125909329639691	0.182231067478482	shuffle
0.0842185368543978	-0.0708976042691653	0.235357612287682	shuffle
-0.0979646866396177	-0.248407767669687	0.0570932033379094	shuffle
0.145131444095203	-0.00927149571327998	0.292775003313529	shuffle
0.0598932218917228	-0.0951812586643705	0.212129605883601	shuffle
-0.0634128329109734	-0.215501125839274	0.0916790588712815	shuffle
-0.0972349880502714	-0.247716385014052	0.0578274872776667	shuffle
0.08151224317669	-0.0736083837983188	0.232781906491676	shuffle
-0.0489157048932282	-0.20159064804188	0.106079867564518	shuffle
0.0528527139767463	-0.102175436530942	0.205374441126614	shuffle
0.00525338696002505	-0.149062817765527	0.159319786849767	shuffle
0.0995013790780358	-0.0555463056647173	0.249863268387584	shuffle
-0.141640236464456	-0.289512655364373	0.0128355522306126	shuffle
-0.0396472839976447	-0.192664897060119	0.115252762448419	shuffle
-0.0639878760453682	-0.216051629078849	0.0911064955549192	shuffle
0.152535672451453	-0.00169976312864207	0.29968250437486	shuffle
-0.0518432378296279	-0.204404685095703	0.10317701500341	shuffle
0.137539706920381	-0.0170166385426705	0.285676536165899	shuffle
-0.00529241967082396	-0.159357829622422	0.149024651067555	shuffle
0.0139101937375046	-0.140586805938779	0.167745854182916	shuffle
-0.0761133977248509	-0.227637226440244	0.0790093393829744	shuffle
-0.0609567356804568	-0.213148753526401	0.0941234105740661	shuffle
-0.0750048067598964	-0.226579777532275	0.0801172378048252	shuffle
-0.00912109688655659	-0.163087182531633	0.145278684288621	shuffle
0.0378089205751234	-0.117069044340638	0.190891486751196	shuffle
-0.111297127265092	-0.261013202847645	0.0436473844472882	shuffle
-0.0549093149490197	-0.207349194284181	0.100133952513206	shuffle
-0.0692981121816996	-0.221130687014614	0.0858143093056841	shuffle
0.0148608950392192	-0.139654577609276	0.168669847663964	shuffle
0.0165822899793134	-0.137965933645297	0.17034219629943	shuffle
-0.112229926743635	-0.261893230713287	0.0427045467915391	shuffle
0.0171302788768095	-0.137428182087271	0.17087438599272	shuffle
0.0625276632663387	-0.0925602109316066	0.214653541724088	shuffle
0.152405326372453	-0.00183321109968404	0.299561036076914	shuffle
0.0703687149466158	-0.0847462843017342	0.222153684988795	shuffle
-0.0392902715760201	-0.192320576805416	0.115605567669387	shuffle
-0.10222029432671	-0.252436865079183	0.0528075092435324	shuffle
-0.0824617425145474	-0.233685830979323	0.0726575715598052	shuffle
0.0378360217318409	-0.117042276231886	0.19091763762826	shuffle
0.0538046609361624	-0.101230649117872	0.206288657280434	shuffle
-0.014160189179086	-0.167988852758217	0.140341694675103	shuffle
-0.00493462125493342	-0.159009088475644	0.149374493854836	shuffle
-0.114101675908603	-0.263658338274728	0.0408118222894012	shuffle
-0.0174799750940536	-0.171213953148684	0.13708497114539	shuffle
0.0775050203045164	-0.0776180435073379	0.228964144304213	shuffle
-0.0708770320065294	-0.222639282547551	0.0842390663281506	shuffle
0.260421184249721	0.110669756167918	0.398610146151951	shuffle
0.102467186528103	-0.0525586961655193	0.252670456359725	shuffle
0.0626543422670584	-0.0924341217906233	0.214774855809929	shuffle
0.0368657116720443	-0.118000521902005	0.189981215285988	shuffle
0.0601226823961702	-0.0949530502015418	0.212349522102625	shuffle
0.101473135375134	-0.0535603640103534	0.251729851432062	shuffle
0.0231934261650403	-0.131472217306869	0.176756743949021	shuffle
-0.0796735785686826	-0.231030752212351	0.0754487893604621	shuffle
-0.0715088822106741	-0.223242786908633	0.0836084702341181	shuffle
0.139048676102243	-0.0154786532868168	0.287088756268193	shuffle
-0.0451520703974066	-0.197969217010144	0.109807895605646	shuffle
-0.0749648494867151	-0.226541656914552	0.0801571629617172	shuffle
-0.0793659277833953	-0.23073764811404	0.0757566282705925	shuffle
0.0146169078797489	-0.139893850011206	0.168432740559241	shuffle
0.0910096160034698	-0.0640851650033296	0.241811664425724	shuffle
-0.0789615406528414	-0.230352339875309	0.0761612177055217	shuffle
-0.0529342532861576	-0.205452759017058	0.102094521425377	shuffle
-0.0571921163204768	-0.209539691755597	0.0978664010503752	shuffle
0.0829342151543226	-0.0721843405360584	0.23413552811131	shuffle
-0.181215393120069	-0.326293367855998	-0.0277966468048282	shuffle
-0.0204501512756545	-0.174096625460919	0.134168381248208	shuffle
0.064647257419297	-0.0904498314741332	0.216682752467543	shuffle
-0.0657052973698204	-0.217695184309514	0.0893958697882389	shuffle
0.13680462746592	-0.0177655880601522	0.2849883539435	shuffle
0.0823503542998872	-0.0727691283945505	0.233579802800058	shuffle
-0.0730970702592764	-0.224759212729276	0.0820228856813925	shuffle
-0.106453625560087	-0.256439710150283	0.0485385755449712	shuffle
0.0140311867114513	-0.140468179177613	0.167863463142812	shuffle
-0.0549054496837102	-0.207345484012106	0.100137790591874	shuffle
0.117468553763888	-0.0374044133912731	0.266830871520569	shuffle
0.105941106774936	-0.0490557060770959	0.255955369316223	shuffle
-0.0229951878932439	-0.176564590009043	0.131667127914409	shuffle
-0.0883027359167588	-0.239240719453742	0.066802292759369	shuffle
-0.0437744410575077	-0.196642595575644	0.111171402518935	shuffle
0.11015268929999	-0.0448037611937017	0.259933169547908	shuffle
0.0351612491484777	-0.119683093892657	0.188335605706538	shuffle
0.15588436028376	0.00173049907346832	0.302801480639605	shuffle
-0.0322426426575233	-0.185515776250689	0.122562152425531	shuffle
-0.0405550789250437	-0.193540249233725	0.114355489339645	shuffle
-0.0238125923203181	-0.177356831280175	0.130863367576552	shuffle
0.0850723107382238	-0.070041939508746	0.236169748390317	shuffle
0.0250397023537872	-0.129656358556059	0.178545792189728	shuffle
0.0478162738074587	-0.107169348015263	0.20053318877237	shuffle
0.0694868041912169	-0.0856260974974251	0.221311013015297	shuffle
0.0472542341195112	-0.107726157109662	0.199992467987493	shuffle
0.0161927024317934	-0.138348187643874	0.169963786484801	shuffle
-0.075358416832702	-0.226917113508698	0.0797638902575776	shuffle
-0.0942808507406576	-0.244915800126073	0.0607984745846351	shuffle
-0.0737709893765279	-0.225402458910454	0.081349833928542	shuffle
-0.149060163261407	-0.296442076641427	0.00525610171078553	shuffle
0.104979577138294	-0.0500256636081502	0.255046500714653	shuffle
-0.00521238871731157	-0.159279827901833	0.149102905891347	shuffle
-0.0135322369994137	-0.167378440190506	0.140957342553835	shuffle
0.00481209505114064	-0.149494286815474	0.158889655047992	shuffle
-0.0727129941556744	-0.224392558426304	0.082406404175315	shuffle
0.1128009590299	-0.0421272332223941	0.262431834990459	shuffle
-0.125253934423275	-0.274154484397742	0.0295114950503169	shuffle
-0.0709876573939704	-0.222744953497721	0.0841286694839726	shuffle
0.0408119729383446	-0.114101526972916	0.193787918166279	shuffle
0.0424078385054907	-0.11252341956825	0.195326039406375	shuffle
-0.0735352958721552	-0.225177507854735	0.0815852401730082	shuffle
-0.0265937767970521	-0.18005090954351	0.128127082815375	shuffle
-0.0970768780611567	-0.247566557057994	0.0579865687019581	shuffle
-0.0699963835948551	-0.221797947400607	0.0851177595955645	shuffle
-0.0475339980423594	-0.20026163172732	0.107449008948076	shuffle
-0.17592207153326	-0.321399131845351	-0.0223324125055558	shuffle
-0.0131609114537782	-0.167017430799427	0.141321336016629	shuffle
-0.00901473232669902	-0.162983636685458	0.145382810881842	shuffle
-0.0668191995623666	-0.218760717054442	0.0882858857033687	shuffle
0.0501042688513419	-0.10490164219382	0.202733437229084	shuffle
0.0686762222003887	-0.0864345382817816	0.220536296170319	shuffle
-0.111643583915589	-0.261340088328229	0.0432972316724721	shuffle
0.160134627301251	0.00608953363207924	0.306755663282182	shuffle
0.069228715461349	-0.0858835266342884	0.221064364514667	shuffle
-0.00339569076429199	-0.157508675836119	0.150878765999208	shuffle
-0.117021332752352	-0.266409651577797	0.0378572256306247	shuffle
-0.0327387279831248	-0.185995250250379	0.122072972923965	shuffle
0.162019037579283	0.0080240423881421	0.308507182821867	shuffle
0.104881759437595	-0.0501243223066732	0.254954025429018	shuffle
0.0760931821216077	-0.0790295457881832	0.227617946631625	shuffle
-0.0366898084328956	-0.18981142556724	0.11817420716363	shuffle
-0.0240499595480615	-0.17758685406452	0.130629924372637	shuffle
0.0172318701823398	-0.137328478663325	0.170973038437995	shuffle
0.0264056221714174	-0.128312274172816	0.179868720466766	shuffle
0.0219521238127722	-0.13269248596732	0.17555334680054	shuffle
0.114547876171774	-0.0403604576165801	0.264078968805857	shuffle
-0.0193145088833743	-0.172994750898239	0.135283851398684	shuffle
0.0160906913118472	-0.138448270912831	0.169864694693718	shuffle
0.0645166752487709	-0.0905798862291342	0.216557776525621	shuffle
-0.15693170035565	-0.303776330200986	-0.00280409771909069	shuffle
-0.12861765634444	-0.277313362746488	0.0260953295996628	shuffle
-0.112563134187638	-0.26220752716882	0.0423676866796585	shuffle
-0.0177603813463438	-0.171486210962801	0.136809738342406	shuffle
0.0241765603315508	-0.13050540946953	0.177709530799328	shuffle
0.0215801399649417	-0.133058075330817	0.175192632677789	shuffle
-0.0162279165934618	-0.169997992174363	0.138313638242046	shuffle
-0.115225671421951	-0.264717813848897	0.0396746964495628	shuffle
-0.0389654333526924	-0.192007254180403	0.115926543893333	shuffle
-0.0123182542755538	-0.166198031231733	0.142147199421842	shuffle
0.236157932305675	0.0850598872584144	0.376638300977403	shuffle
0.0510939155043572	-0.103920271750738	0.203684652854358	shuffle
-0.0520963965961034	-0.204647910895297	0.102925866363866	shuffle
-0.0672120314845835	-0.219136404460798	0.0878943436535323	shuffle
0.0332698553069655	-0.121549155848381	0.186508511979312	shuffle
0.0168257131216905	-0.137727069297473	0.170578612322117	shuffle
-0.0124363859317668	-0.166312915224724	0.142031435034955	shuffle
0.220966806561701	0.0691266381139886	0.362800883326404	shuffle
-0.0367568323474545	-0.189876121144397	0.118108029476174	shuffle
0.127434063416581	-0.0272977880201497	0.27620221458497	shuffle
0.0415724500429962	-0.113349609651815	0.194520972206111	shuffle
0.103522419051385	-0.0514950367134373	0.253668642617872	shuffle
-0.11590888505131	-0.265361633130579	0.038983305517697	shuffle
0.0454319123661726	-0.109530851080941	0.198238629197249	shuffle
0.00856827515922133	-0.145819837048502	0.162548973854986	shuffle
0.117460020093352	-0.0374130543463543	0.266822834524767	shuffle
0.0494297828840559	-0.105570314629681	0.202084978534483	shuffle
0.0221338164008686	-0.13251390141741	0.17572951978918	shuffle
-0.0661769417760241	-0.218146392529422	0.0889259313969225	shuffle
0.0885693061541929	-0.0665348154241484	0.239493996952998	shuffle
0.0949206760878662	-0.0601552327996222	0.245522581474405	shuffle
-0.0700201195879603	-0.221820626753075	0.085094079462665	shuffle
-0.038459412320989	-0.19151910956212	0.11642648440436	shuffle
0.000932710205163462	-0.153284791792276	0.155105859559048	shuffle
-0.00591539006700434	-0.159964938472293	0.148415440183585	shuffle
-0.0242068972198139	-0.17773892667326	0.130475571688511	shuffle
-0.0689796153290085	-0.220826287754733	0.0861319705053386	shuffle
-0.011583084805132	-0.165482979060995	0.142867541689102	shuffle
0.195408867661649	0.0424937984556546	0.339378457819982	shuffle
-0.0962030014626243	-0.24673832554931	0.0588656724202102	shuffle
-0.106279909597574	-0.256275553416968	0.048713863948075	shuffle
0.057543496040681	-0.0975172256304305	0.209876727869865	shuffle
-0.0779773985495116	-0.229414430986988	0.077145638768881	shuffle
-0.0077709240384865	-0.161772538149746	0.146600194980565	shuffle
-0.110888290278703	-0.260627416697026	0.044060534094467	shuffle
0.0391864480931793	-0.115708160312998	0.192220437283985	shuffle
-0.0802811263722712	-0.231609492580102	0.0748407831839824	shuffle
0.0208045201556176	-0.133820226739893	0.174440378593513	shuffle
0.0783915540546779	-0.0767314027249243	0.229809164491567	shuffle
0.128882818420967	-0.0258258796595921	0.277562240389003	shuffle
0.0605620124606211	-0.0945160718399516	0.212770535451473	shuffle
0.186055168151167	0.0328007270416595	0.330761455165964	shuffle
0.0342199188981847	-0.12061195345931	0.187426409576722	shuffle
0.00723630947759373	-0.14712330822732	0.161251840327868	shuffle
0.0594819027556612	-0.0955902926619102	0.211735356748166	shuffle
0.16407058279341	0.0101314408637095	0.310412922018766	shuffle
-0.0970283688233728	-0.247520587362263	0.0580353744041648	shuffle
-0.00101650856297791	-0.155187640924986	0.153202961251034	shuffle
0.0457805007676918	-0.109185713669461	0.198574193328285	shuffle
-0.0294809269905281	-0.182845201331694	0.125284048999758	shuffle
0.0126668042917746	-0.141805621925777	0.166536986927249	shuffle
0.0904973040346067	-0.0645995929572618	0.24132524232104	shuffle
0.0326239055527958	-0.122186203642835	0.185884279119626	shuffle
0.070929559617949	-0.0841866477093883	0.222689458116869	shuffle
-0.0580148139912733	-0.210328749397929	0.0970488044342921	shuffle
-0.0303719843594266	-0.183707099856721	0.124406093623142	shuffle
0.177901123979232	0.0243742918353436	0.323229885444578	shuffle
-0.0456823304791353	-0.198479694589056	0.109282915861835	shuffle
-0.0583813740942724	-0.210680256998312	0.0966844497414358	shuffle
-0.0523328341763376	-0.204875054571177	0.102691288289449	shuffle
-0.0336107816652493	-0.186837926483085	0.121212876431854	shuffle
-0.0901123363179208	-0.240959679204235	0.0649860964569256	shuffle
-0.00719773642027221	-0.161214268062549	0.147161048111995	shuffle
-0.0958198224194323	-0.246375091682287	0.0592510676234006	shuffle
0.0931288036671301	-0.0619563485052956	0.24382295332135	shuffle
0.0348556850394665	-0.119984639625687	0.188040501394595	shuffle
-0.0984493342872314	-0.248866882129693	0.0566054174880953	shuffle
0.209979225238462	0.057650362983917	0.352753291351682	shuffle
0.0595751349166548	-0.095497583054234	0.211824724059483	shuffle
0.107176923096775	-0.0478086282250349	0.257123113122298	shuffle
0.0349101938087169	-0.119930849777489	0.188093146295425	shuffle
-0.0703797318759021	-0.222164210308943	0.084735292045537	shuffle
-0.0258905153821177	-0.179369891557787	0.128819213289132	shuffle
0.12939213585175	-0.0253082631305692	0.278040223069163	shuffle
0.102238682617811	-0.0527889785508047	0.252454263334112	shuffle
0.0340230791253702	-0.120806151243635	0.187236256116439	shuffle
-0.00705882184584478	-0.161078953978162	0.147296958427312	shuffle
0.0997323079810666	-0.055313778804408	0.250081937362204	shuffle
-0.00593894408260144	-0.159987890489182	0.148392404105841	shuffle
0.0764470866952152	-0.0786757838216235	0.227955451547008	shuffle
-0.0541520472517752	-0.206622208510687	0.100885805820202	shuffle
0.121263502867264	-0.0335594579425132	0.270402890217848	shuffle
-0.0356419579232831	-0.188799803310527	0.119208648932987	shuffle
0.102182524744458	-0.0528455709841074	0.252401128728321	shuffle
-0.0448904556625298	-0.197717331839628	0.110066873330621	shuffle
0.00150536644595515	-0.152725540936753	0.155664690082689	shuffle
0.0125779410726829	-0.141892710986906	0.166450573244686	shuffle
-0.0810371822854171	-0.232329549846414	0.0740839957514849	shuffle
-0.14812360753885	-0.295568288217471	0.00621377155286498	shuffle
0.0491176754484177	-0.105879684517665	0.201784869491868	shuffle
-0.0520290085061067	-0.204583168692089	0.102992721310588	shuffle
-0.0736770783571342	-0.225312830109046	0.0814436325646792	shuffle
0.161116532017512	0.00709739918015345	0.307668446899264	shuffle
0.0677365891168721	-0.0873714336784408	0.219637998390475	shuffle
-0.029874973684957	-0.183226382370361	0.124895826209088	shuffle
0.0145943865380642	-0.139915935245466	0.168410853386641	shuffle
0.000267708309174661	-0.153934102627338	0.154456789053178	shuffle
0.0187765870476358	-0.135812081467141	0.172472689635344	shuffle
-0.0579024216185452	-0.21022096444053	0.0971605122730946	shuffle
0.0872184205708425	-0.0678900681433559	0.238210262607444	shuffle
-0.0666897008656423	-0.21863686024631	0.0884149486845123	shuffle
-0.0129774817489362	-0.166839081908511	0.141501128361813	shuffle
0.0463807508902575	-0.108591318385143	0.199151932431878	shuffle
0.0212715483340355	-0.133361330271411	0.174893358923571	shuffle
-0.00658786348741612	-0.160620159167554	0.147757688151607	shuffle
0.0131016219373064	-0.141379450953258	0.166959784642755	shuffle
-0.128037836322292	-0.27676908175496	0.0266844474191663	shuffle
0.0209098549949427	-0.133716731740193	0.174542550721558	shuffle
0.156545392803865	0.00240806342724844	0.303416796295115	shuffle
-0.139040492817196	-0.287081099397825	0.0154869959012563	shuffle
0.030288557519855	-0.124488304049917	0.183626413068743	shuffle
0.0419185258786006	-0.113007370414513	0.194854511874116	shuffle
0.000979140793269615	-0.15323945178373	0.155151172843119	shuffle
3.65676311072542e-06	-0.1541918868073	0.154199026445375	shuffle
0.119255749951486	-0.0355942382615829	0.268513592080232	shuffle
-0.109000383739279	-0.258845332656633	0.045967668218446	shuffle
-0.099846229782733	-0.250189805449214	0.0551990625037468	shuffle
0.0948130884894712	-0.0602634038856092	0.245420558527231	shuffle
-0.0291174687930434	-0.182493569189483	0.125642093368719	shuffle
0.0977567749484275	-0.0573024386153705	0.248210788882012	shuffle
-0.0459871782100827	-0.19877313178939	0.108981064667364	shuffle
-0.0873204411650664	-0.238307230276356	0.0677877377160342	shuffle
0.0542998280736095	-0.100739095522429	0.206764093036246	shuffle
-0.102869787560693	-0.253051330356027	0.052152921518056	shuffle
-0.028017659715376	-0.181429306210964	0.126725274917669	shuffle
0.113462390606278	-0.0414583966381153	0.263055588404969	shuffle
-0.0706692256898837	-0.222440773344337	0.0844464330389143	shuffle
-0.00170830001298047	-0.155862700519988	0.152527334160854	shuffle
-0.0424296897960243	-0.195347094816971	0.112501806004728	shuffle
0.114965457807128	-0.0399379855318882	0.264472569196404	shuffle
-0.126511133346292	-0.275335498709927	0.0282351182122387	shuffle
-0.0714113887447567	-0.223149674749587	0.0837057782991993	shuffle
0.0347487335707902	-0.120090177860092	0.187937204457778	shuffle
0.0461548106313275	-0.108815067829263	0.19893447801255	shuffle
-0.0274790311554931	-0.180907955133026	0.127255625597856	shuffle
-0.100557291907554	-0.250862997954748	0.0544829488608345	shuffle
-0.0236581088653185	-0.177207118726963	0.131015287983008	shuffle
0.109664979793031	-0.0452964323327112	0.259472792590008	shuffle
0.0273412506529607	-0.127391274419809	0.180774580337417	shuffle
0.0773325780042188	-0.0777904781255557	0.228799750406568	shuffle
0.0724857953776351	-0.0826332514760192	0.224175645231609	shuffle
0.0711331503513107	-0.0839834713059558	0.22288392501971	shuffle
-0.145826325438123	-0.293423923081216	0.00856164628677706	shuffle
0.110414382092621	-0.0445393750362135	0.260180168307254	shuffle
-0.0881944203920831	-0.239137799300156	0.0669109704960504	shuffle
0.0102903974982064	-0.144133760858773	0.164225272542539	shuffle
0.00125532670778937	-0.152969739611452	0.155420699223597	shuffle
-0.112031472980669	-0.261706024989265	0.0429051592965141	shuffle
0.119183451785295	-0.0356674857302515	0.268445537983993	shuffle
-0.0614726994992675	-0.21364307381598	0.0936100692806328	shuffle
-0.0368789538010697	-0.189993996813888	0.117987446360484	shuffle
0.105662559155838	-0.0493367252731648	0.255692104470804	shuffle
-0.0173272073220968	-0.171065614835945	0.137234910334581	shuffle
-0.0464649588784139	-0.199232973897305	0.10850792289734	shuffle
-0.0742158680046473	-0.225827016787312	0.0809054503432409	shuffle
0.109135327737241	-0.0458313873463822	0.258972746522849	shuffle
0.0110729335303611	-0.143367307871992	0.16498669253291	shuffle
0.0600205841829002	-0.0950545933329554	0.2122516725133	shuffle
0.0411636528903999	-0.113753827521061	0.194126937652694	shuffle
0.0026617406926675	-0.151595935200919	0.156792845096777	shuffle
0.100261696037106	-0.0547806640702955	0.250583162531507	shuffle
-0.0819287947485676	-0.233178496260385	0.0731912909656788	shuffle
0.0243460486539078	-0.130338706005359	0.17787375828409	shuffle
-0.0774223993318403	-0.22888538057974	0.0777006619574355	shuffle
-0.130738284634991	-0.279303198401155	0.0239397799911303	shuffle
-0.0978392757281918	-0.248288952899982	0.0572194142576618	shuffle
-0.0150760962427601	-0.168878965758251	0.139443519931755	shuffle
0.000451776192398105	-0.153754391249183	0.15463646056095	shuffle
-0.107598605721859	-0.257521468013233	0.0473829923744239	shuffle
-0.0508098828239495	-0.203411679510251	0.104201960011689	shuffle
-0.0972254503657874	-0.247707347131462	0.0578370837853196	shuffle
0.0594811045793506	-0.0955910863529389	0.211734591648496	shuffle
0.0266245295999436	-0.128096813315898	0.180080686310356	shuffle
-0.0578671091752181	-0.210187098831795	0.0971956088368619	shuffle
-0.036580460853397	-0.189705873748545	0.118282171195177	shuffle
-0.0280483022538728	-0.181458963242524	0.126695100647191	shuffle
0.0354939437639421	-0.119354741947896	0.188656880367992	shuffle
0.0283225012464216	-0.126425079115453	0.181724331191587	shuffle
-0.00699261629754641	-0.161014462356408	0.147361730119414	shuffle
-0.104671336691552	-0.254755085834416	0.0503365439313899	shuffle
0.0352725373272768	-0.11957326213137	0.188443077497008	shuffle
0.00552589594935826	-0.148796345290651	0.159585374978571	shuffle
-0.0317780976175542	-0.185066720233716	0.123020162515463	shuffle
-0.101593565272611	-0.251843821400985	0.0534390279534422	shuffle
0.0759433243835625	-0.0791793313667344	0.227475022209998	shuffle
-0.129320344333646	-0.277972852839181	0.0253812294815909	shuffle
0.0344886129743187	-0.120346846671395	0.187685958037777	shuffle
-0.0179918981414443	-0.171710982323242	0.136582475006366	shuffle
0.0132881004157977	-0.141196663192793	0.167141090847188	shuffle
-0.062941638218465	-0.215049967250035	0.0921481451526401	shuffle
-0.00581420690301887	-0.159866339475141	0.148514396488953	shuffle
0.037447597392734	-0.117425905698747	0.190542812305342	shuffle
-0.0160891834713808	-0.169863229980933	0.138449750233793	shuffle
0.0818384355117953	-0.0732817722227641	0.233092471452752	shuffle
-0.0768856204891931	-0.228373613528761	0.0782373725306684	shuffle
-0.0549833979414464	-0.207420305775927	0.100060389697499	shuffle
-0.122154108773134	-0.271240583931192	0.0326564520027955	shuffle
-0.142066210883259	-0.289910889918867	0.0124008994042147	shuffle
0.0202292651961528	-0.13438537446072	0.173882337468178	shuffle
0.0530746981344995	-0.101955146907701	0.205587650652582	shuffle
0.0654354726178075	-0.0896646874889376	0.217437021751255	shuffle
-0.00355362346231119	-0.157662688411813	0.150724423004371	shuffle
-0.0586911446919052	-0.210977276409084	0.0963765104757149	shuffle
0.0563781421490371	-0.0986751223191994	0.208758805586676	shuffle
-0.0283550233858123	-0.181755804418218	0.126393050934148	shuffle
-0.0324059352196374	-0.185673609049916	0.122401141304225	shuffle
0.0686544806722701	-0.0864562195654775	0.220515513982555	shuffle
0.0932910925016548	-0.061793264099498	0.243976925777869	shuffle
0.0291491853246488	-0.125610850870655	0.182524255304045	shuffle
0.032798811957471	-0.122013720250024	0.186053317368762	shuffle
0.00684660818895909	-0.147504571357163	0.160872229450663	shuffle
-0.0173749644456472	-0.171111988003794	0.137188038222529	shuffle
-0.097404000185521	-0.247876536086842	0.0576574280156755	shuffle
0.0528668130671379	-0.10216144551931	0.205387983336064	shuffle
0.0779849306793233	-0.0771381056524345	0.229421610339097	shuffle
-0.0500816383472672	-0.202711682168014	0.104924079913595	shuffle
0.00454220892615188	-0.149758136500831	0.158626565414861	shuffle
0.105156904849242	-0.0498468035907351	0.255214136489999	shuffle
-0.0193626129420808	-0.173041432407386	0.135236609752177	shuffle
0.00857096491633913	-0.145817204290455	0.162551592734068	shuffle
0.0823408553635108	-0.0727786415308574	0.233570760789014	shuffle
0.121524695510727	-0.0332946548695977	0.270648588431201	shuffle
-0.101520641801701	-0.251774810084486	0.0535125006744894	shuffle
-0.00619373663470868	-0.160236160351269	0.148143203574846	shuffle
0.02672119711111	-0.12800166313016	0.180174283945316	shuffle
-0.065622776762458	-0.217616232612801	0.0894780848074029	shuffle
0.00136740479280949	-0.15286028206013	0.155530068278537	shuffle
-0.00773667746782269	-0.161739185633994	0.146633707383595	shuffle
-0.0292744908827902	-0.182645486972111	0.125487415120395	shuffle
0.128883641655195	-0.0258250430780625	0.277563013034764	shuffle
0.130209551268752	-0.024477354866699	0.278807194767747	shuffle
-0.0779717434422169	-0.229409040733623	0.0771512946052984	shuffle
-0.0396288939191763	-0.192647161688732	0.115270936764376	shuffle
-0.0905053914419163	-0.241332921617194	0.0645914727871251	shuffle
-0.0666574563852714	-0.218606019804596	0.0884470838642454	shuffle
-0.095427868348233	-0.246003495778975	0.059645240784223	shuffle
-0.0759722295277987	-0.227502590537353	0.0791504406861207	shuffle
0.117496134650319	-0.0373764856020084	0.266856847008499	shuffle
0.0380262400350463	-0.116854389201443	0.191101179969136	shuffle
-0.0786789251192292	-0.230083029893758	0.0764439443032892	shuffle
-0.0884073879194433	-0.239340155349752	0.0666972872998871	shuffle
-0.0416468901985544	-0.194592718845236	0.113275997843451	shuffle
-0.0773702050953589	-0.228835622064681	0.0777528535022504	shuffle
0.102818044407956	-0.0522050754174772	0.253002382215777	shuffle
-0.152258852327114	-0.299424532584557	0.00198316428518698	shuffle
0.0129830215079676	-0.141495698603891	0.166844468369373	shuffle
0.0404928714001456	-0.114416983914085	0.193480272652464	shuffle
-0.120709069820941	-0.269881282770313	0.034121482806154	shuffle
0.175399019074582	0.021792969248488	0.320915092177027	shuffle
-0.0608497621466637	-0.213046257540592	0.0942298300661501	shuffle
0.137884313576368	-0.0166654698512249	0.285999104717025	shuffle
0.252322347524764	0.102099262788307	0.391293753881419	shuffle
-0.124361070874538	-0.273315454371477	0.0304176723656967	shuffle
0.064715245079356	-0.0903821163190071	0.216747819269777	shuffle
-0.152664900933182	-0.299802926485057	0.00156745392758068	shuffle
-0.0383045160196271	-0.191369670207724	0.116579503730598	shuffle
0.0604067296846482	-0.0946705302265686	0.212621733241359	shuffle
-0.0733947754516484	-0.225043384386926	0.0817255810942984	shuffle
-0.137111298115223	-0.285275477927759	0.0174531519917663	shuffle
0.134079156760098	-0.0205409720756212	0.282435431212901	shuffle
0.0829528836129558	-0.0721656406775542	0.234153295329661	shuffle
0.275288069623902	0.126460635498934	0.41199508884653	shuffle
0.136525227612456	-0.0180502143637114	0.284726739408523	shuffle
-0.026864154058825	-0.180312695907016	0.127860944861444	shuffle
-0.0482310470022095	-0.20093216941563	0.106758372530471	shuffle
0.0660462736890182	-0.089056133751821	0.218021392750881	shuffle
0.0681492874874604	-0.0869599715229878	0.220032573512561	shuffle
0.102424056772126	-0.0526021628682182	0.252629651412254	shuffle
-0.0841287359738776	-0.235272178645779	0.0709875907675665	shuffle
-0.0379840077864682	-0.191060430841496	0.116896104818562	shuffle
0.0864288923294119	-0.0686818838166331	0.237459736696325	shuffle
-0.0435406633311315	-0.196417418106302	0.111402725850476	shuffle
-0.0657687473888562	-0.217755888843787	0.0893326532982653	shuffle
-0.0357658320875458	-0.188919411609959	0.119086377434649	shuffle
-0.0696543878880131	-0.22147115787458	0.0854589310007939	shuffle
0.0367814676785709	-0.11808370483881	0.189899900336895	shuffle
0.146946777137123	-0.00741673169472273	0.294469978282802	shuffle
0.00704846815005332	-0.147307087973777	0.161068868405191	shuffle
-0.142757199917805	-0.290556772219001	0.0116957086328267	shuffle
-0.0246327215735531	-0.17815151354732	0.13005672349265	shuffle
0.0386218219695643	-0.116266034877847	0.191675789950009	shuffle
0.0643812282255883	-0.0907147805987223	0.21642813932639	shuffle
-0.0143077268813269	-0.168132252407601	0.140197030540307	shuffle
0.127259371993318	-0.027475225965493	0.276038181900199	shuffle
-0.0230596099717355	-0.17662703612811	0.131603788548455	shuffle
0.0889496584438988	-0.0661531302540945	0.239855347110063	shuffle
-0.0553827624016073	-0.20780362380727	0.0996638001913754	shuffle
-0.075181941035837	-0.226748764153131	0.0799402399091459	shuffle
0.175305442619831	0.0216964698367697	0.320828487270192	shuffle
0.109339728639277	-0.0456249504824197	0.259165731534677	shuffle
0.0230366582120426	-0.131626354713188	0.176604788488487	shuffle
-0.0336352674472632	-0.186861584142296	0.121188723031405	shuffle
-0.111113257503116	-0.260839705852854	0.0438332003370466	shuffle
0.0675157464594289	-0.0875915930783339	0.219426833410039	shuffle
0.00262989705312957	-0.151627047098943	0.156761783928639	shuffle
0.0224004695399806	-0.132251791471944	0.175988054517856	shuffle
-0.0951987613335149	-0.245786268125645	0.0598756225193287	shuffle
-0.115377233222094	-0.264860648043931	0.0395213334255269	shuffle
-0.0206877534608421	-0.174327113988519	0.133934949977959	shuffle
0.100012700023784	-0.0550314239259486	0.250347422881594	shuffle
0.0248590277933225	-0.129834102312902	0.178370762685739	shuffle
-0.011583122102967	-0.165483015342311	0.142867505147656	shuffle
0.100956828386243	-0.0540805040043757	0.25124119220773	shuffle
0.031018395009084	-0.123769035994752	0.184332209924908	shuffle
-0.0815115702536023	-0.23278126577541	0.0736090575518927	shuffle
0.0605428967160436	-0.0945350865028828	0.212752217863754	shuffle
-0.113976228389165	-0.263540069344982	0.0409387103773992	shuffle
-0.0293900256375835	-0.182757261369403	0.125373600127912	shuffle
-0.040823286584949	-0.193798825090829	0.114090341970935	shuffle
0.085341940408225	-0.0697716652485742	0.236426184613462	shuffle
-0.032414693504445	-0.185682074273924	0.122392505155471	shuffle
-0.0860865661534338	-0.23713426522556	0.0690251410603626	shuffle
-0.0351454169232157	-0.188320316115255	0.119698718615194	shuffle
0.0335591122397636	-0.121263843870544	0.18678800396318	shuffle
0.0714189032036103	-0.0836982782356191	0.223156851610962	shuffle
-0.0722297489904271	-0.223931172381705	0.0828888824944033	shuffle
0.031653492016696	-0.123143004021824	0.184946258387187	shuffle
0.00918624707796107	-0.145214903202573	0.163150604535615	shuffle
-0.108039638397673	-0.2579380479832	0.0469377648461767	shuffle
-0.00304478586959574	-0.157166454081905	0.15122166814448	shuffle
0.0405971106789155	-0.114313938632907	0.193580772958765	shuffle
-0.017268727763135	-0.171008829030857	0.137292305236428	shuffle
-0.00590375230218547	-0.159953598086543	0.148426821979523	shuffle
-0.0707914027957346	-0.222557485853844	0.0843245160213384	shuffle
-0.0354319901197633	-0.188597055806034	0.119415889476331	shuffle
-0.0959321051042138	-0.246481534227381	0.0591381403269296	shuffle
0.035987674475727	-0.118867393472938	0.189133603037795	shuffle
-0.00871916323542466	-0.162695882513049	0.145672143085991	shuffle
-0.155972235755274	-0.302883285722101	-0.00182056407546333	shuffle
0.0702940202488122	-0.0848208107204058	0.222082322464233	shuffle
-0.027479122312044	-0.180908043372862	0.127255535849724	shuffle
-0.00591328182528925	-0.159962884105361	0.148417502058236	shuffle
0.0797750224462591	-0.0753472769683537	0.231127393485077	shuffle
-0.0116260545896898	-0.165524777466075	0.142825443038913	shuffle
0.0931848980758495	-0.0618999800474171	0.243876174070378	shuffle
-0.0113668131196562	-0.165272594663358	0.143079420373986	shuffle
-0.0793963534849513	-0.230766636417819	0.0757261852816053	shuffle
-0.0834916173089525	-0.234665977558521	0.0716259538588859	shuffle
-0.0641022161039626	-0.216161078167797	0.0909926363540765	shuffle
-0.0624275230599629	-0.214557639180199	0.0926598813318083	shuffle
-0.0879341591028201	-0.238890488179141	0.0671720870659643	shuffle
0.0193530503333017	-0.135246000977961	0.173032152642306	shuffle
0.17098014530813	0.0172391888889984	0.3168227718233	shuffle
-0.184532286348593	-0.329356227649706	-0.031225316118982	shuffle
0.114744300837223	-0.0401617394498014	0.264264119227062	shuffle
-0.123715486266338	-0.272708652849695	0.0310727250341759	shuffle
-0.0186208984476269	-0.1723215753846	0.135964948618866	shuffle
-0.069450791354904	-0.221276597676268	0.0856620195396953	shuffle
-0.0215649303901823	-0.175177883018859	0.133073022554202	shuffle
0.0194142205768573	-0.135185926560318	0.173091513115953	shuffle
0.10914493302279	-0.045821686682501	0.258981815616398	shuffle
-0.027995846325041	-0.181408194199773	0.126746754789291	shuffle
-0.0255914907288771	-0.179080280168156	0.129113459437042	shuffle
-0.0168556178504368	-0.170607654999667	0.137697723380322	shuffle
-0.098377807126597	-0.248799127559432	0.0566774124596481	shuffle
0.0975957304909566	-0.0574644989364534	0.248058204292931	shuffle
-0.136118449496576	-0.284345815458275	0.0184645568813989	shuffle
0.0473303010553289	-0.107650803775412	0.20006565504871	shuffle
-0.0581976286203465	-0.210504061810662	0.0968670949051663	shuffle
-0.00855210835411704	-0.162533233017133	0.145835661214201	shuffle
-0.0662839431167764	-0.218248748498634	0.0888193074866628	shuffle
-0.0365467110617376	-0.189673294791889	0.118315493219614	shuffle
-0.00317346132899956	-0.157291949765564	0.151095931572992	shuffle
-0.016602569825005	-0.170361893050355	0.13794603428419	shuffle
0.0810095654805877	-0.0741116424211127	0.232303250898677	shuffle
0.0311642952546315	-0.123625229152032	0.184473285297589	shuffle
0.0723744524883531	-0.0827444162486687	0.224069337491426	shuffle
0.015509712595327	-0.13901820986541	0.169300282989264	shuffle
-0.125949538328233	-0.274807991123486	0.0288053424360991	shuffle
-0.0641933495283627	-0.216248310564486	0.0909018832878099	shuffle
0.00806093131028297	-0.146316390590293	0.162054960269826	shuffle
0.0161074382530785	-0.138431840679211	0.169880962588497	shuffle
0.0306927145810356	-0.124090020048499	0.184017276849876	shuffle
-0.0417199890454016	-0.194663171116524	0.113203710762998	shuffle
0.0516049174986799	-0.103413424966179	0.204175698313841	shuffle
0.00669252292877658	-0.147655307573031	0.160722121298626	shuffle
-0.128537631013021	-0.277238248101262	0.0261766445830128	shuffle
-0.129714338501561	-0.278342564826423	0.0249807674918504	shuffle
0.0711111811783875	-0.0840053963899598	0.22286294096706	shuffle
0.0745548606225264	-0.0805667935383214	0.226150486558546	shuffle
-0.153903832482266	-0.300957192204383	0.000298712985102178	shuffle
0.0792793895929233	-0.075843214049822	0.230655196767896	shuffle
0.01263974851486	-0.141832137786149	0.166510677199749	shuffle
0.0107579142305934	-0.143675875027876	0.164680195809979	shuffle
-0.0749640476508356	-0.226540891930695	0.0801579641480143	shuffle
0.0483206635385802	-0.106669569575257	0.201018367134034	shuffle
0.14591017239465	-0.0084759827042142	0.293502214948618	shuffle
0.0261176605870558	-0.128595679726178	0.179589868479105	shuffle
-0.00335661960832486	-0.157470573327016	0.15091694793379	shuffle
0.0353357630377975	-0.119510862161251	0.188504133383894	shuffle
-0.0633960221834561	-0.215485031053001	0.0916957955615278	shuffle
-0.0294809237032377	-0.182845198151541	0.125284052238265	shuffle
-0.0280477352731533	-0.181458414499232	0.12669565896612	shuffle
-0.171346649875533	-0.317162398445452	-0.0176166402969666	shuffle
0.0613444925579058	-0.0937376322750142	0.213520252144488	shuffle
-0.0815147871390307	-0.23278432869606	0.0736058366950749	shuffle
-0.0249329409415021	-0.178442367640999	0.129761389344921	shuffle
0.0331008633976216	-0.121715831167286	0.186345213544266	shuffle
0.0600884907629959	-0.0949870563029571	0.212316753629533	shuffle
0.00487860335553842	-0.149429262701661	0.158954485125772	shuffle
-0.00187969155913954	-0.156029924490047	0.152359925054391	shuffle
-0.0873935403570161	-0.238376707125022	0.0677144145173953	shuffle
-0.0608420849129613	-0.213038901520926	0.0942374674013105	shuffle
-0.147749547316239	-0.295219228288066	0.00659618565127974	shuffle
0.0654584316183197	-0.0896418150565386	0.217458989260274	shuffle
0.113869141302544	-0.0410470232385301	0.263439106635945	shuffle
0.144767880797078	-0.00964282834415707	0.292435433001201	shuffle
0.0511625322821582	-0.103852217609336	0.203750594353531	shuffle
-0.0423308822713607	-0.195251884992843	0.11259953740414	shuffle
0.0100082153259594	-0.144410098046284	0.163950659798677	shuffle
-0.150507853401897	-0.297792258321596	0.00377521705642762	shuffle
0.0424536856089945	-0.112478071080802	0.195370216478611	shuffle
0.00175910101118454	-0.152477714493336	0.15591226715681	shuffle
-0.00937384064548807	-0.163333214850774	0.145031244671635	shuffle
-0.0391270880336577	-0.192163182061331	0.115766815167365	shuffle
0.0989472595134306	-0.0561041909797134	0.249338504260692	shuffle
0.0253737897755754	-0.129327664327032	0.178869415683033	shuffle
-0.0239448189459931	-0.177484968715886	0.130733328964437	shuffle
-0.02125643160099	-0.17487869790858	0.133376184836316	shuffle
0.0653785167037036	-0.0897214279414718	0.217382524830978	shuffle
-0.00998167748705262	-0.163924832599595	0.144436084954233	shuffle
0.00910259774873725	-0.145296794440495	0.163069173873808	shuffle
0.0868943332802968	-0.0682151180275239	0.237902206897347	shuffle
0.0395622606768386	-0.115336787360254	0.192582899825967	shuffle
-0.0814633655391098	-0.2327353678487	0.0736573213897124	shuffle
-0.0394473327897531	-0.192472058969934	0.115450362152812	shuffle
0.0864284717769954	-0.0686823055354114	0.237459336870948	shuffle
-0.00479806564713015	-0.158875979482991	0.149508002970685	shuffle
-0.0529263730653767	-0.205445190209825	0.102102341410642	shuffle
0.0870818230661534	-0.0680270753802306	0.238080425856281	shuffle
-0.0487945664852964	-0.201474151651323	0.106199927828917	shuffle
-0.0598005521293236	-0.21204078629855	0.0952734181576066	shuffle
-0.0112876679825693	-0.165195600492262	0.143156954343928	shuffle
-0.0671441444726643	-0.21907148348775	0.0879620111827133	shuffle
0.00863156914612309	-0.145757883754817	0.16261059940113	shuffle
0.0178008979187345	-0.136769967320741	0.171525548206439	shuffle
0.114445299869967	-0.040464226753391	0.263982275725698	shuffle
0.0314571105119384	-0.123336595641128	0.184756398190343	shuffle
-0.00794957681878518	-0.161946521243121	0.146425366358436	shuffle
-0.0371855791133156	-0.190289942260245	0.117684663410628	shuffle
-0.088859116974685	-0.239769332820891	0.0662439931272492	shuffle
-0.0668983818635436	-0.218836447196748	0.0882069672557747	shuffle
-0.0463852212221164	-0.199156234715728	0.108586891241146	shuffle
0.0255351898747811	-0.129168857538881	0.179025748682956	shuffle
-0.106126146449952	-0.256130244317513	0.0488690109625636	shuffle
0.0292179496204319	-0.125543113268026	0.182590784536738	shuffle
-0.038551269112032	-0.191607726915973	0.116335737226083	shuffle
0.0206160663243754	-0.134005380512048	0.174257574892558	shuffle
-0.0689258714437628	-0.220774919812211	0.086185570270846	shuffle
-0.0351058386621882	-0.188282094035464	0.119737777814039	shuffle
0.066369925662676	-0.0887336256548046	0.218330995763236	shuffle
0.019767899871885	-0.134838560917603	0.173434706641987	shuffle
0.0732774110628311	-0.0818427908488948	0.22493135840719	shuffle
-0.00552066466776772	-0.159580276764817	0.148801460901902	shuffle
-0.0001059494474311	-0.154298885306708	0.154092024570525	shuffle
0.0989137037379269	-0.0561379716886722	0.249306723323782	shuffle
-0.0585128128449658	-0.210806288727919	0.0965537916687596	shuffle
-0.0269780845669382	-0.180422999906418	0.127748794022954	shuffle
-0.0436749328578433	-0.196546750072649	0.111269868050364	shuffle
0.182985722925987	0.02962618593489	0.327928491205724	shuffle
0.0219749261258965	-0.132670074262134	0.175575456947033	shuffle
-0.0925450747284937	-0.243269074354004	0.0625428705423131	shuffle
-0.0418662166579573	-0.194804099759062	0.113059102093329	shuffle
-0.0269109896479764	-0.18035804114518	0.12781484135403	shuffle
0.0793888682806492	-0.0757336747657101	0.230759504861049	shuffle
-0.0597625078905375	-0.212004321966495	0.0953112521430518	shuffle
0.0549576077852871	-0.100085998959365	0.207395550256816	shuffle
0.0343295621083844	-0.120503776743889	0.187532323414237	shuffle
0.0290090975984829	-0.125748842537063	0.182388716538932	shuffle
0.0183400023298022	-0.13624073561022	0.172048914085991	shuffle
-0.0167246202949109	-0.170480431678238	0.137826271054668	shuffle
-0.0209232766305112	-0.174555569130721	0.133703544292464	shuffle
0.077416696705289	-0.077706364331274	0.228879944113224	shuffle
0.0820586911706661	-0.073061214658436	0.233302157552329	shuffle
0.0567492006900199	-0.0983064837685617	0.209114804720273	shuffle
-0.0963119146556916	-0.246841561890379	0.0587561208779292	shuffle
0.00255243770400058	-0.151702725217823	0.156686226660799	shuffle
0.040404150269437	-0.11450468617226	0.193394731342391	shuffle
0.0784438949093866	-0.0766790478799452	0.229859047253859	shuffle
0.0620588266444125	-0.0930268212287881	0.214204519714911	shuffle
0.0229397628511543	-0.131721620442446	0.176510863979186	shuffle
-0.0127740391314983	-0.166641262665268	0.141700524850165	shuffle
-0.0840540634558097	-0.235201135858074	0.0710624157106746	shuffle
-0.0138606456833373	-0.16769769065873	0.140635383720617	shuffle
0.119576438255457	-0.0352693191403071	0.268815437276611	shuffle
0.0380929578867254	-0.116788486402471	0.19116555373419	shuffle
0.0915952635788091	-0.0634969975611511	0.242367623267728	shuffle
-0.136641181537947	-0.284835314916604	0.0179320944466513	shuffle
0.0999904190989782	-0.0550538617314568	0.250326327307743	shuffle
-0.0449928351424478	-0.197815906186309	0.109965528315594	shuffle
-0.0930076368399587	-0.243707990650148	0.0620781039163988	shuffle
-0.0978312561529242	-0.24828135497018	0.0572274848219816	shuffle
-0.0481930375145013	-0.200895609253283	0.106796036203373	shuffle
-0.04851718598198	-0.201207384084101	0.10647482259835	shuffle
0.00397529070482034	-0.150312303121345	0.158073852524716	shuffle
0.0968236998841152	-0.058241286017832	0.247326625733706	shuffle
0.0997292257953647	-0.0553168824286293	0.250079018909563	shuffle
0.0610389017692533	-0.0940416676366734	0.213227478147796	shuffle
0.0311631562706409	-0.123626351818856	0.184472184003888	shuffle
-0.0269860672215924	-0.180430728321441	0.127740935914292	shuffle
-0.116264261614499	-0.265696465865196	0.0386236168501601	shuffle
0.0945650998177373	-0.0605127236194047	0.245185383629928	shuffle
0.0106406531755674	-0.14379072670367	0.164566099559976	shuffle
-0.0502894281191084	-0.202911428099048	0.10471805432926	shuffle
-0.128008428234267	-0.276741473639985	0.0267143242219017	shuffle
-0.116437670622755	-0.265859837251243	0.0384480891416812	shuffle
0.14362634942905	-0.0108084774757439	0.291368993740836	shuffle
-0.0502504642086204	-0.202873973505106	0.10475668843989	shuffle
-0.123154812127921	-0.272181564661404	0.0316415140840003	shuffle
-0.0443129421623055	-0.197161224857488	0.110638491161797	shuffle
-0.0717589292290041	-0.223481584283307	0.0833588851998518	shuffle
0.168142040515725	0.01431779768699	0.314191535301612	shuffle
-0.0229786170558869	-0.176548527233914	0.131683420049054	shuffle
0.0107176080596703	-0.143715353491515	0.164640977942855	shuffle
0.0162457487447421	-0.138296142576019	0.170015313502638	shuffle
-0.071705086941002	-0.223430165904576	0.0834126296535537	shuffle
0.0582327707847173	-0.0968321639878416	0.21053776071345	shuffle
-0.00329877475598912	-0.157414161713935	0.150973475448539	shuffle
-0.0602391545303173	-0.212461143741872	0.0948372073559101	shuffle
0.0550869152541872	-0.0999575963966959	0.207519668266529	shuffle
0.154651123764811	0.000466798650789076	0.30165320699733	shuffle
0.217815537051631	0.0658310945041907	0.359922574282291	shuffle
-0.0723579986994001	-0.224053627469705	0.08276084338892	shuffle
-0.0190985230441725	-0.172785143755517	0.13549595636884	shuffle
-0.00496760314383413	-0.159041237073552	0.149342246932882	shuffle
-0.000160533333797626	-0.154352169204075	0.154038736294061	shuffle
-0.0746364238196995	-0.2262283098972	0.0804853057938321	shuffle
0.00181236071839073	-0.152425692456892	0.155964231927394	shuffle
-0.00849484312973008	-0.162477476001507	0.145891712123434	shuffle
-0.0986628335913829	-0.249069111985383	0.0563905122384611	shuffle
0.044042897131226	-0.110905744210242	0.196901155749126	shuffle
0.0503862205975819	-0.104622079100736	0.203004469265309	shuffle
-0.0469895061756045	-0.199737749287125	0.107988387698059	shuffle
-0.0905322315560868	-0.241358407175527	0.0645645237940035	shuffle
0.061186040686362	-0.093895281252898	0.213368449319409	shuffle
0.0834604264745606	-0.0716572023530317	0.234636297308245	shuffle
0.0595859059893328	-0.0954868721785644	0.211835048463623	shuffle
0.0944878438749722	-0.0605903902752356	0.245112115942438	shuffle
-0.131527084590465	-0.280043022599802	0.0231376233748301	shuffle
-0.00660905384659196	-0.160640803668725	0.147736959460019	shuffle
0.0562192419332649	-0.0988329731976506	0.208606341983834	shuffle
0.0489734577943458	-0.106022627078895	0.201646186334346	shuffle
-0.0134042321132778	-0.167253996191616	0.141082824611413	shuffle
-0.06579858250779	-0.217784432589517	0.0893029275561269	shuffle
0.0160674795864478	-0.138471043532027	0.169842146801416	shuffle
0.0174925277868948	-0.13707265055793	0.171226141569799	shuffle
-0.0548039596399902	-0.207248062047239	0.100238565146452	shuffle
-0.0626873596528916	-0.214806474122895	0.0924012573276178	shuffle
0.160394021049007	0.00635575514318412	0.306996823244912	shuffle
0.0522099133987851	-0.102813244486449	0.204756967622336	shuffle
0.0633526045575012	-0.0917390215635553	0.215443462130038	shuffle
0.100558345561075	-0.0544818876036083	0.250863995385117	shuffle
-0.00742614179786452	-0.161436740874735	0.146937569709826	shuffle
-0.107447833612982	-0.25737904256012	0.0475351844186477	shuffle
-0.152148941553408	-0.299322099529232	0.00209568117088268	shuffle
0.133747051534509	-0.0208789965585227	0.282124207677706	shuffle
-0.0787613060809294	-0.23016153475077	0.0763615335427796	shuffle
-0.0836708742390085	-0.234836547541769	0.0714463596484738	shuffle
-0.0978924727299216	-0.248339352492579	0.0571658785123824	shuffle
0.0527571194411807	-0.102270296654125	0.205282620810069	shuffle
-0.0143868063775697	-0.168209111247633	0.140119488546839	shuffle
-0.0472136929027533	-0.199953460954478	0.107766317272456	shuffle
-0.00201955306032163	-0.156166378556021	0.152223306804848	shuffle
-0.0720416774426691	-0.223751589682571	0.0830766359420055	shuffle
0.0601591485190243	-0.0949167815535109	0.212384470016932	shuffle
0.0557880700211382	-0.0992612584483238	0.208192598345396	shuffle
0.126130988186477	-0.0286211155180004	0.274978437222952	shuffle
-0.000363433767808374	-0.154550229426682	0.153840644064972	shuffle
0.117268398781009	-0.0376070786061062	0.266642360441212	shuffle
-0.0387011937824289	-0.19175235895716	0.116187618062453	shuffle
0.0631062527353355	-0.0919842750442378	0.215207589420663	shuffle
0.060026652871902	-0.09504855772807	0.212257488750625	shuffle
0.0585265080436091	-0.0965401775050554	0.210819420253301	shuffle
0.0365640544383197	-0.118298369708043	0.189690036540728	shuffle
-0.039137912462252	-0.192173622746275	0.11575611941491	shuffle
-0.104429977550778	-0.25452688245607	0.0505799491873447	shuffle
-0.0326100615987863	-0.185870899246433	0.122199855414556	shuffle
0.0225533862676257	-0.132101470356665	0.176136306047863	shuffle
0.0233146763016762	-0.131352996603281	0.176874266905608	shuffle
-0.0402869629784869	-0.193281740551792	0.114620523984616	shuffle
-0.0261854087908207	-0.179655475703166	0.128529005684861	shuffle
-0.0218369849451584	-0.17544170061877	0.132805650069173	shuffle
-0.0757706475771645	-0.227310326370891	0.0793519163406658	shuffle
0.128445708604965	-0.0262700458443817	0.277151964190152	shuffle
-0.00150426131984227	-0.155663611732807	0.152726620287961	shuffle
0.00193870987428408	-0.1523022760352	0.156087505663993	shuffle
-0.0039804388991377	-0.158078872154679	0.150307271160724	shuffle
-0.0442125064176915	-0.197064501892623	0.110737891123441	shuffle
-0.0441046995936545	-0.196960677021745	0.110844582697922	shuffle
0.0262807325101648	-0.128435190975233	0.179747784689173	shuffle
0.121602328783759	-0.0332159442920447	0.270721612609914	shuffle
0.0643824758295074	-0.0907135381112703	0.216429333440427	shuffle
-0.013843338195133	-0.167680866623644	0.140652352110487	shuffle
-0.139746392520402	-0.287741520397746	0.0147672731312524	shuffle
-0.0517765455584165	-0.204340606435074	0.103243174436405	shuffle
-0.0272378710538213	-0.18067450272677	0.127493050773587	shuffle
0.0148014954115737	-0.139712831072558	0.168612124651789	shuffle
-0.0973634420797	-0.247838105133965	0.0576982382227675	shuffle
-0.0660563505749915	-0.218031032684622	0.0890460929708928	shuffle
-0.0264398621992502	-0.179901875678795	0.128278574198095	shuffle
-0.102916544103149	-0.253095560586681	0.0521057930862197	shuffle
0.107854028374551	-0.0471251477910553	0.257762735752136	shuffle
-0.0562535537124588	-0.208639264513766	0.0987988886654124	shuffle
-0.104159049143555	-0.254270701628333	0.0508531524473421	shuffle
0.0176936290566514	-0.136875261227766	0.171421400584173	shuffle
-0.0208350377847916	-0.17446998026179	0.133790242496427	shuffle
0.0874748313972319	-0.0676328723995117	0.238453968069824	shuffle
0.0300671138482591	-0.124706508635469	0.183412232419648	shuffle
0.12467491345784	-0.0300991789736935	0.273610400243087	shuffle
-0.121876931589178	-0.270979898452077	0.0329375154562422	shuffle
0.105006243405673	-0.0499987675500196	0.255071710100023	shuffle
-0.0966170049029116	-0.247130731813659	0.0584492225849862	shuffle
-0.0587677018799103	-0.211050677915391	0.096300401310924	shuffle
0.0189549182137863	-0.135636973041696	0.17264577229292	shuffle
-0.0232949735643641	-0.176855170120408	0.131372369869021	shuffle
0.141130717165155	-0.0133553753401073	0.289036249204517	shuffle
0.0963014020889516	-0.0587666952225502	0.246831597416204	shuffle
-0.0965681148351627	-0.247084394747951	0.0584984043604539	shuffle
0.043895492954843	-0.111051614927793	0.196759187857429	shuffle
0.0311241352108301	-0.123664813620852	0.184434453963272	shuffle
-0.107062097094204	-0.257014630534634	0.0479245209587822	shuffle
-0.146392949164184	-0.293952967926335	0.00798270201570732	shuffle
-0.00900095305356806	-0.162970222321751	0.145396299981528	shuffle
-0.085012478207089	-0.236112840715134	0.0701019119911976	shuffle
-0.0497975275946128	-0.202438549193657	0.105205756962552	shuffle
-0.047440596270566	-0.200171771488179	0.107541540102302	shuffle
0.160689863243566	0.00665941115291392	0.307271846574123	shuffle
-0.00667411723956274	-0.160704190203853	0.147673312735053	shuffle
0.0600367334119417	-0.0950385321179894	0.212267149925971	shuffle
-0.0517784535974333	-0.204342439717913	0.103241281660735	shuffle
0.134239956751481	-0.020377293373208	0.282586109406041	shuffle
0.0455049534692098	-0.109458536171832	0.198308944240122	shuffle
0.039278996527542	-0.115616709210842	0.192309701982956	shuffle
0.055098825043558	-0.0999457696934601	0.207531099836942	shuffle
-0.05208883384846	-0.204640645153472	0.102933369348335	shuffle
0.108413586873491	-0.0465602113385021	0.258291219525807	shuffle
-0.0983797411641702	-0.248800959608526	0.0566754657940511	shuffle
-0.132638802776684	-0.281085415938784	0.022006742365286	shuffle
0.0191375468240512	-0.135457634823444	0.172823016078853	shuffle
0.040488736523062	-0.11442107135993	0.193476286023628	shuffle
-0.0394879926249488	-0.192511273318616	0.115410181485984	shuffle
0.109433812167099	-0.0455299253749276	0.259254556431016	shuffle
0.0101559674543752	-0.144265409387783	0.164094451508864	shuffle
0.0056363577780985	-0.148688323985827	0.159693025076778	shuffle
-0.0794092080587133	-0.230778883623746	0.0757133233171662	shuffle
-0.00773515519910814	-0.161737703098079	0.146635197010147	shuffle
0.154044023971425	-0.000155117137003482	0.301087776187999	shuffle
0.189290163080468	0.0361498364228826	0.333744394087302	shuffle
0.0162847075338626	-0.138257918587426	0.170053155940741	shuffle
0.0504671060270748	-0.104541874398323	0.203082217766252	shuffle
-0.189501667772011	-0.333939318600065	-0.0363689218112393	shuffle
-0.110410460790299	-0.260176467330449	0.0445433368571099	shuffle
-0.0692657339002533	-0.221099743240461	0.0858466040750317	shuffle
0.093752824356709	-0.0613292234444835	0.244414954955419	shuffle
0.0262783039289847	-0.128437581145451	0.179745432948499	shuffle
-0.00101436383035488	-0.155185547841541	0.153205055645793	shuffle
-0.0553469582215722	-0.207769260146242	0.0996993575991166	shuffle
0.045261664285036	-0.10969940014307	0.198074729056164	shuffle
-0.13053723154501	-0.279114600271671	0.0241442056428887	shuffle
-0.0682786284958386	-0.22015622440814	0.0868310070558229	shuffle
-0.0700682648380826	-0.221866628246221	0.0850460469792218	shuffle
-0.009222748428282	-0.163186137087423	0.145179168352705	shuffle
0.0944047292393147	-0.0606739446735815	0.245033290089576	shuffle
0.0176739229461877	-0.136894604144123	0.171402267495757	shuffle
-0.0826637458796777	-0.2338781047051	0.0724552524983625	shuffle
-0.0315294075086925	-0.184826295726827	0.123265327098856	shuffle
0.132209550561883	-0.0224434405598233	0.280682972667463	shuffle
0.124718518980463	-0.0300549247773994	0.27365137802642	shuffle
0.128005687770852	-0.0267171083495457	0.276738900898881	shuffle
0.00738212959111463	-0.146980633746756	0.161393873051623	shuffle
-0.120495293215376	-0.269680139570193	0.0343381604860245	shuffle
0.11132524469722	-0.0436189684675407	0.261039733219769	shuffle
0.0136957827462465	-0.140797012882228	0.167537429228555	shuffle
-0.0549007450893407	-0.2073409680613	0.10014246208989	shuffle
0.0513851088344812	-0.103631456124984	0.203964483407825	shuffle
-0.0528421360381185	-0.205364280953359	0.102185933342475	shuffle
-0.141227808712073	-0.289127036521026	0.013256326788264	shuffle
0.055103598838624	-0.0999410291894695	0.207535681936048	shuffle
0.0757637501675132	-0.0793588098890163	0.227303747573279	shuffle
-0.129024404968765	-0.277695123491042	0.0256819943474787	shuffle
-0.052932963554489	-0.205451520254742	0.102095801299794	shuffle
0.166176298268837	0.0122959074252305	0.312367758957637	shuffle
-0.00834184973047857	-0.162328507204929	0.146041456420176	shuffle
0.0313902752346314	-0.123402478738824	0.184691779725068	shuffle
-0.062240906662501	-0.214378912056336	0.0928456139290225	shuffle
0.00841315368847309	-0.145971667616027	0.162397936333828	shuffle
-0.0373322588599128	-0.190431503261613	0.117539811544659	shuffle
0.108492420250845	-0.046480612320351	0.258365667733116	shuffle
-0.00892892643796024	-0.162900102223602	0.145466808876749	shuffle
-0.135963351079268	-0.284200562522917	0.0186225255115595	shuffle
-0.0275923139382716	-0.181017611327369	0.127144091141398	shuffle
0.187066528516021	0.0338473934804656	0.331694325743429	shuffle
0.0156260780984148	-0.138904063738798	0.1694133383285	shuffle
0.0217293821319162	-0.132911403724244	0.175337358316921	shuffle
0.0273299806922347	-0.127402369760469	0.180763670498347	shuffle
-0.116644524210195	-0.266054706082669	0.0382386957284199	shuffle
0.114886226736488	-0.0400181487636947	0.264397892105698	shuffle
-0.0159410425231981	-0.169719322889813	0.138595085861497	shuffle
-0.0270038944674266	-0.180447987718776	0.127723386740385	shuffle
0.00913230056767631	-0.145267716139769	0.163098089112191	shuffle
0.122221040959628	-0.0325885776974001	0.271303530455774	shuffle
-0.0469970342748542	-0.199744993037558	0.107980930914297	shuffle
-0.0466310324721725	-0.199392796403483	0.108343445309975	shuffle
0.0530359213758706	-0.101993628756756	0.205550407712603	shuffle
0.0191686658746944	-0.135427075429866	0.172853216588446	shuffle
-0.0236049318165393	-0.177155582297105	0.131067581086097	shuffle
0.163236698238229	0.00927468884114535	0.30963844460577	shuffle
-0.0160482630505516	-0.169823479718204	0.138489896416793	shuffle
-0.0738159305457301	-0.225445349913922	0.0813049455682874	shuffle
-0.0906789002371966	-0.241497670167392	0.0644172561445057	shuffle
0.155474139976851	0.00131009068438405	0.302419569481372	shuffle
0.082412729384553	-0.0727066593643387	0.233639176819419	shuffle
-0.0419460432381964	-0.194881030933579	0.112980156534685	shuffle
-0.00614106609971356	-0.16018483978012	0.148194719738258	shuffle
-0.0382612205927466	-0.191327898795812	0.116622273204934	shuffle
-0.0176669630558127	-0.171395509960108	0.136901435731846	shuffle
0.145116874245697	-0.00928637773900637	0.29276139570253	shuffle
0.0852355065797108	-0.0698783562435853	0.23632496129077	shuffle
-0.065328324571485	-0.217334498889991	0.0897714293646617	shuffle
-0.0357289181046371	-0.18888376931224	0.119122814321092	shuffle
0.146064035413768	-0.00831878019821015	0.29364587897383	shuffle
-0.0602553984281534	-0.212476710845145	0.0948210508886769	shuffle
-0.0198623079483578	-0.173526309428213	0.134745831726415	shuffle
-0.0101706507366024	-0.164108740856069	0.144251030185763	shuffle
0.00361059330483915	-0.150668746201822	0.15771824233896	shuffle
-0.0799446685680867	-0.231289001465232	0.0751775090839365	shuffle
0.0722588195139987	-0.0828598601574368	0.22395892985103	shuffle
-0.0349800839465126	-0.188160645327709	0.119861880096889	shuffle
0.0321759027813191	-0.122627957500231	0.185451265576524	shuffle
0.0479946368430863	-0.106992624582058	0.200704766817138	shuffle
-0.115945955509694	-0.265396562281111	0.0389457871250773	shuffle
0.0594589914144713	-0.0956130751764235	0.211713394784885	shuffle
0.00897589907753882	-0.145420826206569	0.162945831691473	shuffle
-0.031490546488797	-0.184788724655534	0.123303635503246	shuffle
-0.0104300193087141	-0.164361140228355	0.143997022199507	shuffle
0.0649467536440736	-0.0901515249198491	0.216969371728451	shuffle
0.0326017055236392	-0.122208095462005	0.185862823258418	shuffle
-0.0654783541094461	-0.217478051267716	0.0896219675516359	shuffle
0.135742748480865	-0.0188471972323651	0.283993951818761	shuffle
-0.0469487817836919	-0.199698562833702	0.108028725995729	shuffle
0.0238575164721764	-0.13081918740182	0.177400366708828	shuffle
0.0275334518030793	-0.127202045328428	0.180960634056476	shuffle
-0.0687279968335722	-0.220585785703575	0.0863829065213351	shuffle
0.040000897196795	-0.114903277863628	0.193005901797615	shuffle
0.0986807108527428	-0.0563725165990027	0.249086045009816	shuffle
0.0327746575775465	-0.122037540571215	0.186029973914499	shuffle
0.0760230584650706	-0.07909963655073	0.22755106812812	shuffle
0.0480761087776501	-0.10691189832	0.200783136414528	shuffle
-0.13248901761018	-0.280944991533948	0.0221591324684319	shuffle
0.00117277635201604	-0.15305035741093	0.155340141768529	shuffle
0.0145220611983738	-0.139986859024306	0.16834056360041	shuffle
0.0246866497785311	-0.130003674838927	0.178203761450941	shuffle
0.0422763479682495	-0.112653476483489	0.195199335114701	shuffle
0.0500374874945742	-0.10496785420059	0.202669238822149	shuffle
0.0367713420809493	-0.118093702757786	0.18989012665055	shuffle
0.0435845174087349	-0.111359333469193	0.196459660100991	shuffle
-0.0583440378290724	-0.210644455718838	0.0967215632739336	shuffle
0.087433641952851	-0.0676741893216779	0.238414820877659	shuffle
-0.0961607834764118	-0.246698307160492	0.0589081368450268	shuffle
0.0970335712790076	-0.0580301401891829	0.247525517492832	shuffle
-0.100014661124502	-0.250349279644411	0.0550294490095605	shuffle
-0.162760814340233	-0.309196376287876	-0.00878585615119687	shuffle
-0.00244574283714365	-0.156582148824476	0.151806963602753	shuffle
-0.0141953808642297	-0.1680230579984	0.140307189011667	shuffle
0.14711886651643	-0.0072408492166521	0.294630609846533	shuffle
-0.0387851660752315	-0.191833363962276	0.116104654017726	shuffle
-0.0633565596933291	-0.21544724888078	0.0917350839079377	shuffle
0.0041497531918637	-0.150141775117816	0.158243953772806	shuffle
-0.0502426655394539	-0.202866476873653	0.104764421043063	shuffle
0.103095096733842	-0.0519258139407796	0.253264460029377	shuffle
0.00484845662953224	-0.149458736842668	0.158925099266973	shuffle
-0.0169933630593896	-0.17074142603554	0.137562548629377	shuffle
-0.104830460487973	-0.254905527127312	0.050176061095125	shuffle
-0.0680291892381665	-0.21991775438817	0.0870797154842056	shuffle
0.0246251344694138	-0.130064186782558	0.178144162773604	shuffle
-0.0274762434508538	-0.180905256624724	0.127258370229703	shuffle
-0.0616315785735998	-0.213795272578194	0.0934519811457037	shuffle
