cor	ci95_lower	ci95_upper	type
0.166254494561921	0.0123763132345978	0.312440328502188	real
0.0127971304470813	-0.141677893412367	0.166663716335065	shuffle
-0.0739509592767475	-0.225574215249814	0.0811700717193772	shuffle
-0.0110211083388546	-0.164936271470354	0.143418073656988	shuffle
0.0377306428160677	-0.117146358875316	0.190815952516811	shuffle
0.0647120566532491	-0.0903852919974649	0.216744767853706	shuffle
-0.0952615235237879	-0.245845777556048	0.0598125127716484	shuffle
0.0809678191391472	-0.0741534334543939	0.232263496247254	shuffle
0.0575594078918703	-0.0975014126950694	0.209891989329576	shuffle
0.114223746601502	-0.0406883450085521	0.263773419296595	shuffle
0.217129958372757	0.0651145669478625	0.359296021414668	shuffle
0.098556373318432	-0.0564976753745048	0.248968272801394	shuffle
-0.091483396245286	-0.242261434570835	0.063609354551485	shuffle
-0.0700198555102021	-0.221820374432008	0.0850943429199074	shuffle
0.0291563695514025	-0.125603773976319	0.182531206085785	shuffle
-0.105953823821351	-0.255967388098952	0.0490428756054528	shuffle
0.0490669222542304	-0.105929989710646	0.201736064700304	shuffle
0.207487881637708	0.0550537991175422	0.350470494386259	shuffle
-0.0354589131969032	-0.188623053791634	0.119389316855698	shuffle
-0.087083289852233	-0.238081820073952	0.0680256042255122	shuffle
-0.102367362851518	-0.252576012631898	0.0526592988105955	shuffle
-0.0632794975142006	-0.215373466706298	0.0918118046278792	shuffle
0.06177234686233	-0.0933119071024462	0.213930115878474	shuffle
-0.0371204781753027	-0.190227111137188	0.117748950968054	shuffle
0.0541568927510891	-0.100880995528592	0.206626860781461	shuffle
0.00210979830155816	-0.152135151133837	0.156254422036247	shuffle
-0.0426092176922185	-0.195520078511062	0.112324225698088	shuffle
0.0396104768702684	-0.115289137630406	0.192629400206891	shuffle
0.0264809021504739	-0.128238181081432	0.179941614915011	shuffle
0.0736441628474063	-0.0814765080341253	0.225281414895477	shuffle
0.20111321059725	0.0484192715724405	0.344621692373313	shuffle
-0.0735930026473867	-0.225232585962692	0.081527605329951	shuffle
-0.0558785202681139	-0.208279397050422	0.0991714185197751	shuffle
-0.126789381004844	-0.275596824225381	0.0279525578143282	shuffle
0.0995888350463942	-0.0554582465063929	0.249946083155903	shuffle
-0.0322396529995326	-0.185512886479581	0.122565100237577	shuffle
-0.0668351552048656	-0.218775977216361	0.0882699833853808	shuffle
0.0041320554030378	-0.150159074203967	0.158226698812751	shuffle
-0.0199814515795466	-0.173641908969157	0.134628802994427	shuffle
-0.0236902342518154	-0.17723825257264	0.130983696189855	shuffle
0.0579722002811752	-0.0970911590623098	0.210287883030986	shuffle
0.0480411565128604	-0.106946530934194	0.20074951532243	shuffle
-0.143351106108223	-0.291111801490468	0.0110894732262165	shuffle
-0.0593744983097612	-0.211632401494242	0.0956970917860987	shuffle
-0.157149090520196	-0.303978635413741	-0.00302698275656912	shuffle
-0.102897071926662	-0.253077140591419	0.052125420223239	shuffle
-0.0191275213858321	-0.172813286499959	0.135467479897652	shuffle
-0.0698374143986863	-0.221646050705009	0.0852763501575382	shuffle
-0.0907364966375249	-0.24155235667455	0.0643594226835329	shuffle
0.165822826919586	0.0119324732083517	0.312039700956091	shuffle
-0.0747571043791424	-0.226343453427945	0.0803647330700619	shuffle
-0.00973644404748262	-0.163686156123013	0.144676217218977	shuffle
-0.00996192299840909	-0.163905606966754	0.144455429197362	shuffle
0.0269312050628719	-0.127794941717375	0.180377613085693	shuffle
0.0215935883634989	-0.133044858846344	0.175205674358531	shuffle
-0.0400068791820156	-0.193011670170772	0.114897365391283	shuffle
-0.0370583019773779	-0.19016710160897	0.117810349115598	shuffle
-0.0909740677325314	-0.241777915046	0.0641208627595598	shuffle
-0.0816456085620681	-0.232908886274618	0.0734748510254411	shuffle
-0.0759163221990459	-0.227449268614065	0.07920631980442	shuffle
0.114144082858522	-0.0407689272318989	0.263698317518935	shuffle
-0.0840815242482291	-0.23522726200618	0.0710348990669493	shuffle
-0.0097294940173668	-0.163679391657652	0.144683022414386	shuffle
-0.0574115689614066	-0.209750190405676	0.0976483295712106	shuffle
-0.0678299103602365	-0.219727225870433	0.0872783966041058	shuffle
-0.0189552608269119	-0.172646104813379	0.135636636610864	shuffle
-0.0038569536347493	-0.157958468456085	0.150427966224733	shuffle
-0.00139356937641773	-0.155555599896032	0.152834728694243	shuffle
-0.0934665183293999	-0.244143353487686	0.0616169689862419	shuffle
-0.0478533481267553	-0.200568853543172	0.10713261530792	shuffle
-0.0208888883616972	-0.17452221388171	0.133737332426877	shuffle
0.0376769623215522	-0.117199377734875	0.190764152399769	shuffle
0.0448096488787627	-0.110146861349622	0.197639526215138	shuffle
0.0188233251945055	-0.135766188890241	0.172518053138066	shuffle
-0.0205718316553467	-0.174214664911002	0.13404883901316	shuffle
-0.0575764332279615	-0.209908318678671	0.0974844931100718	shuffle
0.1889905922776	0.0358395536682588	0.333468285960327	shuffle
-0.0420702172215579	-0.19500069723769	0.112857349133543	shuffle
-0.0310201963716123	-0.184333951755491	0.123767260518136	shuffle
-0.035621051534082	-0.188779616428188	0.119229284375133	shuffle
-0.061319141944497	-0.213495965801548	0.0937628549565715	shuffle
0.0186659811515723	-0.135920683678031	0.17236533423967	shuffle
-0.119640902713513	-0.268876110372849	0.0352040002554973	shuffle
-0.151608691119877	-0.298818555410321	0.00264868479656763	shuffle
-0.0314065377110512	-0.184707502924931	0.123386448074028	shuffle
-0.0238340401636558	-0.177377616189461	0.130842275001973	shuffle
-0.00631053775910402	-0.160349964851754	0.148028959373544	shuffle
-0.0384491368391829	-0.191509196302005	0.116436635599458	shuffle
-0.0950683343472699	-0.245662597114531	0.0600067678045744	shuffle
0.143879268406285	-0.0105502511296423	0.291605306898628	shuffle
-0.073464722856814	-0.225110148274043	0.0816557238080756	shuffle
0.0672092184750575	-0.087897147596861	0.219133714380666	shuffle
-0.000702085937866711	-0.154880775411712	0.153509989445809	shuffle
0.0390442694092387	-0.115848648090902	0.192083298345698	shuffle
0.119886481553768	-0.0349551543366944	0.269107235083391	shuffle
0.021703146838103	-0.132937187629695	0.175311917464878	shuffle
-0.0744345721271242	-0.226035710033134	0.0806869669730462	shuffle
0.0402133453585322	-0.114693291701287	0.193210757118056	shuffle
-0.0520046427082071	-0.204559759250155	0.103016893992845	shuffle
-0.0233744920854196	-0.176932242363526	0.131294180342584	shuffle
0.0249537912950853	-0.129740877252436	0.178462566576374	shuffle
-0.0206390752367489	-0.174279894530584	0.133982775092656	shuffle
0.0377788183973177	-0.117098776326936	0.190862439826646	shuffle
0.0387931327251473	-0.116096782910434	0.191841048990294	shuffle
0.00250149030380878	-0.151752500062078	0.156636529334473	shuffle
-0.00404486198789298	-0.158141685751021	0.150244301912583	shuffle
-0.107554914491247	-0.257480196173943	0.0474270958189813	shuffle
-0.0143212345426017	-0.168145380888437	0.140183785635895	shuffle
0.0552183321667583	-0.0998270938610773	0.207645806033778	shuffle
-0.0944920100106074	-0.245116067049674	0.0605862020392197	shuffle
-0.0379307471569234	-0.19100903987758	0.116948713126121	shuffle
0.00336966077488678	-0.150904203622632	0.157483291229743	shuffle
-0.105573082190236	-0.255607532019821	0.0494269909681355	shuffle
0.0195851296067832	-0.135018073231991	0.173257359750152	shuffle
-0.0190308339479187	-0.172719450852206	0.135562426300119	shuffle
0.0863507785691601	-0.0687602132668473	0.237385471915962	shuffle
-0.0503473395363989	-0.202967095418907	0.104660632223602	shuffle
0.13947686551968	-0.0150420969598316	0.28748937470968	shuffle
-0.0469093202304893	-0.19966059106233	0.108067812940428	shuffle
-0.0252904176475684	-0.178788657957562	0.129409693757388	shuffle
-0.0712120215123192	-0.222959258358208	0.0839047571903358	shuffle
-0.0364441173005337	-0.189574258104208	0.118416784497928	shuffle
-0.106368857352047	-0.256359607641874	0.0486241122498275	shuffle
-0.0795140666633806	-0.230878785955859	0.0756084024965306	shuffle
-0.00302923972963156	-0.157151291774824	0.151236858879824	shuffle
-0.0676768039268123	-0.21958083448767	0.0874310353968847	shuffle
-0.0203572868296456	-0.174006536741075	0.134259610870069	shuffle
0.104733493363989	-0.0502738573457548	0.254813851826467	shuffle
0.1549361837094	0.00075885650877544	0.301918665857678	shuffle
0.124032975861848	-0.0307505957927428	0.273007084272659	shuffle
-0.0588509603644853	-0.211130502541848	0.0962176280080758	shuffle
-0.015348464209361	-0.169143614827155	0.139176376060941	shuffle
-0.0681240044336667	-0.220008402168557	0.0869851803646054	shuffle
0.017571768733845	-0.136994873710696	0.171303081905213	shuffle
-0.146886490433972	-0.294413703533355	0.00747834494505715	shuffle
-0.0801931947381424	-0.231525736934247	0.0749287882982446	shuffle
-0.100859101751733	-0.251148690121365	0.0541789466816248	shuffle
0.0581761605443715	-0.0968884337440019	0.210483475233905	shuffle
0.014325810788965	-0.140179298396113	0.168149828660283	shuffle
0.0121915189924649	-0.142271390327277	0.166074775496977	shuffle
0.101305336694346	-0.0537294176380416	0.25157104661946	shuffle
-0.00479355991152962	-0.1588715873751	0.149512408089535	shuffle
-0.0582616344401641	-0.210565438690097	0.096803473552263	shuffle
0.160661286722383	0.00663007862616496	0.307245282094545	shuffle
0.0115239631314068	-0.14292546386478	0.16542546817223	shuffle
-0.0196105195164869	-0.173281996856792	0.134993136514253	shuffle
-0.12539599629952	-0.274287960021905	0.0293672913831187	shuffle
0.133343450485908	-0.0212897435860125	0.281745941700749	shuffle
-0.0243625967500724	-0.177889792276912	0.130322429341871	shuffle
0.0677059209533789	-0.0874020078647419	0.219608675005775	shuffle
0.00246854009125216	-0.151784691507896	0.156604387191087	shuffle
-0.0286858562408666	-0.18207594930434	0.12606722455349	shuffle
-0.0223257225175406	-0.17591558534928	0.132325267148208	shuffle
0.012255943258158	-0.142208260071246	0.166137431579491	shuffle
-0.100939757122386	-0.251225033785889	0.0540977005665753	shuffle
-0.00715405800224952	-0.161171722357971	0.147203782539696	shuffle
-0.0209224391986098	-0.17455475685937	0.133704367114009	shuffle
0.0149260847835716	-0.139590644523286	0.168733196146634	shuffle
0.0544533396263081	-0.100586688867083	0.206911472852393	shuffle
-0.0446090324041587	-0.1974463522998	0.110345436425485	shuffle
-0.0776685552451273	-0.229120038594418	0.0774545072775665	shuffle
-0.119317775218404	-0.268571975132788	0.0355313972533358	shuffle
0.0376028567396127	-0.117272568483364	0.190692641266088	shuffle
0.0933219986551869	-0.0617622054993113	0.244006247306027	shuffle
-0.110287128249279	-0.26006006220714	0.0446679412983308	shuffle
-0.0229415314410015	-0.1765125783684	0.131719881623168	shuffle
-0.0683237486745447	-0.220199358461717	0.0867860170091252	shuffle
0.0818862700107218	-0.0732338734466506	0.233138011680416	shuffle
0.0308816297122137	-0.123903833055074	0.184199961674601	shuffle
0.0981031451199977	-0.056953855860959	0.24853893849766	shuffle
-0.0332622971750794	-0.186501208667884	0.121556610557706	shuffle
-0.00178588172915506	-0.155938396845066	0.152451556223426	shuffle
-0.0281481598771597	-0.181555607368488	0.126596767024119	shuffle
-0.0513278883108187	-0.203909497678379	0.103688211485147	shuffle
-0.0786002441916452	-0.230008049140841	0.0765226517125774	shuffle
0.00325918587090491	-0.151012162169258	0.157375553154781	shuffle
0.0261764370127356	-0.128537835293808	0.179646787529766	shuffle
-0.00169370481697364	-0.155848459814127	0.152541589815155	shuffle
0.0280374604991415	-0.126705776754946	0.181448470205703	shuffle
0.115749171396459	-0.0391449440499396	0.265211140559354	shuffle
-0.106430157058075	-0.256417533576763	0.0485622570367409	shuffle
0.053087606911243	-0.101942336203369	0.205600048723335	shuffle
0.0854987581486424	-0.0696144621373362	0.236575319310607	shuffle
0.0767814150325669	-0.0783415543126659	0.228274253933736	shuffle
0.082670227628942	-0.0724487604078535	0.233884274060346	shuffle
-0.0303953200216488	-0.183729668718107	0.124383097828374	shuffle
-0.0768990768894134	-0.228386443936557	0.0782239189406205	shuffle
-0.0192468070127221	-0.172929049960583	0.135350338315695	shuffle
-0.0785668029280825	-0.229976179995049	0.0765561036460493	shuffle
0.0195107479068778	-0.135091126143782	0.173185182337864	shuffle
0.0647417017422818	-0.0903557653108195	0.216773138947368	shuffle
-0.0113392846593607	-0.165245814570228	0.143106388649096	shuffle
0.01821430978589	-0.136364134215428	0.17192689874766	shuffle
0.0506483400569513	-0.10436215830295	0.203256416124752	shuffle
-0.0648089497164665	-0.216837495993124	0.090288784914016	shuffle
-0.146420708819154	-0.29397888421859	0.00795433610116928	shuffle
0.0353021278756783	-0.119544058193731	0.188471652683916	shuffle
-0.0820594730959842	-0.233302901929806	0.0730604316343003	shuffle
-0.0278552377651475	-0.181272103318319	0.126885210013414	shuffle
-0.0983968280806014	-0.248817145426089	0.0566582672598047	shuffle
0.128199503813244	-0.0265201982877311	0.276920849721652	shuffle
-0.0721626683934753	-0.22386712073469	0.0829558508960958	shuffle
0.042015340099807	-0.112911622895267	0.194947812789236	shuffle
-0.00157567040295651	-0.155733289881626	0.152656875925795	shuffle
-0.04244295326988	-0.195359875132406	0.112488686756843	shuffle
-0.00209717793201542	-0.156242109719879	0.152147479434489	shuffle
0.0698676542425245	-0.0852461829445565	0.221674945753034	shuffle
-0.138955280670425	-0.287001367657211	0.0155738658587622	shuffle
0.0255486681641737	-0.12915559545413	0.179038803475542	shuffle
0.0961034163599235	-0.0589658379306023	0.246643928102736	shuffle
0.0160455949050722	-0.138492514061792	0.169820887853489	shuffle
-0.101205796379471	-0.251476837758064	0.0538296982038835	shuffle
-0.0136185332435759	-0.167462333047384	0.140872744307763	shuffle
-0.0291833597032295	-0.182557319079817	0.125577186916891	shuffle
0.174224907330923	0.0205823902175656	0.319828276726227	shuffle
-0.0417399175314857	-0.194682377809347	0.113184003299241	shuffle
-0.0601462240550166	-0.212372083686807	0.0949296360748284	shuffle
0.00486710677918487	-0.149440502817343	0.15894327874142	shuffle
0.0180664403425632	-0.136509298842152	0.171783349269364	shuffle
-0.00656671792175674	-0.160599558171684	0.147778372890413	shuffle
0.0135568511595865	-0.140933212941326	0.16740236906291	shuffle
-0.0918003334619571	-0.242562273963577	0.0632910198521752	shuffle
0.025291591357335	-0.129408538964763	0.178789794876219	shuffle
0.289072928350591	0.141169942952087	0.424353371447836	shuffle
-0.0233116254319434	-0.176871309872076	0.131355996463729	shuffle
0.0703815921438906	-0.0847334359400069	0.222165987562583	shuffle
0.0795091602751039	-0.0756133118725267	0.230874111545306	shuffle
-0.122833741222203	-0.271879686526194	0.0319671868662592	shuffle
-0.0914020517835134	-0.242184217067843	0.0636910525989291	shuffle
-0.0257135626311102	-0.179198512473342	0.128993341571698	shuffle
-0.00503340327574869	-0.159105373781842	0.149277912107505	shuffle
-0.0470749578861336	-0.199819972363719	0.107903744467606	shuffle
0.0213318824821946	-0.133302041800909	0.174951873523955	shuffle
0.030130499933346	-0.12464405123642	0.183473541022835	shuffle
0.0155134696724789	-0.13901452450911	0.169303933254836	shuffle
0.0588402403792079	-0.096228285643849	0.21112022479851	shuffle
-0.074724693837081	-0.22631253035261	0.0803971150971427	shuffle
-0.0376210456275048	-0.190710193508573	0.117254604293097	shuffle
-0.119068429246834	-0.268337264464271	0.035784015129595	shuffle
-0.0354489945360772	-0.188613475966353	0.119399106431563	shuffle
0.0803909605500008	-0.0747308538290215	0.231714107437903	shuffle
-0.110607795979039	-0.26036270942058	0.0443439565668308	shuffle
-0.0102508548691505	-0.164186792066806	0.144172485872072	shuffle
-0.000563890892757001	-0.154745892456486	0.153644925071746	shuffle
0.085066797100442	-0.0700474660901094	0.23616450432479	shuffle
0.0505966289960054	-0.104413437287538	0.203206713519641	shuffle
0.00813988142005713	-0.146239124720497	0.162131841067708	shuffle
-0.0823293978580417	-0.233559854386711	0.0727901161265601	shuffle
0.0152616239804479	-0.139261553111718	0.169059238055202	shuffle
-0.00635846368657964	-0.160396660017262	0.147982081412878	shuffle
0.0126386169894126	-0.141833246726403	0.166509576870772	shuffle
-0.172166763965144	-0.317922233266942	-0.018461408491718	shuffle
0.0766625833779458	-0.078460354834981	0.228160944450931	shuffle
0.0387431041205457	-0.116146211208321	0.191792788590892	shuffle
-0.133931201305067	-0.28229678257036	0.0206915689719701	shuffle
0.0259406186418927	-0.128769908029946	0.179418414970447	shuffle
0.0501490258698856	-0.104857265985804	0.20277646241441	shuffle
-0.0394553366274593	-0.192479778304062	0.115442452678871	shuffle
0.103567493436073	-0.0514495945378721	0.253711273144161	shuffle
-0.00862605555013444	-0.162605231192277	0.145763280609963	shuffle
0.115529904950503	-0.0393668399037649	0.265004521621112	shuffle
0.0922455503213616	-0.0628437865709104	0.242984828472013	shuffle
0.0147684863346889	-0.139745202750002	0.168580046833954	shuffle
-0.0646221812176811	-0.216658753238377	0.0904748068044912	shuffle
-0.010213120178556	-0.164150070529682	0.144209439888287	shuffle
0.015345807439645	-0.13917898198168	0.169141033457296	shuffle
-0.113354252078773	-0.26295361849248	0.0415677553175605	shuffle
-0.0543737228882647	-0.206835037122173	0.100665733472974	shuffle
0.036839853747458	-0.118026054376112	0.189956256628262	shuffle
-0.0708319351959826	-0.222596204406811	0.0842840688797244	shuffle
0.0193780704556999	-0.135221429212482	0.173056432659584	shuffle
-0.0638220767698751	-0.215892915185411	0.0912715903579749	shuffle
-0.124029479910791	-0.273003798331645	0.0307541430070927	shuffle
-0.0416148873523374	-0.194561874179313	0.113307644780244	shuffle
0.0202346868728082	-0.134380048512482	0.173887597368166	shuffle
-0.0430757074088635	-0.19596951913232	0.11186275037455	shuffle
0.0111907645845527	-0.143251882486298	0.165101328130525	shuffle
0.0734667829130984	-0.0816536663828241	0.225112114549345	shuffle
-0.00347898659407	-0.157589905074969	0.150797364364522	shuffle
0.16021658097755	0.00617364213379533	0.306831858153517	shuffle
0.0714571274314458	-0.0836601269609791	0.223193358307721	shuffle
-0.0162535573960693	-0.170022898436025	0.138288481240316	shuffle
0.00914340219853475	-0.145256847858368	0.163108896311551	shuffle
-0.0597902233810347	-0.212030886525957	0.0952836898678699	shuffle
-0.0407894482269613	-0.193766203098625	0.114123795444557	shuffle
-0.0687247979001673	-0.220582727979395	0.0863860966513943	shuffle
0.131079040746782	-0.0235932783285392	0.279622818968041	shuffle
0.173658249253996	0.0199982931824781	0.319303613079786	shuffle
-0.0315356214301871	-0.184832303342513	0.12325920149843	shuffle
-0.161279346494584	-0.307819773997868	-0.00726454860171516	shuffle
-0.0590095560634363	-0.2112825516048	0.0960599505780432	shuffle
0.0731140284608426	-0.0820059510410232	0.224775400712098	shuffle
0.0920699584735364	-0.0630201811267957	0.242818181401458	shuffle
-0.0944985181464849	-0.245122239268559	0.0605796593682667	shuffle
-0.0712152978402635	-0.222962387684904	0.0839014873442189	shuffle
0.0588586099470879	-0.0962100228951838	0.211137836528221	shuffle
0.0986418323998504	-0.0564116523651712	0.249049219912312	shuffle
0.0354210876388769	-0.119426649977	0.188586527879236	shuffle
-0.0467995922322725	-0.199555003185381	0.108176496772382	shuffle
-0.0900004918511747	-0.240853464320873	0.0650983783906702	shuffle
-0.0866927008171278	-0.237710533227324	0.0684173327572217	shuffle
0.0578929035981829	-0.0971699721438292	0.210211836432031	shuffle
-0.00585900491522268	-0.159909993747969	0.148470584781316	shuffle
0.130725046781637	-0.0239532403004607	0.279290780967001	shuffle
-0.014545804643288	-0.16836363897273	0.139963575867946	shuffle
-0.0158001550080529	-0.169582455844523	0.138733299238161	shuffle
0.0205592124439146	-0.134061236691341	0.174202423497791	shuffle
-0.0113473415635653	-0.165253652469235	0.143098495721076	shuffle
-0.000598128574423226	-0.154779310106876	0.153611495443787	shuffle
-0.0474780678508432	-0.200207822560106	0.107504418125019	shuffle
-0.0746798449309733	-0.226269739262188	0.0804419240048897	shuffle
-0.140744425950087	-0.288675013830489	0.0137494227268188	shuffle
0.100896116299112	-0.0541416612833428	0.251183726162847	shuffle
0.122057959911644	-0.0327539517301481	0.271150158287409	shuffle
0.0284148817296617	-0.126334100897197	0.18181373137315	shuffle
-0.0138968439521652	-0.16773287750525	0.140599894375815	shuffle
0.0749296881836928	-0.0801922955915862	0.226508111433778	shuffle
0.0589107318943354	-0.0961582034691565	0.211187807641587	shuffle
0.180233256626212	0.0267821054902454	0.325385866068875	shuffle
-0.0198727128256006	-0.173536404966905	0.134735611716343	shuffle
0.0563672168616816	-0.098685975708495	0.20874832308994	shuffle
-0.156579134874361	-0.303448201485892	-0.00244265315372975	shuffle
0.163434505554646	0.00947790014397907	0.309822177418679	shuffle
-0.0727848014386725	-0.22446111177473	0.0823347046353445	shuffle
0.181615452779965	0.0282099967332642	0.326662949466252	shuffle
0.123896241208892	-0.0308893325646109	0.272878561002537	shuffle
-0.0774814682298654	-0.228941691985366	0.0776415950800017	shuffle
-0.0231647411783063	-0.176728940086648	0.13150042152212	shuffle
-0.176511435358486	-0.32194444585568	-0.0229403522945771	shuffle
0.0368942739777097	-0.117972318846422	0.190008784043891	shuffle
0.00427477683565802	-0.150019565364149	0.158365846431653	shuffle
0.135853959637163	-0.0187339366834592	0.284098111040375	shuffle
-0.0178592329817274	-0.171582184431289	0.13671270481362	shuffle
0.037873417070693	-0.11700534007742	0.190953721373698	shuffle
-0.0410668684881805	-0.194033641129448	0.113849520250989	shuffle
0.0189514424423492	-0.135640386092453	0.17264239890846	shuffle
0.116077358368394	-0.0388127929657293	0.265520371731973	shuffle
0.0316478802626917	-0.123148536216212	0.184940833143438	shuffle
0.0869031151537993	-0.0682063105044313	0.237910554759623	shuffle
-0.0104607108910397	-0.164391005798177	0.143966963599111	shuffle
-0.0863892443003394	-0.237422042506124	0.0687216415619792	shuffle
0.0736125625436491	-0.0815080695799077	0.225251254643836	shuffle
0.0377029857102436	-0.117173675205784	0.190789264319987	shuffle
-0.0776287768777464	-0.229082119459896	0.0774942867268048	shuffle
0.0578107408203062	-0.0972516317896067	0.210133039264669	shuffle
-0.0617968944620074	-0.21395362966701	0.0932874799387466	shuffle
-0.0758772321407319	-0.227411985715451	0.0792453895590756	shuffle
0.0550528289008721	-0.0999914447116296	0.207486950367305	shuffle
0.0349747422040351	-0.119867151541058	0.188155486389841	shuffle
-0.011947896113125	-0.165837827837795	0.142510108498035	shuffle
-0.133944969850171	-0.28230968529698	0.0206775549138072	shuffle
0.00144339331291462	-0.152786068099468	0.155604217936585	shuffle
0.0221308596537548	-0.132516807666699	0.175726652943185	shuffle
-0.123130485458824	-0.272158693203384	0.0316661905756755	shuffle
0.0191466109923028	-0.135448733699067	0.172831812729868	shuffle
-0.0537026150960399	-0.206190668806431	0.101331940859685	shuffle
-0.021828173976317	-0.175433156763968	0.132814309753561	shuffle
0.126259955658633	-0.0284901678282265	0.275099577965224	shuffle
0.0103265642121419	-0.14409834154327	0.164260467373284	shuffle
-0.0158679605525403	-0.169648327180552	0.13866678143931	shuffle
0.00314147479635569	-0.151127188014261	0.157260754136014	shuffle
-0.0370064514629388	-0.190117057067637	0.117861549886097	shuffle
0.0262911334963281	-0.128424954472971	0.179757856567444	shuffle
0.0504588893914924	-0.104550021975187	0.203074319879075	shuffle
-0.102732128248612	-0.252921105295657	0.0522916717273733	shuffle
0.0194019393149026	-0.135197987902491	0.173079595294396	shuffle
0.016102427707926	-0.138436756477006	0.169876095378834	shuffle
0.0743803329030964	-0.0807411528399476	0.225983954831705	shuffle
0.180486914559818	0.0270441023921676	0.325620273594448	shuffle
-0.0699441139132111	-0.221748003997231	0.0851699056481089	shuffle
-0.0135547672941714	-0.167400343221833	0.140935255791446	shuffle
0.0362477128826577	-0.118610686465902	0.189384654617964	shuffle
0.0535769372419863	-0.101456685562655	0.206069983729956	shuffle
-0.093947552532724	-0.244599668466404	0.0611335014675103	shuffle
-0.00735693696277707	-0.161369335208005	0.147005283378462	shuffle
-0.0423433826450742	-0.19526393037221	0.112587173339205	shuffle
0.0585873908973598	-0.096479654194814	0.21087779659736	shuffle
-0.067596912820499	-0.219504444586154	0.0875106795961582	shuffle
-0.0423862163202847	-0.195305204617749	0.112544806374644	shuffle
0.0743033720464115	-0.0808180364139484	0.225910517123498	shuffle
-0.041501712788258	-0.194452792966842	0.113419558188135	shuffle
0.078650486202151	-0.0764723930151757	0.23005592859795	shuffle
-0.0325216320355267	-0.185785432702135	0.122287056013186	shuffle
0.0250460909911997	-0.129650073369629	0.178551981040583	shuffle
0.0231858562517378	-0.131479660369814	0.176749406586562	shuffle
0.131396591357155	-0.0232703399843197	0.279920643730586	shuffle
-0.0831593523612995	-0.234349789837904	0.0719588173811395	shuffle
0.0673184837326598	-0.0877882326895401	0.21923820301487	shuffle
-0.0225926705265771	-0.176174390694207	0.132062851761222	shuffle
0.0540046146100968	-0.101032163741485	0.206480651883035	shuffle
0.0347271875991981	-0.120111438704203	0.187916394301949	shuffle
0.0958789050790979	-0.0591916462666358	0.246431101738651	shuffle
-0.054850945349633	-0.207293164779821	0.100191911074253	shuffle
-0.063428772290189	-0.215516386310218	0.0916631896108428	shuffle
-0.0259478261052335	-0.179425395107891	0.128762815297803	shuffle
-0.0825108728173604	-0.233732595973768	0.0726083656497021	shuffle
0.0280247225609661	-0.126718320029288	0.181436141930299	shuffle
0.00288674475141643	-0.151376092846174	0.157012311600348	shuffle
0.0244435130507105	-0.130242839082582	0.177968193559189	shuffle
0.00989144937007927	-0.14452443832382	0.163837019065066	shuffle
-0.0479769696199007	-0.200687772079186	0.10701012983625	shuffle
-0.0117560576499317	-0.165651233206087	0.142698072151425	shuffle
-0.21924046909865	-0.361224414968442	-0.0673208534492163	shuffle
0.162887946473112	0.00891644034342653	0.309314480801574	shuffle
0.053495155095131	-0.101537857863281	0.205991448033508	shuffle
0.0611466152160643	-0.0939345057416143	0.213330677101149	shuffle
0.0529035094304988	-0.102125030170038	0.205423230005463	shuffle
-0.0288558153087122	-0.182240404988086	0.125899824482982	shuffle
0.0148240136340689	-0.139690747483447	0.168634007398498	shuffle
0.0220378198269119	-0.132608257122495	0.175636440699972	shuffle
8.35811788235323e-05	-0.154113861644015	0.154277049509547	shuffle
0.062582178915799	-0.0925059497348862	0.214705749185685	shuffle
0.0802881616644735	-0.0748337419083335	0.23161619366015	shuffle
0.0256014684076385	-0.129103641643966	0.179089944179683	shuffle
-0.0386833042329615	-0.191735101292472	0.116205292534367	shuffle
0.0414354602765842	-0.113485070593391	0.194388934952123	shuffle
0.0628250772444448	-0.092264173942651	0.214938352654893	shuffle
-0.0444850321908996	-0.197326946365861	0.110468168672591	shuffle
0.0258127795657275	-0.128895709483946	0.179294605415251	shuffle
-0.0672824034523054	-0.21920370039993	0.0878241976914781	shuffle
0.156437211489663	0.00229716690843722	0.303316105159109	shuffle
-0.145862391128134	-0.29345759956374	0.00852479947616318	shuffle
0.0475548243037326	-0.107428376446579	0.200281667965056	shuffle
-0.0426777163413134	-0.195586077720149	0.112256467540958	shuffle
-0.0732034787516959	-0.224860786905471	0.0819166235472498	shuffle
0.093829831239932	-0.0612518249799684	0.244488002762768	shuffle
0.179706870681116	0.0262384819408707	0.324899371260353	shuffle
-0.112466102880188	-0.262116006091232	0.0424657852936397	shuffle
0.0217792223072237	-0.132862420491876	0.175385688696243	shuffle
0.138355091656728	-0.0161856655339079	0.28643972159583	shuffle
-0.0971897437861298	-0.247673511445946	0.0578730103289801	shuffle
-0.100642311953636	-0.250943480288851	0.054397314140247	shuffle
-0.0438289057640833	-0.196695054308786	0.11111750721697	shuffle
0.0243172125551482	-0.13036706891637	0.177845817847957	shuffle
-0.0667071535404144	-0.218653552843313	0.0883975550352229	shuffle
0.0470594785233699	-0.107919077542876	0.19980507801943	shuffle
-0.109167514399024	-0.259003136337463	0.0457988809631417	shuffle
0.0450344310969362	-0.109924351735315	0.197855955262953	shuffle
0.0867773523232249	-0.0683324383498532	0.237791005158287	shuffle
-0.0420969359046198	-0.195026445402112	0.112830923880978	shuffle
0.106651860500516	-0.0483385345591586	0.256627026063066	shuffle
0.0212933436475881	-0.133339912829716	0.174914497062678	shuffle
-0.00506718947005549	-0.159138305357759	0.149244877792049	shuffle
-0.0670414166346842	-0.218973241354677	0.0880644041735289	shuffle
0.0760895262698363	-0.0790331999629436	0.227614459999142	shuffle
-0.075298749158	-0.226860194452852	0.0798235163682301	shuffle
-0.0534933132971015	-0.205989679325466	0.101539685903327	shuffle
0.0919328807339403	-0.0631578787749142	0.242688080317768	shuffle
0.0326589170537166	-0.122151677911476	0.185918116701793	shuffle
-0.0183775534247913	-0.172085365687752	0.136203868906984	shuffle
-0.0583658157114936	-0.210665338308581	0.0966999153617493	shuffle
-0.0367010973517914	-0.189822322414576	0.118163060872126	shuffle
-0.0912613824030771	-0.242050679949799	0.0638323285312446	shuffle
0.0479140671337786	-0.10707245486694	0.200627263167266	shuffle
0.0371021217152056	-0.117767077845253	0.19020939446833	shuffle
0.105655814755515	-0.0493435292128505	0.255685729832347	shuffle
-0.0651910912492989	-0.217203184524181	0.0899081372667281	shuffle
0.00965322051685821	-0.14475770545835	0.163605153696851	shuffle
-0.0326010320071952	-0.185862172316658	0.122208759625454	shuffle
-0.0654605991680018	-0.217461063195701	0.0896396556712644	shuffle
0.210378346701334	0.0580665326963422	0.353118845080613	shuffle
0.0291471858091818	-0.12561282051054	0.182522320758315	shuffle
-0.0201995419069746	-0.173853500932371	0.134414572778714	shuffle
0.0716202006020485	-0.0834973599167438	0.223349099322255	shuffle
0.015639039462484	-0.138891349325681	0.169425930739668	shuffle
0.153553485436325	-0.000657539929184892	0.300630830785465	shuffle
-0.0593933406802666	-0.211650463570486	0.0956783558677074	shuffle
0.0696409070193198	-0.085472378631823	0.221458275708196	shuffle
-0.0914924924559787	-0.242270069172407	0.0636002186724299	shuffle
-0.0432784801507801	-0.196164860983142	0.11166213643847	shuffle
-0.0253271313843319	-0.178824220671308	0.129373571551646	shuffle
0.0487041805403917	-0.106289506386274	0.201387226477103	shuffle
0.0989951529541533	-0.0560559758813639	0.249383863951129	shuffle
-0.0329697530486467	-0.186218514576142	0.121845138202852	shuffle
-0.0492105062239629	-0.201874134555319	0.105787671111718	shuffle
0.067284370821956	-0.0878222366181019	0.21920558175313	shuffle
-0.100748923219082	-0.251044398533682	0.0542899288778998	shuffle
0.152577198767443	-0.00165724744226331	0.299721201360266	shuffle
-0.0949156106664234	-0.245517778121787	0.0601603257744376	shuffle
-0.0172894116750622	-0.171028913987704	0.137272005080633	shuffle
0.013486225548359	-0.141002447743744	0.167333709267374	shuffle
0.0979591557123703	-0.0570987696519455	0.248402527743807	shuffle
0.0257914186709913	-0.128916729422669	0.179273917347427	shuffle
0.0675170907927754	-0.0875902529500107	0.219428118875615	shuffle
0.108670634514316	-0.0463006599612272	0.25853396212402	shuffle
0.130149923476699	-0.0245379741453839	0.278751253089415	shuffle
-0.0605121784727991	-0.212722782002822	0.0945656420749236	shuffle
-0.00402107357602882	-0.158118491794123	0.150267553635372	shuffle
-0.188291078646113	-0.332823462394438	-0.0351151420181639	shuffle
0.0427991945693545	-0.112136298987363	0.195703119935688	shuffle
-0.00411136349826526	-0.158206524535276	0.150179299833652	shuffle
0.0871264280956176	-0.067982337198632	0.238122823798944	shuffle
-0.0261087691606641	-0.179581257938352	0.128604430073252	shuffle
-0.0775875486998404	-0.229042817793599	0.0775355155047745	shuffle
-0.0924831150219801	-0.243210277291285	0.0626051204332534	shuffle
0.0891250389788786	-0.0659771198362287	0.240021951672733	shuffle
0.112528836804129	-0.0424023616623473	0.262175177778363	shuffle
0.0947684063668243	-0.0603083272656018	0.245378186475083	shuffle
0.0780185990836037	-0.0771044326213989	0.229453701635711	shuffle
0.192838591129416	0.0398273955199895	0.337013021306203	shuffle
0.0403603218859272	-0.114548010340028	0.193352472937129	shuffle
0.00741762945014894	-0.146945898718807	0.161428449906208	shuffle
-0.0542368726013125	-0.206703650203792	0.100801595769742	shuffle
0.069209926738065	-0.0859022665308177	0.221046407875532	shuffle
-0.0671929435153234	-0.219118150596415	0.0879133700549187	shuffle
0.0494699663422204	-0.105530481447177	0.202123615130903	shuffle
-0.116540317302005	-0.265956538277394	0.0383441838282116	shuffle
-0.0463108468243767	-0.19908465542253	0.10866054630843	shuffle
0.0115231126763063	-0.142926297057589	0.165424640880357	shuffle
-0.119227532658342	-0.268487031384884	0.0356228262564932	shuffle
0.00272771061676905	-0.151531480240681	0.156857193018115	shuffle
-0.0408898351082228	-0.193862980450089	0.114024549359236	shuffle
0.0235839118366064	-0.131088251420031	0.177135210593612	shuffle
-0.0944241964567789	-0.245051752961382	0.0606543746492343	shuffle
0.0342424736979885	-0.120589700633834	0.18744819749508	shuffle
-0.01160945631022	-0.165508631730184	0.142841704884647	shuffle
-0.0197825813353486	-0.173448952027468	0.134824140716538	shuffle
-0.0823719842719132	-0.233600392212516	0.0727474659826311	shuffle
-0.0437200474189038	-0.196590204419483	0.111225226586303	shuffle
-0.213414698264548	-0.355898400913993	-0.0612343145480514	shuffle
-0.017865399059361	-0.171588170880564	0.136706652045907	shuffle
-0.0137800242422045	-0.167619320467045	0.140714424806466	shuffle
-0.0420429076431017	-0.194974379423483	0.112884358565675	shuffle
0.05709573390338	-0.0979621721629259	0.209447237419975	shuffle
0.166523767486577	0.0126532099670629	0.312690212377371	shuffle
0.0461364016986837	-0.108833297569107	0.198916759817753	shuffle
0.13634070239292	-0.0182381775739259	0.284553948116333	shuffle
0.0404867793439898	-0.114423006086342	0.193474399013772	shuffle
-0.0388978101125899	-0.191942024277836	0.115993359093184	shuffle
0.0114277562649216	-0.143019716563803	0.16533188024864	shuffle
-0.0525289386845439	-0.205063438125837	0.102496712997881	shuffle
-0.0245932640391882	-0.178113284887062	0.130095536926594	shuffle
0.127246678240551	-0.0274881189111555	0.276026262314725	shuffle
0.0395409815230652	-0.115357816291088	0.19256237768963	shuffle
0.0692745654217793	-0.0858377953646493	0.221108183515147	shuffle
-0.0430545557463949	-0.195949141903221	0.11188367611994	shuffle
-0.132253973256816	-0.28072462336533	0.0223982500286952	shuffle
0.00516331407903386	-0.149150890458447	0.159231996629078	shuffle
-0.0288316103992237	-0.182216984373211	0.125923665488219	shuffle
0.151543796834448	-0.00271510463478689	0.298758064731832	shuffle
0.0798548225079086	-0.0752674207507643	0.231203413515073	shuffle
0.136398210114205	-0.0181795995666641	0.284607799964367	shuffle
-0.160775202110234	-0.307351175464772	-0.00674700927797673	shuffle
0.0289639373839128	-0.125793325766467	0.18234502153476	shuffle
-0.0655854454131931	-0.21758051514315	0.089515277217798	shuffle
-0.0172420405624749	-0.170982914436928	0.137318497107931	shuffle
0.145607046388288	-0.00878566551914051	0.29321916250532	shuffle
0.123900594163594	-0.0308849159642623	0.272882652629398	shuffle
-0.00292463224265087	-0.157049265148496	0.151339073011384	shuffle
0.0274434977288089	-0.127290609820568	0.180873558472906	shuffle
0.141952624515223	-0.0125168055832513	0.289804705409947	shuffle
0.0131456866622027	-0.141336259292686	0.167002628102062	shuffle
0.0860951422726385	-0.0690165420641081	0.237142419506745	shuffle
-0.0489399509601686	-0.201613964482024	0.106055836747118	shuffle
0.0390529752742728	-0.115840045941303	0.192091695789529	shuffle
0.102850998230784	-0.0521718600989119	0.253033556059206	shuffle
-0.0637523598127966	-0.215826175161456	0.0913410085452746	shuffle
-0.0450288883993367	-0.197850618717653	0.109929838581648	shuffle
-0.013883319126783	-0.167719730625299	0.140613154371075	shuffle
0.0636563091382534	-0.0914366451289134	0.215734223549535	shuffle
0.0567238739193736	-0.0983316467148659	0.209090507120523	shuffle
-0.049877568269757	-0.202515499573513	0.10512640443532	shuffle
0.0463219443687459	-0.10864955620472	0.199095336007542	shuffle
0.0169556639344457	-0.137599544824625	0.170704815154922	shuffle
-0.0876261586674134	-0.238597788029105	0.0674810722166519	shuffle
-2.4536634059989e-05	-0.154219409782913	0.154171503292536	shuffle
-0.0376816550511521	-0.190768680781452	0.117194742880381	shuffle
0.0140280866617404	-0.140471218656223	0.167860449852067	shuffle
0.0815247899703987	-0.0735958214940881	0.232793852758313	shuffle
0.0561928938030545	-0.098859146577208	0.20858106042835	shuffle
0.111401049334074	-0.0435423576968101	0.261111258013807	shuffle
0.0485824466512731	-0.106410148891218	0.201270149833556	shuffle
-0.00666908017346098	-0.160699283001805	0.147678240171458	shuffle
-0.0677868741342131	-0.219686077848931	0.087321302118315	shuffle
0.0331999374195457	-0.121618116339882	0.186440950709025	shuffle
0.110718063387023	-0.0442325410162629	0.260466773348336	shuffle
0.0529947804183448	-0.102034456316957	0.205510893606879	shuffle
0.372708476672339	0.231836662304101	0.498268467517501	shuffle
-0.0220150306975111	-0.175614343764198	0.132630656305768	shuffle
-0.131936179507336	-0.280426647785852	0.0227215228606182	shuffle
-0.00160090720356523	-0.15575791458304	0.152632227089523	shuffle
0.0637283262873561	-0.0913649387264438	0.215803167544767	shuffle
-0.0180733243881136	-0.1717900323443	0.136502540866366	shuffle
-0.0925375538149468	-0.243261937393701	0.0625504267439363	shuffle
-0.0261976270506367	-0.179667307696051	0.128516980999332	shuffle
0.0150299293402561	-0.13948879911058	0.168834105025783	shuffle
-0.086673444987839	-0.237692227844039	0.0684366435261026	shuffle
-0.00181292904250778	-0.15596478642889	0.152425137335113	shuffle
0.138338994936406	-0.0162020720521951	0.286424657173555	shuffle
-0.060593296443509	-0.212800512975302	0.0944849530387039	shuffle
-0.0509537597924012	-0.203549957328574	0.104059273718815	shuffle
0.0637142222259992	-0.0913789820568676	0.215789665458776	shuffle
-0.0314540287323296	-0.184753418657251	0.123339633545674	shuffle
-0.0349901875365403	-0.188170403130514	0.119851909448082	shuffle
-0.121290477815854	-0.270428265862248	0.0335321111294732	shuffle
0.0482080112523018	-0.106781198751504	0.200910012083948	shuffle
-0.147690655905205	-0.295164269293971	0.0066563881694304	shuffle
0.00251052186732863	-0.151743676417314	0.156645339351424	shuffle
-0.00995233038120357	-0.163896271115395	0.144464822560147	shuffle
-0.0281078763115181	-0.181516620516453	0.126636436158792	shuffle
-0.0142961417017453	-0.168120992398024	0.140208390315919	shuffle
-0.0600909002490854	-0.212319062836673	0.0949846599031538	shuffle
-0.00204014058513376	-0.156186464011738	0.152203196186941	shuffle
0.0511292153004342	-0.103885261583382	0.203718576530361	shuffle
-0.020956972454862	-0.174588252394208	0.133670436169466	shuffle
-0.014355956337859	-0.168179127740081	0.140149739010244	shuffle
-0.118390167873296	-0.267698723799963	0.036471076498841	shuffle
-0.0388286097133791	-0.191875271635436	0.116061731155228	shuffle
-0.00461319038999334	-0.158695761486445	0.149688744782054	shuffle
-0.0403134421296765	-0.193307271834165	0.114594350124361	shuffle
-0.0785846465591623	-0.229993184813978	0.0765382543651617	shuffle
0.0640240547143014	-0.0910704694741048	0.216086260595217	shuffle
-0.0825246931296723	-0.233745750800765	0.0725945239330361	shuffle
0.0914089325327906	-0.0636841420210992	0.242190748800699	shuffle
-0.00217412260220062	-0.156317175487619	0.152072314722692	shuffle
0.0346524247959819	-0.120185211036347	0.187844183654109	shuffle
-0.0161230841321031	-0.169896160841241	0.138416490608342	shuffle
-0.0454257098907689	-0.198232658139889	0.109536991814134	shuffle
0.107985754832982	-0.0469921642229926	0.257887154938446	shuffle
-0.0768627346608488	-0.228351792229467	0.0782602534498835	shuffle
-0.0680913280074981	-0.21997716226654	0.08701776058291	shuffle
0.0296424360135407	-0.125124932768217	0.183001442648861	shuffle
0.0364870318847537	-0.118374415129503	0.189615685157046	shuffle
0.00343851733987272	-0.150836913585902	0.157550440133838	shuffle
-0.0343488150042123	-0.1875509210799	0.120484780978953	shuffle
0.101255085530504	-0.0537800428953242	0.251523487301324	shuffle
-0.0211193177331297	-0.17474571444584	0.133510917577689	shuffle
0.0519273976393193	-0.103093525631265	0.204485544891611	shuffle
-0.131536209881083	-0.280051580278655	0.0231283424013023	shuffle
0.22575769497866	0.0741432241013949	0.36717161013186	shuffle
0.0833307869226181	-0.0717870782953786	0.234512933229246	shuffle
6.07350100845666e-05	-0.154136165113103	0.154254747033071	shuffle
-0.0396133165518014	-0.192632138814615	0.115286331288386	shuffle
0.000606966920192993	-0.153602865637119	0.154787936706954	shuffle
-0.0794012910974494	-0.230771340737939	0.0757212448363558	shuffle
-0.0560521347707981	-0.208445995884303	0.0989989684086056	shuffle
-0.0321369547230193	-0.1854136178255	0.122666359398102	shuffle
0.00231497054117534	-0.151934720391932	0.156454579465187	shuffle
0.20097641284194	0.0482770449268218	0.344496057313981	shuffle
0.0940913250024756	-0.0609889875971607	0.244736039852932	shuffle
-0.0374414521102755	-0.19053688181493	0.11743197474986	shuffle
-0.129948992820698	-0.278562736284218	0.0247422374870434	shuffle
0.130577657917725	-0.0241031021776366	0.279152523207291	shuffle
-0.0789317840052654	-0.230323985264328	0.0761909872220243	shuffle
-0.0965985908295453	-0.247113279389966	0.0584677466162183	shuffle
0.132196799745785	-0.0224564116541498	0.280671017405	shuffle
-0.0463359506071583	-0.1991088159487	0.108635685513353	shuffle
0.0814300678956088	-0.0736906594486402	0.232703663236705	shuffle
-0.0578476203748827	-0.210168408377313	0.0972149783289579	shuffle
-0.0178714142449361	-0.171594010822584	0.136700747386289	shuffle
-0.00709877046027655	-0.161117867768213	0.147257874365313	shuffle
0.111012499073333	-0.0439350206748143	0.260744627472959	shuffle
-0.000251282660734561	-0.154440755228028	0.153950139018941	shuffle
-0.0526366316180279	-0.205166886206166	0.102389854804016	shuffle
0.0016038633235476	-0.152629339828359	0.155760798992069	shuffle
-0.0547970980621951	-0.207241475396557	0.100245378236382	shuffle
0.0793174154274397	-0.0758051675924094	0.230691427065719	shuffle
-0.0760713330118377	-0.227597108799065	0.0790513848133444	shuffle
-0.0433642654341231	-0.196247498891983	0.111577260660412	shuffle
-0.0387818786470678	-0.191830192739568	0.116107902014675	shuffle
-0.0391923651597327	-0.192226144481319	0.115702313482749	shuffle
0.0264167796414944	-0.128301292723922	0.1798795244766	shuffle
-0.0783117874164298	-0.229733142417357	0.0768111890389473	shuffle
-0.105598018624011	-0.255631101839836	0.0494018349770013	shuffle
-0.102941858298851	-0.253119506764214	0.0520802772598605	shuffle
0.0400700679575462	-0.114834910222374	0.193072601878117	shuffle
-0.0430217541891164	-0.195917541059905	0.111916127057947	shuffle
0.020158694435794	-0.134454698365988	0.173813871659308	shuffle
-0.00724616022818996	-0.161261435425592	0.147113670179515	shuffle
-0.0203813828499959	-0.174029912776429	0.134235939297837	shuffle
-0.0746257581326606	-0.226218133366211	0.0804959617320772	shuffle
0.179989410023806	0.0265302623383258	0.325160508460939	shuffle
-0.043282672503576	-0.196168899573265	0.111657988586009	shuffle
-0.0208102940121041	-0.174445979173868	0.133814553820316	shuffle
-0.0314585914932432	-0.184757830035016	0.12333513574341	shuffle
0.160133822535992	0.00608870771776269	0.306754915057676	shuffle
-0.0683987877383305	-0.22027109309899	0.0867111929659103	shuffle
0.00848793963518117	-0.145898469161703	0.162470754259627	shuffle
0.00537990626053872	-0.148939103859252	0.159443095736383	shuffle
-0.0265281627009936	-0.179987376975093	0.128191664772991	shuffle
-0.135587501269734	-0.283848543030735	0.0190052986950667	shuffle
0.0318921774502829	-0.122907693599822	0.185177002306988	shuffle
-0.0497398766312698	-0.202383122912062	0.10526291105016	shuffle
0.163575825198751	0.00962308835074373	0.309953435108456	shuffle
0.0124739388067915	-0.141994633806107	0.166349434824988	shuffle
-0.0613464996062622	-0.213522174924825	0.0937356353467214	shuffle
0.059090573786415	-0.0959793989441693	0.2113602221716	shuffle
-0.144778606058172	-0.292445450992834	0.00963187449427043	shuffle
0.0625220319447936	-0.0925658159163713	0.214648148782669	shuffle
0.206935930776078	0.0544788158190546	0.349964516513517	shuffle
-0.0301093091576949	-0.183453044908585	0.124664931676987	shuffle
-0.117427376127458	-0.266792090303753	0.0374461084955297	shuffle
-0.16208799125821	-0.308571254976093	-0.00809485112051163	shuffle
0.0648721298613586	-0.0902258548823775	0.216897958877843	shuffle
-0.1275234733777	-0.27628616587438	0.0272069685710948	shuffle
0.00617570314231706	-0.1481608419244	0.160218589157219	shuffle
-0.0155416532755129	-0.169331315479428	0.13898687878144	shuffle
-0.0381795937338099	-0.191249143724259	0.116702906898928	shuffle
0.0616738114260973	-0.0934099572231558	0.213835728443451	shuffle
-0.0149988114492151	-0.168803867173412	0.139519318284421	shuffle
-0.0402316541251517	-0.193228410909882	0.114675194461664	shuffle
-0.0999013032250156	-0.250241950993983	0.0551436035075028	shuffle
-0.0247602914856278	-0.178275107222951	0.129931232773391	shuffle
-0.00462504528375924	-0.158707318047311	0.149677155249735	shuffle
0.030396474034962	-0.124381960618136	0.183730784806794	shuffle
-0.0503872942483862	-0.203005501289995	0.104621014498918	shuffle
-0.138105967798939	-0.286206566086268	0.0164395747147323	shuffle
-0.0487915750634494	-0.201471274805951	0.106202892569644	shuffle
0.0621550816805541	-0.0929310288276687	0.214296711935336	shuffle
-0.0255021693714226	-0.178993765477331	0.129201348127937	shuffle
-0.168867119358982	-0.314863976917743	-0.0150639048587016	shuffle
0.00647782841582068	-0.147865323744081	0.160512956403104	shuffle
-0.0700863765721506	-0.22188393334667	0.0850279774801639	shuffle
-0.0418747621561221	-0.194812335391706	0.113050651002711	shuffle
-0.109990760826666	-0.259780323530988	0.0449673453784098	shuffle
0.0265880859262027	-0.128132684218305	0.180045399259345	shuffle
-0.0615656053657322	-0.213732074210964	0.0935176268720119	shuffle
0.000754050599024963	-0.153459248916732	0.154931493160398	shuffle
-0.0453875425728119	-0.19819591461761	0.109574778937205	shuffle
-0.0454532847176184	-0.198259204046687	0.109509691388828	shuffle
-0.0635515835931909	-0.215633964202542	0.0915409159240744	shuffle
-0.0235249708922703	-0.177078086743047	0.131146211224441	shuffle
-0.0919397905066323	-0.242694638543117	0.0631509378953821	shuffle
0.0337194850818923	-0.121105647206974	0.186942952132731	shuffle
0.117289485736757	-0.037585727789945	0.266662221213802	shuffle
0.00155185502259862	-0.152680136281941	0.155710051949289	shuffle
0.0179626789741145	-0.136611158252236	0.171682615363134	shuffle
-0.114580845819939	-0.264110046855112	0.0403271038627145	shuffle
0.17663045012649	0.023063132034771	0.322054553596625	shuffle
-0.0536502805320733	-0.206140413890326	0.10138388743479	shuffle
-0.00761415177090586	-0.161619855761611	0.146753603509852	shuffle
0.0199174193459519	-0.134691699138396	0.173579781988257	shuffle
-0.0630141143667894	-0.215119365798688	0.0920759977860713	shuffle
0.0761627570124821	-0.0789600020180782	0.227684300352257	shuffle
-0.102076742863284	-0.252301039170153	0.0529521687205077	shuffle
-0.0847322600025333	-0.235846306914443	0.0703827707179354	shuffle
0.208173840167913	0.0557685230330358	0.351099201888854	shuffle
-0.0225650724995022	-0.176147635468537	0.132089982194589	shuffle
-0.114842146038709	-0.264356344266678	0.0400627472118185	shuffle
-0.030025241571062	-0.183371731853993	0.124747766758269	shuffle
0.0685283098448443	-0.0865820378810814	0.220394907694455	shuffle
0.0689284083176419	-0.0861830402200461	0.220777344553354	shuffle
-0.00220396542425664	-0.156346289102237	0.152043161773412	shuffle
-0.0370086552242837	-0.190119184087328	0.117859373757059	shuffle
0.07023564816935	-0.0848790500857616	0.222026553264655	shuffle
-0.0925567567530896	-0.243280159962405	0.0625311336704798	shuffle
-0.00930985036325314	-0.163270925597636	0.145093893864225	shuffle
0.117094996952624	-0.0377826448440287	0.266479036926448	shuffle
-0.0522818631674501	-0.204826088523322	0.102741859885646	shuffle
0.0368873247165258	-0.117979180724402	0.190002076536921	shuffle
0.0965771507771347	-0.0584893145612906	0.247092958891783	shuffle
0.0123425282321801	-0.142123412241925	0.166221638192261	shuffle
-0.136414040163858	-0.284622623504019	0.0181634747150039	shuffle
0.164722283211683	0.0108011701226872	0.311018059140743	shuffle
0.044947348458968	-0.110010555789333	0.197772110485782	shuffle
-0.0968713784787927	-0.247371811087545	0.0581933191150704	shuffle
0.0305559321032715	-0.124224820437903	0.183884998763606	shuffle
-0.0197941208410698	-0.173460148734463	0.13481280651488	shuffle
-0.0482966569243883	-0.200995276589881	0.10669335848856	shuffle
0.152110576913955	-0.00213495456094574	0.299286344207959	shuffle
-0.118267176233383	-0.267582920813493	0.03659564819584	shuffle
0.000668245860150225	-0.153543031915226	0.154847746903023	shuffle
0.0346283902233048	-0.120208926831446	0.187820969190658	shuffle
0.0541089159851084	-0.100928623372938	0.206580796926354	shuffle
0.0197343279025178	-0.134871535214517	0.173402131606551	shuffle
-0.028083925859723	-0.181493440792564	0.126660021068205	shuffle
-0.00182064792904672	-0.155972317569193	0.152417597750969	shuffle
0.0528997243666186	-0.102128786267804	0.205419594489258	shuffle
-0.1232235219802	-0.272246163409867	0.0315718151504681	shuffle
0.210075849006424	0.0577511091252347	0.352841792667166	shuffle
0.0880740048231397	-0.0670317844202536	0.239023377843681	shuffle
-0.029273700613082	-0.182644722409986	0.125488193612723	shuffle
0.042633648118354	-0.112300059537851	0.195543617656851	shuffle
0.00103799524546299	-0.153181978794429	0.15520861009152	shuffle
-0.0652326054331944	-0.21724290875662	0.0898667826432282	shuffle
-0.117458876786925	-0.26682175775922	0.0374142120245687	shuffle
-0.103292716752442	-0.253451385336353	0.0517266033305395	shuffle
0.0508799021791701	-0.104132520909286	0.203478974736103	shuffle
-0.0367220304207448	-0.18984252836448	0.118142392174204	shuffle
0.00779395663040399	-0.146577655955086	0.161794969245565	shuffle
0.12131682855675	-0.033505396905327	0.27045305410721	shuffle
-0.104047547601224	-0.254165263385345	0.0509655834749146	shuffle
-0.00679100498102199	-0.160818062243703	0.147558966855824	shuffle
-0.062247049579223	-0.214384795441264	0.0928395002764455	shuffle
0.0966971075411448	-0.0583686403789436	0.247206650065366	shuffle
-0.0431807009353599	-0.196070666538904	0.111758876230945	shuffle
-0.103916404421619	-0.254041247023405	0.0510978148457718	shuffle
0.0555053520066636	-0.0995420525086105	0.207921278383217	shuffle
0.172695044645727	0.0190056864754086	0.318411585623638	shuffle
0.0992777972726467	-0.0557714185646152	0.249651541842163	shuffle
-0.00332328194806471	-0.157438061806758	0.150949526497498	shuffle
-0.101960345225227	-0.25219090139436	0.0530694600064498	shuffle
-0.088543392784688	-0.239469376675739	0.0665608179511164	shuffle
-0.100731812792307	-0.251028202020439	0.0543071637678324	shuffle
-0.0130983332327125	-0.166956587062185	0.141382674474422	shuffle
-0.0973710471498737	-0.247845311376729	0.0576905859204375	shuffle
-0.108966585476927	-0.258813419584991	0.0460018004128575	shuffle
0.0601959163405956	-0.0948802124237351	0.212419706674964	shuffle
0.122647493283405	-0.0321560892145931	0.271704558552829	shuffle
0.0869826117416209	-0.0681265806275226	0.237986121511133	shuffle
0.258119733912153	0.108232007535685	0.396532830864543	shuffle
-0.0464463609877001	-0.199215075533852	0.10852634152966	shuffle
0.127591364103722	-0.0271380058871913	0.276349910208262	shuffle
-0.0916145470891682	-0.242385927538857	0.0634776292472545	shuffle
-0.0604396810309122	-0.212653309987428	0.0946377544416132	shuffle
-0.0635855325679658	-0.215666465717099	0.0915071147385303	shuffle
-0.00186222207319103	-0.156012880198506	0.152376989025923	shuffle
0.0484556255513189	-0.106535828145251	0.201148175963683	shuffle
0.107727241376189	-0.0472531395717824	0.257642977323263	shuffle
-0.0731591475007924	-0.224818470098169	0.0819608942518604	shuffle
0.0682674714157917	-0.0868421318599468	0.220145558355059	shuffle
0.0807658066421781	-0.0743556545203411	0.232071114489602	shuffle
-0.0294858386047063	-0.182849952865078	0.125279210269593	shuffle
-0.135898075444049	-0.284139428480664	0.0186890068139863	shuffle
-0.0990648324477821	-0.249449855948683	0.05598582712113	shuffle
-0.13120530733909	-0.279741245460769	0.0234648732951976	shuffle
0.0883864099239377	-0.0667183364228295	0.239320223201542	shuffle
0.0341104148218589	-0.120719989231675	0.187320626584875	shuffle
0.0786084698973525	-0.0765144233288275	0.230015888095546	shuffle
-0.0874282440332581	-0.238409690560984	0.0676796039079395	shuffle
0.0607571021738208	-0.0943220072662902	0.212957473291237	shuffle
-0.0293760010451647	-0.182743693452617	0.125387416178171	shuffle
0.0928118020980257	-0.062274880192964	0.243522174362645	shuffle
0.000770625414668487	-0.153443064383135	0.154947670085878	shuffle
0.0599317748852073	-0.0951429171729006	0.212166556363922	shuffle
0.137920837154015	-0.01662824855301	0.286033290590581	shuffle
0.0175675468842701	-0.1369990176031	0.171298982676373	shuffle
0.129958526382127	-0.0247325460914773	0.278571681104175	shuffle
0.00122561421367648	-0.152998756753649	0.155391704273914	shuffle
0.164833461616122	0.0109154379911773	0.3111212821246	shuffle
0.0787178752227681	-0.0764049803748772	0.230120147602482	shuffle
0.0439489672529634	-0.11099869769925	0.196810690757578	shuffle
-0.000862708666883694	-0.155037541308965	0.153353147880025	shuffle
0.115016015441713	-0.0398868320396809	0.264520219982789	shuffle
0.000768097818343519	-0.153445532468279	0.154945203171632	shuffle
0.0762960188843339	-0.0788267955384127	0.227811388552616	shuffle
0.0242457850094282	-0.130437323277115	0.177776607808996	shuffle
0.105439978012915	-0.0495612637590772	0.255481719453367	shuffle
0.0647644872068118	-0.090333070666034	0.2167949450338	shuffle
-0.00605394766302573	-0.160099952390808	0.148279926975897	shuffle
-0.0411164728101634	-0.194081458175672	0.113800475796252	shuffle
-0.048725624649805	-0.201407849734586	0.106268254057585	shuffle
-0.0709276699470966	-0.222687653074226	0.0841885334741375	shuffle
0.0491646577819805	-0.105833116192564	0.201830047509482	shuffle
-0.0282124977413217	-0.181617873219608	0.126533409456086	shuffle
0.0535878031280895	-0.101445900547679	0.206080418132504	shuffle
-0.026116074697081	-0.179588332690095	0.128597240454771	shuffle
0.0468459118553874	-0.108130618376368	0.199599575566368	shuffle
0.0713510828377381	-0.0837659680431515	0.223092077573252	shuffle
-0.0984735071989244	-0.248889779745398	0.0565810861131128	shuffle
-0.00870897875701836	-0.162685966847903	0.145682112188178	shuffle
0.106998097939236	-0.0479891128535816	0.25695416529055	shuffle
0.0290900375962169	-0.125669114332831	0.182467028945372	shuffle
-0.105186967427617	-0.255242555088658	0.0498164802529627	shuffle
0.119863102989732	-0.0349788447463464	0.269085233260807	shuffle
0.00877173303741616	-0.145620684505089	0.162747064271741	shuffle
-0.0125446864845144	-0.166418234719686	0.141925301030931	shuffle
0.0956804536762318	-0.0593912309580894	0.246242966849029	shuffle
-0.0633071083863716	-0.215399902573995	0.091784316309961	shuffle
-0.0207545512541683	-0.174391908866876	0.133869321675933	shuffle
0.00231321686369891	-0.151936433595956	0.156452868704659	shuffle
0.0590084863959988	-0.0960610140781763	0.211281526116608	shuffle
0.0415475633161312	-0.113374219067477	0.194496985606797	shuffle
0.0145255476702397	-0.139983440151612	0.168343951983495	shuffle
-0.0284283038115659	-0.181826720232122	0.12632088233562	shuffle
0.0727935215444999	-0.0823259975042323	0.224469436628252	shuffle
-0.0860076516848211	-0.237059231364813	0.0691042649538434	shuffle
-0.0579998459845252	-0.210314395203695	0.0970636815028082	shuffle
-0.0576219428847591	-0.209951967506883	0.0974392656917295	shuffle
0.0837507917692505	-0.0713662885079768	0.234912589198689	shuffle
0.0746163596083192	-0.080505351636465	0.226209165855126	shuffle
-0.0187221924030831	-0.17241989400394	0.135865491187778	shuffle
0.146143900453453	-0.00823717873631669	0.293720447435715	shuffle
-0.0272945698312221	-0.180729390914461	0.127437231703254	shuffle
-0.0563070157609378	-0.208690561249633	0.0987457799710699	shuffle
0.211173522421544	0.0588958317316149	0.353847013406955	shuffle
-0.0655566297430772	-0.217552944931098	0.0895439853466791	shuffle
0.0767446166745625	-0.0783783435009112	0.228239166054149	shuffle
0.0417981915226178	-0.113126374912343	0.194738540491877	shuffle
0.0407272453245969	-0.114185289922011	0.193706235281641	shuffle
-0.0195748430149161	-0.173247378097845	0.135028176159709	shuffle
-0.0716906025547186	-0.223416333442249	0.0834270875669091	shuffle
0.0528122240848604	-0.102215615700313	0.205335550165605	shuffle
0.0278010468192162	-0.126938569447791	0.181219651930012	shuffle
-0.125912447982775	-0.274773148915561	0.0288429991489949	shuffle
0.0223925199294124	-0.132259605951109	0.175980347244225	shuffle
-0.0462546758845238	-0.199030594392711	0.10871617284929	shuffle
0.140599366588181	-0.0138973822796642	0.28853935251337	shuffle
-0.0616351367713032	-0.213798681081496	0.0934484405720605	shuffle
-0.146075913542263	-0.293656969469198	0.00830664394612507	shuffle
-0.0169573505153042	-0.170706453059052	0.137597889700602	shuffle
-0.0238212830523037	-0.177365253405753	0.130854820817432	shuffle
-0.0793283465093893	-0.23070184191673	0.0757942304985215	shuffle
-0.0949397172279611	-0.245540637420214	0.0601360880129781	shuffle
0.0294770964436955	-0.125287822699551	0.182841495626213	shuffle
-0.12996108828101	-0.278574084789569	0.0247299417737813	shuffle
-0.0264439218078367	-0.179905806644986	0.128274578596261	shuffle
0.10102133381036	-0.0540155242980466	0.251302247613636	shuffle
0.0575565940167799	-0.097504209083438	0.209889290476071	shuffle
-0.164173601301815	-0.310508587858429	-0.0102373001182458	shuffle
0.0411726743115802	-0.113744907709861	0.194135633822393	shuffle
-0.0148301486451296	-0.16863996925012	0.13968473086009	shuffle
0.00539397252533481	-0.148925349196428	0.159456804774255	shuffle
0.0532986038407016	-0.101732935000777	0.205802691106254	shuffle
-0.0802457096115103	-0.231575758077447	0.0748762298314098	shuffle
0.0521692599360898	-0.102853577908825	0.204717911869659	shuffle
0.00224094813308965	-0.152007033616826	0.15638236776932	shuffle
0.0629166470679814	-0.0921730225553876	0.215026036958098	shuffle
0.0466838977316804	-0.108291086317714	0.199443670084702	shuffle
0.136336443273963	-0.0182425159178638	0.284549959720319	shuffle
-0.0391297012326969	-0.192165702621374	0.115764233036198	shuffle
0.0843918980457059	-0.0707238775991154	0.235522535889442	shuffle
0.0238711096512579	-0.130805819214755	0.177413539568714	shuffle
0.084899372842514	-0.070215278851691	0.236005261566339	shuffle
-0.0711027190331094	-0.22285485823555	0.0840138415128819	shuffle
0.0209400687526632	-0.133687045091078	0.17457185669125	shuffle
-0.0406110246681415	-0.193594187622391	0.114300183767802	shuffle
-0.0168012659290055	-0.170554869660035	0.13775105945866	shuffle
0.136230546534576	-0.0183503805985765	0.284450792459701	shuffle
0.0697596208050328	-0.0853539555976307	0.221571715444432	shuffle
0.0435789006371621	-0.111364891140309	0.196454249834527	shuffle
0.00388729142558878	-0.150398314354914	0.157988049594171	shuffle
-0.0748096735637738	-0.22639360932461	0.0803122094398351	shuffle
0.00960003161164593	-0.14480978422627	0.163553383232115	shuffle
0.118369575787567	-0.03649193346377	0.267679335587484	shuffle
-0.0307328882532862	-0.184056126505584	0.124050427439711	shuffle
-0.103445587723608	-0.253595975612819	0.0515724934777957	shuffle
-0.0155734203669416	-0.169362179014134	0.138955717666397	shuffle
-0.0215820979696599	-0.175194531470229	0.133056151094795	shuffle
-0.00720245204126637	-0.161218861358994	0.147156434371869	shuffle
0.0232834745078135	-0.131383676582354	0.176844024660659	shuffle
-0.00502789732806147	-0.159100007074059	0.149283295493047	shuffle
-0.136331311847081	-0.284545154456191	0.0182477427880214	shuffle
-0.141530677473073	-0.289410222682755	0.0129473338379365	shuffle
0.0514503794405935	-0.103566714891446	0.204027203641855	shuffle
0.0146639932782908	-0.139847675886322	0.168478499609616	shuffle
0.0089438816693263	-0.145452168905953	0.16291466172356	shuffle
-0.00960652122450571	-0.163559699825548	0.144803430107805	shuffle
0.0372171897335755	-0.117653447269865	0.190320450289514	shuffle
0.0246690856956717	-0.130020952554631	0.178186744726897	shuffle
-0.0712078829288278	-0.222955305458905	0.0839088875813542	shuffle
0.0320040143486544	-0.122797432086236	0.185285112366324	shuffle
-0.0747065036233931	-0.226295174836432	0.0804152891635213	shuffle
-0.0322981087094578	-0.185569388656285	0.122507462230991	shuffle
-0.0132530624153419	-0.167107025474685	0.141231008536809	shuffle
0.224739068440156	0.073075967634164	0.366242839722493	shuffle
-0.00263391685926874	-0.156765704975719	0.151623119681609	shuffle
-0.0836643629809253	-0.234830351987849	0.0714528833338308	shuffle
0.0449031518790353	-0.110054305574504	0.197729556344347	shuffle
-0.0974028394914021	-0.247875436274286	0.0576585959316458	shuffle
-0.184944447709926	-0.329736609718651	-0.0316516190904883	shuffle
-0.0309642910398656	-0.184279893550351	0.123822362018038	shuffle
0.00756294838565709	-0.146803706655965	0.16156998657442	shuffle
-0.0698794025970287	-0.221686171574669	0.0852344627308535	shuffle
0.0603691206352834	-0.0947079384880382	0.212585692704687	shuffle
-0.0459363883721967	-0.198724244930198	0.109031357244756	shuffle
-0.157154108880996	-0.303983305388383	-0.00303212814504029	shuffle
-0.00666551921684237	-0.160695813848055	0.147681723620681	shuffle
0.0347208269923191	-0.120117715111172	0.18791025088965	shuffle
0.0310602011689533	-0.123727830341723	0.184372634214638	shuffle
-0.00747730871722013	-0.161486576646586	0.146887504361072	shuffle
0.027897535754173	-0.126843560426829	0.181313042913332	shuffle
-0.0352376333792251	-0.188409370899515	0.119607709702806	shuffle
-0.0412631020399971	-0.194222800009798	0.113655497106296	shuffle
-0.0231874924907379	-0.176750992561074	0.131478051551033	shuffle
0.0949774805708007	-0.0600981187755979	0.245576446567267	shuffle
0.0697892352525176	-0.0853244129982619	0.221600013582458	shuffle
-0.0259795892339248	-0.179456156232365	0.128731557598332	shuffle
-0.00784151839509849	-0.16184128843126	0.146531112886323	shuffle
-0.170969213525923	-0.31681264115885	-0.0172279312668324	shuffle
-0.0543298920215375	-0.20679295667993	0.100709248532315	shuffle
0.0493288995421079	-0.105670316388489	0.201987976601586	shuffle
0.00174019392115855	-0.152496182007145	0.155893819561484	shuffle
0.0122218515930723	-0.142241667136231	0.166104275746268	shuffle
-0.00552188588445986	-0.159581466918219	0.148800266688615	shuffle
0.0181687701912686	-0.136408841510649	0.171882690275363	shuffle
-0.029021807022747	-0.182401013500276	0.1257363235243	shuffle
-0.0433027864443792	-0.196188275724125	0.111638088072455	shuffle
-0.0167796543413461	-0.170533880736512	0.137772266874433	shuffle
0.0344684497582493	-0.120366741458307	0.187666481865162	shuffle
-0.0403939043186795	-0.193384852463077	0.114514814303098	shuffle
0.00105313070786886	-0.153167198430965	0.155223380926434	shuffle
0.133904824760725	-0.0207184156785287	0.282272064533537	shuffle
0.0290366778969723	-0.125721675381657	0.182415401704454	shuffle
-0.0992770042510149	-0.249650790844327	0.0557722169888275	shuffle
0.0724439662800636	-0.0826750141117463	0.224135708153198	shuffle
-0.115283441112699	-0.264772257676557	0.0396162410603338	shuffle
0.0113644558440546	-0.143081729689633	0.16527030147969	shuffle
0.0694538097785368	-0.0856590087414683	0.221279482219841	shuffle
-0.0191389137304911	-0.172824342644382	0.135456292506155	shuffle
-0.0358283877996471	-0.188979811359033	0.119024629274393	shuffle
-0.0484159503996515	-0.201110016263856	0.106575145060889	shuffle
-0.0729097037391074	-0.224580350572472	0.0822099859183718	shuffle
0.0182974558232948	-0.136282506163172	0.172007612829327	shuffle
0.113534926798132	-0.0413850399236659	0.263123984995811	shuffle
-0.0680552145641131	-0.219942636083368	0.0870537673129808	shuffle
0.0106327712985294	-0.14379844648147	0.164558430262291	shuffle
-0.0402783950761431	-0.193273479308545	0.114628993057418	shuffle
-0.0583628183228143	-0.21066246415134	0.0967028948707424	shuffle
0.073079361430646	-0.0820405698103198	0.224742308122508	shuffle
-0.00758414250924746	-0.161590628541676	0.146782968039829	shuffle
