cor	ci95_lower	ci95_upper	type
0.183185206871602	0.0298324061307132	0.32811268541907	real
-0.0310658004405792	-0.184378048367302	0.123722311457923	shuffle
-0.0569556388540233	-0.209312847110169	0.0981013735398253	shuffle
-0.0905526484586553	-0.241377793546937	0.0645440239172342	shuffle
-0.0521147197950936	-0.204665514432052	0.102907687887322	shuffle
0.0153148251131964	-0.139209371166995	0.16911093026204	shuffle
0.000746248662672249	-0.15346686711467	0.154923878486423	shuffle
-0.0566764204995617	-0.209044981496872	0.0983787926519826	shuffle
0.106483112049331	-0.0485088212023662	0.256467573200214	shuffle
0.0630081524080162	-0.0920819327604027	0.215113657064258	shuffle
0.0539951072269672	-0.101041601589577	0.206471523203133	shuffle
0.0711783737463532	-0.0839383381948588	0.222927120108601	shuffle
0.00672009973430282	-0.14762833067638	0.160748986840324	shuffle
0.0385745449809676	-0.116312742114601	0.191630181537877	shuffle
-0.0646275388652593	-0.216663880801199	0.0904694707249162	shuffle
-0.094206172036094	-0.244844970537786	0.0608735436532338	shuffle
0.0334634552012218	-0.121358199146844	0.186695578930525	shuffle
0.0276657926371471	-0.127071744368482	0.181088735669807	shuffle
-0.00447056652845245	-0.158556723498979	0.149828172809449	shuffle
0.123905689313413	-0.0308797463092973	0.272887441887152	shuffle
0.033327642866107	-0.121492158454644	0.18656435068611	shuffle
0.054857337103265	-0.10018556438261	0.207299300330484	shuffle
-0.0315102981770843	-0.184807820764356	0.123284164747618	shuffle
-0.122522256081259	-0.271586793108434	0.0322831050816771	shuffle
-0.0692709389803962	-0.221104717732155	0.0858414124421466	shuffle
0.0177052140012418	-0.136863889744856	0.171432648603054	shuffle
0.0690240594459763	-0.0860876448915219	0.220868766422482	shuffle
0.0400396161739227	-0.114865008620925	0.193043237962714	shuffle
-0.127946957685169	-0.276683764709472	0.0267767736138638	shuffle
0.136515088431507	-0.0180605427369972	0.284717245226404	shuffle
0.140169876201902	-0.0143354198559116	0.288137652937349	shuffle
0.0270223285908647	-0.12770524005315	0.180465834563563	shuffle
-0.126991330384591	-0.275786477908119	0.0277474628030708	shuffle
-0.0928479552530446	-0.243556478838215	0.0622385541281806	shuffle
0.0843092727693832	-0.0708066782391269	0.235443933118792	shuffle
0.0353309179473703	-0.119515644017111	0.188499454612519	shuffle
-0.13920241839738	-0.287232605106746	0.0153219136142935	shuffle
-0.0141842788176235	-0.168012267189105	0.140318074677078	shuffle
0.0871174449172747	-0.0679913472431583	0.238114285160575	shuffle
-0.0490519804232711	-0.201721696338099	0.105944799498084	shuffle
0.201363945294688	0.0486799728838048	0.344851953775151	shuffle
0.0594900862234002	-0.0955821551690771	0.211743201080046	shuffle
0.0642418761104593	-0.0908535581871452	0.216294758943027	shuffle
-0.0321658753788687	-0.185441572988699	0.122637844334835	shuffle
0.0277740545445075	-0.126965147216069	0.181193525795747	shuffle
0.00331458580494367	-0.150958024574847	0.157429581107675	shuffle
0.0323900774027275	-0.12241677792102	0.185658281793225	shuffle
-0.0700112272264419	-0.221812130266596	0.0851029509174566	shuffle
-0.123961848138928	-0.272940228676041	0.0308227657381662	shuffle
0.0118196943877456	-0.142635722002012	0.165713131679224	shuffle
-0.016974694632424	-0.170723296555038	0.137580869022809	shuffle
0.0106927713867192	-0.143739679886266	0.164616811640645	shuffle
-0.0287842655602073	-0.182171173112445	0.125970298013199	shuffle
0.100573591269655	-0.0544665318349655	0.250878427544062	shuffle
0.0335192210684873	-0.121303192517322	0.186749460941949	shuffle
-0.151093443814965	-0.298338239247857	0.00317600718278862	shuffle
0.0323317216392805	-0.12247431902026	0.185601877815588	shuffle
0.0480861418417903	-0.106901956942241	0.200792787298466	shuffle
0.0992593585510154	-0.0557899828515466	0.249634080178321	shuffle
-0.1157225448855	-0.265186050624387	0.0391718906766708	shuffle
0.00476373918261886	-0.149541562742826	0.158842518525279	shuffle
0.00448052482981713	-0.149818437847306	0.158566431625441	shuffle
0.0342234806551836	-0.120608439399145	0.187429850241124	shuffle
-0.125387365086988	-0.274279850645504	0.0293760529076406	shuffle
0.00252062405546367	-0.151733806766026	0.156655193701233	shuffle
0.158857697362102	0.00477931059280678	0.305568219154429	shuffle
-0.0378710703275058	-0.190951456951676	0.117007658017107	shuffle
-0.017293198902702	-0.171032591532731	0.13726828810474	shuffle
-0.0949651901768543	-0.245564792227705	0.0601104762288935	shuffle
0.0497005256291953	-0.105301922310162	0.202345289856543	shuffle
0.160316585814679	0.00627627937196348	0.306924833202445	shuffle
0.139003144067817	-0.0155250715614082	0.287046152980042	shuffle
0.0345036332059548	-0.120332026320487	0.187700466390235	shuffle
0.0181175051874721	-0.136459168821889	0.17183292300681	shuffle
0.121520919714769	-0.0332984830127001	0.270645036760821	shuffle
0.0179367908612657	-0.136636571323402	0.171657482090886	shuffle
-0.0184764611767221	-0.172181375413692	0.136106761760479	shuffle
-0.0556610995214494	-0.208070749686581	0.0993873679424039	shuffle
0.157715494970327	0.00360777588989417	0.304505674220503	shuffle
0.119933962099613	-0.0349070399143757	0.269151919065582	shuffle
0.0938523995007872	-0.0612291416057386	0.244509410420774	shuffle
-0.0440729218214321	-0.196930072339154	0.11087603105112	shuffle
-0.00510615620751839	-0.159176286009771	0.149206777793636	shuffle
0.0712164524165151	-0.0839003350513638	0.222963490457247	shuffle
-0.113964419819474	-0.263528936275531	0.0409506542927326	shuffle
-0.124682639491099	-0.273617660732501	0.030091338052563	shuffle
0.0501401451703722	-0.104866071173881	0.202767925392568	shuffle
-0.0110863311676595	-0.164999727049648	0.143354183975935	shuffle
9.81182440422995e-05	-0.154099669817918	0.154291240540435	shuffle
0.084475391218945	-0.0706402050486877	0.235601962296185	shuffle
-0.0135368014588886	-0.167382877583639	0.140952867962931	shuffle
-0.0683029642084873	-0.220179488971633	0.0868067416088845	shuffle
0.0244612555776967	-0.130225387050348	0.177985384357256	shuffle
-0.0184408846091485	-0.172146841586212	0.136141691002375	shuffle
-0.0049267846109172	-0.159001449777246	0.149382155819164	shuffle
-0.0429745616191687	-0.195872075435517	0.111962814601859	shuffle
-0.0203620694024292	-0.17401117642517	0.13425491255569	shuffle
0.0423878243341431	-0.112543215870543	0.195306754078696	shuffle
0.113514886423553	-0.0414053071600583	0.263105088464838	shuffle
0.0447377484414167	-0.110218031577149	0.197570294536902	shuffle
0.139600241519758	-0.0149162992338857	0.287604796959158	shuffle
0.051553477223816	-0.103464450599253	0.204126270448871	shuffle
0.187706669442897	0.0345100551339107	0.332284640396001	shuffle
-0.0726736050350234	-0.224354953579207	0.082445733512681	shuffle
0.0494958151077446	-0.105504857740161	0.202148468597364	shuffle
-0.0888366744018141	-0.239748012036665	0.0662665149689004	shuffle
0.0822037798212128	-0.0729159188444335	0.233440276050475	shuffle
0.0901345349502364	-0.0649638105300606	0.240980760060045	shuffle
0.0202176336530299	-0.134396800600109	0.173871052967497	shuffle
0.0120640942110432	-0.142396251985777	0.165950844346539	shuffle
0.0478304955359442	-0.107155257379324	0.200546869845164	shuffle
0.0390026831454741	-0.115889738605151	0.192043185042232	shuffle
-0.032672110380005	-0.185930867567907	0.122138667539738	shuffle
-0.00785729542692001	-0.161856653128992	0.146515673621988	shuffle
-0.127561925941085	-0.276322270127409	0.0271679090433691	shuffle
-0.00758861566390113	-0.161594985142999	0.146778591005578	shuffle
-0.137563357409282	-0.285698675243939	0.0169925389173215	shuffle
-0.0732240770500042	-0.224880449007782	0.0818960531731824	shuffle
-0.0142391137925614	-0.168065564549209	0.140264308083828	shuffle
0.0757869523064248	-0.0793356206801125	0.227325877880808	shuffle
0.0272746569843594	-0.127456835704996	0.180710114063134	shuffle
0.0165898963530369	-0.137958469994775	0.170349583985855	shuffle
-0.0757228889303084	-0.22726477355548	0.0793996479470321	shuffle
0.141683018473276	-0.0127919012577876	0.289552653680285	shuffle
-0.0415127992501851	-0.194463478615463	0.113408595441434	shuffle
0.145322982276848	-0.00907584723984221	0.292953886152949	shuffle
0.00458193683856614	-0.149719298546782	0.158665294240122	shuffle
-0.0231952447359907	-0.176758506650183	0.131470429207431	shuffle
-0.019060667472323	-0.172748404736199	0.135533130286177	shuffle
0.112491344767844	-0.042440266042544	0.262139814797473	shuffle
-0.0700774729123695	-0.221875426236866	0.0850368603901243	shuffle
0.0637071032473972	-0.0913860703583041	0.215782850303175	shuffle
0.000322834108166668	-0.153880282611825	0.154510599267994	shuffle
-0.0203763011852494	-0.174024982965371	0.134240931464434	shuffle
-0.0529908008565759	-0.205507071383987	0.102038405536123	shuffle
-0.035820422759828	-0.188972120896198	0.119032491557496	shuffle
-0.053302014442911	-0.205805966556269	0.101729550079427	shuffle
-0.0311620060748921	-0.184471071869048	0.123627485536417	shuffle
-0.0891882945116476	-0.240082039742646	0.0659136347513603	shuffle
0.0548898481563912	-0.100153282337749	0.207330508045694	shuffle
0.0377669502110533	-0.11711049848394	0.190850987614408	shuffle
0.110585087268337	-0.0443669012498866	0.260341277836074	shuffle
-0.107405672222122	-0.257339214033659	0.0475777415879018	shuffle
0.00736527014123947	-0.146997129832802	0.161377451818872	shuffle
-0.0255915552513609	-0.179080342662349	0.129113395948586	shuffle
0.0909181155032752	-0.0641770494714958	0.241724793494484	shuffle
-0.0702233207042023	-0.2220147753687	0.0848913493877718	shuffle
0.0227306743055006	-0.131927182705586	0.176308176645066	shuffle
0.0382848906945975	-0.116598890718495	0.191350735770064	shuffle
-0.01867994484029	-0.172378887763085	0.135906973153934	shuffle
-0.0537514278832568	-0.206237541167556	0.101283489190217	shuffle
0.152550546710706	-0.00168453455213745	0.299696365255378	shuffle
-0.0753716005951296	-0.226929689815398	0.079750715529124	shuffle
-0.00959452928085863	-0.16354802758896	0.144815171665809	shuffle
-0.0905094447000431	-0.241336770330494	0.0645874031011523	shuffle
-0.0559241500448416	-0.208323183809093	0.0991260956734251	shuffle
-0.0215125942697569	-0.175127128941145	0.133124455386528	shuffle
0.0404404840581802	-0.114468769932316	0.193429763186722	shuffle
0.0718334435683508	-0.0832845047684247	0.223552742691746	shuffle
0.020195266489793	-0.134418772661614	0.173849353044691	shuffle
-0.0332930178631518	-0.186530893510438	0.121526310130902	shuffle
0.0363103025461187	-0.118548895559027	0.189445078217513	shuffle
0.0174288591582754	-0.137135141428839	0.171164320081188	shuffle
0.0631905418042608	-0.0919003638894982	0.215288295067224	shuffle
-0.00410841014859403	-0.15820364505591	0.150182186621481	shuffle
0.0210238990208654	-0.133604675870882	0.174653166810296	shuffle
0.116712706560983	-0.0381696732284801	0.266118935384524	shuffle
0.0612512225591574	-0.0938304306056438	0.213430896883527	shuffle
-0.104305270163508	-0.254408965944052	0.0507057065629843	shuffle
-0.00779415900587305	-0.161795166335294	0.14657745791562	shuffle
-0.097843976274938	-0.248293406297326	0.0572146838150716	shuffle
0.0354267930628951	-0.119421018857795	0.18859203729814	shuffle
-0.00869707694390789	-0.162674379136672	0.14569376226801	shuffle
-0.0754267138845224	-0.226982263154688	0.0796956394184488	shuffle
-0.0615271401497014	-0.21369522625849	0.0935559005299468	shuffle
-0.101298831825322	-0.251564890243031	0.0537359709772947	shuffle
-0.0904089178705777	-0.241241315116494	0.0646883358429261	shuffle
-0.0523722125278075	-0.204912883439726	0.102652217960997	shuffle
-0.0064008880881524	-0.16043799436353	0.147940584100941	shuffle
-0.0123038206249771	-0.166183994103195	0.142161343543268	shuffle
0.116270613040704	-0.0386171879912659	0.265702449796315	shuffle
0.0205965352171047	-0.134024568988173	0.174238628751694	shuffle
0.044388769545807	-0.110563443724186	0.197234247180329	shuffle
0.0941423504751632	-0.0609376974349412	0.244784437216152	shuffle
-0.0553287913343135	-0.207751824028269	0.0997173991237362	shuffle
-0.0503345141890891	-0.202954767145499	0.104673349294652	shuffle
-0.07653822507843	-0.228042360754721	0.0785846758365422	shuffle
-0.0464318764731488	-0.199201135758479	0.108540686359471	shuffle
0.0651418573157617	-0.0899571812756516	0.217156072738974	shuffle
-0.0745328321298009	-0.226129467790507	0.0805888012972437	shuffle
-0.0673835630374343	-0.219300435666796	0.0877233602940983	shuffle
0.0783514123079811	-0.0767715546215798	0.229770907389471	shuffle
-0.0509764943570151	-0.203571806592534	0.104036726713701	shuffle
-0.0797277948861728	-0.231082402166417	0.0753945368256278	shuffle
0.101104126696042	-0.0539321207455899	0.25138061063909	shuffle
-0.122091354668676	-0.271181565534849	0.0327200881196536	shuffle
0.0106904262183611	-0.14374197686267	0.164614529761565	shuffle
-0.0340027315904379	-0.187216599097841	0.120826224997608	shuffle
0.161013335711265	0.00699145972273119	0.30757252777142	shuffle
-0.0484838213275747	-0.201175294478333	0.106507886660497	shuffle
0.0852240397608464	-0.0698898505569436	0.236314055638403	shuffle
0.0345498463697706	-0.120286427702416	0.187745104221931	shuffle
-0.0758220299048915	-0.227359334759461	0.0793005623107936	shuffle
0.0846433273810902	-0.0704719014805426	0.235761712548091	shuffle
-0.12064032859903	-0.269816605320011	0.0341911584745997	shuffle
-0.139030047228418	-0.287071325725801	0.0154976448354526	shuffle
-0.0176738277106759	-0.17140217502926	0.136894697624107	shuffle
-0.0468835765563745	-0.199635819035222	0.108093311971612	shuffle
-0.00624557467358951	-0.1602866689503	0.148092500844031	shuffle
0.000343154301757671	-0.153860443518739	0.154530434286852	shuffle
-0.0328255662879497	-0.186079173284499	0.121987335727822	shuffle
0.0711981900530017	-0.0839185612489281	0.222946047449974	shuffle
0.0579705614302058	-0.0970927879382071	0.210286311369239	shuffle
0.032777776859025	-0.1220344644399	0.186032988483275	shuffle
0.0467970608583968	-0.108179004014111	0.199552567280315	shuffle
-0.0746363488389287	-0.226228238355357	0.0804853807061917	shuffle
-0.167988780334423	-0.314049382306304	-0.0141601146670663	shuffle
0.0775452979558905	-0.0775777663132271	0.229002540831441	shuffle
0.044054508764348	-0.110894253090302	0.196912338871387	shuffle
-0.132862330135988	-0.281294962228111	0.0217793142431433	shuffle
0.0802214694379906	-0.074900490234195	0.231552669076346	shuffle
0.0420327196403938	-0.11289443453835	0.194964561347998	shuffle
0.0546225797814655	-0.100418658382729	0.207073945002322	shuffle
-0.0225474257262696	-0.176130527481744	0.132107329856879	shuffle
-0.0765137378100104	-0.228019010027996	0.0786091551921047	shuffle
-0.0429983445718424	-0.195894988166732	0.111939286245303	shuffle
0.00163638731443914	-0.152597573266037	0.155792533827068	shuffle
0.0408054860773774	-0.114107940055708	0.193781664488876	shuffle
-0.00958837334859425	-0.163542035758052	0.144821199048468	shuffle
0.0760732384380967	-0.0790494802724746	0.227598926038964	shuffle
-0.0873343044250952	-0.238320406677818	0.0677738321018897	shuffle
0.133644171012872	-0.0209837035936292	0.282027789610747	shuffle
-0.0799297716442315	-0.231274810719211	0.0751924170601373	shuffle
0.0656926868794201	-0.0894084337166157	0.217683119335439	shuffle
-0.141935290350448	-0.289788500506424	0.0125344934041925	shuffle
-0.0204098625444454	-0.174057541279163	0.134207961041797	shuffle
-0.0187970130435688	-0.172492514950054	0.135792025092689	shuffle
-0.011299164244423	-0.165206784431057	0.143145692230553	shuffle
0.0997721237071016	-0.0552736858658798	0.250119637736236	shuffle
0.00630103684023717	-0.148038252459284	0.160340707839381	shuffle
-0.0465222816386487	-0.199288139920559	0.108451151981226	shuffle
-0.0300598959690422	-0.183405251031106	0.124713620685869	shuffle
-0.0227808252574474	-0.176356793421118	0.131877878763053	shuffle
0.168353248885389	0.0145351137231843	0.314387426090043	shuffle
0.0183726768668006	-0.136208656610903	0.172080631938794	shuffle
-0.0162941805428987	-0.17006235743534	0.138248624178938	shuffle
0.0332061540347707	-0.12161198491022	0.186446957848849	shuffle
-0.0448273910251577	-0.197656609584223	0.110129299145307	shuffle
-0.0828930840170516	-0.234096382268329	0.072225540470033	shuffle
0.0821986629955141	-0.0729210430881573	0.2334354051442	shuffle
-0.0137390185274731	-0.167579459037869	0.140754625964599	shuffle
-0.0107658099157185	-0.164687878247315	0.143668141427	shuffle
-0.0184860333696583	-0.1721906669836	0.136097363670679	shuffle
0.189404476315413	0.0362682450154838	0.333849747665613	shuffle
0.0483286480887921	-0.106661657392588	0.201026046963643	shuffle
-0.147331801737511	-0.294829356173094	0.00702320737464091	shuffle
0.0433736480610354	-0.11156797737203	0.196256537148137	shuffle
-0.0290211350925554	-0.182400363377647	0.125736985388925	shuffle
-0.0809493831667621	-0.232245939681864	0.0741718889901087	shuffle
0.150254258766212	-0.00403467533462565	0.297555786990198	shuffle
-0.0422789225403125	-0.195201816021532	0.112650930032559	shuffle
-0.0536682264074999	-0.206157646731084	0.101366074698606	shuffle
0.104768142673728	-0.0502389121050963	0.254846610516236	shuffle
0.0250840548858625	-0.129612723966567	0.178588757471314	shuffle
0.0756821887605689	-0.079440324511339	0.227225952683487	shuffle
0.0162331496438556	-0.138308503947129	0.170003075327707	shuffle
0.0366240796671166	-0.118239104718514	0.189747978855387	shuffle
0.0117456391895848	-0.142708279857704	0.165641099214926	shuffle
0.0921773928879118	-0.0629122567327622	0.242920144084673	shuffle
-0.00996536303298769	-0.163908954915116	0.144452060611173	shuffle
0.0383842109674763	-0.11650077541451	0.191446558414464	shuffle
-0.0604593981551247	-0.212672204438959	0.0946181422073924	shuffle
-0.110405902523319	-0.260172165172474	0.044547942218256	shuffle
0.0397217078505807	-0.115179210717938	0.19273667032084	shuffle
0.0108074957016107	-0.143627311062823	0.164728437867992	shuffle
-0.0183816772002892	-0.172089368693763	0.136199820263735	shuffle
0.0857398670000732	-0.069372745745275	0.236804601520135	shuffle
-0.0788163685175184	-0.230214005347263	0.0763064500072974	shuffle
0.114521554232806	-0.0403870859657322	0.264054156837567	shuffle
0.0240569172751241	-0.130623081408123	0.177593596257599	shuffle
-0.0694139757451068	-0.22124141478316	0.0856987419146792	shuffle
-0.0251851836688456	-0.178686720977365	0.129513229933212	shuffle
0.059099843752319	-0.0959701821782155	0.211369109036673	shuffle
-0.00275942333409511	-0.156888125549024	0.151500495321976	shuffle
0.00721464780328762	-0.147144502067816	0.16123074072854	shuffle
-0.00660433607506029	-0.160636207437393	0.147741574458703	shuffle
-0.0174022038778245	-0.171138437758263	0.137161303268102	shuffle
-0.0272154530293822	-0.18065280032439	0.127515120701901	shuffle
0.0129221105760119	-0.141555399537453	0.166785242481594	shuffle
0.156083349272659	0.00193444970959111	0.302986720479885	shuffle
0.0375959367441816	-0.11727940296556	0.190685963457853	shuffle
-0.00106369347021573	-0.155233689181083	0.153156883444794	shuffle
0.0844475887195214	-0.0706680675215691	0.23557551421878	shuffle
-0.105048899184567	-0.255112035003468	0.0499557437267863	shuffle
0.0457032516712685	-0.109262201230378	0.198499833570954	shuffle
0.102378106199978	-0.0526484717781204	0.252586177110236	shuffle
0.00909231492407859	-0.145306861000918	0.163059163640182	shuffle
-0.0113656044343404	-0.165271418841178	0.143080604468203	shuffle
0.0180219613936292	-0.136552962886847	0.171740168483541	shuffle
0.0453666032871166	-0.109595509450792	0.198175756269708	shuffle
-0.0249698706898612	-0.178478143521497	0.129725058627738	shuffle
0.0315971600304035	-0.123198536935239	0.184891798206854	shuffle
0.0557411464326312	-0.0993078644213161	0.208147568150426	shuffle
-0.121813836641348	-0.270920554520675	0.0330014916299273	shuffle
-0.0262216086446954	-0.179690531009117	0.12849337921417	shuffle
-0.00305794286097002	-0.157179286171505	0.15120881188181	shuffle
-0.0770696959369598	-0.228549121214054	0.0780533306243644	shuffle
-0.0215357910293085	-0.175149624598061	0.133101659091039	shuffle
-0.0821893318699859	-0.233426522461742	0.07293038772023	shuffle
-0.0855984169169453	-0.236670091751964	0.0695145544594004	shuffle
0.0413752469505471	-0.113544610108191	0.194330896730338	shuffle
0.0574910031806383	-0.0975693916140929	0.209826380111152	shuffle
-0.0628673671010488	-0.214978848359401	0.0922220776562377	shuffle
0.0353785256305052	-0.119468657363019	0.188545427749168	shuffle
-0.0331332995047548	-0.186376557509298	0.121683840380861	shuffle
-0.15339859894445	-0.30048653722611	0.000816162679294143	shuffle
0.0678946503797766	-0.0872138521322761	0.219789124418476	shuffle
-0.119585549619402	-0.268824012843848	0.0352600870925272	shuffle
-0.0703199660747127	-0.222107111016315	0.0847949235443893	shuffle
0.0309387582986138	-0.123847527320596	0.184255204108908	shuffle
-0.0123103859840236	-0.16619037910607	0.14215490988865	shuffle
0.157580998148405	0.00346985295784387	0.30438053319152	shuffle
-0.00642908164374079	-0.160465463213272	0.147913006351349	shuffle
0.0164575087801942	-0.138088370990062	0.170221000158566	shuffle
-0.0367062416195581	-0.189827288006036	0.118157981585548	shuffle
0.0566122869662047	-0.098442509514946	0.208983452340131	shuffle
0.0263357792910834	-0.12838101434395	0.179801089314962	shuffle
0.11015641658565	-0.0447999956988707	0.259936687684318	shuffle
-0.0295166857815364	-0.182879794497729	0.125248820669271	shuffle
0.104943070755979	-0.0500624842116934	0.255011988487313	shuffle
-0.0614509488618636	-0.213622237142294	0.0936317110294184	shuffle
-0.00233560836478817	-0.156474712159271	0.151914558802896	shuffle
-0.0746502576850747	-0.226241509256359	0.0804714845202508	shuffle
0.122346563897099	-0.0324612840838142	0.271421575344936	shuffle
-0.0286208676424303	-0.182013062810434	0.126131232318564	shuffle
-0.059717696355068	-0.211961370827316	0.0953558154507466	shuffle
-0.00644338460280164	-0.160479398428365	0.147899015706948	shuffle
-0.0125967340518442	-0.166468848387815	0.141874293409759	shuffle
-0.132783715445442	-0.281221266300995	0.0218593026586935	shuffle
0.0337571203059993	-0.121068521534456	0.186979313226563	shuffle
-0.000413054076007556	-0.154598664151276	0.153792197740723	shuffle
-0.0306520806920184	-0.183977981657597	0.124130065716225	shuffle
-0.184048584180872	-0.328909760893159	-0.0307250888434602	shuffle
0.112702768344103	-0.0422265113591486	0.262339227033656	shuffle
-0.0411451747330475	-0.19410912561777	0.113772097477451	shuffle
0.0671601972671304	-0.0879460104171114	0.219086835043985	shuffle
0.0113686694937662	-0.143077601767554	0.165274400563367	shuffle
0.0465864850211069	-0.108387565482257	0.199349926536881	shuffle
-0.144965100603174	-0.292619642110543	0.0094413992437074	shuffle
-0.0101031626382084	-0.164043062849264	0.144317120115248	shuffle
0.0088817391873864	-0.145513000963308	0.162854163158533	shuffle
-0.114133420800855	-0.263688265889247	0.0407797120644884	shuffle
-0.0744730348374134	-0.226072410727558	0.0806485415443107	shuffle
-0.0240618615967735	-0.177598387407058	0.130618218630435	shuffle
-0.0458764673765571	-0.198666568059108	0.109090690560719	shuffle
-0.00632834431396844	-0.160367314205813	0.148011542264643	shuffle
-0.0988634059699573	-0.249259085308427	0.0561886059513724	shuffle
-0.102262433432067	-0.252476735247115	0.0527650436487447	shuffle
-0.151319391072057	-0.298548877613633	0.00294477529927079	shuffle
0.0142571160704922	-0.140246656356058	0.168083061833347	shuffle
-0.00908273301567114	-0.163049835713439	0.145316241357707	shuffle
-0.0105755742457252	-0.164502775293651	0.143854466652585	shuffle
-0.0781060297637393	-0.229537035318464	0.0770169882737114	shuffle
-0.0492340860269762	-0.201896808233336	0.105764298504764	shuffle
0.00847423001027341	-0.145911887896907	0.162457405534315	shuffle
-0.0496627542008123	-0.202308975014829	0.105339367185197	shuffle
-0.0332852731111995	-0.18652340992376	0.121533948961281	shuffle
-0.00158909826370969	-0.155746392083793	0.152643760929821	shuffle
0.0768164091799822	-0.0783065684934857	0.228307621101833	shuffle
0.0357961836651012	-0.119056417824987	0.188948717274624	shuffle
-0.165487501138435	-0.311728451688373	-0.0115877335841192	shuffle
0.0873305011673369	-0.0677776469851081	0.238316791858917	shuffle
0.115985223781003	-0.0389060438863196	0.26543356186401	shuffle
-0.0972013547850422	-0.24768451411127	0.05786132784665	shuffle
-0.037330695300114	-0.190429994299595	0.117541355654578	shuffle
0.016362981412935	-0.138181119637827	0.170129185537163	shuffle
-0.166670697793847	-0.312826554407932	-0.0128043102007888	shuffle
-0.0055515207260615	-0.159610347820454	0.148771286991273	shuffle
0.0199793378895807	-0.134630879202208	0.173639858190684	shuffle
0.0411709544833806	-0.113746608169236	0.19413397600143	shuffle
-0.105200053787264	-0.255254925736418	0.0498032802944443	shuffle
0.0401344215162803	-0.114771302534415	0.193134655550359	shuffle
0.0491496855133602	-0.105847956599317	0.201815650308436	shuffle
-0.11308180873308	-0.262696701488696	0.0418432562489551	shuffle
-0.0288752425551605	-0.182259202621259	0.125880689182575	shuffle
0.0335443729556537	-0.121278382755381	0.186773762858437	shuffle
0.118889150718132	-0.0359656339131726	0.268168497693956	shuffle
0.126280243039553	-0.0284695684633436	0.275118633722941	shuffle
-0.048444780892634	-0.201137745579004	0.106546574933164	shuffle
-0.0853354049721275	-0.236419969216456	0.0697782165779185	shuffle
-0.0165493230145609	-0.170310176952678	0.137998281827142	shuffle
-0.0274832445805829	-0.18091203373956	0.127251477269853	shuffle
-0.0421481349520196	-0.195075784127053	0.112780286500501	shuffle
0.108592680100997	-0.0463793758892877	0.258460347976794	shuffle
-0.023243326525657	-0.176805110922999	0.131423152698942	shuffle
-0.0824505685881697	-0.233675194908038	0.0726687625764877	shuffle
0.189444505613176	0.0363097094094345	0.333886638689139	shuffle
0.00371767502100951	-0.150564092262058	0.15782266003085	shuffle
0.145980233836182	-0.00840440157542834	0.293567633110559	shuffle
0.00108172600663965	-0.153139273829238	0.155251287149479	shuffle
-0.0532161498718549	-0.205723503507229	0.101814767022384	shuffle
0.0690391005798101	-0.0860726437233977	0.220883142262785	shuffle
-0.0250792672758377	-0.178584119635477	0.129617434107516	shuffle
-0.116138863864757	-0.265578321302314	0.0387505407467364	shuffle
-0.112547046655159	-0.262192353403943	0.0423839513753035	shuffle
0.19920592823677	0.0464368562248787	0.342869580291374	shuffle
0.0947543000879497	-0.0603225095796686	0.245364809372813	shuffle
-0.0379793711245177	-0.191055956978666	0.116900684726454	shuffle
0.106626214939628	-0.0483644144675099	0.256602793726111	shuffle
0.0029557700906437	-0.151308647923176	0.157079635111938	shuffle
-0.0637844059813464	-0.215856853126311	0.0913090998967389	shuffle
-0.00730182731682182	-0.161315657259778	0.147059204534231	shuffle
-0.0692717166815258	-0.221105460979939	0.0858406367494745	shuffle
-0.0458374999082398	-0.198629059408711	0.109129275260113	shuffle
0.0554644974366906	-0.0995826270128727	0.207882068965443	shuffle
0.0285522549955687	-0.126198808038215	0.181946668128888	shuffle
-0.091959757954647	-0.242713590033192	0.0631308804723608	shuffle
0.0239928680815786	-0.130686073601119	0.177531530612735	shuffle
0.0873829216374946	-0.0677250658811605	0.238366614699424	shuffle
-0.0666741419989809	-0.2186219789056	0.088430454850858	shuffle
0.132667560117668	-0.0219774840787133	0.28111237537436	shuffle
-0.0215224481279733	-0.175136684994343	0.133114771663273	shuffle
-0.0351486256533385	-0.188323414875302	0.119695551946016	shuffle
0.0572308332748208	-0.0978279288493786	0.209576830027111	shuffle
-0.044501798731415	-0.197343091961536	0.110451573854897	shuffle
0.107640330414025	-0.0473408734579316	0.25756088170003	shuffle
-0.0283387937014618	-0.181740098217285	0.126409034156478	shuffle
-0.016580559242446	-0.170340515319756	0.137967631904803	shuffle
0.0953197427909932	-0.0597539699959516	0.245900978493423	shuffle
-0.0894469474760246	-0.240327728866875	0.0656540300789828	shuffle
-0.0935822807277297	-0.244253173223725	0.0615006276519263	shuffle
-0.134899466726772	-0.28320402895389	0.0197058898475753	shuffle
-0.0367558178734505	-0.18987514192202	0.118109031151937	shuffle
0.0565563617508634	-0.0984980703510348	0.208929797187954	shuffle
-0.0920347333914781	-0.24278474963934	0.06305556607144	shuffle
-0.0514457232312939	-0.204022729409941	0.103571333380405	shuffle
-0.0284625789115261	-0.181859888795899	0.126287126702962	shuffle
0.0293816793104954	-0.125381822354449	0.182749186826535	shuffle
-0.0672859614965741	-0.219207102880161	0.0878206510333225	shuffle
-0.0818950540396593	-0.233146374331594	0.0732250775364789	shuffle
0.0116878241727466	-0.142764924742868	0.16558486220836	shuffle
0.153251999854918	-0.000966290965350958	0.300349958078129	shuffle
0.164517221492553	0.0105904206221513	0.31082766165069	shuffle
-0.0796724858660799	-0.231029711224742	0.0754498827835659	shuffle
-0.05768990604172	-0.2100171506114	0.0973717228313132	shuffle
-0.0177267549852186	-0.171453563002633	0.136842745562087	shuffle
0.0056631329925801	-0.148662139783587	0.159719118194736	shuffle
-0.0442733935217278	-0.197123138555468	0.110677632311522	shuffle
0.0734531036869528	-0.0816673281135765	0.225099058026387	shuffle
-0.0542135512417104	-0.206681259336455	0.10082474818422	shuffle
0.0109312037351489	-0.143506138509949	0.164848800794117	shuffle
-0.0423449313866774	-0.195265422738793	0.112585641482323	shuffle
-0.0403399119707911	-0.193332793932646	0.114568185251882	shuffle
0.0319884154320736	-0.122812811498821	0.185270033488786	shuffle
0.0581986675791189	-0.0968660621972764	0.210505058105391	shuffle
0.0216099065856484	-0.133028821953777	0.175221498998847	shuffle
0.0908868017981182	-0.0642084939759149	0.24169506358564	shuffle
0.0844329030810242	-0.0706827847411277	0.235561543913099	shuffle
-0.0633965304782912	-0.215485517701607	0.0916952895065932	shuffle
-0.0607647484064221	-0.212964799797144	0.0943144009723895	shuffle
-0.125986192458537	-0.274842423172263	0.0287681281677942	shuffle
-0.0481979228821931	-0.200900308362696	0.106791195308244	shuffle
-0.0347409192015918	-0.187929656972739	0.120097888834662	shuffle
0.0434828285679481	-0.111459950825136	0.19636170849058	shuffle
0.0386068595770032	-0.116280817027378	0.191661355706068	shuffle
-0.0121987237124749	-0.166081782538531	0.142264330381876	shuffle
0.0438244857098914	-0.111121881095415	0.196690797080929	shuffle
-0.0702966468631405	-0.222084831931379	0.0848181900529993	shuffle
-0.125492505361294	-0.274378632781718	0.0292693236309484	shuffle
0.0447469725740822	-0.110208901212215	0.197579176378761	shuffle
0.0267029213036914	-0.128019652292766	0.180156588736877	shuffle
-0.0638260877542573	-0.215896754856437	0.0912675965166825	shuffle
-0.0585458337702986	-0.210837950469371	0.0965209660306144	shuffle
0.1677026564532	0.0138657541918025	0.313783977081022	shuffle
-0.0503618640777231	-0.202981056971987	0.104646230242542	shuffle
0.0274012648644205	-0.12733218943389	0.180832676211785	shuffle
-0.118657521370011	-0.267950436057658	0.0362002717452936	shuffle
-0.0539433339657514	-0.206421811736605	0.101092995702136	shuffle
0.0440791047731869	-0.110869912218227	0.196936027068024	shuffle
0.0134531692480969	-0.141034852557129	0.167301572553965	shuffle
-0.00559811754732136	-0.159655758639656	0.148725719760578	shuffle
0.0849583805989473	-0.0701561351711534	0.236061386724514	shuffle
0.0348450762095288	-0.119995108429129	0.188030255219795	shuffle
-0.0720616211029434	-0.223770633648629	0.0830567265359634	shuffle
0.0321989561935101	-0.122605227142797	0.185473549122965	shuffle
-0.0536609524323775	-0.206150661780648	0.101373294720576	shuffle
0.0669066418522397	-0.0881987346790977	0.218844346964273	shuffle
-0.101567323367843	-0.251818987482107	0.0534654677021806	shuffle
0.0397040884790255	-0.115196623773535	0.192719678607978	shuffle
-0.0281812653328643	-0.181587646810382	0.126564166143688	shuffle
0.0236751184134359	-0.130998560997677	0.17722360331855	shuffle
0.0373087017294055	-0.117563075557225	0.19040876864342	shuffle
-0.0376495271716046	-0.190737677948224	0.117226474394016	shuffle
-0.110533843187173	-0.260292915153407	0.0444186772214986	shuffle
0.079617663465016	-0.0755047408543072	0.2309774829916	shuffle
0.00267576559207772	-0.151582232485589	0.156806525275462	shuffle
0.0579291201185087	-0.0971339767360832	0.210246568796942	shuffle
-0.108141396274236	-0.258034156062683	0.0468350303629472	shuffle
-0.042569804091575	-0.195482102441376	0.112363212572277	shuffle
0.0552556012388337	-0.0997900831300686	0.207681577048355	shuffle
-0.120785037217774	-0.269952757640368	0.0340444809816977	shuffle
-0.0462667499319167	-0.199042214989495	0.108704215903354	shuffle
-0.0951565788311503	-0.245746271167104	0.0599180379186186	shuffle
-0.0970088517069379	-0.247502091809306	0.0580550105904428	shuffle
0.00717313428665547	-0.147185118608224	0.161190304007055	shuffle
0.137114465993656	-0.0174499243995826	0.285278443752248	shuffle
0.147883052808019	-0.00645970376610706	0.295343815466124	shuffle
0.0998470432258286	-0.0551982433729213	0.250190575653166	shuffle
-0.074259730392968	-0.225868872551505	0.0808616334230901	shuffle
0.05627529634163	-0.0987772898493825	0.208660126627087	shuffle
-0.0783852051438542	-0.229803113691613	0.0767377532745842	shuffle
0.0379498426094431	-0.11692985164956	0.191027465098226	shuffle
0.296296797594378	0.148904429979639	0.43080958940837	shuffle
0.0517677264342344	-0.103251922997468	0.204332132826617	shuffle
-0.125288173274732	-0.274186654369943	0.029476740587217	shuffle
0.0260070835462948	-0.128704500539632	0.179482782962885	shuffle
-0.00525409045599804	-0.159320472507895	0.149062129881981	shuffle
-0.060820519373437	-0.213018238187273	0.0942589207671907	shuffle
-0.000548249126571203	-0.154730625210915	0.153660197554482	shuffle
-0.044377979475477	-0.197223856367474	0.110574122917759	shuffle
0.0129029225831967	-0.141574206127187	0.166766585076746	shuffle
0.0814355912108478	-0.0736851294533935	0.232708922326803	shuffle
-0.0572236909013482	-0.209569978916799	0.0978350261064387	shuffle
-0.0594665826039671	-0.211720671435075	0.0956055266889257	shuffle
0.178313688050154	0.0248001145531496	0.323611397351865	shuffle
-0.0449787367000482	-0.197802331923554	0.109979484495519	shuffle
0.11759167999709	-0.0372797366482564	0.26694682927677	shuffle
-0.126270521972173	-0.275109502824802	0.0284794390399124	shuffle
-0.0219704555286057	-0.175571122067409	0.13267446828971	shuffle
0.0207747530113284	-0.133849473342671	0.174411504617408	shuffle
-0.0887536532259559	-0.239669139396559	0.0663498280078581	shuffle
-0.0582510287721673	-0.210555268716559	0.0968140156022607	shuffle
-0.0263602269477151	-0.179824762947775	0.128356952846467	shuffle
-0.0277542689880098	-0.181174374989683	0.126984628794864	shuffle
0.0395795718601284	-0.11531967963786	0.192599595055779	shuffle
0.125847392736363	-0.0289090467243912	0.274712035884249	shuffle
-0.0539750382981904	-0.206452253583627	0.101061523646733	shuffle
-0.0224296291365876	-0.176016325048409	0.13222312737996	shuffle
0.0947509812258757	-0.0603258463218635	0.245361662059808	shuffle
0.00264196114108726	-0.151615260270097	0.156773551610108	shuffle
-0.0774667447824525	-0.228927655962266	0.0776563181256549	shuffle
0.101459914446312	-0.0535736841394963	0.251717339427547	shuffle
0.0809482952409998	-0.0741729780670032	0.232244903647736	shuffle
-0.0600423546370925	-0.212272537287298	0.0950329415098438	shuffle
-0.0744889793748646	-0.22608762470335	0.0806326123265664	shuffle
-0.00431960104895491	-0.158409546962007	0.149975748855038	shuffle
-0.0206651895133188	-0.174305226314634	0.133957118570952	shuffle
0.0517205347849366	-0.103298736651823	0.204286789663662	shuffle
-0.0641984306818544	-0.216253174144326	0.090896823265406	shuffle
0.0765261777016005	-0.0785967193437395	0.228030872561511	shuffle
0.0343257431566126	-0.120507544678404	0.187528634419075	shuffle
-0.0195789386679461	-0.173251352341594	0.135024153637241	shuffle
-0.0898951274338021	-0.240753400014361	0.0652041513365289	shuffle
0.0412769055169461	-0.113641848669144	0.194236105411406	shuffle
-0.0435608834099453	-0.196436894962286	0.111382718722329	shuffle
0.00327132055965686	-0.151000304059957	0.157387387406486	shuffle
0.0647021798387838	-0.090395129303412	0.216735315437532	shuffle
0.0811673551007315	-0.0739536789565837	0.232453507915587	shuffle
0.0798118178089709	-0.0753104559596605	0.231162446125918	shuffle
-0.0300892409493907	-0.183433634439535	0.124684705863613	shuffle
0.144766972893058	-0.00964375559674423	0.292434584966757	shuffle
-0.0551168174665996	-0.207548369723431	0.0999279027076786	shuffle
-0.145661286930027	-0.293269813039418	0.00873025389541856	shuffle
0.0121877881661819	-0.142275046178625	0.166071147028589	shuffle
-0.0461570647569524	-0.198936647552269	0.108812835638164	shuffle
0.0824566852196413	-0.0726626365945849	0.233681017120952	shuffle
-0.0231933279596448	-0.176756648760645	0.131472313866731	shuffle
0.0430308018830953	-0.111907176108718	0.195926257591188	shuffle
-0.065538732449565	-0.21753582106433	0.0895618157170324	shuffle
-0.0893214122047789	-0.240208487912313	0.0657800298769036	shuffle
-0.0980049541920797	-0.248445916340418	0.0570526778636809	shuffle
-0.0887270811557848	-0.239643894701523	0.0663764930359673	shuffle
0.0368453225349268	-0.118020654436434	0.18996153524298	shuffle
0.0292572277990335	-0.125504420889233	0.182628785416637	shuffle
0.0307423385434001	-0.124041113764981	0.184065265269871	shuffle
-0.118752530376565	-0.268039881752682	0.0361040307934129	shuffle
-0.0281459536978693	-0.181553472217804	0.126598939566149	shuffle
-0.0743009608289915	-0.225908216260025	0.0808204451802455	shuffle
-0.015852121239332	-0.16963293981967	0.138682320061129	shuffle
0.165329489109375	0.0114252982498949	0.311581774101003	shuffle
-0.0436115539035086	-0.196485702447117	0.111332581320597	shuffle
0.0539532773463839	-0.101083125203588	0.206431359197665	shuffle
0.0643759033662546	-0.0907200836151949	0.216423042760436	shuffle
-0.0371886805658505	-0.190292935545967	0.117681600675698	shuffle
0.0186946843574551	-0.135892500803085	0.172393194262852	shuffle
-0.0134425356351281	-0.167291234685928	0.141045276528201	shuffle
-0.00127899391760639	-0.155443794690036	0.152946626087431	shuffle
-0.00544909646487229	-0.159510528213286	0.148871445810641	shuffle
2.68325601646019e-05	-0.154169261937166	0.154221651102777	shuffle
-0.055061524778998	-0.207495297167154	0.0999828095943301	shuffle
0.0172178067353725	-0.137342280954599	0.170959382005982	shuffle
0.0906567619432589	-0.0644394852801224	0.241476650092481	shuffle
0.0135916690776671	-0.140899080125861	0.167436217298808	shuffle
-0.0748554047433631	-0.226437240474003	0.0802665171884464	shuffle
-0.0481873452414102	-0.200890133993476	0.106801676649199	shuffle
-0.0484683611683493	-0.201160425026489	0.106523207418261	shuffle
0.0474303335554927	-0.107551706992735	0.200161897749736	shuffle
0.0678806724191689	-0.0872277879825826	0.219775760061001	shuffle
-0.0954165831182091	-0.245992796050314	0.0596565891905766	shuffle
0.106834860440703	-0.0481538563366253	0.2567999361381	shuffle
-0.102186154791794	-0.2524045633789	0.0528419128769016	shuffle
0.0406965835867027	-0.114215602018521	0.193676674865944	shuffle
0.0234159647388037	-0.131253400058927	0.176972438420541	shuffle
-0.0259535926119058	-0.179430979725813	0.128757140573223	shuffle
0.0138738847977252	-0.14062240393336	0.167710559902115	shuffle
-0.028102094461126	-0.181511024742187	0.126642129780047	shuffle
0.014968431434811	-0.13954911349539	0.168774346050648	shuffle
-0.174715365928319	-0.320282315876472	-0.0210880274145148	shuffle
0.0512031166129289	-0.103811965374389	0.20378959570262	shuffle
-0.0716080010902818	-0.223337448597527	0.0835095368136221	shuffle
0.129765923485006	-0.0249283320115945	0.278390967324888	shuffle
-0.00847710783486775	-0.162460207606169	0.145909071138471	shuffle
0.114750162285249	-0.0401558093738136	0.264269644074495	shuffle
-0.0929113989458562	-0.243616677447637	0.0621748060098784	shuffle
-0.00979007363546392	-0.16373835332224	0.144623704750092	shuffle
-0.0199733772157416	-0.173634074922105	0.134636734167764	shuffle
-0.0336332806963146	-0.186859664590998	0.121190682820093	shuffle
0.0255018233668597	-0.129201688578047	0.17899343034035	shuffle
-0.102602112411024	-0.252798105928688	0.0524227123948096	shuffle
-0.100004911098544	-0.250340048345417	0.0550392677110621	shuffle
-0.0226283968259536	-0.176209025630198	0.132027730428835	shuffle
0.10771022734396	-0.0472703148910876	0.257626906131131	shuffle
-0.0251966414738951	-0.178697819967292	0.129501957147445	shuffle
-0.0650357197211602	-0.21705450762308	0.0900629068756673	shuffle
-0.0107181211017263	-0.16464147713536	0.143714850988122	shuffle
-0.0257045910303243	-0.179189823212365	0.12900216971629	shuffle
-0.0147565858279846	-0.168568481986957	0.139756873379023	shuffle
-0.022644160822086	-0.176224307948455	0.132012233246963	shuffle
0.15519506418592	0.00102411501262469	0.302159725635938	shuffle
0.0139492187213906	-0.140548544636041	0.167783788167841	shuffle
-0.0806847698627232	-0.231993937728942	0.0744367713815927	shuffle
-0.13779130754008	-0.285912049861401	0.0167602506747998	shuffle
-0.000411857534329819	-0.154597496207423	0.153793365981733	shuffle
-0.0355054172986695	-0.188667959481563	0.119343417573238	shuffle
0.0537002752672864	-0.101334263359877	0.206188421973941	shuffle
0.0955303323860548	-0.0595422013038209	0.24610064208876	shuffle
0.0768885034519818	-0.0782344901747001	0.228376362380403	shuffle
-0.0328803358239792	-0.186132102988645	0.121933322554198	shuffle
0.059378415110789	-0.0956931971225298	0.211636156102512	shuffle
-0.0328136871576046	-0.186067693083471	0.12199905068743	shuffle
0.0782574008974016	-0.0768655878342683	0.229681307958946	shuffle
0.111034167854882	-0.0439131237944663	0.260765074966539	shuffle
-0.178090622233774	-0.323405126736347	-0.0245698731125403	shuffle
-0.0192270487526928	-0.172909875399338	0.135369741738577	shuffle
-0.0140039098460276	-0.167836949557689	0.140494922987227	shuffle
0.0498953115041312	-0.10510881348072	0.202532557503037	shuffle
-0.0479334914922013	-0.200645948511634	0.107053208957392	shuffle
0.13430060331124	-0.0203155589400031	0.28264293657541	shuffle
0.0124052259434234	-0.142061971010911	0.166282612289155	shuffle
0.0342591681334758	-0.120573229611133	0.187464324209163	shuffle
-0.110783125088307	-0.260528173143052	0.0441668000617868	shuffle
-0.153064754501835	-0.300175502036246	0.00115803391526886	shuffle
0.0376629749947107	-0.117213192516968	0.190750654895874	shuffle
-0.0888169221039211	-0.239729246933984	0.0662863369025711	shuffle
-0.0966741156298081	-0.247184859390239	0.0583917701477006	shuffle
-0.10651550972108	-0.256498186864103	0.0484761289150983	shuffle
-0.0603460530590418	-0.212563586973537	0.0947308826939872	shuffle
0.112176800911705	-0.0427582517407143	0.261843117071678	shuffle
-0.00452373183665169	-0.15860855283013	0.149776199516589	shuffle
-0.107772193597845	-0.257685438098656	0.0472077607778701	shuffle
0.216643872126577	0.0646066324080631	0.358851707748844	shuffle
-0.0988126106550774	-0.249210975317832	0.0562397402801658	shuffle
-0.0446082754531665	-0.197445623408035	0.110346185650599	shuffle
0.0452191720668221	-0.109741466913458	0.198033819887663	shuffle
0.0540137436010126	-0.101023101491864	0.206489417218067	shuffle
0.0608093740058172	-0.0942700081054748	0.213007559038701	shuffle
0.123264693871086	-0.0315300498671189	0.272284871227046	shuffle
0.133175205867639	-0.0214609516535891	0.281588244604001	shuffle
-0.023474322487503	-0.177028998954381	0.131196015683481	shuffle
-0.0202403134527276	-0.173893056048067	0.134374521269432	shuffle
0.0637250802323809	-0.0913681708096372	0.215800060039798	shuffle
0.0417153360788703	-0.113208312106977	0.194658686659698	shuffle
-0.0394313676792108	-0.192456661296976	0.115466138978989	shuffle
-0.00230018210050335	-0.156440152906291	0.151949167498352	shuffle
-0.038782482609402	-0.191830775353016	0.116107305296845	shuffle
-0.0172481537594169	-0.17098885067279	0.137312497394379	shuffle
-0.0529119669016514	-0.205431353307165	0.102116637405749	shuffle
0.0248211122424188	-0.129871401556468	0.178334030547689	shuffle
-0.163481337230315	-0.309865675298632	-0.00952601309690049	shuffle
-0.000503006389751355	-0.154686465334765	0.153704371749481	shuffle
-0.103698709028242	-0.253835371124124	0.0513173046189593	shuffle
0.161708351884011	0.00770501750288215	0.308218475402159	shuffle
0.0706557443088165	-0.0844598854365748	0.22242789467641	shuffle
0.118546342700485	-0.0363128883787317	0.267845764256334	shuffle
0.0365035654086624	-0.118358091508144	0.189631645440423	shuffle
-0.0859050089512077	-0.236961633376661	0.0692071771630752	shuffle
0.0770204205291577	-0.0781025980897444	0.228502140287363	shuffle
-0.0256486256111487	-0.179135618506358	0.129057239692954	shuffle
-0.0233938463945069	-0.176951000978947	0.131275149211259	shuffle
-0.124558533963738	-0.273501031318338	0.0302172867528607	shuffle
-0.0800887974566352	-0.231426294703114	0.0750332696820526	shuffle
-0.0606185788239024	-0.212824739321865	0.09445980392964	shuffle
-0.127510299325441	-0.27627379626914	0.0272203504638921	shuffle
-0.0407086677736223	-0.193688325040726	0.114203655664224	shuffle
0.0164805245151207	-0.138065787931394	0.170243354983907	shuffle
-0.0857859606537217	-0.236848432315951	0.0693265338720323	shuffle
-0.0433584850342381	-0.196241930637308	0.111582979846871	shuffle
0.0403483511079076	-0.11455984329994	0.193340930866126	shuffle
-0.00562862650731032	-0.159685490719463	0.148695884563165	shuffle
0.0903306954301988	-0.0647668719385499	0.24116703700786	shuffle
-0.02517299576223	-0.178674914707012	0.129525220987061	shuffle
0.0377307878245881	-0.117146215652892	0.190816092444664	shuffle
0.0723470626326221	-0.0827717616969151	0.224043185706733	shuffle
-0.157499493164859	-0.304304695346273	-0.00338627460695387	shuffle
0.120737496737358	-0.0340926690232852	0.269908028780625	shuffle
-0.0659431345717374	-0.217922724229502	0.0891589015136027	shuffle
0.0309462638622554	-0.123840129789305	0.18426246179757	shuffle
0.0817852573414959	-0.0733350210107689	0.233041843071831	shuffle
0.0047806456682676	-0.149525033913277	0.158858998775367	shuffle
-0.0876846943065531	-0.238653417952494	0.0674223517216831	shuffle
0.0614737372937459	-0.0936090366779255	0.213644067998782	shuffle
-0.0664148171112909	-0.218373936165384	0.0886888902967662	shuffle
0.0310160897208624	-0.12377130815411	0.184329980821108	shuffle
0.0249912052072112	-0.129704069984679	0.178498811258111	shuffle
0.112880910923257	-0.0420463936108467	0.262507239103607	shuffle
-0.0140497572781709	-0.167881513927628	0.140449971395607	shuffle
0.00558398376279772	-0.148739541318126	0.1596419846631	shuffle
0.08721574629349	-0.067892750498505	0.238207720742504	shuffle
-0.0274932056591607	-0.180921676068756	0.12724167006763	shuffle
0.0128616549847819	-0.141614653064548	0.166726458240064	shuffle
0.06384979063844	-0.0912439948376087	0.215919445269521	shuffle
0.146212175846781	-0.00816741727211678	0.293784193442145	shuffle
0.0516435112680049	-0.103375141751785	0.204212781734375	shuffle
-0.0221046623992716	-0.175701252113265	0.132542557386189	shuffle
0.0453477903185928	-0.109614134732373	0.19815764482701	shuffle
-0.0216042930703975	-0.175216055286119	0.13303433869998	shuffle
-0.131658456933541	-0.280166221037974	0.0230040071702929	shuffle
-0.0713659738763695	-0.223106299856955	0.0837511057933257	shuffle
-0.0356185312474983	-0.188777182870149	0.119231771989737	shuffle
0.0156554740227691	-0.138875227817391	0.169441897408267	shuffle
-0.00160711282868585	-0.155763969666145	0.152626166013013	shuffle
0.0769206703580543	-0.0782023298633809	0.228407032765968	shuffle
0.0345403951062919	-0.120295753335506	0.187735975188235	shuffle
0.0677727924391484	-0.0873353409187883	0.219672613867645	shuffle
-0.0150272879145478	-0.168831538312935	0.139491389725897	shuffle
-0.0270654180929773	-0.180507550916049	0.127662822024997	shuffle
0.0108521710757754	-0.143583551875145	0.164771905733633	shuffle
-0.020094966795669	-0.173752043580929	0.134517298755929	shuffle
-0.088399496185502	-0.239332657069119	0.0667052058075319	shuffle
-0.0116177718759448	-0.165516720586586	0.142833557879155	shuffle
0.00968054603744232	-0.144730949932305	0.163631750171387	shuffle
-0.123999478183383	-0.272975598735987	0.0307845845080883	shuffle
-0.121420444652261	-0.270550524255807	0.0334003493796425	shuffle
0.0504367090430646	-0.104572015799571	0.203052999874994	shuffle
-0.0631344374845464	-0.215234576169072	0.0919562169078562	shuffle
-0.00659312858498036	-0.160625288650191	0.147752537775702	shuffle
-0.122160846564009	-0.271246920559427	0.0326496194372793	shuffle
-0.00584418757453248	-0.159895554775933	0.148485075960056	shuffle
0.0446875660930824	-0.11026770333969	0.197521973924757	shuffle
-0.0204927778928886	-0.17413797710373	0.134126504169934	shuffle
-0.0188390580086242	-0.172533323078125	0.135750740559371	shuffle
-0.0618609348301372	-0.214014972173759	0.0932237528880171	shuffle
-0.0800980128616286	-0.231435072840875	0.0750240469901947	shuffle
-0.122963115017858	-0.272001330226773	0.0318359627231032	shuffle
0.111515845400411	-0.0434263373782955	0.261219569696424	shuffle
0.0259708839513566	-0.128740124389101	0.179447725597745	shuffle
-0.000858776847901556	-0.155033703992515	0.153356987234211	shuffle
-0.040655749933426	-0.193637307463043	0.114255969590374	shuffle
0.0365635513061988	-0.118298866463168	0.189689550863108	shuffle
-0.0636115858898641	-0.215691407992036	0.0914811745915372	shuffle
-0.0637453295915884	-0.215819445053747	0.0913480085550339	shuffle
-0.115452990752222	-0.264932040658508	0.0394446728255084	shuffle
-0.0100531932169482	-0.163994432773512	0.144366053419056	shuffle
0.0671899723174371	-0.0879163316590848	0.219115309224181	shuffle
0.0607260867049548	-0.0943528605458447	0.212927754556563	shuffle
-0.16756265249652	-0.313654102700961	-0.0137217296827721	shuffle
-0.178888086749775	-0.324142484531403	-0.025393065592224	shuffle
0.184037605773295	0.0307137362629867	0.3288996268522	shuffle
-0.00717089547050098	-0.161188123247565	0.147187309035825	shuffle
0.143345489062763	-0.0110952074107913	0.291106552600978	shuffle
-0.104405328785723	-0.254503576280455	0.0506048058753202	shuffle
-0.0845108246642402	-0.235635669247108	0.0706046948182152	shuffle
-0.097153732455332	-0.247639386605336	0.0579092430943645	shuffle
0.0447881347033475	-0.110168157196974	0.197618810750363	shuffle
0.032276703804882	-0.122528567835835	0.185548699200508	shuffle
-0.0121249484857308	-0.16601003077368	0.142336622395385	shuffle
0.0211197413544551	-0.133510501321796	0.174746125314669	shuffle
-0.0842309828292506	-0.23536945279975	0.070885132369341	shuffle
-0.043582602786244	-0.196457815872176	0.111361227946847	shuffle
-0.0155395093125804	-0.169329232486728	0.138988981835966	shuffle
0.0749982894944668	-0.0801237498658706	0.226573559867808	shuffle
0.0395786004785186	-0.115320639605111	0.192598658239484	shuffle
0.00774786036489379	-0.146622764261056	0.161750076624488	shuffle
-0.0140446967944711	-0.167876595094841	0.140454933030747	shuffle
-0.0656760744395823	-0.217667225461077	0.0894249847425908	shuffle
-0.0375576038491884	-0.190648971887513	0.117317261899463	shuffle
-0.114986477215544	-0.264492380167211	0.0399167184934319	shuffle
0.0507518612720846	-0.104259499591943	0.203355914216278	shuffle
-0.0719419934749823	-0.223656400900551	0.0831761468412938	shuffle
-0.0462895576195326	-0.199064165998738	0.10868162929621	shuffle
-0.0144416956672525	-0.168262458074325	0.140065665327635	shuffle
-0.00482488126560046	-0.15890211872673	0.149481786040127	shuffle
0.101197277546728	-0.0538382802433229	0.251468775068078	shuffle
-0.0290862188890602	-0.182463334250352	0.125672875913131	shuffle
-0.0219318652135129	-0.175533703023218	0.132712397400284	shuffle
-0.0379809002690053	-0.191057432433641	0.116899174299857	shuffle
-0.0540125519505885	-0.206488273038757	0.101024284431691	shuffle
0.160769711646838	0.00674137338907608	0.3073460717277	shuffle
0.109048941513228	-0.0459186300528047	0.258891181415056	shuffle
-0.0206623745114328	-0.174302495671711	0.133959884238884	shuffle
-0.0422819163827732	-0.195204700942869	0.112647968888214	shuffle
-0.113829402225893	-0.263401639428383	0.0410872162630831	shuffle
0.0648409000868362	-0.0902569611813912	0.216868072383447	shuffle
0.00773497784197367	-0.146635370564149	0.161737530370105	shuffle
-0.00228295885399317	-0.156423351039772	0.151965993129404	shuffle
0.0960998338286193	-0.0589694412836388	0.2466405321419	shuffle
-0.0216787308141385	-0.175288240608318	0.132961183378495	shuffle
0.0403013983582165	-0.114606255064022	0.193295659216843	shuffle
0.00436343760377028	-0.1499328972144	0.158452284009277	shuffle
0.0079201304551976	-0.146454183070665	0.161917845217523	shuffle
-0.0640824894825141	-0.216142195638071	0.0910122803045494	shuffle
0.0644109792327006	-0.0906851514699945	0.21645661466225	shuffle
0.0354990063848435	-0.11934974514785	0.188661768957987	shuffle
-0.0213009403154356	-0.174921864641766	0.133332447833624	shuffle
0.00294173397390379	-0.151322362782875	0.157065945173289	shuffle
-0.0467069994144306	-0.199465901205602	0.108268205599618	shuffle
-0.0974113751185599	-0.247883524175524	0.0576500071858084	shuffle
-0.0433332833029874	-0.196217653714153	0.111607914576264	shuffle
0.0070985455378885	-0.147258094421367	0.16111764867353	shuffle
-0.0561941546936727	-0.20858227028264	0.0988578940541755	shuffle
-0.0227314401243499	-0.17630891904226	0.131926429826558	shuffle
-0.0570945805532265	-0.209446131058305	0.0979633181805782	shuffle
-0.0545876283909969	-0.207040392025826	0.100453360677256	shuffle
-0.0311001869073492	-0.18441129777021	0.123688418462047	shuffle
-0.102968719314798	-0.253144915968212	0.0520532020713071	shuffle
-0.0817003712374567	-0.232961025391572	0.0734200180063004	shuffle
0.129988292799993	-0.0247022866846257	0.278599609142273	shuffle
-0.0736282213086039	-0.225266199862177	0.0814924300594136	shuffle
0.0939166518327224	-0.06116456066625	0.244570357686745	shuffle
-0.0205290969303364	-0.17417320940075	0.13409082332435	shuffle
-0.00821580808559135	-0.162205775903488	0.146164816019113	shuffle
-0.00262502791430692	-0.156757034408871	0.151631804321886	shuffle
-0.00316550857210581	-0.157284193678283	0.15110370283733	shuffle
0.00944874025301939	-0.144957913215464	0.163406121871651	shuffle
-0.0582266906549779	-0.210531930315844	0.0968382075959523	shuffle
-0.0641659165468166	-0.216222052125616	0.0909292020449707	shuffle
0.0280545581602293	-0.126688940306096	0.181465017915874	shuffle
-0.0494546925581037	-0.202108929366905	0.105545622149666	shuffle
0.0486967953581864	-0.106296825487928	0.201380123958492	shuffle
-0.03993754627468	-0.192944812438821	0.114965891951097	shuffle
0.0257198396875935	-0.128987164870974	0.179204591974148	shuffle
-0.07047412803018	-0.222254392767493	0.0846411057495203	shuffle
0.0338783230001784	-0.120948956886557	0.187096409783393	shuffle
-0.0169219989229417	-0.170672121577916	0.137632581761143	shuffle
-0.0749222119777721	-0.226500978747261	0.0801997656511638	shuffle
-0.0357132950112257	-0.18886868431222	0.119138235367497	shuffle
0.0299864873690886	-0.124785952062736	0.18333424675335	shuffle
0.00504254855141338	-0.149268970385045	0.15911428776252	shuffle
-0.122055207944781	-0.271147570091395	0.0327567423180372	shuffle
0.0495391530248688	-0.105461896693217	0.202190137359654	shuffle
-0.0402040167585433	-0.193201762199766	0.114702512485456	shuffle
-0.0887111671624071	-0.239628775574432	0.0663924625957152	shuffle
0.136942731445497	-0.0176248914568642	0.285117658701889	shuffle
-0.103037552668578	-0.253210027999995	0.0519838188439666	shuffle
0.0890206547355423	-0.0660818801405654	0.239922791846318	shuffle
0.00975875234872676	-0.144654373711451	0.163707868698171	shuffle
-0.0891986187149926	-0.240091846861207	0.0659032729626457	shuffle
-0.0990923875039205	-0.249475952383218	0.0559580860691172	shuffle
-0.0263892804125357	-0.179852896335663	0.128328358054262	shuffle
-0.0208575834001259	-0.174491849011138	0.133768090750482	shuffle
-0.0819201779434465	-0.233170292895649	0.0731999195170041	shuffle
-0.0561757329828485	-0.208564594170198	0.0988761934650711	shuffle
0.00614526840333799	-0.148190609566588	0.160188934407836	shuffle
0.0061150041782546	-0.148220210155051	0.160159445526635	shuffle
-0.00587324821985271	-0.159923873280122	0.148456654940376	shuffle
-0.102851901286568	-0.253034410332626	0.0521709498723563	shuffle
-0.0101385188593001	-0.16407747095487	0.14428249655022	shuffle
0.062036702276077	-0.0930488388539618	0.214183328807889	shuffle
-0.084972598945491	-0.236074910337393	0.0701418839096643	shuffle
-0.0766197378974699	-0.228120089016703	0.0785031880098938	shuffle
-0.034522213770847	-0.187718413649743	0.120313692919724	shuffle
0.0113887950896934	-0.143057885557191	0.165293978885803	shuffle
-0.104735760280275	-0.254815995060281	0.0502715710799177	shuffle
0.083180653861061	-0.0719374785432946	0.23437006158659	shuffle
-0.0551139265815105	-0.207545594936402	0.099930773445209	shuffle
0.0836119455357932	-0.0715054003385511	0.234780475601926	shuffle
0.0387725046033022	-0.116117163602833	0.19182115003607	shuffle
-0.00743389447614482	-0.161444291911505	0.146929983989492	shuffle
0.0349457181064997	-0.119895793523555	0.188127455404504	shuffle
0.0146077720463011	-0.139902808955219	0.168423861996208	shuffle
0.0232264999891918	-0.13143969750202	0.176788801531531	shuffle
-0.0228722772846348	-0.176445445895602	0.131787969317326	shuffle
-0.0349554048159	-0.188136810693299	0.119886234372611	shuffle
-0.0794652525261873	-0.230832279476698	0.0756572460240433	shuffle
0.0294413556248222	-0.125323032892761	0.182806919426345	shuffle
0.0747728404677747	-0.0803490107080473	0.226358467205929	shuffle
0.0688263002589676	-0.08628487207252	0.220679748305353	shuffle
0.0328371648732863	-0.121975897394444	0.18609038232151	shuffle
0.0722268058591766	-0.0828918207325222	0.223928362171767	shuffle
-0.0931950572066674	-0.243885812662149	0.061889771178366	shuffle
0.0723564860484006	-0.0827623535857856	0.224052183191719	shuffle
-0.0608094957258806	-0.21300767566732	0.0942698870193653	shuffle
0.0619667435237697	-0.0931184590790819	0.214116320781112	shuffle
-0.0255321450768483	-0.179022799547112	0.129171853487683	shuffle
-0.115959364810871	-0.265409196921687	0.0389322156874554	shuffle
0.0382092478925576	-0.116673613782455	0.191277754821522	shuffle
0.0678410199762695	-0.0872673206373131	0.219737847966851	shuffle
-0.0120879492001885	-0.165974045668456	0.142372877208765	shuffle
0.046521482287122	-0.108451943644375	0.199287370650846	shuffle
-0.0128916087363456	-0.166755584029688	0.141585295034472	shuffle
0.0873771026030992	-0.0677309027895315	0.238361084059082	shuffle
-0.0580535940306519	-0.210365938828326	0.0970102596809893	shuffle
0.0348860295897008	-0.119954695404627	0.188069808454362	shuffle
0.0840426492664247	-0.0710738530454209	0.235190276354732	shuffle
0.121218085946063	-0.0336055004371198	0.270360165529536	shuffle
-0.0244137877119126	-0.177939392361744	0.130272077519694	shuffle
0.0886095804178853	-0.0664944021747823	0.239532261122195	shuffle
-0.0380235726878169	-0.191098606309975	0.116857023934906	shuffle
-0.136603844287168	-0.284800353936823	0.0179701296193268	shuffle
0.0579551874666886	-0.097108068285719	0.210271567665495	shuffle
0.0607540714667675	-0.0943250221379878	0.212954569308256	shuffle
-0.0600960004599419	-0.212323950779321	0.094979587386391	shuffle
0.0637331437470798	-0.0913601419961733	0.215807779377194	shuffle
-0.105469657399108	-0.255509773406437	0.0495313242823926	shuffle
-0.155956132800927	-0.302868295312948	-0.00180405970812972	shuffle
0.0909069030311063	-0.0641883088142414	0.241714148163473	shuffle
0.0664375642116455	-0.0886662220507403	0.218395694419642	shuffle
-0.148880104697242	-0.296274104630349	0.00544024157521612	shuffle
-0.032907381736071	-0.186158240039655	0.121906649805534	shuffle
-0.0353088511417988	-0.188478145213675	0.119537422732052	shuffle
-0.115902810776218	-0.265355909687572	0.0389894531485603	shuffle
-0.0329235401865225	-0.186173855391908	0.121890714193081	shuffle
0.0219632701967702	-0.132681530542746	0.17556415485423	shuffle
-0.0275820539105254	-0.181007679917034	0.127154192984292	shuffle
-0.170807109168013	-0.316662412447996	-0.0170609996933685	shuffle
0.041946685585993	-0.112979521268351	0.194881649975019	shuffle
-0.0216726066087674	-0.175282301778438	0.132967202138943	shuffle
-0.12109570123537	-0.270245032638691	0.0337295676054807	shuffle
-0.0941119194021166	-0.244755573611215	0.0609682864647005	shuffle
0.0611942661936202	-0.0938870976165986	0.213376329844145	shuffle
-0.029768192708623	-0.18312309235589	0.125001033672873	shuffle
-0.0215541554308814	-0.175167433837219	0.133083611612656	shuffle
0.0651078707576882	-0.0899910362884761	0.217123550702827	shuffle
-0.00158195384203815	-0.155739420938638	0.152650738895559	shuffle
0.116561937034069	-0.0383222985720539	0.265976905335917	shuffle
-0.0126289681406447	-0.166500194027878	0.141842702968861	shuffle
0.0132160165728226	-0.141267321625972	0.16707100759675	shuffle
0.0139000279850423	-0.140596772681548	0.167735972553739	shuffle
-0.0656592345987096	-0.217651113939563	0.089441762241504	shuffle
0.0201288142466552	-0.134484050171276	0.173784882274792	shuffle
0.0443844208584377	-0.110567747729556	0.197230059408548	shuffle
-0.00293329151774773	-0.157057710908116	0.151330611980451	shuffle
0.049422204112291	-0.105577827282206	0.202077691454186	shuffle
-0.0588971436424135	-0.211174780191254	0.0961717129344512	shuffle
0.0716284124509671	-0.0834891632644838	0.223356941742121	shuffle
0.0106511192750709	-0.143780475821655	0.164576283353199	shuffle
0.00285814742862218	-0.151404034978864	0.156984418928144	shuffle
0.0523406694042189	-0.102683514387944	0.204882581530143	shuffle
0.000181454110233268	-0.154018311857977	0.154372591486193	shuffle
0.016862293297122	-0.137691172636629	0.170614137979551	shuffle
0.011681585423339	-0.142771037164284	0.165578793680327	shuffle
-0.0416384604043867	-0.194584594153949	0.113284333918854	shuffle
-0.0816104312436536	-0.232875393764876	0.0735100730351218	shuffle
0.0819043339673843	-0.0732157850305554	0.233155209068549	shuffle
0.000390737748448317	-0.153813986170345	0.154576881121946	shuffle
-0.141586395987073	-0.289462317386284	0.0128904854486553	shuffle
0.0105767155229042	-0.143853348867905	0.16450388581055	shuffle
0.056123115042322	-0.0989284615027112	0.208514105334348	shuffle
-0.035762224054495	-0.188915927891291	0.119089938853902	shuffle
0.0216816194200475	-0.132958344503868	0.17529104177423	shuffle
-0.0780762332298908	-0.229508635298119	0.0770467897335545	shuffle
0.110401912608749	-0.0445519733495996	0.260168399428804	shuffle
-0.200396772565877	-0.343963658634977	-0.047674470021625	shuffle
-0.0165529251145278	-0.170313675527983	0.13799474735387	shuffle
-0.0785716944364848	-0.229980841567486	0.0765512105987466	shuffle
-0.01972003596563	-0.17338826397278	0.134885572612101	shuffle
0.0415859073393574	-0.113336302230058	0.194533942689576	shuffle
0.0425931864651964	-0.112340083414438	0.195504632045783	shuffle
-0.0124450881916776	-0.166321378077813	0.14202290699467	shuffle
-0.0117080747144961	-0.16560456014319	0.142745084171709	shuffle
0.0084029213218018	-0.145981682647269	0.162387973105374	shuffle
-0.0050969657740819	-0.159167328188934	0.149215763845102	shuffle
0.0918292477328593	-0.0632619765175359	0.242589718182293	shuffle
-0.0818336814492148	-0.233087945371559	0.073286532634479	shuffle
-0.0571082702775638	-0.209459263026255	0.0979497154630554	shuffle
-0.0207069626194754	-0.174345747301674	0.133916077270923	shuffle
0.0296606010814402	-0.125107036321684	0.183019014768423	shuffle
-0.146999649004183	-0.294519330795898	0.00736269547165368	shuffle
-0.135647572198702	-0.283904807916121	0.0189441242668184	shuffle
0.0128673715231314	-0.141609050237938	0.166732016786345	shuffle
-0.0361917511188745	-0.189330628561785	0.118665933041412	shuffle
0.0272159010924801	-0.127514679597609	0.180653234086004	shuffle
-0.0505768599497271	-0.203187712094633	0.104433040934026	shuffle
-0.168734326112543	-0.314740834782647	-0.0149272476044882	shuffle
-0.118980892546021	-0.268254861506334	0.0358726957894515	shuffle
-0.123754082340237	-0.272744933620705	0.0310335666519321	shuffle
-0.0326197844984069	-0.185880296218292	0.122190267494716	shuffle
-0.113572031017455	-0.263158971116214	0.0413475153392067	shuffle
-0.137239285289162	-0.285395299552334	0.017322749726226	shuffle
-0.16910857634173	-0.315087872762895	-0.0153124024616448	shuffle
-0.095685156497202	-0.246247425324704	0.0593865014243211	shuffle
0.00532718286542212	-0.148990658771564	0.159391710776089	shuffle
0.220119956200612	0.0682406907846829	0.362027652296915	shuffle
0.00043324329494435	-0.15377248597327	0.154618370774817	shuffle
0.0135479863359418	-0.140941903275612	0.167393751067483	shuffle
-0.0434284506279807	-0.196309327776279	0.111513754486815	shuffle
-0.0108631198658898	-0.164782558503114	0.143572827526739	shuffle
-0.0351269989362894	-0.188302529293322	0.119716895112974	shuffle
0.194267808599884	0.0413097957201229	0.338328560966477	shuffle
0.107889690027852	-0.0470891463489852	0.257796419634536	shuffle
-0.0782240018264819	-0.229649475697234	0.0768989939864119	shuffle
