cor	ci95_lower	ci95_upper	type
0.0538439574642899	-0.101191642125983	0.206326390553929	real
-0.00920248765283659	-0.163166414111517	0.145199003717097	shuffle
-0.0654045494657066	-0.217407433781609	0.0896954937851147	shuffle
0.0662280254014444	-0.0888750284044315	0.218195258820083	shuffle
-0.098996406191131	-0.249385050878111	0.0560547142177992	shuffle
-0.076442181284982	-0.227950773698423	0.0786806875222262	shuffle
0.0503435217433645	-0.104664417790734	0.202963425597706	shuffle
0.025128115316367	-0.129569376157098	0.178631439207993	shuffle
-0.113081653822899	-0.262696555400694	0.0418434128909658	shuffle
0.0643008407601018	-0.090794837374582	0.216351197441259	shuffle
0.0305952457629249	-0.12418607704992	0.183923018351629	shuffle
0.125203725595772	-0.0295624593087261	0.274107308831085	shuffle
-0.0607515350797167	-0.212952138974025	0.0943275452703042	shuffle
-0.0297116475486474	-0.183068394440483	0.125056744180168	shuffle
-0.0844447485546151	-0.235572812402281	0.0706709137994392	shuffle
0.158611513226405	0.00452676856778171	0.305339234842857	shuffle
-0.0312928295608013	-0.18459756378276	0.123498533692002	shuffle
0.0626254622965747	-0.0924628677240325	0.214747199332773	shuffle
-0.0127201989795983	-0.166588908640622	0.141753292115063	shuffle
0.0668896954546522	-0.0882156248146486	0.218828139583884	shuffle
-0.0078027968886739	-0.161803578598244	0.146569005092538	shuffle
-0.0235770205611328	-0.177128531823076	0.131095028036871	shuffle
0.0058866439681537	-0.148443553947037	0.159936926846863	shuffle
-0.0516053944212518	-0.204176156574948	0.103412951884093	shuffle
-0.0250500193946396	-0.17855578658829	0.129646208572517	shuffle
-0.00631147948102795	-0.160350882396425	0.148028038250354	shuffle
0.0523345928925263	-0.102689543340391	0.204876744094071	shuffle
-0.0940327240952597	-0.244680456308114	0.0610478914803451	shuffle
-0.0801297793577846	-0.231465331840779	0.0749922551720184	shuffle
-0.00670453071195257	-0.160733819403867	0.147643561036726	shuffle
-0.151582371978253	-0.298794022379868	0.00267562281990864	shuffle
0.100069388138101	-0.0549743359627837	0.250401094529968	shuffle
-0.0190952567802844	-0.17278197384715	0.135499163835201	shuffle
0.0317003557195031	-0.123096804344936	0.184991564179863	shuffle
-0.0177455010451144	-0.17147176366416	0.136824344704164	shuffle
-0.0395376773764536	-0.19255919107782	0.115361081571574	shuffle
0.0918345725183757	-0.0632566279352957	0.242594772220076	shuffle
-0.0268998899635802	-0.180347294721795	0.127825767600986	shuffle
-0.0053000146593184	-0.159365231935482	0.149017224534478	shuffle
-0.00728023831145434	-0.161294628868428	0.14708032770275	shuffle
0.073186930602843	-0.0819331491667412	0.224844990783199	shuffle
0.0114070147311174	-0.143040036425564	0.165311702977569	shuffle
0.0294668184622409	-0.125297948129007	0.182831552592918	shuffle
-0.0187109358191378	-0.172408968214083	0.135876543836528	shuffle
-0.00949860635170696	-0.163454660428495	0.144909090208191	shuffle
0.116387680630173	-0.0384986908893735	0.265812741764239	shuffle
-0.0830468664095884	-0.234242739469826	0.0720714981477877	shuffle
-0.100488349558393	-0.250797733688835	0.0545523879721231	shuffle
-0.103825726886444	-0.253955494362586	0.0511892416209079	shuffle
0.00263143452846495	-0.151625544960591	0.156763283631678	shuffle
-0.0640542785242624	-0.216115191614183	0.0910403728256613	shuffle
0.175392924971543	0.0217866847027328	0.320909452165387	shuffle
0.0587811739591034	-0.0962870078845679	0.211063594498762	shuffle
-0.11843293750981	-0.2677389926127	0.0364277562787321	shuffle
-0.00479625381294947	-0.15887421334121	0.149509774345867	shuffle
0.0179065713927005	-0.136666236013416	0.171628143502633	shuffle
-0.0660219593297155	-0.217998132584626	0.0890803608640319	shuffle
0.0908461707502085	-0.0642492942831415	0.241656487168062	shuffle
0.0932977508589248	-0.0617865729248216	0.243983242770036	shuffle
0.055850829329349	-0.0991989228807566	0.208252824269858	shuffle
0.136995889169217	-0.0175707341724731	0.285167428072216	shuffle
-0.0587657626410216	-0.211048818632988	0.0963023292235041	shuffle
-0.0263456345468217	-0.179810632570252	0.128371314777281	shuffle
0.0134948713147155	-0.14099397231702	0.167342114464885	shuffle
0.11218393521515	-0.0427510397192735	0.261849846912987	shuffle
0.0992638881122155	-0.0557854224545558	0.249638369729608	shuffle
0.0180047936181863	-0.136569815968739	0.171723501608999	shuffle
0.0901749975503352	-0.0649231884156281	0.241019184864677	shuffle
0.111540668846934	-0.0434012486504987	0.261242990467207	shuffle
-0.0731821813165443	-0.224840457312334	0.0819378919714043	shuffle
-0.0200874703767169	-0.17374477053187	0.134524662492901	shuffle
0.163518672656755	0.00956437050147438	0.30990035249768	shuffle
-0.0951505257053935	-0.245740531621534	0.0599241244187904	shuffle
0.193800958688715	0.0408254997498424	0.337898905512451	shuffle
0.0384917848468892	-0.116394503227578	0.191550340717791	shuffle
-0.0152896794889416	-0.169086497940151	0.139234035176893	shuffle
0.0656457433771884	-0.0894552034543207	0.217638206150598	shuffle
0.0254974007780955	-0.129206040167247	0.17898914665658	shuffle
0.0943314752505526	-0.0607475844501709	0.244963814415114	shuffle
0.0993682583403163	-0.0556803399156697	0.249737208010449	shuffle
-0.0881864422573704	-0.239130218435095	0.0669189751644852	shuffle
-0.0623576522424478	-0.214490723369123	0.0927294225107377	shuffle
-0.0441434199752468	-0.196997967621773	0.110806263285365	shuffle
-0.0439720549420262	-0.196832927028892	0.110975850255089	shuffle
0.0326447521708581	-0.122165646307787	0.185904426804416	shuffle
-0.142080980380551	-0.28992469669401	0.0123858279597526	shuffle
0.146924526439301	-0.00743947213283413	0.294449208441388	shuffle
-0.0323565333101068	-0.185625859750643	0.122449853855083	shuffle
0.032357135220808	-0.122449260347986	0.185626441530369	shuffle
-0.139514323963583	-0.28752441875331	0.0150039037678208	shuffle
-0.00674434019812795	-0.160772601903102	0.147604617352619	shuffle
0.0257343750958757	-0.128972861804503	0.179218669869438	shuffle
0.0769258392958078	-0.0781971619552374	0.22841196119805	shuffle
0.0570777064728746	-0.0979800849358087	0.209429944397997	shuffle
-0.000899549418275248	-0.155073496355045	0.153317173288347	shuffle
-0.0815978744248901	-0.232863438264834	0.0735226457130625	shuffle
-0.00988238588541149	-0.163828197992241	0.144533313352562	shuffle
-0.00886893573210382	-0.162841698261944	0.145525534281719	shuffle
0.0157282820576004	-0.138803805673561	0.169512631628414	shuffle
-0.156354353928028	-0.303238982210042	-0.00221223229795116	shuffle
-0.00791393699897225	-0.161911813753449	0.146460244058917	shuffle
0.0366317030770385	-0.118231577782627	0.18975533765174	shuffle
-0.113624522933788	-0.26320846585303	0.0412944279792892	shuffle
0.00830891946323899	-0.146073686426071	0.162296442274273	shuffle
0.159034330549488	0.00496051757453749	0.305732501287653	shuffle
-0.0449159089969313	-0.197741839439864	0.110041677483288	shuffle
-0.0137410327795984	-0.167581417093	0.1407526512452	shuffle
-0.0497663761612186	-0.202408599978277	0.105236640038591	shuffle
-0.0617502801694772	-0.213908978363989	0.0933338653718529	shuffle
0.0938520833472015	-0.0612294593730274	0.244509110526821	shuffle
-0.0256289056274773	-0.179116518705827	0.129076643931009	shuffle
0.0965424641044141	-0.0585242078379121	0.247060083203462	shuffle
-0.0389834629873803	-0.19202464547772	0.115908729460757	shuffle
-0.0626644576810606	-0.214784542629048	0.0924240532629234	shuffle
0.0462923550321516	-0.108678858988577	0.199066858327332	shuffle
-0.00712104171592481	-0.161139561903872	0.147236084886273	shuffle
-0.0638386770178887	-0.215908806388848	0.0912550610276056	shuffle
-0.0312510884069212	-0.184557205232301	0.123539678239079	shuffle
-0.0655783423066364	-0.217573719066428	0.0895223538392109	shuffle
-0.0793616311264006	-0.230733554421845	0.0757609273455811	shuffle
-0.0115957602406434	-0.165495309014799	0.142855123283147	shuffle
0.105764480210085	-0.0492339027115208	0.255788436113227	shuffle
0.0814723086241034	-0.0736483673908768	0.232743883022331	shuffle
-0.135771917104169	-0.284021271188927	0.0188174914752329	shuffle
0.0140299184437519	-0.140469422665297	0.167862230369598	shuffle
-0.0524809162900968	-0.205017307496087	0.102544362012092	shuffle
-0.0227732810262268	-0.176349480024576	0.131885295627148	shuffle
-0.00657852829642535	-0.160611064405831	0.147766819916747	shuffle
0.0696550409238525	-0.0854582795736074	0.221471781906932	shuffle
-0.0259213029791361	-0.179399708454201	0.128788916140439	shuffle
-0.00535531961520897	-0.159419133350908	0.148963145707186	shuffle
-0.148479440283712	-0.295900302366961	0.00584995010459316	shuffle
-0.103572767474645	-0.25371626119499	0.05144427742308	shuffle
-0.0344503071686963	-0.187648957365069	0.12038464241263	shuffle
0.035357067077473	-0.119489836081031	0.188524706030115	shuffle
0.00304723806745557	-0.151219272000343	0.157168845728572	shuffle
-0.096686083222449	-0.24719620174261	0.0583797308192324	shuffle
-0.0132090927812068	-0.167064275884049	0.141274108421387	shuffle
0.0511701042911099	-0.103844707599592	0.203757871054916	shuffle
0.170816628227715	0.0170708019789849	0.316671234350556	shuffle
0.0462299570735653	-0.108740651782308	0.199006803782663	shuffle
0.0914235087243374	-0.0636695025915654	0.242204585590094	shuffle
0.00834246562891902	-0.14604085361568	0.162329106915785	shuffle
0.0757602689963878	-0.0793622891056823	0.227300427202637	shuffle
0.0264042158199824	-0.128313658334841	0.179867358664857	shuffle
-0.0669978126472271	-0.218931540443887	0.0881078650404398	shuffle
-0.0217278981748288	-0.175335919301625	0.132912862154862	shuffle
-0.0100702592267408	-0.164011041442017	0.144349341358412	shuffle
0.0867169136231676	-0.0683930507036782	0.237733550764337	shuffle
0.117000127778163	-0.0378786941334968	0.266389678026692	shuffle
-0.0990981373560572	-0.249481397840492	0.0559522973754473	shuffle
-0.101857073824862	-0.2520931806688	0.053173520696338	shuffle
0.058059016797078	-0.0970048697784782	0.210371139138471	shuffle
-0.0835052494496162	-0.23467894940085	0.071612296422058	shuffle
-0.0251526862267166	-0.178655241019687	0.129545202392939	shuffle
0.0271390956004842	-0.127590291340238	0.180578879235341	shuffle
0.0695872120903234	-0.0855259406128229	0.221406964912591	shuffle
-0.0688222084756744	-0.220675837260789	0.0862889527198425	shuffle
0.157835715510616	0.00373106383576226	0.304617527757621	shuffle
0.00340179426713104	-0.150872801364569	0.157514627980294	shuffle
-0.0393815393212025	-0.192408603471424	0.115515379184174	shuffle
-0.0992764213601132	-0.24965023884186	0.0557728038506357	shuffle
0.00314461375706141	-0.151124120713863	0.157263815495987	shuffle
-0.087385570155728	-0.238369131952618	0.0677224092241179	shuffle
-0.0819638156955257	-0.233211836656072	0.0731562220400897	shuffle
-0.0219922644633911	-0.175592268873749	0.132653032827805	shuffle
-0.0437502451465587	-0.196619290536334	0.111195345179872	shuffle
0.191418305748029	0.0383549267342659	0.335705145348278	shuffle
0.104516560214116	-0.0504926346399848	0.254608747681019	shuffle
0.131634715277133	-0.0230281547471926	0.280143956934712	shuffle
-0.0257596275018864	-0.179243127287374	0.128948012893521	shuffle
0.0292477345730912	-0.125513772575126	0.182619600945708	shuffle
-0.0494971999186312	-0.202149800080969	0.105503484980655	shuffle
-0.164745170753774	-0.311039309236627	-0.0108246933431358	shuffle
0.0989415100219179	-0.0561099790368268	0.249333058895397	shuffle
0.0866058661814313	-0.0685044142246491	0.237627983802406	shuffle
-0.0604038698472833	-0.212618992690135	0.0946733748111653	shuffle
0.131108896246334	-0.0235629176592715	0.279650821098742	shuffle
0.0301726164448191	-0.124602551106654	0.18351427650405	shuffle
-0.00425477112780388	-0.158346342045233	0.150039121123135	shuffle
0.017916985363092	-0.136656013257289	0.171638253942505	shuffle
-0.0092003975379335	-0.163164379469366	0.145201049939254	shuffle
-0.0709779147653398	-0.222735647342895	0.0841383921380198	shuffle
-0.063756818031629	-0.215830443055654	0.0913365694771082	shuffle
0.0220631075773165	-0.132583401887383	0.175660960182853	shuffle
-0.0922528186964683	-0.242991726398998	0.0628364847599954	shuffle
-0.0257802139921592	-0.179263065540053	0.128927755200287	shuffle
-0.0959478843699034	-0.246496492477805	0.0591222701548449	shuffle
-0.0371290196828865	-0.190235354907312	0.117740516253293	shuffle
0.016018547830163	-0.138519049089859	0.169794613919001	shuffle
0.0735503018742413	-0.0815702529758926	0.225191830394514	shuffle
0.113984696867552	-0.0409301448090518	0.263548053365979	shuffle
-0.0339254399388749	-0.187141929306514	0.120902475517431	shuffle
-0.0508413967956925	-0.203441967597494	0.104170707384345	shuffle
-0.0423891311040939	-0.195308013264424	0.112541923329503	shuffle
0.00366915115487362	-0.150611516414605	0.157775343789002	shuffle
0.0410548540340378	-0.113861398988458	0.1940220594545	shuffle
-0.189191360999144	-0.333653333020044	-0.036047498146804	shuffle
0.121208310527414	-0.0336154104165979	0.270350969503186	shuffle
-0.0183006936344339	-0.172010755895306	0.136279327421821	shuffle
-0.0696313634095025	-0.221449155910042	0.0854818986772923	shuffle
-0.0188916221938559	-0.172584340240307	0.135699126302966	shuffle
-0.00415592558142682	-0.158249971696551	0.150135741760027	shuffle
0.00746047593408481	-0.146903974839176	0.161470181868193	shuffle
0.00405276516873791	-0.150236576997201	0.158149391399541	shuffle
-0.00515844160430884	-0.159227247564941	0.149155654663588	shuffle
-0.0542665524989051	-0.206732145680677	0.100772130637103	shuffle
0.0956365281835966	-0.0594354056185683	0.246201323293218	shuffle
0.0814500413583162	-0.0736706617845037	0.232722681164211	shuffle
-0.00929634473680922	-0.163257778829203	0.145107116285464	shuffle
-0.0679532075094832	-0.219845110393399	0.0871554707531448	shuffle
-0.0748383886331791	-0.226421005834914	0.0802835188899975	shuffle
-0.0277956829745524	-0.181214460220087	0.12694385094035	shuffle
-0.00556740573755823	-0.159625828593149	0.148755753044254	shuffle
0.0454485780936317	-0.109514351192988	0.198254673060333	shuffle
-0.00799999244293622	-0.161995617354536	0.146376028162863	shuffle
0.0390861153555163	-0.115807300454662	0.192123661617715	shuffle
0.00121754318094261	-0.153006638856677	0.155383828107401	shuffle
0.00277627248907663	-0.151484032727399	0.15690456006332	shuffle
-0.113749039087295	-0.263325869243271	0.0411684958747231	shuffle
-0.0279766390258367	-0.181389604367407	0.126765668295806	shuffle
0.0132280585618194	-0.141255517868761	0.167082715484305	shuffle
0.0549741877420832	-0.100069535319341	0.207411465089312	shuffle
0.0429689790013501	-0.111968337432671	0.195866697062248	shuffle
-0.137632592864052	-0.285763485220816	0.0169219876088927	shuffle
-0.0629219421945314	-0.215031107325123	0.0921677515458803	shuffle
-0.153028446893799	-0.300141673186602	0.00119521231237499	shuffle
-0.102865709771165	-0.253047472864571	0.0521570317085237	shuffle
-0.0548908572419888	-0.207331476673023	0.10015228035494	shuffle
-0.0695212413822653	-0.221343922249573	0.0855917467507749	shuffle
0.0940729303039144	-0.0610074775155427	0.24471859240455	shuffle
-0.0172329818005771	-0.170974117881996	0.13732738768508	shuffle
-0.0573451678754475	-0.209686500071729	0.0977143143219557	shuffle
-0.0376390927763435	-0.190727608876393	0.117236779990728	shuffle
-0.124564684567314	-0.273506811512889	0.0302110449183718	shuffle
-0.0976546826426068	-0.24811406047997	0.0574051758645633	shuffle
-0.00793823672154871	-0.161935477841755	0.146436464001485	shuffle
-0.0325176688174145	-0.185781602225703	0.122290964095855	shuffle
-0.152663142578724	-0.299801287986444	0.00156925423625424	shuffle
0.0349223816496295	-0.119918822558745	0.188104917265889	shuffle
-0.0244628037468125	-0.177986884379423	0.130223864224541	shuffle
0.0716358865118615	-0.0834817030166689	0.223364079547991	shuffle
-0.062919045537578	-0.2150283336221	0.0921706350108738	shuffle
0.0289961496942413	-0.125761596406234	0.182376188787732	shuffle
-0.00387774256513782	-0.157978738921019	0.150407647350737	shuffle
0.00815544853427493	-0.146223889476675	0.16214699994139	shuffle
0.0448180241802116	-0.110138571003119	0.197647590547823	shuffle
0.0403966306731242	-0.114512119302608	0.193387481146173	shuffle
0.0365238692178419	-0.118338045352935	0.18965124517727	shuffle
-0.00642437489427631	-0.160460877465808	0.147917610312289	shuffle
0.00382631698060383	-0.150457909919021	0.157928595627927	shuffle
-0.0133006097352001	-0.167153252828517	0.141184401076546	shuffle
0.0273829212146201	-0.127350249177697	0.180814919025118	shuffle
-0.0307197700171975	-0.184043440664065	0.124063355990611	shuffle
0.148604268303151	-0.00572230992424695	0.296016766257406	shuffle
-0.0614270075928422	-0.213599301727451	0.093655532273585	shuffle
-0.0395659498030618	-0.192586457695909	0.115333141600581	shuffle
0.0620985585886935	-0.0929872805979398	0.214242574947491	shuffle
0.00105578507061054	-0.153164606336143	0.155225971335981	shuffle
0.0872569200274836	-0.0678514521485589	0.238246855598039	shuffle
-0.0204096796144522	-0.174057363817293	0.134208140751751	shuffle
-0.181873807861623	-0.326901598515904	-0.0284769624385339	shuffle
-0.0117329529673411	-0.165628759337727	0.142720709407172	shuffle
0.0549817823179099	-0.100061993994949	0.207418754972928	shuffle
-0.0151117979899525	-0.168913656982294	0.139408504235177	shuffle
0.139742910344264	-0.0147708238890552	0.287738262911717	shuffle
0.0389262818645498	-0.115965227725319	0.1919694885157	shuffle
-0.0151589604839573	-0.168959483977277	0.139362247430958	shuffle
0.0247301307843917	-0.129960902349052	0.178245887040169	shuffle
0.00792485697892017	-0.146449557631814	0.161922448109519	shuffle
-0.0459182254556072	-0.198706762351851	0.109049342143802	shuffle
-0.0399470149239252	-0.192953943142339	0.114956533509958	shuffle
-0.00762489923592989	-0.161630323081861	0.146743086881747	shuffle
0.0531211456468458	-0.101909052032712	0.205632260347362	shuffle
-0.0955339731032311	-0.246104093802587	0.0595385400794201	shuffle
-0.0437216563736148	-0.196591754153629	0.11122363449246	shuffle
0.174274350045136	0.0206333595114855	0.319874051058052	shuffle
0.152695911163042	-0.00153570363149439	0.299831822802047	shuffle
0.0110271808918835	-0.14341212528065	0.164942179537911	shuffle
0.0622287631381401	-0.0928576995686294	0.214367281550671	shuffle
-0.113407012811855	-0.263003369978927	0.0415143997366781	shuffle
0.030387247001066	-0.124391053289919	0.183721860992147	shuffle
-0.0171997244573919	-0.170941822966493	0.137360027359715	shuffle
-0.0421905733767154	-0.195116679960718	0.112738313026417	shuffle
-0.0464951965507945	-0.199262074014743	0.1084779764479	shuffle
0.00457277827443907	-0.149728251989058	0.158656366039836	shuffle
0.0100966103673209	-0.144323536567625	0.164036686243498	shuffle
-0.0433570418117993	-0.196240540380726	0.111584407784235	shuffle
-0.0532569208440596	-0.20576265960882	0.101774303846341	shuffle
0.0950219849796948	-0.06005337114223	0.24561864741281	shuffle
-0.103558752766867	-0.253703006425132	0.051458406577987	shuffle
-0.0540604568637799	-0.206534269262047	0.100976729343238	shuffle
-0.0178191372025235	-0.1715432564336	0.136752063497736	shuffle
-0.0368744132631607	-0.189989614215408	0.117991929783955	shuffle
-0.00530211187532417	-0.159367275944668	0.149015173831262	shuffle
-0.0317632002734626	-0.185052318542656	0.123034849201183	shuffle
-0.0946200553692266	-0.245237501112719	0.0604574747666609	shuffle
0.0472783391066214	-0.107702278449756	0.200015660550478	shuffle
-0.0307546895866844	-0.184077209124955	0.124028941229864	shuffle
0.00363018606682586	-0.150649597909013	0.157737347921512	shuffle
-0.0521041953946736	-0.204655403400201	0.102918129175342	shuffle
-0.0831933639246545	-0.234382157161254	0.071924746133374	shuffle
0.0265615427200359	-0.128158810000227	0.180019698213495	shuffle
0.0992047884184671	-0.0558449239714896	0.249582401114283	shuffle
-0.0429700559527685	-0.195867734613251	0.111967272015601	shuffle
0.120016053380154	-0.034823851002532	0.269229173724229	shuffle
-0.0277629015780252	-0.181182730647525	0.126976128847332	shuffle
0.0461129650462948	-0.108856505937981	0.19889420240821	shuffle
-0.0603301799946102	-0.212548375675278	0.0947466707702122	shuffle
-0.108066831757796	-0.257963731805038	0.0469103108226754	shuffle
-0.115764539259193	-0.265225621473666	0.0391293913253765	shuffle
0.086526230528753	-0.0685842741678986	0.237552276179502	shuffle
0.100041675766126	-0.0550022439302432	0.250374856893425	shuffle
0.0607438837327591	-0.0943351566205326	0.212944807538016	shuffle
-0.0285782723660175	-0.181971844629147	0.126173184031369	shuffle
-0.131342720804944	-0.279870121563332	0.0233251268066805	shuffle
-0.132516324590062	-0.280970592449279	0.0221313511243259	shuffle
-0.0191148885262196	-0.172801026404216	0.135479885440613	shuffle
0.0781653911304693	-0.0769576162671199	0.229593613749049	shuffle
0.0371070787348292	-0.117762182832882	0.190214178727122	shuffle
0.185354899848683	0.0320762096282892	0.330115367639231	shuffle
-0.0878735457483635	-0.238832888032571	0.0672328965601794	shuffle
-0.0281454226393609	-0.181552958256668	0.126599462527472	shuffle
-0.0158166884127343	-0.169598517747026	0.138717079960235	shuffle
-0.0146786242212058	-0.168492718278626	0.1398333279685	shuffle
-0.0638046516639692	-0.215876234269482	0.091288940930439	shuffle
-0.0239810692420714	-0.177520097039958	0.130697677588766	shuffle
0.0653454291484675	-0.0897543898657102	0.217350865350584	shuffle
0.00788990743522199	-0.146483759559586	0.161888412582955	shuffle
0.278647962446334	0.130039829622531	0.415011913524889	shuffle
0.0938134855679367	-0.0612682539259051	0.244472497596999	shuffle
0.0377527201438027	-0.117124553403838	0.190837256248999	shuffle
0.0018866816713186	-0.152353097176022	0.156036744442335	shuffle
0.102506507156728	-0.0525190678366843	0.252707657036339	shuffle
-0.0241193141456464	-0.177654059575936	0.130561713068981	shuffle
-0.0384450008992253	-0.191505206149527	0.116440721504173	shuffle
0.0893815307250128	-0.0657196895131967	0.240265592668568	shuffle
-0.0118112227300182	-0.165704891498412	0.142644022453048	shuffle
-0.100433604895137	-0.250745908687133	0.0546075260283334	shuffle
-0.064711241164146	-0.216743987406554	0.0903861042256538	shuffle
-0.109424434841806	-0.259245703348361	0.0455393966734959	shuffle
0.0442842660015735	-0.110666871904574	0.197133609063775	shuffle
-0.002331525921031	-0.156470729647205	0.151918547051126	shuffle
-0.106452757984436	-0.256438890337019	0.0485394509974579	shuffle
-0.0398442787879591	-0.192854872347547	0.115058072403617	shuffle
-0.0573833662120292	-0.20972313916076	0.0976763556557239	shuffle
-0.00333553097810773	-0.157450007332616	0.150937556416089	shuffle
-0.114226568616654	-0.263776079675051	0.0406854904201162	shuffle
0.0157361142675416	-0.138796122452899	0.169520240656613	shuffle
-0.12495945852298	-0.273877788416068	0.0298103900903657	shuffle
-0.0397793889405536	-0.192792295982898	0.115122204385021	shuffle
-0.0142203582143235	-0.168047334992992	0.140282698338768	shuffle
-0.0582149406410104	-0.210520662885227	0.0968498869984902	shuffle
0.0125839527088056	-0.141886819448769	0.166456419243117	shuffle
0.139152879452801	-0.0153724192050961	0.287186254767436	shuffle
-0.137122418471986	-0.285285888992294	0.0174418220047457	shuffle
-0.0839768403136268	-0.235127664729876	0.0711397946481918	shuffle
-0.0756835332679176	-0.227227235116978	0.0794389807920333	shuffle
-0.108437650556671	-0.258313944836012	0.0465359141541482	shuffle
-0.0418239578705503	-0.194763372986758	0.113100893691552	shuffle
0.0204192852612342	-0.13419870417533	0.174066682319643	shuffle
-0.0852536773947155	-0.236342242779224	0.069860141775273	shuffle
-0.0307997004591438	-0.184120735699423	0.123984580499983	shuffle
0.140675699189483	-0.0138195243939956	0.288610740450732	shuffle
0.0260816127286288	-0.128631155467914	0.179554959249144	shuffle
-0.043880012600687	-0.196744278048744	0.111066933851058	shuffle
0.15694075402466	0.0028133799280081	0.303784755889831	shuffle
0.158159325799903	0.00406295426331405	0.304918595588394	shuffle
0.0445486354229939	-0.110405216406689	0.197388193628069	shuffle
-0.00388717855309587	-0.157987939537336	0.150398424675936	shuffle
0.0266524948705105	-0.128069287290331	0.180107763771744	shuffle
0.0268335386646931	-0.127891081348445	0.180283054369999	shuffle
-0.0427492411517408	-0.195654991191087	0.112185714398518	shuffle
-0.118236564927665	-0.267554098016421	0.0366266520129172	shuffle
0.0898626160495042	-0.0652367880733022	0.240722523391849	shuffle
-0.132239524719374	-0.280711076484785	0.0224129483751733	shuffle
-0.0225092265157128	-0.176093494241212	0.132144881270359	shuffle
0.0331625358501844	-0.121655005150461	0.186404809183117	shuffle
-0.0186567478868952	-0.172356372158241	0.135929749509152	shuffle
0.0649340936551212	-0.0901641351836567	0.216957256591502	shuffle
-0.145785850059855	-0.293386128598369	0.00860299779261277	shuffle
-0.0881682233788893	-0.2391129066931	0.0669372545605503	shuffle
-0.0285121415115349	-0.181907850701267	0.126238314631089	shuffle
0.0212239675802815	-0.13340808560162	0.174847212337364	shuffle
0.0238863413102279	-0.130790839600819	0.177428300179143	shuffle
-0.0209706680834172	-0.174601536371818	0.133656979312786	shuffle
-0.02224130772834	-0.175833741029452	0.13240824411206	shuffle
0.00701907665471559	-0.147335842990064	0.16104023786672	shuffle
-0.0842840289539966	-0.235419917871888	0.0708319752056168	shuffle
-0.111094015518237	-0.260821548819803	0.0438526453647189	shuffle
0.0526000925582871	-0.102426111046575	0.205131787761662	shuffle
0.0198226827159212	-0.134784752622017	0.173487861964147	shuffle
-0.0779777155646789	-0.229414733154644	0.0771453217125449	shuffle
0.0527371905526948	-0.102290072082232	0.205263478406464	shuffle
-0.0356734696507447	-0.188830230296986	0.119177545345103	shuffle
-0.0301065847230275	-0.183450409774784	0.124667616202855	shuffle
0.0436105693598779	-0.1113335555136	0.196484754109549	shuffle
0.107345651128595	-0.0476383251422019	0.257282513134674	shuffle
-0.0816676258389745	-0.232929848857101	0.0734528055796339	shuffle
0.0712054050901932	-0.0839113605124684	0.222952938790088	shuffle
0.00767077872404756	-0.146698192413045	0.161675006279775	shuffle
-0.0896683315172605	-0.24053800165537	0.0654318147823162	shuffle
-0.0691258127590432	-0.220966017736313	0.0859861605750852	shuffle
-0.0497126197604599	-0.202356917510831	0.105289932645957	shuffle
0.0278783451218521	-0.126862456946051	0.181294468651387	shuffle
-0.016918178014303	-0.170668410903675	0.137636331362849	shuffle
0.0195362178528978	-0.135066111393556	0.173209897672689	shuffle
0.029635711649078	-0.125131557668589	0.182994937757803	shuffle
-0.0657994443609428	-0.217785257134646	0.0893020688584577	shuffle
-0.108577261671951	-0.258445787793093	0.0463949447086561	shuffle
-0.0168414936696815	-0.170593938004096	0.13771158366486	shuffle
-0.122537278778199	-0.271600919774148	0.0322678692907709	shuffle
-0.0657470037117642	-0.217735086148877	0.0893543170880638	shuffle
-0.0969956372904898	-0.247489568998603	0.0580683055571607	shuffle
-0.0334589767647286	-0.18669125174244	0.121362616569344	shuffle
-0.0850628416412118	-0.236160742250074	0.0700514308291417	shuffle
-0.0385177693275351	-0.191575408829661	0.116368832639063	shuffle
-0.120338813551407	-0.269532899022051	0.0344967544449488	shuffle
0.124645540094279	-0.030128988951977	0.273582796661139	shuffle
-0.0326396410860281	-0.185899487092988	0.122170686479733	shuffle
-0.0429258837844412	-0.195825178208818	0.112010970799518	shuffle
0.0177721259561035	-0.136798209898027	0.171497613768921	shuffle
0.0400557719918795	-0.114849040322476	0.193058816659743	shuffle
-0.0128200565357178	-0.166686009182635	0.141655423751166	shuffle
0.0137172989175096	-0.140775919216465	0.167558345321012	shuffle
0.0579540611789421	-0.0971091877123369	0.210270487547494	shuffle
-0.0833487997491063	-0.234530074398583	0.0717690329381702	shuffle
-0.0664543514271369	-0.218411751776105	0.0886494929262061	shuffle
0.00659849943169592	-0.147747283946198	0.16063052114959	shuffle
-0.163358519715845	-0.30975159946256	-0.00939983690988652	shuffle
-0.0342642710524404	-0.187469253578596	0.120568194964818	shuffle
-0.0268173873219702	-0.180267416679389	0.127906979925589	shuffle
-0.087554982854075	-0.238530144056302	0.0675524713559292	shuffle
0.0350029251213837	-0.119839339417577	0.188182704738691	shuffle
0.00944891994934515	-0.144957737279348	0.163406296785415	shuffle
0.00900224842605816	-0.14539503189033	0.16297148339198	shuffle
0.200858166609504	0.0481541110202412	0.344387455830903	shuffle
-0.0561193610079414	-0.208510503170198	0.098932190540524	shuffle
-0.0215018186979217	-0.175116678997387	0.133135044875462	shuffle
-0.0753196517274217	-0.226880134253626	0.0798026284857029	shuffle
0.189513609581732	0.0363812920752606	0.333950323904487	shuffle
0.055911682430813	-0.099138479487462	0.208311219831222	shuffle
0.0364720082784621	-0.118389247929928	0.189601182370143	shuffle
0.000720271415557978	-0.153492232456111	0.154898524614155	shuffle
-0.12588721098016	-0.274749441366563	0.028868621268064	shuffle
-0.0189540146479199	-0.172644895344047	0.13563786030297	shuffle
-0.101628990620513	-0.25187734571972	0.0534033351806104	shuffle
-0.0367084875912919	-0.189829455965778	0.118155763981863	shuffle
0.0971993611610254	-0.0578633337474849	0.247682624941703	shuffle
0.0568384108181309	-0.0982178491103686	0.209200388234547	shuffle
0.073856559880285	-0.0812643634343541	0.225484125277933	shuffle
0.0513874817163552	-0.103629102511208	0.203966763594074	shuffle
-0.0277352511882526	-0.181155967199898	0.127003354299916	shuffle
0.0773807404712334	-0.0777423187381761	0.228845665855378	shuffle
0.131913497659157	-0.0227445945300975	0.280405379322834	shuffle
-0.0224239979773134	-0.17601086560098	0.132228662869947	shuffle
0.0353430414740368	-0.11950367870432	0.18851116195773	shuffle
0.0792689184218849	-0.0758536908204702	0.230645219959949	shuffle
0.0915501356076284	-0.0635423235360238	0.242324786528228	shuffle
-0.0622344858823942	-0.21437276253566	0.0928520041087758	shuffle
0.0583024689674722	-0.0967628836456095	0.21060459537477	shuffle
0.113793063191497	-0.0411239699671177	0.263367377488864	shuffle
-0.0285066488781101	-0.18190253549621	0.126243724126301	shuffle
0.0223393848001566	-0.132311837369551	0.175928831409436	shuffle
0.0457542404664216	-0.109211715297833	0.198548915435401	shuffle
0.0142955967919213	-0.140208924622848	0.168120462781608	shuffle
0.0375275588925115	-0.117346935055282	0.19061997794434	shuffle
-0.0568358019785801	-0.20919788548395	0.0982204411559339	shuffle
-0.00412234596555702	-0.158217232281926	0.150168564863327	shuffle
-0.0141089800243593	-0.167939078366472	0.140391904895448	shuffle
-0.0447226461643536	-0.197555752623732	0.110232980275863	shuffle
0.129249955149784	-0.025452768949526	0.27790679716069	shuffle
-0.0594574063060068	-0.211711875352919	0.0956146513660769	shuffle
0.0470487621666276	-0.107929692581655	0.199794766629397	shuffle
0.0721755531847102	-0.0829429877639476	0.223879423829152	shuffle
0.0154329034835404	-0.139093551788832	0.169225656592242	shuffle
0.0269183325588347	-0.127807613158735	0.180365150338799	shuffle
-0.149393781413278	-0.296753276352955	0.0049148939369333	shuffle
-0.0183304484029671	-0.172039639830241	0.136250115342552	shuffle
-0.0412569618983877	-0.194216881406826	0.113661568263425	shuffle
-0.122650753755347	-0.271707624442628	0.0321527823694434	shuffle
-0.0439881685848431	-0.196848446346624	0.110959904189891	shuffle
0.105932565689574	-0.0490643233129526	0.255947297176124	shuffle
0.146190338540944	-0.00818973004858094	0.29376380496509	shuffle
0.0336977907399365	-0.121127047627653	0.186921992056064	shuffle
-0.0223282503416611	-0.175918036167243	0.132322782346737	shuffle
-0.0720277313266447	-0.22373827263198	0.0830905580313098	shuffle
-0.010701596612456	-0.164625398684422	0.143731035999279	shuffle
-0.0909058551604228	-0.241713153293572	0.0641893610632352	shuffle
0.0471526012449044	-0.107826833763828	0.199894680247324	shuffle
-0.0256922433299722	-0.179177864059846	0.129014319936405	shuffle
-0.129233898428483	-0.277891728773427	0.0254690878441749	shuffle
-0.00939008327621207	-0.163349025514561	0.145015342252201	shuffle
0.0719584744006846	-0.083159694742738	0.223672138828992	shuffle
0.105852295248838	-0.0491453083003602	0.255871432933254	shuffle
0.0370911402188671	-0.117777921947485	0.190198795670507	shuffle
-0.0948061331433272	-0.24541396281104	0.0602703968278403	shuffle
0.0370743932897907	-0.117794459277594	0.190182632293081	shuffle
-0.0933051472720841	-0.243990259963959	0.0617791400402161	shuffle
-0.103991646385788	-0.254112400657568	0.0510219492083834	shuffle
-0.0117931750287804	-0.165687336855242	0.142661705349545	shuffle
-0.0461912364496327	-0.198969536771165	0.108778996273187	shuffle
0.0715849418819805	-0.0835325531493026	0.223315426574173	shuffle
-0.0376219516198997	-0.190711067786965	0.117253709490289	shuffle
0.00993910624547678	-0.144477771963219	0.163883400905258	shuffle
0.0235960578224983	-0.131076307486671	0.177146982001642	shuffle
0.151863548096514	-0.00238782340242471	0.299056106816077	shuffle
0.0368727808457838	-0.117993541665965	0.189988038579034	shuffle
0.0123575863553666	-0.142108655996477	0.166236282461976	shuffle
0.0431814706207332	-0.111758114739029	0.196071408017172	shuffle
0.00811463846819056	-0.146263829370183	0.16210725994636	shuffle
-0.0279181392440456	-0.181332984532416	0.1268232725783	shuffle
-0.0571748998119327	-0.209523177108564	0.0978835085740675	shuffle
0.0216225070113924	-0.133016438706619	0.175233718241681	shuffle
0.0231097777843421	-0.131554463008784	0.17667566433315	shuffle
-0.0174153338379527	-0.171151186998531	0.137148416396072	shuffle
0.081154339237186	-0.073966709454895	0.232441113680097	shuffle
0.0223080750391734	-0.13234261421874	0.175898475420339	shuffle
-0.00710340899369621	-0.161122386114559	0.147253336186002	shuffle
-0.112694256445054	-0.262331198957256	0.0422351173824336	shuffle
0.112742438981756	-0.0421864017419191	0.26237664248964	shuffle
-0.0282570678827694	-0.181661007250025	0.126489517675799	shuffle
-0.043407134534708	-0.19628879435523	0.111534845215798	shuffle
0.140035163399221	-0.0144728013305651	0.288011646196015	shuffle
-0.0270147118802195	-0.180458460520131	0.127712738011912	shuffle
0.133716571332174	-0.0209100182518847	0.282095642406097	shuffle
0.0651803334075069	-0.0899188536733389	0.217192890442063	shuffle
0.0375581854715172	-0.117316687471876	0.190649533161265	shuffle
0.0190352538037931	-0.135558086093824	0.172723740405546	shuffle
0.0553872616339645	-0.0996593319409623	0.207807941994217	shuffle
0.0657025088946979	-0.0893986479716568	0.217692516464843	shuffle
-0.0911458777958189	-0.241941027421655	0.0639483265349496	shuffle
-0.0519213507626093	-0.204479735190092	0.103099524409918	shuffle
0.209952465921025	0.0576224625508538	0.352728781042391	shuffle
-0.0190468164506298	-0.172734962144422	0.135546731787699	shuffle
0.0308734481435823	-0.12391189669884	0.184192050148584	shuffle
-0.0162966698195129	-0.170064775360108	0.138246181829693	shuffle
0.100166804019087	-0.0548762305924913	0.250493324596596	shuffle
0.152373482308055	-0.00186581213366091	0.299531360164551	shuffle
0.026904097994253	-0.127821625327059	0.180351368831064	shuffle
-0.0101135487610358	-0.164053170495779	0.144306949254187	shuffle
0.171104203349635	0.0173669474181334	0.316937736142895	shuffle
-0.00614800327545575	-0.160191599201294	0.148187934651366	shuffle
0.143170149433857	-0.0112741985040688	0.290942700720645	shuffle
0.0307778809234374	-0.124006084948898	0.184099635769257	shuffle
0.000410476525507501	-0.153794714326325	0.154596148204729	shuffle
0.0235165029745247	-0.131154538097073	0.17706987979823	shuffle
0.0856438905476381	-0.069468966219066	0.236713334829157	shuffle
-0.0816307343773937	-0.232894724529	0.0734897441543452	shuffle
-0.0643433342262397	-0.216391869780996	0.0907525189634118	shuffle
0.0317991148944506	-0.122999442321555	0.18508703812789	shuffle
-0.0364169220774091	-0.189548005256202	0.118443633922713	shuffle
-0.122596286649737	-0.271656407489839	0.0322080237080169	shuffle
0.0300702810565957	-0.124703387859839	0.183415295850897	shuffle
-0.0879067275428737	-0.238864420427051	0.0671996075348923	shuffle
-0.0524681924576908	-0.205005084784948	0.10255698679586	shuffle
0.0356985645201395	-0.119152775286804	0.18885446110515	shuffle
-0.0242517619738435	-0.177782399273551	0.130431444542849	shuffle
0.0230753234209653	-0.131588338996429	0.176642267425559	shuffle
-0.020183391374417	-0.173837832118205	0.134430437948834	shuffle
-0.0870330652587407	-0.238034079959553	0.0680759780227944	shuffle
0.0902559114654538	-0.0648419539745424	0.241096022338852	shuffle
0.0671103958055917	-0.0879956502056392	0.219039208826831	shuffle
0.0189924836534027	-0.135600085240468	0.172682230924596	shuffle
-0.000252210127805053	-0.154441660573131	0.153949233533252	shuffle
-0.0330932836625642	-0.186337888978217	0.121723306792537	shuffle
-0.117898188916828	-0.267235474296764	0.0369693469666386	shuffle
0.0936216189934787	-0.0614610916933518	0.244290491179937	shuffle
-0.0324661480940692	-0.185731806683067	0.122341767637067	shuffle
-0.00990329663728945	-0.163848549428301	0.144512837357921	shuffle
-0.00994412262128063	-0.163888283030914	0.144472859809317	shuffle
-0.164368875340072	-0.310689916603341	-0.0104379683278789	shuffle
-0.162212679469357	-0.308687112602512	-0.00822289772652332	shuffle
-0.0805864679265001	-0.231900315644317	0.0745351677060187	shuffle
-0.130439425452116	-0.279022848986187	0.0242436477056494	shuffle
-0.0624007594225098	-0.214532007610674	0.0926865188817672	shuffle
-0.0269971140601814	-0.180441423297928	0.127730061397287	shuffle
-0.0961785849224995	-0.246715181196842	0.0588902315551732	shuffle
-0.11476780669125	-0.264286275170359	0.0401379583148332	shuffle
-0.0031870290903875	-0.157305181955848	0.151082673402061	shuffle
0.0648178105102389	-0.090279959272419	0.216845975771007	shuffle
-0.106713559147705	-0.256685323972974	0.0482762712611679	shuffle
-0.0218087815595833	-0.175414352167795	0.132833369119071	shuffle
0.0842924347291691	-0.0708235517541597	0.235427914574466	shuffle
-0.0512556661776372	-0.203840094865153	0.103759845060874	shuffle
0.0303647772899626	-0.124413195693119	0.183700129576099	shuffle
-0.0160109526353878	-0.169787235793494	0.138526500454858	shuffle
0.0348575418055237	-0.11998280736364	0.188042294685026	shuffle
0.0551397217756569	-0.0999051579352767	0.207570354107815	shuffle
-0.0386675118500419	-0.19171986664072	0.11622089497145	shuffle
-0.000166228086376621	-0.154357728276758	0.154033176661161	shuffle
-0.0831821035223234	-0.23437144116396	0.0719360263358498	shuffle
0.0506025307647731	-0.104407584873187	0.20321238610367	shuffle
0.0242275500097378	-0.130455258521219	0.177758938681353	shuffle
-0.0439643336891864	-0.196825490534555	0.110983491180669	shuffle
-0.0400046012730939	-0.193009473605462	0.114899616831356	shuffle
-0.121917217709682	-0.27101778895594	0.032896666009439	shuffle
-0.0165583572395388	-0.170318951525926	0.13798941720544	shuffle
0.124525453830069	-0.0302508573517747	0.273469943191636	shuffle
-0.0413929759535291	-0.194347985414399	0.113527079615433	shuffle
0.054083264672554	-0.100954087839117	0.206556168095616	shuffle
0.0367060901522588	-0.118158131139663	0.189827141799775	shuffle
0.0708126179360751	-0.0843033455701363	0.222577751664658	shuffle
0.0451836572621075	-0.10977662570492	0.197999627780348	shuffle
0.0452532100358129	-0.109707769789456	0.198066589812841	shuffle
0.128686663924676	-0.0260252082805899	0.277378134275898	shuffle
0.066200907208834	-0.0889020508073469	0.218169317814058	shuffle
-0.185269716869033	-0.330036766136277	-0.0319880878935656	shuffle
-0.00136768345447533	-0.155530340199984	0.152860009909227	shuffle
0.0190429098873886	-0.135550567965356	0.172731170765024	shuffle
-0.076709255916956	-0.228205448580978	0.0784136950489379	shuffle
0.0301203228940988	-0.124654079251874	0.183463697616913	shuffle
-0.0363438075007844	-0.189477423177069	0.118515817694913	shuffle
-0.0285695708689806	-0.181963424383125	0.126181753991121	shuffle
0.103544757608342	-0.0514725159620691	0.253689770088214	shuffle
-0.0675639447078624	-0.219472920748665	0.0875435452413952	shuffle
-0.0415645951795824	-0.194513401464859	0.113357377009519	shuffle
-0.021365364102338	-0.174984344942455	0.133269139987927	shuffle
0.00664579163669629	-0.147701021743083	0.160676594783777	shuffle
0.0441996180786572	-0.110750646322011	0.197052089777753	shuffle
-0.19394816280384	-0.33803438819372	-0.040978197085715	shuffle
-0.0806343991361928	-0.231945965347343	0.074487190850748	shuffle
-0.0561528188973823	-0.208542607368077	0.0988989552798278	shuffle
0.043835105048783	-0.111111372685298	0.196701025213994	shuffle
0.0703435872904126	-0.0847713555417462	0.222129678473239	shuffle
0.194755048712108	0.0418153205298071	0.338776918064586	shuffle
-0.0352064717968008	-0.188379277984049	0.119638463525846	shuffle
-0.123120274455396	-0.272149092967698	0.0316765483592346	shuffle
0.0236997775946606	-0.130974311298644	0.177247501303743	shuffle
-0.00867459215995573	-0.162652487634869	0.145715771363166	shuffle
-0.123321273027867	-0.272338063422388	0.0314726543778223	shuffle
0.0475076311648313	-0.107475130326383	0.200236264867975	shuffle
0.189339117517259	0.0362005441627985	0.333789512009087	shuffle
0.0525906701015722	-0.10243546050542	0.205122736737871	shuffle
-0.0550208712876988	-0.207456275436611	0.100023178826311	shuffle
-0.188289553809012	-0.332822056626001	-0.035113563082836	shuffle
-0.197550698435378	-0.341348204003285	-0.0447173972322446	shuffle
0.042652918609068	-0.112280997368297	0.195562184989699	shuffle
-0.0489760352694364	-0.201648664949982	0.106020072448635	shuffle
-0.0282445685274585	-0.18164891070063	0.126501826851047	shuffle
0.0535502208460133	-0.101483202962551	0.206044328092688	shuffle
0.108657763652488	-0.0463136566875355	0.258521807992838	shuffle
0.0699951716190115	-0.0851189687144461	0.221796789373142	shuffle
0.0192966075144138	-0.135301431651458	0.172977378738357	shuffle
0.0994639068290929	-0.0555840356242564	0.249827784079892	shuffle
0.116015852777887	-0.0388750440777141	0.265462420993074	shuffle
-0.119282995060088	-0.268539237451272	0.0355666349827024	shuffle
-0.0152169903426273	-0.169015869693603	0.139305331029274	shuffle
0.00403259205882267	-0.150256295041761	0.158129722459714	shuffle
0.0232146609283677	-0.131451338285105	0.176777326280614	shuffle
0.00830301916388035	-0.146079461221084	0.162290696987733	shuffle
0.0483472207062098	-0.10664325303116	0.201043910707198	shuffle
0.0298286525099837	-0.124941465227835	0.183181575976961	shuffle
0.0678563402962895	-0.0872520466571735	0.219752495931242	shuffle
0.105113096126183	-0.0498909917940639	0.255172722993864	shuffle
-0.0830791562728694	-0.234273469386767	0.0720391527667184	shuffle
-0.133461463513106	-0.281856551520373	0.0211696464731668	shuffle
0.0783431604787349	-0.0767798084749809	0.229763042923484	shuffle
-0.100644655700178	-0.250945698914914	0.0543949534166781	shuffle
-0.0365256752634985	-0.189652988589025	0.118336262219763	shuffle
-0.0507138543266962	-0.203319384693122	0.104297190259927	shuffle
-0.0305354520313416	-0.183865192644061	0.124245003245338	shuffle
-0.0725944478296941	-0.224279380721436	0.0825247691151658	shuffle
-0.109787806316667	-0.259588742000517	0.0451723633548833	shuffle
0.175179772904032	0.0215668792007535	0.3207121762567	shuffle
0.170619019594986	0.0168673198470742	0.316488093008759	shuffle
-0.0525985914573156	-0.205130345835787	0.102427600520018	shuffle
-0.0623166770023084	-0.214451480406985	0.0927702037328854	shuffle
0.0420029682378276	-0.112923858604058	0.194935890045894	shuffle
-0.0699361674714507	-0.221740411144559	0.0851778332204052	shuffle
0.0160388801501424	-0.138499101715767	0.169814365060175	shuffle
0.0686105234192587	-0.0865000545668523	0.220473495912884	shuffle
-0.0776824014728973	-0.229133237544452	0.0774406605573377	shuffle
0.0822930289110119	-0.0728265390501453	0.233525234524891	shuffle
0.0164856455542263	-0.138060763141616	0.170248328948011	shuffle
-0.0198658184763493	-0.173529715591294	0.134742383574905	shuffle
-0.0198094745261168	-0.173475046253144	0.134797725930791	shuffle
-0.0829140726453048	-0.234116357890695	0.0722045168019535	shuffle
0.0875537079786322	-0.0675537502170229	0.238528932428555	shuffle
0.0117820399522569	-0.14267261529954	0.165676505937195	shuffle
-0.0167577723929522	-0.17051262909962	0.137793739450374	shuffle
0.0624384277681358	-0.0926490279336926	0.214568082572964	shuffle
-0.0335590839833447	-0.186787976661874	0.121263871742844	shuffle
-0.0523739319425532	-0.204914535187529	0.102650511984857	shuffle
-0.0726394198088084	-0.224322316531053	0.0824798664622576	shuffle
0.0012526759917805	-0.152972328304413	0.155418112532074	shuffle
-0.067941294961866	-0.219833720988754	0.0871673476333368	shuffle
0.0431405666286614	-0.111798583047633	0.196032002815125	shuffle
0.0397617594452894	-0.115139627757595	0.192775294807523	shuffle
0.0349707630622808	-0.119871078310903	0.188151643416409	shuffle
-0.0415955551500892	-0.194543241461277	0.113326761833283	shuffle
-0.0245194469458594	-0.178041765525022	0.13016814776478	shuffle
0.00754205087481566	-0.146824154901329	0.161549633360514	shuffle
2.1081657364802e-05	-0.154174876146606	0.154216036976294	shuffle
0.0760427859397987	-0.0790799184849197	0.227569882807595	shuffle
0.0249450759392065	-0.129749451232772	0.178454123526172	shuffle
0.0192857141164204	-0.135312129595168	0.172966807329558	shuffle
0.0137839071777609	-0.140710618030018	0.167623095021217	shuffle
0.0095368339536833	-0.14487166173618	0.163491869825516	shuffle
-0.115256634963017	-0.264746994904187	0.0396433655179839	shuffle
0.083896301031742	-0.071220494426721	0.235051036741883	shuffle
0.131471797001015	-0.0231938536335384	0.279991173506906	shuffle
-0.0790920866494391	-0.230476731930769	0.0760306119833138	shuffle
0.184800882759245	0.0315031219727588	0.329604119536341	shuffle
0.0195732451049791	-0.135029745536537	0.173245827554112	shuffle
0.0118660184596779	-0.142590333725239	0.165758189626747	shuffle
0.0825732595340258	-0.0725458818369983	0.233791978162643	shuffle
0.0766268946309053	-0.0784960333717725	0.228126913378086	shuffle
-0.058855949394157	-0.211135285742763	0.0962126679834394	shuffle
-0.0112374651657889	-0.165146761089526	0.143206134193278	shuffle
-0.116207165459597	-0.265642672790884	0.0386814085106137	shuffle
-0.116354198808689	-0.265781198198319	0.0385325820021865	shuffle
0.0373410580904236	-0.117531121758085	0.190439995219224	shuffle
0.0210492705046036	-0.133579746156597	0.174677775150252	shuffle
-0.0439949749438087	-0.196855001641276	0.110953168591289	shuffle
-0.0529373292137441	-0.205455713384023	0.102091469004634	shuffle
-0.101208344782327	-0.25147924970208	0.0538271308883383	shuffle
-0.0957160100214813	-0.246276675628964	0.0593554724742716	shuffle
-0.0950244844769572	-0.245621017518314	0.0600508579662868	shuffle
0.0303703308955727	-0.124407722999154	0.183705500718917	shuffle
-0.00751559840566504	-0.161523869684955	0.14685003849244	shuffle
-0.0375502444929393	-0.190641869996268	0.117324530210594	shuffle
-0.0413276263234145	-0.194284995559197	0.113591697053459	shuffle
-0.0610150611010912	-0.213204636232351	0.0940653857418747	shuffle
-0.0342093871899312	-0.18741623590344	0.12062234411078	shuffle
-0.0987186105259291	-0.249121942602992	0.0563343656318601	shuffle
0.0140743274049085	-0.140425881097198	0.167905396188921	shuffle
0.0961511469919598	-0.0589178295017606	0.246689172674113	shuffle
0.0551419970085621	-0.0999028985413301	0.207572537950255	shuffle
0.0925943282023933	-0.0624933855319625	0.243315812965183	shuffle
0.00469677549860063	-0.149607029748671	0.158777242243508	shuffle
0.0817990867784456	-0.0733211732941758	0.233055009493186	shuffle
0.01163089111136	-0.142820704533946	0.165529482106941	shuffle
-0.00568965107079152	-0.159744960514774	0.148636206828528	shuffle
-0.0960542472010048	-0.246597319244239	0.0590152925086432	shuffle
0.0581128412136163	-0.0969513710641031	0.210422755067131	shuffle
-0.0686664051667429	-0.220526912328291	0.0864443281312307	shuffle
-0.0222999358932269	-0.175890584164846	0.132350614782477	shuffle
-0.0882815090666352	-0.239220550214493	0.0668235908829866	shuffle
-0.0341963774136382	-0.187403668360909	0.120635179593364	shuffle
0.122675832567317	-0.0321273467519666	0.271731206471673	shuffle
-0.0490304030917702	-0.201700947030469	0.105966186025661	shuffle
-0.00325893529334737	-0.157375308780689	0.151012407035067	shuffle
-0.0560631129205901	-0.20845653011568	0.0989880635735889	shuffle
-0.0318083664023498	-0.185095981735872	0.122990321542604	shuffle
0.07839938980415	-0.0767235649354675	0.229816632300045	shuffle
-0.000604649472256063	-0.154785674781818	0.153605128407584	shuffle
0.0845708358131845	-0.0705445527267848	0.2356927555239	shuffle
0.0469421566685358	-0.108035288252139	0.199692187866854	shuffle
0.174883449829611	0.0212613312214406	0.320437903169845	shuffle
0.00876241150178468	-0.145629809062922	0.162737988920647	shuffle
-0.128351208301229	-0.277063258010472	0.0263660636588791	shuffle
0.0765996056085615	-0.0785233143188662	0.228100891629013	shuffle
-0.053357316528968	-0.205859076705444	0.101674663901252	shuffle
-0.00920751411778132	-0.16317130716607	0.145194082803309	shuffle
0.00175052880341713	-0.152486087416797	0.155903903290779	shuffle
0.0197587744274614	-0.134847523938162	0.173425852214799	shuffle
0.213006385712683	0.0608081494582784	0.355524767548969	shuffle
-0.0194441103429535	-0.173120518163692	0.13515657183692	shuffle
-0.0395784002428123	-0.192598465128863	0.115320837487883	shuffle
-0.0957411550050372	-0.246300513818551	0.0593301843007185	shuffle
0.00191087272293376	-0.152329467461905	0.156060346499152	shuffle
0.0248982655325925	-0.129795501911813	0.178408775293768	shuffle
-0.087788559517836	-0.238752124844121	0.0673181558586096	shuffle
-0.0344798724604343	-0.187677515363835	0.12035547083971	shuffle
-0.10185054934677	-0.252087006768203	0.0531800949270656	shuffle
0.0752309437471553	-0.0798912731988698	0.226795511272625	shuffle
-0.0226446452691183	-0.17622477759176	0.132011756998264	shuffle
-0.142029825701035	-0.289876876174374	0.0124380281446157	shuffle
0.0123062333104255	-0.142158979259029	0.166186340511558	shuffle
-0.038704641295555	-0.191755684688256	0.116184211985866	shuffle
-0.10918616522467	-0.259020745829497	0.0457800447220875	shuffle
0.00778021357424272	-0.146591104529971	0.16178158510844	shuffle
0.0574051501165808	-0.0976547082293626	0.209744033659643	shuffle
-0.0184642477222742	-0.172169519975057	0.136118753031002	shuffle
-0.0340475720829196	-0.187259917715357	0.120781987676746	shuffle
0.215569841034406	0.0634846057216075	0.357869746624297	shuffle
-0.00435065190803098	-0.15843981906373	0.149945395702624	shuffle
-0.0195527509056488	-0.173225940788585	0.13504987371204	shuffle
-0.100227977086003	-0.250551239795971	0.0548146230252117	shuffle
0.0196181884120212	-0.134985604464579	0.173289438334099	shuffle
-0.0818299009073909	-0.233084346121193	0.0732903182202376	shuffle
-0.0799849088392879	-0.231327333853729	0.0751372386109716	shuffle
-0.082098086943642	-0.23333966133051	0.0730217632857863	shuffle
-0.0665898991261661	-0.2185414032431	0.0885144110744576	shuffle
-0.00198770647517989	-0.156135308364169	0.152254415417055	shuffle
-0.027286403939712	-0.180721485847258	0.127445270957695	shuffle
0.0568183439388772	-0.0982377867581651	0.209181137327365	shuffle
-0.0980191709930015	-0.248459384940704	0.0570383698792435	shuffle
-0.0137900168764364	-0.167629034175455	0.14070462815648	shuffle
0.0485063610491329	-0.106485550043669	0.201196972867938	shuffle
0.0320187119596742	-0.122782941228238	0.185299319920115	shuffle
-0.014080760957129	-0.167911649597537	0.140419573155158	shuffle
0.0200741345326355	-0.134537762258579	0.173731832012896	shuffle
0.0585202625382559	-0.0965463860627455	0.210813431810137	shuffle
-0.11851817724956	-0.267819246663496	0.0363414174918717	shuffle
-0.0344432350804429	-0.187642126185308	0.120391620282773	shuffle
-0.0584190182260251	-0.210716353073579	0.0966470297424259	shuffle
-0.028223466832346	-0.181628488926251	0.126522607371727	shuffle
-0.0226384365940856	-0.176218758636061	0.132017860598014	shuffle
-0.0732419522640917	-0.224897511690398	0.0818782020846563	shuffle
-0.00781838304934888	-0.161818757594747	0.146553752795829	shuffle
0.0550554389219989	-0.0999888529299916	0.207489455616793	shuffle
-0.000290985601157055	-0.154479510941218	0.153911376824067	shuffle
0.0737835989002127	-0.0813372392854221	0.225414493261131	shuffle
0.133554555536694	-0.0210749073150654	0.281943800900941	shuffle
0.114978815237589	-0.0399244707535464	0.264485158702582	shuffle
-0.10951184438282	-0.259328225252086	0.045451110092069	shuffle
-0.0131132722607238	-0.166971112130858	0.141368031517516	shuffle
0.204316498358527	0.051751454525157	0.347562122995079	shuffle
0.0842910392394245	-0.0708249501799748	0.235426586998567	shuffle
-0.103169066523913	-0.253334428068608	0.0518512502319548	shuffle
0.0887370373480209	-0.0663665020396128	0.23965335356831	shuffle
0.0508604122002411	-0.104151849525872	0.203460243166951	shuffle
0.131562525537351	-0.023101577634923	0.280076258915026	shuffle
-0.0679097612442956	-0.219803571883627	0.08719878672278	shuffle
0.0066200706595038	-0.147726182613317	0.160651536638225	shuffle
-0.068925223700906	-0.220774300700031	0.0861862162712377	shuffle
-0.0155307911221232	-0.169320762210891	0.138997533662512	shuffle
-0.0907259470800061	-0.241542340174872	0.0643700157398421	shuffle
-0.152218048564879	-0.299386505279529	0.00202493600778734	shuffle
-0.0566644764051911	-0.209033522527542	0.0983906592428713	shuffle
-0.0348156232445424	-0.188001808908219	0.120024172462398	shuffle
0.0535187498884805	-0.101514439227238	0.206014106401982	shuffle
-0.005575014978256	-0.159633244168471	0.148748311943537	shuffle
-0.140667433779782	-0.288603010536142	0.0138279550542445	shuffle
0.0904165078849522	-0.0646807152919597	0.241248522313716	shuffle
-0.0473459717211893	-0.200080732215465	0.107635279898497	shuffle
0.000787342618972003	-0.153426740729852	0.15496398589813	shuffle
0.0539899176262543	-0.101046753222849	0.206466540306203	shuffle
-0.014930084826842	-0.168737083168697	0.139586721546634	shuffle
-0.105691002347696	-0.255718988120642	0.0493080308273969	shuffle
-0.159152127999643	-0.305842056910531	-0.0050813709327712	shuffle
-0.00708385455704247	-0.161103338300868	0.14727246752074	shuffle
0.0465817447732196	-0.108392260227915	0.199345364764588	shuffle
-0.0350986899541752	-0.188275190234259	0.11974483271685	shuffle
-0.00756015196712301	-0.161567262999045	0.146806442963296	shuffle
0.00534876285013234	-0.148969557154912	0.15941274303275	shuffle
-0.000102674426985167	-0.154295688256776	0.154095221826154	shuffle
-0.00310770833295683	-0.157227822252777	0.151160183424736	shuffle
0.182649560036988	0.0292787009033481	0.327618069067268	shuffle
0.0249891124148673	-0.129706128854895	0.17849678387908	shuffle
0.0869714586694049	-0.0681377665488011	0.237975519890413	shuffle
-0.032005551479813	-0.185286598248464	0.122795916581173	shuffle
-0.0808699258796993	-0.232170271427182	0.0742514293774442	shuffle
0.036369236206193	-0.11849071290199	0.189501971278197	shuffle
0.00245828770204088	-0.151794707741685	0.156594386164298	shuffle
0.0779509132691838	-0.0771721273778869	0.229389186050498	shuffle
0.0500350988577259	-0.104970222447461	0.202666942547996	shuffle
-0.0633907779317682	-0.21548001012846	0.091701016698718	shuffle
-0.0762451755742251	-0.227762901288187	0.0788776183683396	shuffle
0.102561177642814	-0.0524639687200221	0.252759379252582	shuffle
-0.0438719220682234	-0.196736485673618	0.111074939985234	shuffle
-0.0922285360263229	-0.242968681286922	0.0628608790697865	shuffle
-0.0540768990455571	-0.206550056177674	0.100960407066878	shuffle
0.0974966301321792	-0.0575642203559647	0.247964306090323	shuffle
0.00759217690163625	-0.146775106288398	0.161598453584185	shuffle
0.0402498886423329	-0.114657170511457	0.193245993009996	shuffle
-0.0737249920339578	-0.225358559306416	0.0813957765694499	shuffle
0.000729171400353713	-0.153483542137324	0.154907211049281	shuffle
-0.116680668378448	-0.266088754864093	0.038202106372495	shuffle
0.00981974522389965	-0.144594650855272	0.163767232044003	shuffle
0.0424878231790602	-0.112444304359064	0.195403110147017	shuffle
-0.0536602832565827	-0.206150019193155	0.101373958932083	shuffle
-0.00105217713774917	-0.155222450330748	0.153168129631044	shuffle
0.0374617656494167	-0.11741191315317	0.190556485305615	shuffle
0.017998445066681	-0.136576048125591	0.17171733826568	shuffle
0.0118413941975052	-0.142614460632195	0.165734238472179	shuffle
0.10269394980755	-0.0523301516577961	0.252884987706388	shuffle
-0.00445235903729454	-0.158538973343867	0.149845971875808	shuffle
0.00197457139355746	-0.152267246033703	0.156122493416068	shuffle
-0.0860755043787069	-0.237123747520647	0.0690362323086615	shuffle
-0.0787382321607135	-0.230139546679698	0.0763846160229638	shuffle
-0.0718489027243075	-0.223567505405192	0.0832690731772582	shuffle
-0.040987028088858	-0.193956675904748	0.113928457933031	shuffle
-0.0604266077784131	-0.212640782137503	0.0946507580814298	shuffle
0.15890154128218	0.00482428887679752	0.305608998108708	shuffle
-0.0674705524920552	-0.219383618159865	0.0876366453540116	shuffle
-0.0233458780571587	-0.1769045088234	0.131322316365666	shuffle
-0.0124735384172194	-0.16634904545444	0.141995026183863	shuffle
-0.0646673095690703	-0.21670194328557	0.090429859845548	shuffle
0.0656932013964595	-0.0894079211003061	0.21768361159593	shuffle
-0.0121289004304959	-0.16601387436822	0.142332749944221	shuffle
-0.032361505511666	-0.185630665653107	0.122444951069827	shuffle
-0.000607285578464325	-0.154788247730494	0.15360255449709	shuffle
0.0266184308846829	-0.128102816208178	0.180074781179189	shuffle
-0.0101539125145112	-0.164092451695442	0.14426742176612	shuffle
0.0507249830214716	-0.104286154219449	0.203330080832502	shuffle
-0.0423510114326439	-0.195271281460996	0.112579627715231	shuffle
-0.227855117099221	-0.369083124616804	-0.0763418729214037	shuffle
-0.00745072726752907	-0.161460686832175	0.146913513638488	shuffle
-0.125618373959762	-0.27449688560773	0.0291415481183339	shuffle
-0.0991424934319172	-0.249523405403843	0.0559076413140336	shuffle
0.210162239544394	0.0578411880713288	0.352920918822444	shuffle
0.00833645081630447	-0.146046740549031	0.162323250184894	shuffle
-0.105313976123364	-0.25536261542027	0.0496883667441751	shuffle
0.00510112086502112	-0.149211701160543	0.15917137811643	shuffle
-0.00844674734238023	-0.162430646165321	0.145938787268713	shuffle
-0.00627294538217021	-0.160313337383487	0.148065729255725	shuffle
0.0195575975557047	-0.135045113634065	0.17323064379862	shuffle
0.000879286401179479	-0.15333695995399	0.155053720540932	shuffle
-0.00845144757148996	-0.162435222708139	0.145934186814123	shuffle
-0.128070198224985	-0.276799462607485	0.0266515694035427	shuffle
-0.131818870117457	-0.280316646780634	0.0228408466096426	shuffle
-0.00394943602483178	-0.158048643385664	0.150337573944709	shuffle
0.02424889132998	-0.130434268009644	0.177779617723738	shuffle
-0.0888956811321876	-0.239804069012676	0.0662072994840178	shuffle
0.0318808122328091	-0.12291889850782	0.185166015614931	shuffle
-0.0429134899112784	-0.195813237584914	0.112023231742332	shuffle
-0.0103926263893446	-0.164324753295358	0.144033643543763	shuffle
-0.0376647133327755	-0.190752332362135	0.117211475625941	shuffle
0.00344298446196124	-0.150832548044144	0.157554796420898	shuffle
0.026483231476865	-0.12823588845238	0.179943870401005	shuffle
0.217817780958189	0.0658334399641397	0.35992462478629	shuffle
0.0805227161704582	-0.074598979061041	0.231839597413916	shuffle
-0.0398604335679793	-0.192870450976407	0.115042106098865	shuffle
-0.106025472893102	-0.256035102218708	0.0489705865289593	shuffle
0.147683975404012	-0.00666321732882816	0.295158034815144	shuffle
-0.0374362422631196	-0.190531854055409	0.117437119960549	shuffle
-0.00656080036129748	-0.160593792984374	0.147784161464865	shuffle
-0.0127767534117606	-0.166643902001413	0.141697864634843	shuffle
-0.0266734764288672	-0.180128079079068	0.128048635128669	shuffle
-0.0560375401142995	-0.208431991330495	0.099013465540747	shuffle
0.0380924471515023	-0.116788990903523	0.191165060948305	shuffle
0.0364039520788154	-0.118456438922738	0.189535484619869	shuffle
-0.00097051177269538	-0.155142751520071	0.153247878171664	shuffle
0.0127760453564155	-0.141698558586859	0.16664321349643	shuffle
-0.0567154128472657	-0.209082389828026	0.098340053012972	shuffle
0.0415303633897744	-0.113391227225069	0.194480407677352	shuffle
-0.00731360124320635	-0.161327125386969	0.147047684600461	shuffle
-0.0107567677535848	-0.164679080295631	0.1436769979682	shuffle
0.0282621911304208	-0.126484472365563	0.181665965381789	shuffle
-0.0919024919291346	-0.242659237435511	0.0631884042078273	shuffle
0.0986253479094308	-0.0564282458127523	0.249033605914676	shuffle
-0.0113840109498592	-0.165289324851636	0.143062572391372	shuffle
0.0379550999005424	-0.116924658756264	0.191032537844566	shuffle
0.048297474038239	-0.106692548787518	0.200996062526217	shuffle
-0.0773197149375239	-0.228787487351764	0.0778033402472599	shuffle
-0.0429190956036204	-0.195818638280297	0.112017686179624	shuffle
-0.0492994910186675	-0.201959698984673	0.105699467331298	shuffle
-0.163007222565272	-0.309425283023065	-0.00903895995233098	shuffle
-0.0010532183848693	-0.155223466491012	0.153167112810788	shuffle
0.0213070795703357	-0.133326414976568	0.17492781874578	shuffle
-0.089461723057799	-0.240341763304033	0.0656391994967764	shuffle
-0.0101038004871723	-0.164043683596933	0.14431649548722	shuffle
-0.0112644471065482	-0.165173010345366	0.143179702150073	shuffle
-0.121033102343358	-0.270186141350972	0.0337930252178704	shuffle
-0.0415191154443121	-0.194469566441457	0.113402349713645	shuffle
-0.0810837675669928	-0.232373911605442	0.0740373595522664	shuffle
-0.0427065447202704	-0.195613853769291	0.112227950375056	shuffle
-0.00617603556028488	-0.160218913054355	0.148160516791133	shuffle
-0.0261557522563824	-0.17962675654296	0.128558192180643	shuffle
-0.0630764576314664	-0.215179060513584	0.0920139360333851	shuffle
-0.00327076441210569	-0.157386845029298	0.151000847532506	shuffle
0.110169951964331	-0.0447863215292123	0.259949463518608	shuffle
0.0180715512124242	-0.136504281570688	0.171788310935485	shuffle
-0.0347592150938675	-0.18794732797698	0.120079834992346	shuffle
-0.162029696006432	-0.308517086780404	-0.0080349874569104	shuffle
0.0265150478694142	-0.128204573145182	0.179974678042113	shuffle
0.0492019170641816	-0.105796184755879	0.20186587541923	shuffle
-0.074395415039004	-0.225998346328918	0.0807260856329235	shuffle
-0.069303420143237	-0.221135759779793	0.0858090150036773	shuffle
0.13632911568447	-0.0182499797961344	0.284543097883362	shuffle
-0.118607131997886	-0.267902996222125	0.0362513133313834	shuffle
0.111147444302895	-0.0437986525061432	0.260871964781946	shuffle
0.0958309764135669	-0.0592398497720568	0.246385665688154	shuffle
-0.0523764728374154	-0.204916976084806	0.102647990947457	shuffle
-0.00988915894918093	-0.16383478990606	0.144526681122623	shuffle
0.0364537048323061	-0.118407318821538	0.189583513354426	shuffle
-0.0136346651112706	-0.167478015388498	0.140856929606602	shuffle
0.0496404372743421	-0.105361490963837	0.202287518502886	shuffle
0.135002354950476	-0.019601133570572	0.283300417675059	shuffle
0.0319278943607318	-0.122872480229179	0.185211529394776	shuffle
-0.0267238628146555	-0.180176864954576	0.12799903922803	shuffle
-0.0214735081734417	-0.17508922382654	0.133162866338438	shuffle
-0.0818892978325024	-0.233140894257392	0.0732308415321787	shuffle
-0.0506042573246626	-0.203214045613727	0.104405872749881	shuffle
-0.064808218703737	-0.216836796413062	0.0902895130256142	shuffle
-0.0652710179946847	-0.217279664649658	0.0898285172446162	shuffle
-0.121645289742839	-0.270762022235437	0.0331723863451709	shuffle
-0.0663427023780089	-0.21830495535477	0.088760753977504	shuffle
-0.00326041584171646	-0.15737675267534	0.151010960234533	shuffle
0.0581766211505936	-0.0968879759121112	0.210483916928624	shuffle
-0.0512937779827159	-0.203876719098972	0.103722044039481	shuffle
-0.0502659829651575	-0.202888891176418	0.104741301093882	shuffle
-0.0788102665848876	-0.230208190681647	0.0763125543247254	shuffle
-0.0195251951589285	-0.173199201577501	0.135076937115461	shuffle
0.00260568656418333	-0.151650701045575	0.156738168143008	shuffle
-0.0128666906002823	-0.166731354683162	0.141609717616585	shuffle
-0.0237446788681217	-0.17729101606975	0.130930155165501	shuffle
0.0810052211182257	-0.0741159914597614	0.232299113826501	shuffle
0.0523139277138366	-0.102710046692975	0.204856891889543	shuffle
-0.0765670649777967	-0.228069861867726	0.0785558450166485	shuffle
-0.0551404373198911	-0.207571040910575	0.0999044473724524	shuffle
-0.0497644652631947	-0.202406762817679	0.105238534465246	shuffle
-0.0121954284691264	-0.16607857770987	0.142267559411199	shuffle
0.0220822458117354	-0.132564590859189	0.175679516851598	shuffle
-0.0246209544768988	-0.178140112976199	0.130068298554133	shuffle
0.111028482002904	-0.0439188695135937	0.260759709591479	shuffle
0.0831837891408611	-0.0719343377558678	0.234373045290481	shuffle
0.0729348238747142	-0.0821849021179106	0.224604331125588	shuffle
