cor	ci95_lower	ci95_upper	type
0.18254903694511	0.0291747993403186	0.327525237175936	real
0.037200702001291	-0.117669729284414	0.190304537692776	shuffle
0.134555975185851	-0.0200555932883173	0.282882214253308	shuffle
0.217845614915104	0.0658625337533742	0.359950059617194	shuffle
0.0299380506066794	-0.124833677146572	0.18328739554446	shuffle
0.195586014441201	0.0426776506652557	0.339541419717121	shuffle
-0.0215748287066821	-0.175187482032232	0.133063294982681	shuffle
-0.110797964540177	-0.260542177207556	0.0441518054960314	shuffle
-0.0576414684047479	-0.209970694468508	0.0974198610673448	shuffle
-0.037476805341155	-0.190570999214632	0.11739705991257	shuffle
-0.0116791353267495	-0.165576410430295	0.14277343764582	shuffle
0.0334340780436346	-0.121387175959687	0.186667193807275	shuffle
0.072047945583909	-0.0830703785799543	0.223757575069222	shuffle
-0.00868258649640229	-0.162660271050605	0.145707946172661	shuffle
-0.0247291304524185	-0.178244917897483	0.129961886387247	shuffle
-0.176281356316741	-0.321731574700847	-0.0227030079519657	shuffle
0.0714436272191887	-0.0836736014592253	0.223180464749773	shuffle
0.110803486285501	-0.0441462260151631	0.260547388089984	shuffle
-0.00232275155631082	-0.156462170047933	0.151927118945129	shuffle
0.0516164563255046	-0.103401979037696	0.204186785620059	shuffle
0.0609641964857091	-0.0941159882779132	0.21315590192278	shuffle
-0.0999652404996598	-0.250302488044604	0.0550792174256358	shuffle
-0.00768800025181954	-0.16169177859976	0.146681340462361	shuffle
-0.0438865922575822	-0.19675061521379	0.111060422816569	shuffle
0.0198406960642131	-0.134767059519374	0.173505339965397	shuffle
0.0533993459842475	-0.101632949903749	0.205899439693018	shuffle
0.176597112711621	0.0230287395405137	0.32202371153985	shuffle
-0.0309988499588684	-0.184313310743209	0.123788300115272	shuffle
-0.0527142742855927	-0.205241466375586	0.102312811733488	shuffle
0.00651732602796884	-0.147826687857025	0.160551437763255	shuffle
0.0148405726407103	-0.139674507990862	0.168650099004741	shuffle
-0.0384067393814956	-0.191468293069659	0.116478519898059	shuffle
-0.0434315012972901	-0.196312266421875	0.111510736059274	shuffle
-0.0406595812412466	-0.193641001217624	0.114252182035421	shuffle
-0.0536685681879919	-0.206157974930862	0.101365735452796	shuffle
0.125101056854464	-0.0296666702762444	0.274010840375156	shuffle
-0.0630315255247657	-0.215136037387006	0.0920586653697164	shuffle
0.139607886788704	-0.0149085037363431	0.287611949214759	shuffle
0.212844445108692	0.0606391437360194	0.355376568421074	shuffle
-0.0859017411697296	-0.236958526151949	0.0692104534694793	shuffle
0.0286615048321829	-0.126091208592135	0.182052385707076	shuffle
0.0585944616969854	-0.0964726250774515	0.210884576226106	shuffle
0.137931607875862	-0.0166172719931327	0.286043371856701	shuffle
0.191183293337281	0.0381113436941673	0.335488679494629	shuffle
0.0318072868983461	-0.122991385793964	0.185094938160206	shuffle
-0.0762750451525531	-0.227791386820877	0.0788477609194796	shuffle
0.00192444967756457	-0.152316205474352	0.156073592809982	shuffle
0.0686021347956535	-0.0865084197922095	0.220465477291106	shuffle
0.124860626603021	-0.0299106989576181	0.273784918261952	shuffle
0.06572823883857	-0.0893730129002553	0.217717133235751	shuffle
-0.0186544232437765	-0.172354115786451	0.135932031993733	shuffle
0.044454292928262	-0.110498592879456	0.197297345309149	shuffle
0.00556722559032941	-0.148755929210591	0.159625653030698	shuffle
-0.00791597095605518	-0.161913794512897	0.146458253606152	shuffle
-0.0536575389493322	-0.206147383923843	0.101376682879212	shuffle
-0.0243978733537937	-0.177923972662508	0.130287731089709	shuffle
0.0461745725060667	-0.108795498200873	0.198953498273347	shuffle
0.0931710353317898	-0.061913910609931	0.243863021585078	shuffle
-0.109277602153862	-0.259107076109306	0.0456876971869233	shuffle
-0.0056634223952968	-0.159719400223765	0.148661856767706	shuffle
0.213176803770707	0.0609860119119898	0.355680717038049	shuffle
0.0441987973271408	-0.110751458593186	0.197051299351348	shuffle
0.0659720503349953	-0.0891300901955571	0.217950386943754	shuffle
-0.0477948529185933	-0.200512582111301	0.107190571333906	shuffle
0.103321433953002	-0.0516976539661136	0.25347854749919	shuffle
0.0843273746899153	-0.0707885380819817	0.235461153939658	shuffle
-0.00380993077938181	-0.157912617847909	0.150473925370247	shuffle
-0.0778581173898714	-0.229300734328388	0.0772649331920988	shuffle
-0.109558359294168	-0.259372138319714	0.045404127477559	shuffle
-0.0567880670786098	-0.209152091380324	0.0982678683987318	shuffle
0.119989325470015	-0.0348509365234874	0.269204020769451	shuffle
0.0914968119736482	-0.0635958803083417	0.242274169477385	shuffle
-0.00331719909076984	-0.157432129652608	0.150955470812341	shuffle
0.14663550137941	-0.00773484416011889	0.2941794062777	shuffle
-0.0476022392220753	-0.200327283768845	0.107381402161264	shuffle
0.11799165228251	-0.0368746942998889	0.26732348511546	shuffle
-0.0277291812867723	-0.181150091972359	0.127009330886625	shuffle
-0.00454271667272502	-0.158627060395492	0.149757640131465	shuffle
0.0930976476988803	-0.061987656258644	0.243793393049709	shuffle
0.133449294948597	-0.0211820301383619	0.28184514649812	shuffle
-0.0273553400372625	-0.18078821945476	0.127377403286076	shuffle
0.053074542768474	-0.101955301093044	0.205587501432957	shuffle
-0.0294232486890594	-0.182789402362537	0.12534087085532	shuffle
-0.0696811937768182	-0.221496773122766	0.0854321910351529	shuffle
0.0663844087493547	-0.0887191929951617	0.218344849458583	shuffle
-0.0297305945632599	-0.183086722590652	0.125038076947667	shuffle
-0.0722890688051915	-0.223987812584252	0.0828296607274052	shuffle
0.106663861981959	-0.0483264233374795	0.25663836612627	shuffle
0.143373028635544	-0.0110670934244545	0.291132287072433	shuffle
-0.00395483497617609	-0.158053907552317	0.150332296930442	shuffle
-0.0523045128115096	-0.204847847330606	0.102719387824849	shuffle
0.156650182297164	0.00251548660992388	0.303514327323222	shuffle
0.075928581497644	-0.0791940667752241	0.227460961065531	shuffle
-0.142557845928109	-0.290370445582899	0.0118991756685465	shuffle
-0.0776467220813591	-0.229099225965225	0.0774763410962817	shuffle
0.103369797803066	-0.0516488985302173	0.253524291909387	shuffle
0.0216762678784256	-0.132963603909413	0.175285852225322	shuffle
-0.0692029628431265	-0.221039752359997	0.0859092123006184	shuffle
0.0500826794040477	-0.104923047728812	0.20271268295565	shuffle
-0.024863047063189	-0.178374656481849	0.129830148349548	shuffle
-0.0514568126217784	-0.20403338538625	0.103560333815001	shuffle
0.155268426249335	0.00109928843950051	0.302228034216683	shuffle
0.021376555062614	-0.133258142747495	0.174995198176501	shuffle
0.156894735151789	0.00276619968576821	0.303741928737517	shuffle
-0.0126986738469599	-0.166567977414478	0.141774388065028	shuffle
0.0249994022300494	-0.129696005814765	0.178506752058354	shuffle
-0.0309557940811639	-0.184271677252156	0.123830736720105	shuffle
0.0114356853104127	-0.143011948680129	0.165339593554498	shuffle
-0.0550382319403154	-0.207472939322035	0.100005939626141	shuffle
-0.0852428404981188	-0.2363319362798	0.0698710047187239	shuffle
0.0296600818097605	-0.125107547915877	0.18301851244829	shuffle
-0.0140096902676892	-0.167842568246138	0.140489255547788	shuffle
-0.0507482825548912	-0.203352474630628	0.104263048547584	shuffle
-0.0220190111393821	-0.175618203315875	0.132626743984857	shuffle
0.0903754465094269	-0.0647219416522412	0.241209531750139	shuffle
-0.065818754496376	-0.217803731313252	0.0892828293623335	shuffle
-0.0201015933540298	-0.173758472674571	0.134510789469335	shuffle
0.0733808359668381	-0.081739502437599	0.22503007916007	shuffle
0.0157742972998328	-0.138758665496121	0.169557335386604	shuffle
-0.0409042287123687	-0.193876856271018	0.114010319070474	shuffle
-0.0397216975930778	-0.192736660428769	0.115179220855357	shuffle
0.12774938965476	-0.0269774794939454	0.276498279358988	shuffle
-0.0204633330975943	-0.174109413068636	0.134155431272096	shuffle
-0.0702256719262971	-0.222017021774673	0.084889003540891	shuffle
0.0995561789521209	-0.055491128114221	0.249915160344964	shuffle
0.042396873950921	-0.112534264780769	0.195315474155838	shuffle
0.117905175351265	-0.0369622717274304	0.26724205323668	shuffle
0.00849126512563797	-0.145895214222671	0.162473992199576	shuffle
-0.00378248869364136	-0.157885859567285	0.15050074637701	shuffle
-0.0934360555926765	-0.244114453913103	0.0616475833689012	shuffle
0.0525789068892535	-0.102447132547072	0.205111437194366	shuffle
-0.00140815730234504	-0.155569834825602	0.152820481459994	shuffle
-0.0203016512625205	-0.173952562893759	0.134314265750192	shuffle
-0.157426531080679	-0.304236804823788	-0.0033114583006308	shuffle
0.133017448905937	-0.0216214790969422	0.281440370392445	shuffle
-0.0269463934823965	-0.180392317964562	0.127779990469115	shuffle
0.0273343771559558	-0.127398041421449	0.180767926481439	shuffle
0.0506216393097686	-0.104388636052584	0.20323075253188	shuffle
-0.0335699893823427	-0.186798513423268	0.121253114573921	shuffle
-0.00449146096107072	-0.158577092982183	0.149807746951029	shuffle
-0.10932682434	-0.259153548300608	0.0456379837080893	shuffle
0.00409920400603573	-0.150191185261462	0.15819466916407	shuffle
-0.202338155571795	-0.345746452773416	-0.0496931051541429	shuffle
0.0202277332908548	-0.134386879316148	0.173880851271604	shuffle
-0.0476372928999679	-0.200361006942134	0.1073466737969	shuffle
0.0773164813641659	-0.0778065735749401	0.22878440460443	shuffle
0.0773914464609122	-0.0777316133347181	0.22885587226593	shuffle
-0.0818606039014939	-0.233113576669323	0.0732595741334615	shuffle
0.0851664479579196	-0.0699475798273409	0.236259281704087	shuffle
-0.0580923145871724	-0.210403070775824	0.0969717735855811	shuffle
-0.0289479528271961	-0.1823295554473	0.12580907055369	shuffle
-0.0261573699256035	-0.179628323088157	0.12855660015744	shuffle
0.00664027491190162	-0.147706418351016	0.160671220242148	shuffle
0.145156443238992	-0.00924596077396876	0.292798351296205	shuffle
-0.01252498321861	-0.166399074062911	0.141944610397996	shuffle
-0.057228517195698	-0.209574608398416	0.0978302303001934	shuffle
0.0272997118698839	-0.127432169397162	0.180734368702627	shuffle
-0.0828836519313902	-0.234087405376096	0.072234988257361	shuffle
0.0288411142964396	-0.125914304496909	0.182226180343101	shuffle
0.0469549512756607	-0.108022615027434	0.199704499368963	shuffle
-0.0318455701515307	-0.185131947048766	0.122953643239049	shuffle
-0.0903878460530831	-0.241221306009924	0.0647094923429714	shuffle
-0.0268104838208283	-0.180260732702766	0.127913775363935	shuffle
0.0799883321385777	-0.0751338127190197	0.231330594824932	shuffle
0.0811112612282636	-0.0740098355220899	0.232400092694729	shuffle
0.0412753217646859	-0.113643414635767	0.194234578809051	shuffle
-0.0139953342535979	-0.167828613887494	0.140503330945293	shuffle
0.0214794245791989	-0.133157052158148	0.175094961498056	shuffle
-0.000850777882721233	-0.155025897270672	0.15336479807293	shuffle
-0.050122359503692	-0.202750827950613	0.104883705538268	shuffle
0.0128006525765864	-0.141674441414048	0.166667141190123	shuffle
-0.00287283751759866	-0.15699874707759	0.151389681483688	shuffle
0.0763245602137553	-0.078798265352332	0.227838606966229	shuffle
0.0909477553091826	-0.0641472855745861	0.241752933906353	shuffle
0.0749701706240766	-0.0801518461300319	0.226546733490054	shuffle
-0.10105011815969	-0.251329492070415	0.0539865278853693	shuffle
-0.00160169971461603	-0.155758687869241	0.152631453039204	shuffle
-0.150160821621388	-0.297468654383654	0.00413026770643862	shuffle
-0.0285457400061465	-0.181940363669627	0.126205224493435	shuffle
0.0480455015257501	-0.106942225678426	0.200753694873134	shuffle
-0.034854257616963	-0.188039122769433	0.119986048209572	shuffle
0.0331256009883534	-0.121691433232162	0.186369118234537	shuffle
0.0273711903976487	-0.127361798382182	0.180803563200574	shuffle
0.0560579125516316	-0.098993229217851	0.208451540036067	shuffle
0.00119193086008828	-0.153031651504958	0.155358834038113	shuffle
-0.0854501246716235	-0.236529069317268	0.0696632159525359	shuffle
0.0180721257981938	-0.136503717507153	0.171788868746647	shuffle
0.0824272987414542	-0.0726920678886144	0.233653045035372	shuffle
-0.086293919597585	-0.23733141350487	0.0688172280364216	shuffle
-0.0408326943597799	-0.193807894630302	0.114081041139634	shuffle
-0.0191063658278898	-0.172792755162347	0.135488254753468	shuffle
0.135353462790584	-0.0192436254076302	0.283629323294954	shuffle
0.155798982972939	0.00164299687226274	0.302721999072775	shuffle
-0.0338056001430407	-0.187026151173185	0.121020697438253	shuffle
0.0153362578781059	-0.139188348752672	0.169131754897524	shuffle
0.0619838405625738	-0.0931014449120853	0.214132696831941	shuffle
-0.0131009510633907	-0.166959132357799	0.141380108530452	shuffle
-0.0296280710397781	-0.182987546510501	0.125139085244325	shuffle
0.0103057817810818	-0.144118694546114	0.164240243462077	shuffle
0.03784832854276	-0.117030120585909	0.190929512839287	shuffle
0.0391736943253426	-0.115720762655546	0.192208135837409	shuffle
0.0829702078391155	-0.0721482872149304	0.234169783119484	shuffle
-0.0324024841243992	-0.185670273425461	0.122404544266803	shuffle
-0.0648369088668847	-0.216864252816514	0.0902609365991479	shuffle
-0.0290865202484373	-0.18246362582327	0.125672579062172	shuffle
0.206472891533264	0.0539965323205038	0.349539980266525	shuffle
0.0611105925030305	-0.0939703443985965	0.213296164552522	shuffle
0.0241987823877889	-0.130483553041497	0.177731063580553	shuffle
0.0130303868375636	-0.141449273412042	0.166890522613881	shuffle
-0.0364986406817857	-0.189626891469216	0.118362953721547	shuffle
-0.0712708126831881	-0.223015411229911	0.0838460818229998	shuffle
0.0254962930735278	-0.129207130087962	0.178988073741967	shuffle
0.185560415218005	0.0322888249491995	0.330304996048947	shuffle
-0.0834041316296123	-0.23458272813085	0.0717136004945843	shuffle
0.0411628206010933	-0.113754650434877	0.194126135368904	shuffle
0.265584235651933	0.116145141197652	0.403265222285105	shuffle
-0.091649448450906	-0.242419056295649	0.0634425741019106	shuffle
-0.101059995658848	-0.251338841092557	0.0539765775553139	shuffle
-0.072274962597843	-0.223974343679541	0.0828437437183573	shuffle
-0.0350998669153286	-0.18827632687507	0.119743671200833	shuffle
-0.0894058816678901	-0.240288722592371	0.0656952483900693	shuffle
-0.0312731668713862	-0.184578552450285	0.123517915408669	shuffle
-0.0349373215781637	-0.188119346132091	0.119904079459824	shuffle
0.0578411353775562	-0.0972214235998157	0.210162189008937	shuffle
0.066538087723877	-0.0885660450860736	0.218491846234689	shuffle
0.0153341436466648	-0.139190422511341	0.169129700661011	shuffle
-0.0621237683040895	-0.214266720558394	0.0929621920162811	shuffle
0.0218730492725415	-0.132770204720685	0.175476671375935	shuffle
0.0171032739251063	-0.137454684676286	0.170848161728807	shuffle
-0.0304537304761338	-0.183786159118909	0.124325537351987	shuffle
0.00333175554941794	-0.15094124587131	0.157446325455603	shuffle
-0.0507137063037362	-0.203319242423343	0.104297337050234	shuffle
-0.134094316691555	-0.282449637192138	0.0205255410983694	shuffle
-0.0616049942331645	-0.213769806531361	0.0934784336874803	shuffle
0.00080652917280763	-0.153408005755932	0.154982711665406	shuffle
-0.0143096769369906	-0.168134147725629	0.140195118421384	shuffle
0.119807376034966	-0.0350353143386869	0.269032787385418	shuffle
0.314319601664279	0.16828011944529	0.446857376225702	shuffle
0.0819277530451449	-0.0731923340903585	0.233177504539771	shuffle
-0.089450470028829	-0.240331074733815	0.0656504944200948	shuffle
-0.0777826951439305	-0.229228841065681	0.0773403615325873	shuffle
-0.0921395483093488	-0.242884227344474	0.0629502743241564	shuffle
-0.091417892792159	-0.242199254542907	0.0636751428960539	shuffle
0.103647410708873	-0.0513690235906291	0.25378685600111	shuffle
-0.0282390319915721	-0.181643552571062	0.12650727913226	shuffle
0.0710225726577852	-0.0840938255617218	0.222778304316061	shuffle
0.131814007547572	-0.0228457925812484	0.280312087065069	shuffle
0.069315901067943	-0.0857965661629197	0.221147687640982	shuffle
-0.0290950638208041	-0.182471891937211	0.125664163292461	shuffle
-0.00968952793328634	-0.163640492380999	0.144722155344299	shuffle
0.135175783441222	-0.019424548603812	0.283462883816853	shuffle
-0.0622264804135935	-0.214365095257921	0.0928599714069697	shuffle
-0.00151412579994764	-0.15567323719226	0.152716985864544	shuffle
-0.0222581024366446	-0.175850024500322	0.132391735638407	shuffle
-0.0256315985170254	-0.179119126912232	0.129073994165523	shuffle
-0.0669804902541958	-0.218914973924964	0.0881251304126119	shuffle
0.0373839359464	-0.117488776873161	0.190481375434251	shuffle
0.0182837216691311	-0.136295989719595	0.17199428053059	shuffle
-0.0175005810322139	-0.171233961089922	0.137064746195842	shuffle
-0.0158746592635217	-0.169654834730761	0.138660209872862	shuffle
-0.0311856480699228	-0.184493931452418	0.123604182165351	shuffle
0.0560141620116802	-0.0990366872891453	0.208409558339579	shuffle
0.0082914838927693	-0.146090751096854	0.162279464741407	shuffle
0.0688740708327037	-0.0862372311234634	0.220725408437124	shuffle
-0.0886148375750029	-0.239537255859224	0.0664891268377718	shuffle
0.10461662304556	-0.0503917230247822	0.254703355930255	shuffle
-0.117713018339772	-0.267061099003618	0.0371568655932859	shuffle
-0.0872678287703692	-0.238257224069696	0.0678405103003263	shuffle
-0.00818976450053542	-0.162180415730238	0.146190304823022	shuffle
0.101874678297592	-0.0531557819130361	0.252109839145545	shuffle
0.0276270193251074	-0.127109920589888	0.181051204906878	shuffle
0.0312195835267455	-0.123570732467198	0.184526743554323	shuffle
0.0331846572148294	-0.121633187111499	0.186426185338215	shuffle
0.0923730079151879	-0.0627157402423787	0.24310578770954	shuffle
-0.013456700545368	-0.167305005630354	0.141031390871879	shuffle
-0.122881361940663	-0.271924462456697	0.0319188856809308	shuffle
0.0333617762293297	-0.121458491338573	0.186597332456111	shuffle
0.05996805985546	-0.0951068308419636	0.212201332697172	shuffle
-0.026427619383274	-0.179890020788072	0.128290623954482	shuffle
-0.0264499906280631	-0.179911683145026	0.128268605452118	shuffle
0.125943233382313	-0.0288117436891683	0.274802068363505	shuffle
0.059062177825433	-0.0960076317764259	0.211332999576728	shuffle
-0.0117635846517065	-0.165658554667822	0.142690697392227	shuffle
0.0556266567259573	-0.0994215763174339	0.208037695457341	shuffle
0.0880932343824617	-0.0670124915514318	0.239041650464687	shuffle
0.0482537201804167	-0.106735905423717	0.200953977848921	shuffle
0.0738316967844816	-0.081289197706836	0.225460396775278	shuffle
-0.00662246353652524	-0.160653867858991	0.147723841852661	shuffle
-0.0370956432414841	-0.190203141769822	0.117773475268541	shuffle
-0.0285265404181971	-0.181921784437943	0.126224133627081	shuffle
0.0233079907960649	-0.131359570326296	0.17686778702379	shuffle
0.0505035423868301	-0.104505744026123	0.203117240408976	shuffle
-0.0333978409648196	-0.186632180062369	0.121422918844921	shuffle
0.110887345198294	-0.0440614890827614	0.260626524846251	shuffle
0.0949574731449064	-0.0601182353425332	0.245557474546548	shuffle
0.0196042055995912	-0.134999337750485	0.17327587016357	shuffle
-0.0719721209920312	-0.223685170141384	0.0831460719569469	shuffle
-0.0176248857211715	-0.171354655691193	0.136942737075375	shuffle
-0.00890826971276177	-0.162879991987156	0.145487030041059	shuffle
0.145071064393623	-0.00933316867561546	0.292718610886986	shuffle
0.0541929369558273	-0.100845212995812	0.206661467401105	shuffle
-0.0662732917878439	-0.218238559737865	0.0888299214040124	shuffle
0.0559974282067366	-0.0990533090736458	0.208393500937388	shuffle
-0.0590098565007368	-0.211282839633424	0.0960596518728888	shuffle
-0.0967432530326709	-0.247250384178529	0.0583222177008392	shuffle
-0.0565399973784248	-0.208914096889069	0.0985143279190257	shuffle
-0.0447086880602396	-0.197542312369623	0.110246796374633	shuffle
-0.00299443778289603	-0.157117348821827	0.151270864945467	shuffle
0.0536558512040644	-0.101378358101879	0.206145763235662	shuffle
-0.000815649843917155	-0.154991613254544	0.153399099712525	shuffle
0.0267531380749777	-0.127970222896236	0.180205209947213	shuffle
-0.0657163872352761	-0.217705794400868	0.0893848208293743	shuffle
0.0217466878409009	-0.132894395652094	0.175354139872291	shuffle
-0.106767200790644	-0.256736008081842	0.0482221377242839	shuffle
0.0526306431257062	-0.102395796972832	0.205161133847328	shuffle
-0.0167006112942327	-0.17045711385664	0.137849830480881	shuffle
-0.0676779167533257	-0.219581898531728	0.0874299259956086	shuffle
-0.0409060127350717	-0.193878576112549	0.114008555285553	shuffle
0.0128162292010163	-0.141659174899875	0.166682287573612	shuffle
-0.0534731996850563	-0.205970363837958	0.101559649201257	shuffle
0.0186550183823658	-0.135931447648429	0.172354693446854	shuffle
0.048620952997342	-0.106371988260583	0.201307183491234	shuffle
-0.110013623745488	-0.259801904539499	0.0449442491910821	shuffle
0.0161643615349101	-0.138375993258676	0.169936256952608	shuffle
0.00668997099486704	-0.147657803980278	0.160719635172923	shuffle
0.0488909289312538	-0.10610442338567	0.201566821844838	shuffle
-0.0549806300222787	-0.207417648908158	0.100063138212092	shuffle
0.0359950251570097	-0.118860137246902	0.189140699957359	shuffle
-0.0900991411485341	-0.240947148388976	0.0649993434420663	shuffle
-0.0409187809576664	-0.193890884964056	0.113995931875942	shuffle
0.0739765316376388	-0.081144528050925	0.225598619761095	shuffle
0.0521587556297987	-0.102863999438141	0.204707820311112	shuffle
0.0260348811810884	-0.128677144748207	0.179509703215902	shuffle
-0.0325451938263968	-0.185808205232163	0.122263821909811	shuffle
-0.0546204485352666	-0.207071899038091	0.100420774450496	shuffle
-0.129461504246049	-0.278105318014502	0.0252377579907283	shuffle
0.10792515283659	-0.0470533452468208	0.257829915338816	shuffle
-0.0201513456743988	-0.173806742007921	0.134461917201328	shuffle
0.055202561184301	-0.09984275539334	0.207630668854694	shuffle
-0.0224000442378893	-0.175987642181204	0.132252209545027	shuffle
-0.0651918907171785	-0.217203949526459	0.089907340876666	shuffle
-0.0819564713197656	-0.233204844744566	0.0731635765094182	shuffle
-0.036004233428684	-0.189149590316624	0.118851047276917	shuffle
-0.0693578081664966	-0.221187737390379	0.0857547664380414	shuffle
0.13268647806415	-0.0219582364419501	0.281130110445401	shuffle
-0.0990158112810441	-0.249403429168047	0.0560351785876315	shuffle
-0.0722447927692615	-0.223945536695499	0.0828738636846267	shuffle
-0.14847840675004	-0.295899338067146	0.00585100690101306	shuffle
-0.0801285507108501	-0.231464161505393	0.0749934848042063	shuffle
0.072094015734637	-0.083024387279747	0.223801566653601	shuffle
-0.0837060799159303	-0.234870046027267	0.0714110865487484	shuffle
-0.101708001119217	-0.251952114981892	0.0533237268068453	shuffle
0.0282672629516482	-0.12647947769154	0.181670873736857	shuffle
0.0164365570832911	-0.13810892867314	0.170200649963636	shuffle
-0.0613770079611361	-0.213551402209418	0.0937052806693232	shuffle
0.0800795521645466	-0.0750425222579708	0.231417488071626	shuffle
0.037334448085912	-0.117537649550247	0.190433616041044	shuffle
0.137869383940902	-0.0166806845685418	0.285985130549428	shuffle
0.0110945841429401	-0.143346099598851	0.165007756315071	shuffle
0.00112636600667899	-0.153095680359158	0.155294850944451	shuffle
-0.090904340184861	-0.241711714944166	0.0641908823681983	shuffle
0.0794080885450539	-0.0757144434765368	0.230777817008075	shuffle
-0.0657860923622368	-0.217772483094841	0.0893153719459071	shuffle
-0.0401504666784249	-0.193150127095134	0.114755443141115	shuffle
-0.0634279921916537	-0.215515639440261	0.0916639662794872	shuffle
0.0181106389066626	-0.136465909450381	0.171826257268584	shuffle
0.00724328542632023	-0.14711648291012	0.161258635235396	shuffle
0.00101256817103084	-0.153206809159099	0.155183795423992	shuffle
0.0095905122471898	-0.144819104816148	0.163544117640388	shuffle
-0.0122849324129775	-0.166165624694985	0.142179852775381	shuffle
-0.00721530310614744	-0.161231379029731	0.147143860919812	shuffle
-0.00524032141115565	-0.159307052563964	0.149075593328334	shuffle
-0.0200439598230698	-0.17370255612596	0.134567402599456	shuffle
-0.0460143905328203	-0.198799324216015	0.108954118441847	shuffle
-0.0688730659490484	-0.220724447954778	0.0862382332876874	shuffle
0.0407353497805079	-0.114177277834492	0.193714048591618	shuffle
0.0777972525194962	-0.0773258031189948	0.229242717434895	shuffle
-0.116728319834315	-0.266133643251088	0.0381538673590026	shuffle
0.293845256056863	0.146277578501981	0.428620105672593	shuffle
-0.0461184734897864	-0.198899504213041	0.108851051164389	shuffle
-0.0578071595821485	-0.210129604678744	0.0972551910502075	shuffle
-0.032966562305704	-0.18621543112643	0.121848284994289	shuffle
0.00383918019401045	-0.150445337688654	0.15794113817302	shuffle
0.0247565123472523	-0.129934950388872	0.178271445946453	shuffle
-0.0708433333040826	-0.22260709235704	0.084272694655104	shuffle
0.18289474125401	0.0295321362937809	0.327844479294695	shuffle
-0.0634618002949774	-0.215548007312005	0.0916303066485115	shuffle
0.022492904584183	-0.132160926272864	0.176077670378061	shuffle
0.0442632639011983	-0.110687657483816	0.1971133834105	shuffle
-0.0968339013053708	-0.247336293750492	0.0582310229697263	shuffle
-0.0837441478779994	-0.234906267596129	0.0713729452457092	shuffle
0.0946372473542543	-0.0604401908317957	0.245253805073558	shuffle
0.0421936106923967	-0.112735308966022	0.195119606852854	shuffle
-0.105524242976785	-0.255561368868886	0.0494762596255567	shuffle
0.124750955783981	-0.0300220050519809	0.273681859785048	shuffle
-0.0381571434160696	-0.191227482905607	0.116725083702629	shuffle
-0.13039527688058	-0.278981432598027	0.0242885337329217	shuffle
-0.118409340964871	-0.267716775868112	0.0364516566595199	shuffle
0.0466868144828523	-0.108288197473952	0.199446476929944	shuffle
0.0470468390276667	-0.107931597534528	0.199792916161485	shuffle
0.0435021328325907	-0.111440850211825	0.196380303526725	shuffle
-0.00289805300724294	-0.157023341147949	0.151365043604529	shuffle
0.100335682298764	-0.0547061499343498	0.250653206383996	shuffle
-0.0800883374593827	-0.231425856531899	0.0750337300423417	shuffle
-0.0584209635813286	-0.21071821841788	0.0966450959578342	shuffle
0.0119565838612759	-0.142501595963894	0.165846277848848	shuffle
0.0669963727939575	-0.0881093001576343	0.218930163422908	shuffle
-0.0740875549535412	-0.225704570609879	0.0810336269414802	shuffle
0.0354387404262412	-0.119409227059133	0.188603574188484	shuffle
-0.0365292684729536	-0.189656457182631	0.11833271459276	shuffle
-0.109308425245424	-0.259136177226434	0.0456565665361254	shuffle
0.076516546701238	-0.0786063472180453	0.228021688557386	shuffle
-0.155924387892706	-0.302838743431907	-0.00177152371167699	shuffle
0.052150159671648	-0.102872527632331	0.204699562091484	shuffle
-0.00117598985018144	-0.155343277725945	0.153047219181198	shuffle
-0.0135967781657179	-0.167441184067778	0.140894071537033	shuffle
-0.0685525708982712	-0.220418099118001	0.0865578449954519	shuffle
-0.0919659458773354	-0.242719463086624	0.0631246646409411	shuffle
0.0246060115779399	-0.130082997529095	0.178125635464345	shuffle
-0.0835539625226989	-0.234725302524805	0.0715634924804081	shuffle
-0.0923367265495693	-0.243071356606948	0.0627521897137607	shuffle
-0.0150943473795919	-0.168896700351833	0.139425619560033	shuffle
0.144182566442473	-0.0102405613846525	0.291888667617608	shuffle
0.0135466989614111	-0.140943165308329	0.167392499536082	shuffle
0.0229561520068394	-0.131705507128007	0.176526750833139	shuffle
0.0275947173916857	-0.127141724738791	0.181019937796289	shuffle
0.0260532459766193	-0.128659071731915	0.17952748823398	shuffle
0.0105691896003667	-0.143860719866616	0.164496562723285	shuffle
-0.0430375999445748	-0.195932806814874	0.111900450720684	shuffle
0.0704395806036794	-0.0846755766929805	0.22222138778504	shuffle
0.0497770259335804	-0.105226082043467	0.202418838779259	shuffle
0.0022060201182582	-0.152041154567638	0.156348293580067	shuffle
-0.0587809474661978	-0.211063377345305	0.0962872330556243	shuffle
-0.0135042917780311	-0.167351272777918	0.140984737430704	shuffle
-0.016834781720426	-0.170587419532346	0.137718170186828	shuffle
0.119647359819137	-0.0351974574930157	0.268882187650097	shuffle
-0.119546695149461	-0.268787443058915	0.0352994560222631	shuffle
0.108486723744078	-0.0464863642183575	0.258360288158792	shuffle
0.135892178554457	-0.0186950125541776	0.284133905676154	shuffle
0.0160557754578193	-0.13848252618664	0.169830777338587	shuffle
-0.00583304852458852	-0.159884700124133	0.148495969771602	shuffle
-0.0873402770222834	-0.238326083344104	0.0677678412390436	shuffle
0.0297715754347201	-0.124997700847633	0.18312636454336	shuffle
-0.0891064667369739	-0.240004309199244	0.0659957592376832	shuffle
-0.0643504599480676	-0.216398690066789	0.0907454225416816	shuffle
0.126681831749081	-0.0280617769770983	0.275495818383105	shuffle
0.188173144669353	0.0349930262329167	0.332714735531727	shuffle
0.0669250156356281	-0.0881804217958913	0.218861919388722	shuffle
-0.0673932837790236	-0.219309731104482	0.0877136703451314	shuffle
-0.138210328944293	-0.286304240022627	0.0163332113628049	shuffle
-0.0338285217243252	-0.187048296215484	0.120998085645235	shuffle
0.0956213347011177	-0.0594506851448728	0.246186918985343	shuffle
0.0247824994688999	-0.129909386239524	0.17829662250886	shuffle
0.12699349820354	-0.0277452611467675	0.27578851367647	shuffle
-0.020741735941563	-0.174379477921328	0.133881912724044	shuffle
0.0228456995906908	-0.131814098970139	0.176419682061603	shuffle
0.266883254481894	0.117524174457005	0.404435314125028	shuffle
0.059100849610619	-0.0959691820908954	0.211370073324249	shuffle
0.0713550452164682	-0.0837620133316161	0.223095862008291	shuffle
-0.0286755949460334	-0.182066020002139	0.126077331066509	shuffle
0.0185280631049039	-0.13605609806094	0.17223146423115	shuffle
-0.020760311308907	-0.174397496145516	0.133863662404329	shuffle
0.104609956355536	-0.0503984463634673	0.254697052741317	shuffle
0.0102298569439194	-0.14419304943475	0.164166357975736	shuffle
-0.0242587682910006	-0.177789188130523	0.13042455335919	shuffle
-0.197669937442987	-0.341457825696204	-0.0448412329063381	shuffle
-0.0728800465206567	-0.22455203852616	0.0822395999860128	shuffle
-0.105185265162317	-0.255240945919091	0.049818197291152	shuffle
-0.0918453843830001	-0.242605034311962	0.0632457677245153	shuffle
-0.0211040791548622	-0.174730934566981	0.133525891169105	shuffle
0.115776546518192	-0.0391172395774212	0.265236935692865	shuffle
-0.0877284448898087	-0.238694996104815	0.0673784622721671	shuffle
0.0528391088273483	-0.102188937329814	0.205361373293277	shuffle
0.177907375715116	0.0243807440687341	0.323235666988077	shuffle
-0.0595190698712182	-0.211770983441838	0.0955533341853427	shuffle
-0.0193014877040401	-0.172982114666897	0.135296639012715	shuffle
-0.000850766830530375	-0.155025886484091	0.153364808865172	shuffle
-0.0458169258512447	-0.198609255398347	0.109149647034278	shuffle
0.0749954758047593	-0.0801265613046043	0.226570875520579	shuffle
-0.0751698147754905	-0.226737195956022	0.0799523571450831	shuffle
-0.0198757830766497	-0.173539383932762	0.134732596009256	shuffle
-0.0484028596532019	-0.201097425436391	0.10658811750165	shuffle
0.076535726985	-0.0785871731313027	0.228039978614723	shuffle
0.0336715264289141	-0.12115295590953	0.186896616498525	shuffle
-0.0924340902096485	-0.243163754094779	0.0626543739951467	shuffle
0.0913119105803599	-0.0637815831970766	0.242098646889269	shuffle
0.0229636181094923	-0.131698166658121	0.176533988085012	shuffle
-0.133034570943874	-0.281456420154271	0.021604056752508	shuffle
-0.0100222436418716	-0.163964312374017	0.144396360875017	shuffle
0.192523992781675	0.0395011810510555	0.336723370019637	shuffle
-0.0553934014121328	-0.207813834703177	0.0996532344315315	shuffle
-0.0440484678129572	-0.196906520857708	0.110900231349888	shuffle
0.0363096586583914	-0.118549531235695	0.189444456618954	shuffle
0.0454225698512731	-0.109540100591763	0.198229635252808	shuffle
0.0798964581744669	-0.0752257549949544	0.231243076217202	shuffle
-0.000278514829871134	-0.154467337746974	0.153923552156462	shuffle
-0.0244808727665877	-0.178004391412887	0.130206090938084	shuffle
-0.00928512919598938	-0.163246861254969	0.145118096600939	shuffle
-0.148075045838078	-0.295522974358805	0.0062634203306387	shuffle
0.0411214718734366	-0.113795533113839	0.194086277079149	shuffle
0.00108070808644996	-0.15314026787854	0.155250293762863	shuffle
0.0539293086903138	-0.101106918124501	0.20640834486182	shuffle
-0.0714370550685336	-0.223174187910334	0.0836801610713003	shuffle
-0.0360775006301593	-0.189220327098579	0.118778720438294	shuffle
0.0848946739996921	-0.0702199884713985	0.236000792224176	shuffle
-0.0185432425281896	-0.172246198400625	0.136041194476723	shuffle
0.0919752406335348	-0.0631153279409781	0.242728284863177	shuffle
0.00949108871639016	-0.144916450638897	0.163447342976368	shuffle
0.0655852972401535	-0.0895154248385091	0.217580373375	shuffle
-0.0544248837973061	-0.206884154161542	0.10061494043501	shuffle
-0.00724723276899972	-0.161262480129391	0.147112620795823	shuffle
0.0328158556153594	-0.12199691220119	0.186069788722403	shuffle
-0.0107681286585651	-0.164690134361678	0.143665870280201	shuffle
0.0115352357077102	-0.142914420075289	0.1654364337051	shuffle
-0.111188821397897	-0.260911008082054	0.0437568379509039	shuffle
0.0281922539421077	-0.126553344942929	0.181598281508394	shuffle
0.0954669226161982	-0.0596059675754917	0.246040523546495	shuffle
-0.0861750066237318	-0.237218354506648	0.0689364635657823	shuffle
-0.113306403148824	-0.262908497972965	0.041616142953449	shuffle
-0.00844773405888248	-0.162431606916978	0.145937821498374	shuffle
0.134474626772419	-0.0201384073132819	0.282805994631261	shuffle
-0.131569845497703	-0.28008312348719	0.0230941327107349	shuffle
-0.024790501239879	-0.178304374657688	0.129901514665775	shuffle
0.0219908085681456	-0.132654463795693	0.175590857184512	shuffle
0.0475826627646536	-0.107400796775978	0.200308450201974	shuffle
-0.0326670346831417	-0.185925962099102	0.122143672857173	shuffle
0.0218655492269489	-0.132777576074148	0.175469398784407	shuffle
-0.0137726649119277	-0.1676121665397	0.140721639779802	shuffle
0.016253108088092	-0.138288922072289	0.17002246200122	shuffle
0.0685660652951148	-0.0865443884354812	0.220430998494806	shuffle
-0.0873280875326739	-0.238314497809708	0.0677800679952025	shuffle
-0.0497193050751476	-0.20236334495096	0.105283305058547	shuffle
-0.105297457810625	-0.255347001049574	0.0497050290336435	shuffle
-0.119733230852506	-0.268963006334637	0.0351104460737952	shuffle
0.0987109801078102	-0.0563420466799055	0.249114715300932	shuffle
0.0939439612525827	-0.0611371111838028	0.244596261980985	shuffle
-0.0715737296283358	-0.223304718582858	0.0835437444968669	shuffle
-0.04982276720513	-0.202462814529998	0.105180734562101	shuffle
-0.0593067570075234	-0.211567464614198	0.0957644494685573	shuffle
-0.0465991871563469	-0.199362150389988	0.108374985242312	shuffle
-0.0818890750654492	-0.23314068217658	0.0732310646004427	shuffle
0.238818355305716	0.0878582529547803	0.379055215319458	shuffle
-0.0554617380967509	-0.207879420722322	0.099585367418433	shuffle
0.0103903036020929	-0.144035918388072	0.164322492984522	shuffle
0.0509000242367635	-0.104112565324319	0.203498313670762	shuffle
-0.0294570326220544	-0.182822085633391	0.12530758869189	shuffle
-0.0828684234015207	-0.234072911722235	0.0722502420795285	shuffle
0.31363975368418	0.167547184686957	0.446253573089047	shuffle
-0.134336135414649	-0.282676230459333	0.0202793889166338	shuffle
-0.0396032180886238	-0.192622399778845	0.115296311178494	shuffle
-0.0230963619579477	-0.176662660300508	0.131567653670408	shuffle
-0.0895919653093067	-0.240465469862979	0.0655084694690699	shuffle
0.210751210511338	0.0584553710097622	0.353460310159721	shuffle
0.0425297738135636	-0.11240280895888	0.195443531716972	shuffle
-0.0632950276650211	-0.215388335985589	0.0917963434386286	shuffle
-0.000313017606149322	-0.154501017104984	0.153889866653995	shuffle
-0.0951909374875441	-0.24577884968455	0.0598834896044126	shuffle
-0.0966388065357981	-0.247151394759979	0.0584272906276904	shuffle
-0.0124441405329405	-0.166320456491101	0.14202383568235	shuffle
0.00270827108234305	-0.151550473492971	0.156838231579581	shuffle
-0.00212342390818365	-0.156267714998883	0.152121840806075	shuffle
0.0699266300930783	-0.0851873479255761	0.221731298122129	shuffle
-0.080280908328977	-0.231609284894743	0.0748410014124732	shuffle
-0.0195321723042702	-0.173205971996542	0.135070084653793	shuffle
0.0384153181866533	-0.116470044971222	0.191476569572516	shuffle
0.0357867042895259	-0.119065774811807	0.188939564586854	shuffle
-0.0681620971697778	-0.220044819874913	0.0869471993645208	shuffle
0.287668509565681	0.13966834653231	0.423096595537267	shuffle
-0.0957279429541478	-0.246287988425478	0.0593434716134388	shuffle
0.0819238517319548	-0.0731962407233228	0.233173790415827	shuffle
-0.0996434964900282	-0.249997842654739	0.0554032068340116	shuffle
-0.0293637712895726	-0.182731861880622	0.12539946403138	shuffle
0.113923497860899	-0.0409920449417411	0.263490354918162	shuffle
-0.0354248129717906	-0.188590125232517	0.119422973162234	shuffle
-0.145323200989126	-0.292954090408527	0.00907562382737587	shuffle
0.00783328575962097	-0.146539169241004	0.161833270926776	shuffle
-0.0305611676572728	-0.183890062007502	0.124219660856453	shuffle
-0.0553940449750747	-0.20781445236803	0.0996525952984652	shuffle
0.100733781154417	-0.0543051810923392	0.251030065251362	shuffle
0.050318593379392	-0.104689135624546	0.202939463313691	shuffle
-0.0284597148428746	-0.18185711720411	0.126289947378022	shuffle
0.109189507143355	-0.0457766695683942	0.259023901147943	shuffle
-0.0196469180112317	-0.173317315811803	0.134957387365313	shuffle
-0.0481382000251317	-0.20084286200184	0.106850373991032	shuffle
0.176553221289855	0.0229834595751113	0.321983104989509	shuffle
0.123791286270318	-0.0309958202459673	0.27277990535878	shuffle
-0.0502606078727625	-0.202883724284536	0.104746630679193	shuffle
-0.013978670617348	-0.167812416392501	0.14051966877962	shuffle
0.113171089447568	-0.041752976147199	0.262780896499293	shuffle
-0.111563575917798	-0.261264602992838	0.0433780966047593	shuffle
-0.0469565089267811	-0.199705998202239	0.108021072150308	shuffle
0.0616974481115759	-0.0933864372294354	0.213858370365213	shuffle
-0.0106424501287368	-0.164567848045543	0.143788966704134	shuffle
0.0249257568669306	-0.129768456839579	0.178435407985265	shuffle
-0.131946087132921	-0.280435937986938	0.0227114449060549	shuffle
0.0170304794760645	-0.13752612385604	0.170777470613943	shuffle
0.0979846603742	-0.0570731017314102	0.24842669044314	shuffle
0.00684884154973494	-0.147502386485783	0.160874405113581	shuffle
-0.140664081988483	-0.288599875893477	0.0138313738517328	shuffle
0.180616652905469	0.0271781140163537	0.325740159044052	shuffle
0.0116796321197583	-0.142772950913138	0.16557689366933	shuffle
0.0908358937506963	-0.0642596140120391	0.2416467297802	shuffle
0.0664231432288928	-0.0886805930608431	0.218381900353333	shuffle
-0.0601860735363562	-0.212410273804439	0.0948900020788897	shuffle
-0.0489148677276703	-0.201589842971285	0.10608069729473	shuffle
-0.0365982547253175	-0.189723050186443	0.118264602714157	shuffle
-0.0234824710271774	-0.177036896466792	0.131188002974233	shuffle
0.180380106763905	0.0269337807357365	0.325521573746116	shuffle
0.0488435438904396	-0.106151386871626	0.201521252765061	shuffle
0.0463803740090237	-0.108591691625048	0.199151569718035	shuffle
-0.0616174342262457	-0.213781723250965	0.0934660553960986	shuffle
-0.0636111485527119	-0.215690989306815	0.091481610030646	shuffle
0.0646064202471323	-0.0904905042752894	0.216643669075784	shuffle
-0.0328481574589971	-0.186101005675088	0.121965056649937	shuffle
0.0632168977241073	-0.0918741256856669	0.21531353007859	shuffle
0.0700702529995585	-0.0850440634589532	0.221868527866574	shuffle
0.0514684794019704	-0.103548761495868	0.204044596146724	shuffle
0.0520412061142538	-0.102980620308067	0.204594887479375	shuffle
0.0143993080932192	-0.140107229722249	0.168221261727468	shuffle
-0.0938321299742622	-0.244490183288343	0.0612495145278677	shuffle
0.0746490354028342	-0.0804727056923538	0.226240343037748	shuffle
-0.0122896034175561	-0.166170167410707	0.142175275501574	shuffle
0.0671644151574071	-0.0879418061842004	0.219090868670628	shuffle
-0.0344733062495145	-0.187671172886868	0.12036194963198	shuffle
-0.0947150303238015	-0.245327569224857	0.0603619906846229	shuffle
-0.0928004611063001	-0.24351141321103	0.0622862753406095	shuffle
0.0235334006499572	-0.131137921854581	0.17708625668265	shuffle
-0.0673926389752716	-0.219309114513172	0.0877143131072324	shuffle
-0.0279211015428006	-0.181335851659296	0.126820355650724	shuffle
-0.0344584807404	-0.187656852488126	0.120376577714524	shuffle
-0.0310497276509519	-0.184362506939334	0.123738153467434	shuffle
0.18101422134173	0.0275888117787968	0.32610750533901	shuffle
-0.0456682574535199	-0.198466147658989	0.109296849864883	shuffle
-0.0650707863739778	-0.217088063945073	0.0900279767278472	shuffle
-0.0179429754201767	-0.171663486339813	0.136630500268404	shuffle
-0.00341392293173647	-0.157526455837089	0.15086094862059	shuffle
-0.0371197609129906	-0.19022641887602	0.117749659261557	shuffle
0.0463066625243696	-0.108664690088384	0.199080628326534	shuffle
-0.0609847577194604	-0.213175602104563	0.094095533082169	shuffle
0.0178668685656841	-0.136705209542025	0.171589597575986	shuffle
-0.0875295497812915	-0.238505972651863	0.0675779838439477	shuffle
0.0798380189772807	-0.0752842362715473	0.231187406100812	shuffle
0.109448063423981	-0.0455155312481461	0.25926801091821	shuffle
-0.04277582199802	-0.195680601197435	0.112159419927684	shuffle
0.0210125217926052	-0.133615854934763	0.17464213173308	shuffle
-0.079760360978631	-0.231113426312335	0.0753619485370101	shuffle
0.0145376062082863	-0.139971615388046	0.168355671237284	shuffle
-0.0488391382869729	-0.201517015966197	0.10615575324608	shuffle
-0.0123949612323593	-0.166272629844436	0.142072030095685	shuffle
-0.121436003949004	-0.270565160395119	0.0333845748397438	shuffle
-0.0443798020350379	-0.19722561149054	0.110572319088993	shuffle
-0.171957439580183	-0.317728312243086	-0.0182457705789773	shuffle
-0.0234064038542447	-0.176963171881141	0.131262801374686	shuffle
0.0732063480392073	-0.0819137581574326	0.224863525790804	shuffle
-0.0917757504865526	-0.242538940639917	0.0633157123512322	shuffle
0.0361039256379947	-0.118752634184376	0.189245839079453	shuffle
-0.0439339819780122	-0.196796258018916	0.111013526953406	shuffle
-0.00168513130695893	-0.155840094508835	0.152549963841657	shuffle
-0.0914904020838483	-0.242268084883359	0.0636023181629248	shuffle
-0.0084841229117748	-0.162467038015377	0.14590220490789	shuffle
0.0860982830279698	-0.0690133929249537	0.237145405770792	shuffle
-0.00573388198458884	-0.159788063825743	0.148592951400482	shuffle
-0.0266462644987174	-0.180101731214749	0.128075419823538	shuffle
-0.0814366664375699	-0.232709946115647	0.0736840529251614	shuffle
-0.0284091537780242	-0.181808188285627	0.126339741978619	shuffle
0.0154815618084147	-0.139045823130734	0.169272932379066	shuffle
0.0045513117108608	-0.149749237672725	0.158635439322413	shuffle
0.179233545405712	0.0257497341379386	0.324461850401143	shuffle
-0.0527798223739893	-0.205304427639354	0.102247768393635	shuffle
-0.062461314300712	-0.214590000795022	0.0926262489695566	shuffle
0.0599820468234894	-0.0950929203356932	0.212214738019596	shuffle
-0.0346114549694747	-0.187804611699856	0.12022563736191	shuffle
-0.0302537574497238	-0.183592755353249	0.1245225960863	shuffle
0.048685942637798	-0.106307581070723	0.201369686590593	shuffle
0.105778998739802	-0.0492192554958378	0.255802158195633	shuffle
-0.179807668858452	-0.324992536592114	-0.0263425739383281	shuffle
-0.00378356567475094	-0.157886909716319	0.150499693774799	shuffle
-0.00848436655317627	-0.162467275242799	0.145901966435819	shuffle
0.0303450395909491	-0.124432645753251	0.183681040281818	shuffle
-0.0709904159433023	-0.222747588457874	0.0841259165849229	shuffle
-0.0279396284088909	-0.181353783240449	0.126802112485228	shuffle
-0.0753801639231711	-0.226937858552011	0.0797421580399403	shuffle
-0.0835106171529899	-0.234684057094656	0.0716069187422702	shuffle
-0.0743958139182379	-0.225998726941841	0.0807256871475535	shuffle
-0.0205746773368484	-0.174217425390966	0.134046043281585	shuffle
0.0230188191872795	-0.131643893927429	0.176587496625602	shuffle
0.0409430976497692	-0.113971890837421	0.193914326664666	shuffle
-0.0375034534284257	-0.190596715529101	0.117370742018708	shuffle
-0.0821676628696727	-0.233405894751082	0.0729520879807572	shuffle
0.19175080050518	0.0386995782641164	0.336011374469854	shuffle
0.00657471278917421	-0.147770552271598	0.16060734716002	shuffle
0.00297708238342957	-0.151287823310161	0.157100421658286	shuffle
-0.0662050429017921	-0.218173273992622	0.0888979297376677	shuffle
0.0619247406651964	-0.0931602579591689	0.214076088834292	shuffle
-0.0544043793090757	-0.206864468916432	0.100635297583338	shuffle
-0.0894548153745538	-0.240335202118701	0.0656461329016205	shuffle
0.0852518194836522	-0.0698620041545023	0.236340475803507	shuffle
0.00667868174704185	-0.147668847565606	0.160708637024059	shuffle
-0.0764301866779701	-0.227939335490956	0.0786926779172666	shuffle
0.169514483282149	0.0157301880207788	0.315464221525906	shuffle
0.0580048598237687	-0.0970586981328989	0.210319203441228	shuffle
-0.107431791120945	-0.257363887787609	0.0475513775714552	shuffle
-0.0697271076025084	-0.221540647101408	0.0853863896052287	shuffle
-0.00104794016334709	-0.155218315434767	0.153172267205887	shuffle
-0.070101166043092	-0.221898064075111	0.0850132224213267	shuffle
-0.0137977251289729	-0.167636527246034	0.140697071064236	shuffle
0.0427802401881543	-0.112155049317005	0.195684857997196	shuffle
-0.0352689027617799	-0.188439567629053	0.119576849191533	shuffle
-0.117983108588022	-0.267315439953904	0.0368833468264327	shuffle
-0.0652005902156366	-0.217212273971583	0.0898986748569985	shuffle
-0.0290032654684143	-0.182383073664742	0.125754587274163	shuffle
0.0367166871772466	-0.11814766794877	0.189837370733145	shuffle
0.0235562969703614	-0.131115406736659	0.177108447196479	shuffle
0.0512318292295937	-0.10378348740228	0.203817188098321	shuffle
-0.0580713692418365	-0.21038298482096	0.0969925921600225	shuffle
0.051520064372161	-0.103497593684654	0.204094164334304	shuffle
-0.0615445355758961	-0.213711890350538	0.0935385917903443	shuffle
0.0160617349034908	-0.138476679515116	0.16983656638603	shuffle
0.0380349168435294	-0.116845818469578	0.191109551998307	shuffle
0.103884862860291	-0.0511296173198122	0.25401141881369	shuffle
0.00627202709792842	-0.148066627443215	0.160312442664153	shuffle
-0.0325797484708726	-0.185841602085012	0.122229747529932	shuffle
0.0484187924509637	-0.106572328687225	0.201112749774172	shuffle
-0.0404751396629694	-0.193463176617782	0.11443451221325	shuffle
0.0321571233244593	-0.122646473674588	0.18543311314071	shuffle
0.0463004666859016	-0.108670825917509	0.199074665256032	shuffle
0.0154200725180753	-0.13910613748604	0.169213190077471	shuffle
-0.0177843358541713	-0.171509468278386	0.136786224684811	shuffle
-0.0898163648957449	-0.24067859734708	0.0652832169834637	shuffle
0.000817303697129991	-0.153397484775115	0.154993227378895	shuffle
0.0734707783543637	-0.08164967604063	0.225115928100599	shuffle
0.063310370565239	-0.0917810685950628	0.215403025913303	shuffle
-0.0948154098885181	-0.245422759893975	0.0602610699351976	shuffle
0.0714642425836946	-0.0836530253382172	0.2232001537075	shuffle
-0.0216286971240594	-0.175239721076263	0.133010355267894	shuffle
0.00529513115317839	-0.149021999727368	0.159360472319822	shuffle
0.120895464206914	-0.0339325470598007	0.27005665131493	shuffle
-0.0721871807209679	-0.223890526387167	0.0829313797289866	shuffle
0.0180898671854997	-0.136486300963781	0.17180609213872	shuffle
0.123421438397426	-0.0313710413038671	0.272432230423768	shuffle
0.0310791471499348	-0.123709156326471	0.18439095378014	shuffle
0.186301042909452	0.0330551542390821	0.330988274065709	shuffle
0.0273186423571204	-0.127413532377026	0.180752694431629	shuffle
-0.0523887768697688	-0.204928795861892	0.102635783044732	shuffle
0.0229547529929194	-0.13170688259871	0.176525394699909	shuffle
0.0281844317160084	-0.126561048003311	0.181590711217189	shuffle
-0.121722547823753	-0.270834690848493	0.0330940532019912	shuffle
-0.0508095274826424	-0.203411337989954	0.104202312404417	shuffle
-0.0697550121552396	-0.221567311617925	0.0853585530417752	shuffle
0.115088439782191	-0.0398135527122325	0.264588478960942	shuffle
-0.0419454168232824	-0.194880427246809	0.112980776043664	shuffle
-0.154008238342558	-0.301054443519118	0.000191772375470533	shuffle
0.0551171524963716	-0.0999275700126758	0.207548691298235	shuffle
0.0860389371838359	-0.0690728966621899	0.237088978619432	shuffle
-0.0402608396871241	-0.193256552187561	0.114646345877172	shuffle
-0.114552845472927	-0.264083653018452	0.0403554304437625	shuffle
-0.115604640995741	-0.265074948358582	0.0392912093520477	shuffle
-0.0128902258530635	-0.16675423937707	0.141586650420895	shuffle
0.0747028746298864	-0.0804189149232583	0.226291712355667	shuffle
-0.0585178162840081	-0.210811086239497	0.0965488178419568	shuffle
-0.0756930533606157	-0.227236315666451	0.0794294662631261	shuffle
-0.0514208078707543	-0.203998787701479	0.103596046785938	shuffle
0.129895287769408	-0.0247968311161789	0.278512347286315	shuffle
0.0322638918308868	-0.122541200596035	0.185536315395663	shuffle
0.0974130414939685	-0.0576483304375804	0.247885103140795	shuffle
0.0202599499949333	-0.134355231333606	0.173912106551846	shuffle
0.0946790112223618	-0.0603982032059206	0.245293411341712	shuffle
-0.00880201880312646	-0.162776550001509	0.145591038540983	shuffle
0.0412927863770321	-0.113626146109561	0.194251413167638	shuffle
-0.133056065958167	-0.281476568915075	0.0215821846003344	shuffle
-0.118528784666562	-0.267829233505665	0.0363306731453309	shuffle
0.0251686217973757	-0.129529524294863	0.178670677692028	shuffle
0.0844646265169796	-0.070650993000173	0.235591722032238	shuffle
0.116659088891313	-0.0382239517041033	0.266068426449988	shuffle
-0.0400338245357182	-0.193037653195628	0.114870733016476	shuffle
-0.0768512384847489	-0.228340830737927	0.0782717470983285	shuffle
-0.107846386844805	-0.257755517968996	0.0471328620778887	shuffle
0.0694138018392513	-0.0856989153791214	0.221241248588829	shuffle
0.0240371691074929	-0.130642503805926	0.177574459804049	shuffle
-0.0591994541218042	-0.211464601209482	0.0958711417904493	shuffle
-0.194202319757396	-0.338268293315298	-0.0412418552424897	shuffle
0.00818298350255898	-0.146196941338365	0.162173812639595	shuffle
0.0345203295205317	-0.12031555211	0.187716593627425	shuffle
-0.0255223917346786	-0.179013352618889	0.129181450333363	shuffle
0.0724359858042297	-0.0826829818455929	0.224128088593406	shuffle
0.106788238083434	-0.0482009072709262	0.256755885257491	shuffle
-0.0283769427035927	-0.18177701661099	0.126371464352935	shuffle
-0.00349771819924666	-0.157608171656988	0.150779058438682	shuffle
0.00296582378340684	-0.15129882430168	0.157089440810242	shuffle
-0.0553474034287319	-0.207769687443575	0.0996989154628789	shuffle
-0.103111618396137	-0.253280088009317	0.0519091597725498	shuffle
0.0254475300441603	-0.129255109871625	0.178940841863514	shuffle
-0.0237038165860781	-0.177251415599625	0.130970339359739	shuffle
-0.11751439612904	-0.266874045423347	0.0373579943036154	shuffle
-0.0292460330224115	-0.182617954732956	0.125515448753487	shuffle
-0.0395957843488137	-0.192615230603578	0.11530365761362	shuffle
-0.06546653812564	-0.217466745648801	0.0896337390761489	shuffle
-0.0566095739281353	-0.208980849448296	0.0984452048985984	shuffle
-0.198131155401481	-0.341881806936173	-0.0453202750509389	shuffle
0.109123473736927	-0.0458433590139692	0.258961554207217	shuffle
0.209905382416254	0.057573371810087	0.352685654232625	shuffle
-0.045372089453845	-0.198181037840477	0.109590077996125	shuffle
-0.037329703665569	-0.190429037291458	0.117542334953311	shuffle
-0.0116860444492415	-0.165583131044971	0.14276666843008	shuffle
-0.179317069420788	-0.324539060806144	-0.0258359743147659	shuffle
-0.00601778757296819	-0.160064717668358	0.148315293115152	shuffle
-0.0158586266814439	-0.169639259647296	0.138675938126662	shuffle
0.0824649922333976	-0.0726543168632408	0.233688924266702	shuffle
-0.0581650698786495	-0.210472839908341	0.0968994575884212	shuffle
-0.0100266207672644	-0.16396857224849	0.144392074580605	shuffle
0.159204384252234	0.00513498426117072	0.305890655753494	shuffle
-0.0864434042358905	-0.237473533348204	0.0686673316288151	shuffle
-0.159727604307275	-0.306377213550912	-0.00567184098699486	shuffle
0.0705375153264147	-0.0845778578180549	0.222314949097121	shuffle
0.0739059199719633	-0.0812150599941363	0.225531232356715	shuffle
0.0246275920710032	-0.130061769288579	0.17814654382533	shuffle
-0.04780767558474	-0.200524917392283	0.107177866951389	shuffle
0.124412400710571	-0.0303655840266113	0.273363695513121	shuffle
0.0819471778214598	-0.073172882755842	0.233195997228524	shuffle
0.0100596982581843	-0.144359683302805	0.164000763500523	shuffle
0.0244212519868952	-0.130264735534993	0.177946624602028	shuffle
-0.0784799273246782	-0.229893387010383	0.0766430053363397	shuffle
-0.00194962974460435	-0.156098159512244	0.152291609403952	shuffle
-0.00193038289197843	-0.15607938151357	0.152310409885088	shuffle
0.0640755158261432	-0.0910192247066154	0.216135520353563	shuffle
-0.0639300292045343	-0.215996255218078	0.0911640975759162	shuffle
0.135824955348314	-0.0187634758440683	0.284070946259957	shuffle
-0.0186598319979915	-0.172359365691068	0.135926721327382	shuffle
-0.12444230936423	-0.273391804113803	0.0303352330239452	shuffle
-0.0642395472318762	-0.216292529816921	0.0908558774129555	shuffle
0.0519513339193262	-0.10306977963451	0.204508542219185	shuffle
0.00269412870964722	-0.151564291121275	0.156824436952985	shuffle
-0.0276004525699996	-0.181025489265414	0.127136077964887	shuffle
-0.16305879133072	-0.309473186897467	-0.00909193247679816	shuffle
0.00830529073023134	-0.146077237974112	0.16229290887667	shuffle
-0.0428492833401022	-0.19575137834975	0.112086748911415	shuffle
-0.0809865986022154	-0.232281379817256	0.0741346339542573	shuffle
0.0708153661689849	-0.0843006031160619	0.222580376910768	shuffle
0.0648614757057236	-0.0902364669478845	0.216887763019329	shuffle
0.0271510847083608	-0.127578488691529	0.180590485920943	shuffle
0.0218739067867626	-0.132769361919328	0.175477502883234	shuffle
0.0621064496539397	-0.0929794274707665	0.214250132950112	shuffle
0.037566598962249	-0.117308378045495	0.190657652287314	shuffle
-0.0112660935495891	-0.165174612072778	0.143178089254751	shuffle
-0.02264425010557	-0.176224394503621	0.132012145474435	shuffle
0.0246250993309547	-0.130064221347551	0.178144128729632	shuffle
-0.0207988031479612	-0.174434833146135	0.133825843794469	shuffle
0.0406788441412408	-0.114233139046144	0.193659572467081	shuffle
-0.071519399610121	-0.223252831496019	0.0835979726585599	shuffle
-0.0524182078818385	-0.204957068364059	0.102606581783459	shuffle
-0.0627676662838324	-0.214883376523921	0.0923213212332279	shuffle
-0.156237484684932	-0.303130198273401	-0.00209243719175054	shuffle
-0.0135651907336958	-0.167410476412154	0.140925037496177	shuffle
0.00944405330256378	-0.14496250208635	0.163401559659487	shuffle
0.0834009363551841	-0.0717168016023425	0.234579687536759	shuffle
0.0588832051602377	-0.0961855705399568	0.211161416908833	shuffle
-0.0585389108435623	-0.210831312525703	0.0965278480428078	shuffle
-0.0151315621847348	-0.16893286159587	0.13938911966622	shuffle
0.0602124622143182	-0.0948637558266817	0.212435563381196	shuffle
0.10530912679576	-0.0496932583483802	0.255358031473594	shuffle
-0.0544010179690399	-0.206861241864714	0.100638634757277	shuffle
0.00033466102899346	-0.153868735720067	0.154522143818679	shuffle
0.0152370990425925	-0.13928560792994	0.16903540842502	shuffle
0.204484235118923	0.051926034395509	0.347716017932614	shuffle
-0.102074823981148	-0.252299223517008	0.0529541023696221	shuffle
0.103521478047755	-0.0514959853884805	0.253667752627683	shuffle
-0.0889390407237629	-0.239845260411059	0.0661637857981356	shuffle
-0.0328601246033527	-0.186112570811929	0.121953254766425	shuffle
0.0951767306402833	-0.0598977749177053	0.245765378942311	shuffle
0.0235472599793213	-0.131124293289246	0.177099688800191	shuffle
0.00633701423333512	-0.148003061929844	0.160375761482022	shuffle
-0.192838402173209	-0.337012847342061	-0.039827199577038	shuffle
-0.0495744027827395	-0.202224029069618	0.105426953043513	shuffle
0.122763810797799	-0.0320381152372079	0.271813932467338	shuffle
-0.079892427895967	-0.231239236941091	0.0752297882097333	shuffle
0.050070033658734	-0.104935585683122	0.202700526339165	shuffle
0.0921950141437429	-0.0628945547648284	0.242936867556162	shuffle
0.0402616995856622	-0.114645495903089	0.193257381314378	shuffle
0.236602365276971	0.0855271982567889	0.377042188080211	shuffle
-0.0282855369054647	-0.18168855865285	0.126461481636804	shuffle
-0.0844153994715485	-0.235544892817332	0.0707003259034205	shuffle
0.0498352639500264	-0.105168345290542	0.202474828818683	shuffle
0.122294219559963	-0.0325143674213243	0.271372349974912	shuffle
-0.0159291788655296	-0.169707798010943	0.138606724571191	shuffle
0.0017992079954515	-0.152438539610972	0.155951399074187	shuffle
-0.0800648375647142	-0.231403471583029	0.0750572483954973	shuffle
-0.0128402733872138	-0.166705667494336	0.14163560925778	shuffle
-0.0147278769759727	-0.168540582708083	0.139785027496068	shuffle
0.0974272697516986	-0.0576340135764599	0.247898585019159	shuffle
0.0573532315794825	-0.0977063012501184	0.209694234652795	shuffle
-0.153005610302373	-0.300120395483594	0.00121859639027149	shuffle
0.00908960245776074	-0.145309516414406	0.163056523074309	shuffle
-0.0707473666402632	-0.222515419798014	0.0843684589687891	shuffle
-0.165380676097863	-0.311629290132641	-0.0114779172504319	shuffle
-0.108397225581892	-0.258275768121145	0.04657673128664	shuffle
0.0397762647736066	-0.115125292031399	0.192789283168788	shuffle
0.0303993693001859	-0.124379107507793	0.183733584922457	shuffle
-0.0362651803558039	-0.189401517704403	0.11859344202976	shuffle
0.059749458065348	-0.0953242297445509	0.211991813978717	shuffle
0.105791342023241	-0.0492068027544396	0.255813824312349	shuffle
-0.114351422300376	-0.263893779831326	0.040559193074061	shuffle
-0.0112811275411088	-0.165189237719649	0.143163361556027	shuffle
-0.0976522952648873	-0.248111798498569	0.0574075782846663	shuffle
-0.0541016186610544	-0.206573790499133	0.100935867563328	shuffle
-0.0703421806049591	-0.222128334545551	0.0847727590631277	shuffle
0.0775771572516458	-0.0775459070205002	0.229032911839413	shuffle
-0.00535139203189617	-0.159415305472907	0.148966986245169	shuffle
-0.0803276132779166	-0.231653770855283	0.0747942564551001	shuffle
0.0442821730462981	-0.11066894328861	0.197131593490838	shuffle
-0.090939964912735	-0.241745537628626	0.0641551086132991	shuffle
-0.143175164418049	-0.290947387257908	0.0112690792198443	shuffle
0.0404599855135236	-0.114449492421169	0.193448565687813	shuffle
0.046109518383529	-0.108859919014455	0.198890885035819	shuffle
-0.0861081429460214	-0.237154780668682	0.0690035066670945	shuffle
0.0801478288535075	-0.0749741911480125	0.23148252465747	shuffle
0.0902880416642489	-0.0648096959275105	0.241126533294525	shuffle
0.000908443495196429	-0.153308488258042	0.1550821765442	shuffle
0.147895418682919	-0.00644706191337903	0.295355355033203	shuffle
0.0111889416133658	-0.143253668271245	0.165099554628105	shuffle
-0.0936114773145425	-0.244280870393569	0.0614712843854347	shuffle
-0.0382011777839812	-0.191269968598368	0.116681585663361	shuffle
-0.0259607304224521	-0.179437892379863	0.128750116356972	shuffle
-0.0334872719383736	-0.186718591214845	0.121334706784693	shuffle
-0.0955361254155445	-0.24610613437846	0.0595363756417221	shuffle
-0.0419956679097087	-0.194928854710312	0.112931078569522	shuffle
-0.00017905918464896	-0.154370253632893	0.154020649971212	shuffle
0.0347183825126121	-0.120120127228257	0.187907889877994	shuffle
-0.0631855293779037	-0.215283495794698	0.0919053539039931	shuffle
0.106648871583295	-0.0483415507996233	0.256624201862785	shuffle
-0.054283854073645	-0.20674875669086	0.100754954131785	shuffle
-0.00794655719316162	-0.161943580625037	0.146428321427485	shuffle
-0.0358408641295344	-0.188991857557513	0.119012313862194	shuffle
0.104943382515474	-0.0500621697705762	0.255012283218616	shuffle
0.0850140073906913	-0.0701003792447203	0.236114295158967	shuffle
0.00805188084566797	-0.14632524786132	0.16204614690183	shuffle
-0.0313636455689227	-0.184666032950635	0.123428728640529	shuffle
0.0588465036781691	-0.0962220587777622	0.21112622971562	shuffle
-0.0782138207282009	-0.229639772147766	0.0769091771740095	shuffle
0.161627890811362	0.00762240186557091	0.308143701841576	shuffle
0.010550755102846	-0.143878774810974	0.164478624992346	shuffle
-0.0315596957129382	-0.184855578236895	0.123235469282162	shuffle
-0.0292093897535104	-0.182582502969846	0.12555154540951	shuffle
0.0617815590119482	-0.0933027401715659	0.213938940083215	shuffle
-0.00377266233562586	-0.157876278008583	0.150510350286197	shuffle
0.0488317449556696	-0.106163080731179	0.201509905904099	shuffle
0.106140742813115	-0.0488542835535696	0.256144038449595	shuffle
-0.0737712018208823	-0.225402661664718	0.0813496217353046	shuffle
6.60464738871306e-05	-0.154130979834565	0.154259932108877	shuffle
0.170108843091997	0.0163420383038218	0.316015217180616	shuffle
0.135184470086466	-0.0194157036040836	0.283471021158707	shuffle
-0.155058334146315	-0.302032410099582	-0.000884013657427331	shuffle
0.0306146397748036	-0.124166964187685	0.183941773809777	shuffle
-0.00444059655612045	-0.158527506259923	0.149857470451475	shuffle
-0.0444490182125161	-0.197292265876277	0.110503813503893	shuffle
-0.026345022166017	-0.179810039577212	0.128371917484821	shuffle
0.06336496220045	-0.0917267185206353	0.215455293646223	shuffle
0.0516435980606602	-0.103375055657012	0.204212865129947	shuffle
-0.0115697873619965	-0.165470044001298	0.142880569437487	shuffle
0.0120850565800764	-0.142375711608255	0.165971232320125	shuffle
0.0567940927999187	-0.0982618815527656	0.209157872145875	shuffle
0.0191940618231115	-0.135402135994052	0.172877862710484	shuffle
-0.00112319683553353	-0.155291758197157	0.153098775252773	shuffle
0.0884732824034937	-0.06663116849782	0.239402763870431	shuffle
-0.116827484097293	-0.266227055398615	0.0380534780548002	shuffle
-0.132061994615733	-0.280544620268092	0.0225935424411491	shuffle
-0.0551567129273839	-0.207586662730408	0.0998882850282753	shuffle
0.113372473040081	-0.0415493290249725	0.262970800297995	shuffle
0.0535229191274861	-0.101510301097657	0.206018110156163	shuffle
-0.15790304801012	-0.304680172340531	-0.00380011635870902	shuffle
0.0128370436625391	-0.14163877471241	0.166702527006886	shuffle
0.0842050465285073	-0.0709111226406363	0.23534477817874	shuffle
-0.0701306600422624	-0.221926244182376	0.0849837968455981	shuffle
0.115590017058215	-0.0393060084613341	0.265061167768152	shuffle
0.0978046060961831	-0.0572543041761835	0.248256105961353	shuffle
0.2208246352021	0.0689778863264516	0.362671085005255	shuffle
0.0839855772235711	-0.0711310402054613	0.235135977229271	shuffle
-0.00831067949694826	-0.162298156066309	0.146071963827727	shuffle
-0.118940483838081	-0.268216821900786	0.0359136317492619	shuffle
-0.0622662086115189	-0.214403144953613	0.0928204324404512	shuffle
-0.00147869089768945	-0.155638660756831	0.152751594227284	shuffle
0.0346817656420825	-0.120156259106923	0.18787252309798	shuffle
-0.0388172849108969	-0.19186434727908	0.116072920258682	shuffle
0.0285831529760509	-0.126168377189585	0.181976567477567	shuffle
-0.0780814871430909	-0.229513642987956	0.0770415349719003	shuffle
0.0408131152784268	-0.114100397623877	0.193789019441309	shuffle
-0.0917727968489111	-0.242536137135847	0.0633186791353322	shuffle
0.0854928250094246	-0.0696204099971381	0.23656967698596	shuffle
0.0451542504221846	-0.109805737466566	0.197971315874077	shuffle
-0.0268913849949679	-0.180339060409406	0.127834139650318	shuffle
-0.104450132837259	-0.254545939778068	0.0505596237396473	shuffle
-0.0673037499410168	-0.21922411352669	0.0878029194547833	shuffle
-0.0959663204248246	-0.246513969190477	0.0591037277881257	shuffle
0.0948166083163415	-0.0602598650270384	0.245423896354226	shuffle
-0.0242316307427485	-0.177762892788863	0.130451244878028	shuffle
-0.0299767565995424	-0.183324834571661	0.124795539916132	shuffle
0.0384709769168363	-0.116415059648949	0.191530266456281	shuffle
0.107765264734724	-0.0472147554338545	0.257678893300799	shuffle
-0.0169965589711294	-0.170744529672759	0.137559412288084	shuffle
-0.0561971662714725	-0.20858515996069	0.0988549024599716	shuffle
-0.0119886501335134	-0.165877466443469	0.142470176204598	shuffle
0.0800688796215982	-0.0750532031759833	0.231407321877088	shuffle
