cor	ci95_lower	ci95_upper	type
0.279788152369431	0.131255320922851	0.416035001216968	real
0.215784608424076	0.0637089397447153	0.358066128527425	shuffle
0.0001158667452687	-0.154082342737584	0.154308566477375	shuffle
-0.0196264050730201	-0.173297411313619	0.134977534404089	shuffle
-0.0543082845856048	-0.206772211948509	0.100730700065436	shuffle
0.0719432871960663	-0.0831748553861437	0.223657636300635	shuffle
0.0370807919222472	-0.117788140738423	0.190188807973113	shuffle
0.12215021197484	-0.0326604036073549	0.271236919139232	shuffle
-0.0215568349714547	-0.17517003236592	0.133080978305612	shuffle
-0.00190565470658331	-0.156055255544028	0.152334564412521	shuffle
0.208100974155177	0.0556925939991269	0.351032423489445	shuffle
0.0160363916625442	-0.138501543096288	0.169811947710113	shuffle
0.0380420618464555	-0.116838760799162	0.191116446011003	shuffle
-0.119026347902259	-0.268297651326374	0.0358266467117223	shuffle
0.00950704179090549	-0.144900831145861	0.163462871224614	shuffle
0.0501306175527129	-0.104875517752419	0.202758766462122	shuffle
-0.204070295579056	-0.347336223163175	-0.051495224366387	shuffle
-0.140070516991433	-0.288044715493574	0.014436747945279	shuffle
-0.037621730812396	-0.190710854708787	0.117253927570702	shuffle
0.000888861968296621	-0.153327609508708	0.155063065888985	shuffle
-0.00134851243486217	-0.155511632831048	0.152878732954958	shuffle
-0.0717628956813651	-0.223485372137784	0.0833549259190587	shuffle
-0.00225493397138875	-0.156396011616825	0.151993370839153	shuffle
-0.0910948052973077	-0.241892541300061	0.0639996158616342	shuffle
-0.0447055494743641	-0.197539290218347	0.11024990302128	shuffle
-0.0745873874578338	-0.226181522196304	0.0805342970415919	shuffle
-0.0808108023850154	-0.232113966131089	0.0743106134256763	shuffle
-0.0504483560034227	-0.203064195084274	0.104560466802393	shuffle
0.141732539000512	-0.0127413741623745	0.289598951415219	shuffle
-0.197314343202123	-0.341130900622245	-0.0444719443808519	shuffle
0.0376514238556582	-0.117224601118388	0.190739508223137	shuffle
0.0630352206838336	-0.0920549869098441	0.215139575576267	shuffle
0.096510373952671	-0.0585564887905114	0.247029668163687	shuffle
0.0573242710635556	-0.0977350798286897	0.20966645608198	shuffle
-0.10053462013178	-0.250841535871935	0.0545057841629288	shuffle
0.0945645866457977	-0.0605132395256975	0.245184896955617	shuffle
0.122562888470192	-0.0322418961645305	0.271625001823772	shuffle
-0.0669788610727517	-0.218913415829426	0.0881267542264152	shuffle
-0.11401427215134	-0.263575936571756	0.0409002302700102	shuffle
-0.0389357714093745	-0.191978642206004	0.115955851574222	shuffle
0.0330848855703106	-0.121731589514105	0.186329773584775	shuffle
-0.0174338888480849	-0.171169203894802	0.137130204824206	shuffle
0.0758634869503645	-0.0792591274968439	0.227398875868914	shuffle
-0.0266129558658564	-0.180069479937797	0.128108205193882	shuffle
0.0787896124333671	-0.0763332164621426	0.230188508806824	shuffle
-0.0692232591559146	-0.221059149859742	0.0858889687715854	shuffle
-0.0241848840690172	-0.177717596371595	0.13049722270339	shuffle
-0.0757535850613376	-0.227294051998632	0.0793689692775277	shuffle
0.0079635684672369	-0.146411673801467	0.161960146768862	shuffle
0.0718315344789092	-0.0832864104486614	0.223550919602885	shuffle
-0.153849914468915	-0.30090696779441	0.000353938630638784	shuffle
0.0578315690116887	-0.0972309313393037	0.210153014464013	shuffle
-0.0191062902759535	-0.172792681839422	0.135488328945576	shuffle
0.00801439968003009	-0.146361928680666	0.162009647375349	shuffle
-0.10709213865643	-0.257043012854393	0.0478942007141163	shuffle
0.0314463474651858	-0.12334720544257	0.184745992225011	shuffle
-0.0943693660980897	-0.244999751111282	0.0607094942634794	shuffle
0.0468061239381763	-0.108170027325566	0.199561288544324	shuffle
-0.0321174281221676	-0.185394742964083	0.12268561200708	shuffle
0.115868486671357	-0.0390241915469417	0.26532356784312	shuffle
0.0595713515382674	-0.0955013452796821	0.211821097566976	shuffle
0.222343170040699	0.0705670559983573	0.364057178721939	shuffle
0.098088045224213	-0.0569690530017342	0.248524633640974	shuffle
-0.0433773251868398	-0.196260079305227	0.111564339170407	shuffle
0.0430214342005731	-0.111916443624472	0.195917232783105	shuffle
0.0926570753972846	-0.0624303422632508	0.243375355299517	shuffle
-0.134032010985032	-0.282391251711972	0.0205889603035234	shuffle
-0.0594275450141551	-0.211683251179611	0.0956443444943227	shuffle
0.11653526766677	-0.0383492954594528	0.265951781204943	shuffle
0.0377231150310119	-0.117153793930436	0.190808688474415	shuffle
-0.0691611513478502	-0.220999792089252	0.0859509146548406	shuffle
-0.0772892996380589	-0.228758490616165	0.0778337531068478	shuffle
0.0341312172348301	-0.120699466033575	0.187340722379439	shuffle
-0.00418077521836151	-0.158274199348378	0.150111451739661	shuffle
-0.0791539682151005	-0.230535694669605	0.0759687002467954	shuffle
-0.0757968512391065	-0.227335319481002	0.0793257272127803	shuffle
-0.0817920830978154	-0.233048341592338	0.0733281862396926	shuffle
0.0921453113990794	-0.0629444849165477	0.24288969688368	shuffle
0.0814690719536438	-0.0736516080141485	0.23274080122371	shuffle
-0.00805175794216042	-0.162046027217878	0.146325368141126	shuffle
0.00599748501992064	-0.148335149721153	0.160044934502917	shuffle
0.00995759828481273	-0.144459664082996	0.163901398016298	shuffle
0.0693174715708796	-0.0857949996937481	0.22114918854747	shuffle
-0.00849813255910044	-0.162480678822962	0.145888492473594	shuffle
0.0775642375825257	-0.0775588267265796	0.229020595740385	shuffle
0.0498426264881125	-0.105161046048543	0.202481907093062	shuffle
-0.058280640465588	-0.210583663841117	0.0967845814472597	shuffle
0.0131891301654593	-0.141293675969594	0.167044866988257	shuffle
0.104412538613507	-0.0505975352494126	0.254510393415383	shuffle
-0.0496760198729374	-0.202321729168182	0.10532621625168	shuffle
-0.114259510752312	-0.263807134814141	0.0406521678607705	shuffle
-0.0677623257127041	-0.2196626062417	0.0873457757223687	shuffle
0.0273097960538152	-0.127422241555412	0.180744130747874	shuffle
0.028910624422192	-0.125845838726339	0.182293437517246	shuffle
-0.108746059416266	-0.258605185938693	0.0462244964226474	shuffle
-0.0920004690834716	-0.242752229394393	0.0630899855076217	shuffle
0.133311810657917	-0.0213219414082183	0.281716286035767	shuffle
0.139935137844629	-0.0145748046261914	0.287918081660924	shuffle
8.02577056124259e-06	-0.154187621670731	0.154203291566578	shuffle
0.0895841165021059	-0.0655163478219607	0.240458015055919	shuffle
0.00760741010479195	-0.146760200358853	0.161613289806927	shuffle
0.0665168907496145	-0.0885871692463555	0.218471571347483	shuffle
-0.0713995020139682	-0.22313832201306	0.0837176422229682	shuffle
0.00173383993909769	-0.152502388239521	0.155887619974659	shuffle
0.00798357778248037	-0.146392092111147	0.161979632393679	shuffle
0.0186407590177508	-0.135945448379181	0.172340852825922	shuffle
0.0346896132926506	-0.120148515433326	0.187880102865227	shuffle
0.0333780721838521	-0.121442417854192	0.186613078495039	shuffle
0.0596857778917442	-0.0953875567267842	0.211930777132671	shuffle
-0.110041575659622	-0.259828289003083	0.0449160118607687	shuffle
0.0160401588493141	-0.138497847221643	0.169815607204895	shuffle
-0.0541609022322703	-0.206630710367571	0.100877015175073	shuffle
-0.0064543847523528	-0.160490115710846	0.147888255710982	shuffle
0.0336229731085548	-0.121200850503872	0.186849705627194	shuffle
0.0504947061186834	-0.104514506126083	0.203108747020571	shuffle
-0.0742755409280502	-0.225883959646244	0.080845839130349	shuffle
-0.158452729267928	-0.305191535432492	-0.00436389432082863	shuffle
-0.0250069533753169	-0.178514067152177	0.129688577036277	shuffle
0.0542078998958331	-0.100830358565213	0.206675833447974	shuffle
-0.12366922554845	-0.272665166663336	0.0311196591009755	shuffle
-0.047279175048886	-0.200016464847511	0.107701450353135	shuffle
-0.110796782615141	-0.260541061821333	0.0441529997780573	shuffle
-0.0754793510964884	-0.227032473704368	0.0796430368306207	shuffle
0.0828552300916556	-0.0722634572428317	0.234060355021387	shuffle
-0.104759814428246	-0.254838736728203	0.0502473115146487	shuffle
0.0147731484565574	-0.139740630672913	0.168584577446814	shuffle
-0.0534874550502292	-0.205984053550875	0.101545500382925	shuffle
-0.0602195675489274	-0.212442372740336	0.0948566888043545	shuffle
0.0127032708687822	-0.141769882713524	0.166572447610115	shuffle
0.0336263288869248	-0.121197540276753	0.18685294790965	shuffle
0.00858401274038748	-0.145804432933886	0.162564296702925	shuffle
0.0579827459414961	-0.0970806775696041	0.210297996323995	shuffle
-0.025125486026143	-0.178628892207032	0.129571962938509	shuffle
-0.0695759559371747	-0.221396208442524	0.0855371687821995	shuffle
0.186606430020993	0.0333711915081668	0.331269969697707	shuffle
0.0354270289171076	-0.119420786075025	0.188592265049568	shuffle
-0.0714043478781638	-0.223142950188755	0.0837128056618209	shuffle
0.0780108480065324	-0.0771121847949905	0.229446313666592	shuffle
-0.00502507542308898	-0.159097256528708	0.149286054578997	shuffle
-0.0182100939897384	-0.171922806205232	0.13636827298849	shuffle
0.0542274290452952	-0.100810970934767	0.20669458345276	shuffle
-0.00561846903548799	-0.159675591928548	0.148705817747678	shuffle
0.0151214289683235	-0.139399058261079	0.168923015294552	shuffle
-0.108705688213475	-0.258567063571865	0.0462652632050346	shuffle
0.006917125815781	-0.147435584039814	0.160940924564195	shuffle
-0.0618249483861195	-0.213980501896799	0.0932595634248131	shuffle
-0.0216140164160806	-0.175225484505576	0.13302478296492	shuffle
0.0627172001667411	-0.0923715547319456	0.21483504990577	shuffle
0.00587628700098776	-0.148453683028178	0.159926834443228	shuffle
0.0700510156371282	-0.0850632558616629	0.221850147175759	shuffle
-0.00870300695519756	-0.16268015265378	0.145687957686759	shuffle
-0.0364344224150395	-0.189564899193226	0.118426356134979	shuffle
0.171314503468585	0.0175835319807611	0.317132611020735	shuffle
-0.0582680439460254	-0.210571584869245	0.0967971024768948	shuffle
-0.0776254184784619	-0.229078918010474	0.0774976451948186	shuffle
-0.0246024630869004	-0.178122197479041	0.130086488085499	shuffle
-0.0782239788462908	-0.229649453794973	0.0768990169713553	shuffle
-0.131705445830669	-0.28021028512757	0.0229562143533586	shuffle
-0.0123692588662487	-0.16624763412196	0.142097217443032	shuffle
0.0336436176513742	-0.121180486134985	0.18686965189721	shuffle
0.00123180149044048	-0.152992714297651	0.155397742152405	shuffle
-0.0240232307059252	-0.177560953084868	0.130656212205289	shuffle
-0.0822596898641113	-0.233493498509916	0.0728599272133174	shuffle
-0.130810368108898	-0.279370813612157	0.0238664842037988	shuffle
-0.136419714908636	-0.28462793741856	0.0181576942702361	shuffle
0.0437195898655583	-0.111225679344623	0.196589763707099	shuffle
0.027192528378876	-0.127537689231185	0.180630607313806	shuffle
0.040508243974695	-0.114401787632579	0.193495094027937	shuffle
-0.123058864923544	-0.272091356000632	0.0317388399335732	shuffle
-0.0764698261672392	-0.22797713604511	0.0786530521766918	shuffle
0.12708750037925	-0.0276497902528016	0.275876788516507	shuffle
-0.0350744070476868	-0.188251739120167	0.119768796866755	shuffle
0.0779984030603887	-0.0771246314624486	0.229434451681492	shuffle
0.0730845225253099	-0.0820354159242697	0.22474723484265	shuffle
-0.032346229144269	-0.185615900192191	0.122460014141657	shuffle
-0.0604500808799112	-0.212663275929744	0.0946274099321177	shuffle
-0.0335623643929948	-0.186791146186821	0.121260635925517	shuffle
-0.0980264883609708	-0.248466317188155	0.0570310055544153	shuffle
5.209987764791e-05	-0.154144595081238	0.154246317358271	shuffle
0.194789086759032	0.0418506388516616	0.338808237343633	shuffle
-0.0744195574248946	-0.226021383052881	0.0807019669965355	shuffle
0.119902157937426	-0.0349392687489931	0.269121988212458	shuffle
-0.0891286991909622	-0.240025428634567	0.0659734463755918	shuffle
0.103435898708318	-0.0515822612329738	0.253586811629988	shuffle
0.0262378465049266	-0.128477398421813	0.179706255342601	shuffle
-0.144909499438123	-0.292567710093551	0.00949818838187038	shuffle
-0.10868388037775	-0.258546470324815	0.0462872845113803	shuffle
-0.0927530956628339	-0.243466469058019	0.062333866528217	shuffle
0.0144533649680693	-0.140054222552554	0.168273799335929	shuffle
-0.0360439205343805	-0.189187906951371	0.118811869747471	shuffle
-0.176522629792518	-0.321954802669481	-0.0229519006615147	shuffle
-0.0386905046883536	-0.191742047428739	0.116198178658424	shuffle
0.0421988031563521	-0.112730173347311	0.195124610535168	shuffle
-0.0297568979897058	-0.183112166694185	0.12501216175053	shuffle
-0.0215435095903752	-0.175157109836518	0.133094073745335	shuffle
0.00636672593719079	-0.147973999757737	0.160404710019437	shuffle
0.0201221290847165	-0.134490617079566	0.17377839637812	shuffle
-0.0382055101465396	-0.191274148562079	0.116677306035893	shuffle
-0.0184809380732884	-0.172185721066802	0.136102366295084	shuffle
-0.0198988752482369	-0.173561789434125	0.134709913985473	shuffle
-0.0977138541660078	-0.248170123512109	0.0573456309395303	shuffle
-0.108899909611966	-0.258750461789867	0.0460691339846693	shuffle
0.0650615880856773	-0.090037139246616	0.217079261864457	shuffle
0.0252321409816485	-0.129467030627674	0.178732207516692	shuffle
0.00234189237093086	-0.151908419779816	0.156480842333201	shuffle
-0.00153271628949507	-0.155691377146569	0.152698828857589	shuffle
0.103284129853719	-0.0517352595993447	0.253443263372603	shuffle
-0.129680819907489	-0.278311113724526	0.0250148382606281	shuffle
0.0237984852930588	-0.130877240854277	0.177343160214097	shuffle
0.0549645871849164	-0.100079068534097	0.207402249679525	shuffle
0.0425985869821027	-0.112334741357725	0.19550983557965	shuffle
0.0550371366441629	-0.100007027262522	0.207471887988044	shuffle
0.110229073024578	-0.044726593564378	0.260005266356922	shuffle
0.0227026951440109	-0.131954688988902	0.176281053073015	shuffle
-0.0852866869448851	-0.236373636512334	0.0698270526588197	shuffle
-0.0787827706307256	-0.23018198904894	0.0763400608807811	shuffle
-0.0923873616355324	-0.243119409319555	0.0627013199014155	shuffle
0.0701950768160643	-0.0849195285721402	0.221987790450825	shuffle
0.131020219075839	-0.0236530944562653	0.279567648087675	shuffle
-0.0468771137277346	-0.199629600103344	0.10809971335177	shuffle
0.017926025677727	-0.136647138908088	0.171647030737586	shuffle
0.00158321410035792	-0.152649508000771	0.155740650632524	shuffle
0.110409571413809	-0.0445442354227944	0.260175627924585	shuffle
-0.0162480093357744	-0.170017509329588	0.138293924634507	shuffle
-0.000481796833211427	-0.15466576320549	0.153725080167038	shuffle
-0.142022119941502	-0.289869672596886	0.0124458913224013	shuffle
-0.0149285546361741	-0.168735596214126	0.139588222256539	shuffle
-0.142822126165774	-0.290617453256974	0.0116294400736187	shuffle
-0.0448972649761062	-0.197723888167724	0.110060132919878	shuffle
-0.0259618307482701	-0.179438957995439	0.128749033540848	shuffle
-0.0787018354379969	-0.230104862457462	0.0764210259101577	shuffle
-0.0162657454772652	-0.170034737292157	0.138276523058764	shuffle
-0.0721440485257262	-0.223849341394053	0.0829744393728878	shuffle
-0.0364358527225479	-0.189566279935435	0.118424944012391	shuffle
-0.0406128695345792	-0.193595966278572	0.114298359995293	shuffle
0.0437154323354583	-0.111229793302065	0.196585759198517	shuffle
-0.158274616672191	-0.305025848295931	-0.00418120325759942	shuffle
-0.00926276175255335	-0.163225087941423	0.145139994814821	shuffle
0.0010381602993913	-0.153181817613267	0.155208771169516	shuffle
-0.0134176720036443	-0.167267062436484	0.141069649838997	shuffle
-0.0764373936132637	-0.227946208119726	0.0786854735181095	shuffle
0.0439051004680828	-0.111042107565763	0.19676844123965	shuffle
0.124629447776408	-0.0301453203542797	0.273567673821374	shuffle
-0.0803905665680246	-0.231713732184205	0.074731248159142	shuffle
-0.00777913614706931	-0.161780535817382	0.146592158868009	shuffle
0.0716624374580844	-0.0834552009996045	0.223389435846134	shuffle
0.00211763512071099	-0.15212749565535	0.156262067540774	shuffle
0.152322911001734	-0.00191758490360638	0.299484231498132	shuffle
-0.042666362444383	-0.195575138210134	0.112267698798306	shuffle
-0.105778870423209	-0.255802036918407	0.0492193849500651	shuffle
-0.0789137187005381	-0.23030677101268	0.0762090602045844	shuffle
-0.139110474501176	-0.287146578686465	0.015415650972021	shuffle
-0.122946598865291	-0.271985801180914	0.031852715392395	shuffle
0.123617649831654	-0.0311719847245369	0.272616683532574	shuffle
0.0940346084515097	-0.0610459973984834	0.244682243654214	shuffle
0.0224529488260666	-0.132200203772301	0.176038933546272	shuffle
0.0194619108957871	-0.1351390897945	0.173137791704666	shuffle
0.0186049979711663	-0.135980560526555	0.172306141679252	shuffle
-0.187613691065719	-0.332198906152897	-0.0344137973323299	shuffle
0.0785128449296158	-0.0766100781242657	0.229924757948344	shuffle
0.0517857806008468	-0.103234013259209	0.204349479642424	shuffle
-0.124183469650276	-0.273148534247901	0.0305978915242063	shuffle
-0.0109633726744728	-0.164880099123331	0.143474628136382	shuffle
0.224133731878297	0.0724418963929924	0.365690768137863	shuffle
0.0115350506802132	-0.142914601347801	0.165436253717706	shuffle
0.00962990432508585	-0.144780535109324	0.163582459405114	shuffle
-0.160593416890406	-0.307182189987621	-0.00656041432758981	shuffle
0.0347160888750851	-0.120122390498509	0.187905674556323	shuffle
-0.0024443494576791	-0.156580789599424	0.151808324879145	shuffle
-0.0886135369725843	-0.239536020179368	0.06649043193864	shuffle
0.00637147229846592	-0.147969357132643	0.160409334442469	shuffle
0.0216645574608509	-0.132975112681446	0.1752744962557	shuffle
0.12403340247574	-0.0307501629228802	0.273007485258609	shuffle
0.083880802364966	-0.0712360237458637	0.235036290533742	shuffle
0.115713321721187	-0.0391812246734376	0.265177359667847	shuffle
-0.0896300140505691	-0.24050160835354	0.0654702772247903	shuffle
0.0243277904852163	-0.130356664594903	0.177856067251349	shuffle
0.12017201519343	-0.0346657979342258	0.269375941350981	shuffle
0.0106209709594848	-0.143810004098778	0.164546948151281	shuffle
0.0533525090972867	-0.101679435215358	0.205854459855336	shuffle
0.000559857416788715	-0.153648863329206	0.154741955563608	shuffle
-0.0624475713028231	-0.214576839270539	0.0926399273937849	shuffle
0.0884707909058048	-0.0666336685018449	0.239400396639208	shuffle
-0.0985711372784907	-0.248982257420995	0.0564828141544373	shuffle
-0.0356858116261533	-0.188842147339416	0.119165363140004	shuffle
-8.84485384972158e-05	-0.154281801015675	0.154109109885802	shuffle
0.0356727410568988	-0.119178264505641	0.188829526787144	shuffle
-0.0795539643342844	-0.230916796975482	0.0755684802509196	shuffle
-0.0279730218292251	-0.181386103442391	0.126769230151595	shuffle
-0.0255056514308318	-0.178997138167509	0.129197921964417	shuffle
0.027305126419654	-0.127426838796812	0.18073961028867	shuffle
-0.0329795589639595	-0.186227990734831	0.121835467341536	shuffle
-0.00746100797668489	-0.161470700067848	0.146903454249451	shuffle
0.0685815321261702	-0.0865289649021848	0.220445783268252	shuffle
0.143802267197693	-0.010628870348133	0.291533363242711	shuffle
0.138871646984636	-0.0156591243778125	0.286923110864431	shuffle
0.0698801667231137	-0.0852337004335908	0.22168690171324	shuffle
-0.0282033660888961	-0.181609035728674	0.126542402049232	shuffle
-0.00622281251929994	-0.160264490654219	0.148114764582897	shuffle
-0.0220035416729961	-0.175603203646923	0.132641948681022	shuffle
-0.0542787010421903	-0.206743809343567	0.10076006992273	shuffle
-0.0676977767841236	-0.219600887906862	0.0874101270285196	shuffle
0.0150697922974174	-0.139449702699313	0.168872840203884	shuffle
-0.117668115415446	-0.267018812407418	0.0372023362647107	shuffle
0.203338283431873	0.0507335173623356	0.346664477679265	shuffle
-0.0632443516696346	-0.215339816200973	0.0918467941313663	shuffle
0.0314601530452694	-0.123333596421268	0.184759339776495	shuffle
0.0958306811563376	-0.0592401467201542	0.246385385784248	shuffle
-0.0118874337637833	-0.165779019392957	0.142569350813317	shuffle
-0.0960428573789814	-0.246586522405335	0.0590267483381835	shuffle
-0.0206179804939953	-0.174259431725722	0.134003499916166	shuffle
-0.0278772507085545	-0.181293409385479	0.126863534583129	shuffle
0.109204283523784	-0.0457617461961048	0.25903785243223	shuffle
-0.0274033779554662	-0.180834721738967	0.127330109040717	shuffle
-0.0257151067637026	-0.179200008009058	0.128991822127363	shuffle
0.0710676430139817	-0.0840488467358765	0.22282135468315	shuffle
0.0136323255786582	-0.140859223146859	0.167475741053542	shuffle
0.0935512323051455	-0.061531831763444	0.244223719051078	shuffle
-0.0336687890869878	-0.186893971773274	0.121155656132938	shuffle
0.132040496051651	-0.0226154113602372	0.280524462124766	shuffle
0.104256832106993	-0.0507545511239495	0.254363164353013	shuffle
-0.0125862029458667	-0.166458607476957	0.141884614163201	shuffle
0.0389155898099336	-0.115975791983945	0.191959174842997	shuffle
-0.0237720399767339	-0.177317531999682	0.130903247815816	shuffle
-0.0234966953986349	-0.177050682589028	0.131174015664618	shuffle
-0.064270593808318	-0.216322246450113	0.0908249593805759	shuffle
-0.0787253724688051	-0.230127292092488	0.0763974804134083	shuffle
0.019980776915988	-0.134629465694286	0.17364125438631	shuffle
-0.0817189352111323	-0.23297869980905	0.0734014299739815	shuffle
-0.017151369582065	-0.170894866834007	0.137407483570352	shuffle
0.0292504296276771	-0.125511117705479	0.182622208349817	shuffle
0.0441331700251062	-0.110816407136951	0.196988096202416	shuffle
0.111954866788037	-0.0429825954544952	0.261633757699043	shuffle
-0.0612026593333178	-0.213384370950307	0.0938787471795708	shuffle
0.0286388093843299	-0.126113561489216	0.182030424338746	shuffle
0.0445422882543175	-0.110411498669227	0.197382081622708	shuffle
-0.0516378516491179	-0.204207343629377	0.103380755857797	shuffle
0.0678383409882771	-0.0872699915145905	0.2197352865433	shuffle
0.200639943847575	0.0479272493282927	0.344187022313761	shuffle
-0.0130637906034089	-0.166923001350795	0.141416532257198	shuffle
-0.0494343876062107	-0.202089406022019	0.105565750071717	shuffle
0.0575356781197404	-0.0975249949226786	0.209869229476575	shuffle
-0.149024489449749	-0.296408798182808	0.0052925849547825	shuffle
0.11847410397073	-0.0363860593225738	0.26777775149799	shuffle
-0.00676768799830423	-0.160795347166117	0.147581777112615	shuffle
-0.00677523023420913	-0.160802694724423	0.147574398802954	shuffle
-0.0912184303996882	-0.242009904573706	0.063875464500455	shuffle
0.0991406471059272	-0.0559095001393248	0.249521656846204	shuffle
0.00626479435141125	-0.148073701891378	0.16030539551472	shuffle
0.0690947943044989	-0.0860170973698213	0.220936371990032	shuffle
0.0150217312175676	-0.139496839527505	0.168826138780603	shuffle
-0.0282166115685322	-0.181621854518397	0.126529358267041	shuffle
-0.0466215666350328	-0.19938368708328	0.108352820406214	shuffle
-0.0378410781705757	-0.190922516743098	0.117037281907162	shuffle
-0.0263614396815234	-0.179825937281257	0.128355759263465	shuffle
-0.0612545094630599	-0.213434045872451	0.0938271603694832	shuffle
0.0729389079462303	-0.0821808239352467	0.224608229904612	shuffle
-0.0136055105205063	-0.167449673155457	0.140885510935269	shuffle
0.0500728696995444	-0.104932773820712	0.202703252687938	shuffle
-0.0553823765987929	-0.207803253528566	0.0996641833372408	shuffle
-0.155072534684516	-0.302045633108247	-0.00089856405280897	shuffle
0.0841052507990504	-0.0710111240696161	0.235249835227713	shuffle
-0.0910666836000222	-0.241865843400143	0.0640278565997455	shuffle
0.00703487142760253	-0.147320390288758	0.16105562373922	shuffle
-0.0814900736135727	-0.23276079791856	0.0736305806474258	shuffle
0.0303327281398185	-0.124444777728498	0.183669133216588	shuffle
0.11776903599576	-0.0371001387578204	0.267113851910692	shuffle
0.0272991863983768	-0.127432686721065	0.180733860016449	shuffle
0.104844984701215	-0.050161412435246	0.254919258472921	shuffle
-0.0161957665153379	-0.16996676283306	0.138345181417899	shuffle
-0.0595086824451723	-0.211761026572009	0.0955636633442321	shuffle
0.0246486185017395	-0.130041085930178	0.178166915247124	shuffle
0.0192820025272992	-0.135315774581041	0.172963205440229	shuffle
0.0359306924773331	-0.118923642699371	0.18907858764085	shuffle
0.000745657725332832	-0.153467444134475	0.154923301732038	shuffle
0.0316095064618253	-0.123186365721702	0.184903734470143	shuffle
0.00523324403383676	-0.149082513603807	0.159300154604596	shuffle
0.127188381250477	-0.0275473300480789	0.275971520156993	shuffle
-0.00912971514484551	-0.163095572253253	0.145270247213252	shuffle
-0.043477514666353	-0.196356589799625	0.111465208647359	shuffle
-0.128097795386919	-0.276825370160367	0.0266235318531049	shuffle
-0.0273878774748046	-0.180819716839029	0.127345369636025	shuffle
-0.0987930572374669	-0.2491924554053	0.0562594239827649	shuffle
0.0360395776021973	-0.118816156940577	0.189183714011589	shuffle
-0.048313917759227	-0.20101187878448	0.106676254199304	shuffle
0.0766633559192868	-0.0784595825102636	0.228161681105108	shuffle
0.0463315066613076	-0.108640086458923	0.199104538994452	shuffle
0.0246272680717444	-0.130062088000334	0.178146229918167	shuffle
0.00521085676648381	-0.149104403824683	0.159278334775776	shuffle
0.0638211588862014	-0.0912725043178797	0.215892036504852	shuffle
-0.147532115340167	-0.295016310271503	0.0068184527833953	shuffle
-0.0288017907343233	-0.182188130694587	0.125953036589098	shuffle
-0.0851856538104189	-0.236277547953721	0.0699283282473262	shuffle
0.0408173285337908	-0.11409623227949	0.193793081234459	shuffle
-0.0217297673254467	-0.175337731844719	0.132911025156558	shuffle
0.156857819163847	0.00272835255219762	0.303707572694431	shuffle
-0.108004830173664	-0.257905171699174	0.0469729063845832	shuffle
0.0341513410060537	-0.120679612242382	0.187360162462389	shuffle
-0.0947064069814933	-0.245319391511345	0.0603706603707949	shuffle
0.0930899146112714	-0.0619954269728971	0.243786055979653	shuffle
0.0267096769998292	-0.128013002567433	0.180163129824779	shuffle
0.112957078175966	-0.0419693787746105	0.262579072152318	shuffle
-0.0983841122099176	-0.248805100149972	0.0566710662038376	shuffle
-0.0733226060977555	-0.224974498186044	0.0817976558690052	shuffle
-0.0359038054511254	-0.1890526282241	0.118950183621076	shuffle
-0.11870761036798	-0.26799759238392	0.0361495336205006	shuffle
-0.117125928995544	-0.266508171792144	0.0377513274065938	shuffle
0.0154547981601532	-0.139072075521121	0.169246929258909	shuffle
-0.117641258993343	-0.266993520535315	0.0372295319496579	shuffle
0.00503004472666846	-0.149281195896523	0.159102100168188	shuffle
0.0151140444978346	-0.139406300883635	0.168915839890958	shuffle
-0.0419362686299819	-0.194871610963216	0.11298982336863	shuffle
0.105101857690476	-0.0499023274816343	0.255162098927041	shuffle
0.0483961905248658	-0.106594726338435	0.201091010974198	shuffle
-0.0788771443500539	-0.23027191938281	0.0762456497872538	shuffle
0.00170347739294651	-0.152532044594864	0.155857995039507	shuffle
0.122696648965757	-0.0321062340386586	0.271750780345576	shuffle
-0.0144428455736411	-0.168263575657159	0.140064537745188	shuffle
0.00907978827986298	-0.145319124146596	0.163046969026376	shuffle
0.00969475446519771	-0.144717037794896	0.163645579429252	shuffle
0.00149012557853186	-0.152740426308302	0.155649818455637	shuffle
-0.0810581727543367	-0.232349538514985	0.0740629824239956	shuffle
-0.134953533337382	-0.283254680522156	0.0196508420190678	shuffle
0.0875466075042448	-0.0675608728803426	0.238522184206369	shuffle
-0.0525597265515453	-0.205093012798014	0.102466164136204	shuffle
0.00946320569893552	-0.144943750432952	0.163420202293309	shuffle
-0.0832142792211651	-0.234402061171461	0.071903793954377	shuffle
0.0794279890556111	-0.0756945314294181	0.230796777148053	shuffle
-0.0151877556454094	-0.168987463420006	0.139334004908781	shuffle
-0.158334767555079	-0.305081803937153	-0.00424289919673325	shuffle
-0.00231964254348669	-0.156459137127203	0.151930156211117	shuffle
0.0624395766522947	-0.0926478844532465	0.214569182852424	shuffle
-0.00789837219692626	-0.161896656003798	0.146475475903949	shuffle
-0.0979886213752621	-0.248430443013943	0.0570691153570679	shuffle
-0.123633816624647	-0.272631881012839	0.0311555829589697	shuffle
-0.000231610736524186	-0.154421552458051	0.153969344648807	shuffle
-0.000329059110018203	-0.154516675651908	0.153874205006205	shuffle
0.205820923259348	0.053317588337318	0.348942125350535	shuffle
0.033088039451323	-0.121728478962772	0.186332821301459	shuffle
0.0477860950961708	-0.107199248340061	0.20050415714289	shuffle
0.00616199527636122	-0.14817424936327	0.160205232634519	shuffle
-0.0425071220190331	-0.195421705625398	0.112425215010793	shuffle
0.0285228215660672	-0.126227796206847	0.181918185732668	shuffle
-0.0834836626626582	-0.234658408185585	0.0716339232391615	shuffle
0.0393796241597308	-0.115517271724699	0.192406756346022	shuffle
-0.0888354760869498	-0.239746873615296	0.0662677175118544	shuffle
-0.080522952073338	-0.231839822093907	0.0745987429399666	shuffle
0.15546876572382	0.00130458331998097	0.302414565790391	shuffle
0.151526173998809	-0.00273314151792337	0.29874163754519	shuffle
-0.112574188472633	-0.262217953530452	0.0423565106122895	shuffle
-0.122666214040894	-0.27172216203053	0.0321371021484165	shuffle
-0.0819052145530468	-0.233156047408123	0.0732149032499304	shuffle
-0.0604295174075906	-0.212643570384289	0.0946478639500748	shuffle
0.137595117530987	-0.0169601753700483	0.285728405450918	shuffle
0.0622560347193776	-0.0928305579193979	0.214393400948779	shuffle
-0.0278626882322858	-0.181279314553327	0.126877873796995	shuffle
0.0704765690027137	-0.0846386701669054	0.222256724744409	shuffle
0.0176093780567987	-0.136957958611541	0.171339598656182	shuffle
0.00389431818275925	-0.150391446429325	0.157994901058023	shuffle
-0.0359157652400797	-0.18906417542363	0.11893837781239	shuffle
-0.0589401861601184	-0.211216046112805	0.0961289197872817	shuffle
-0.00402528273053629	-0.158122595777328	0.150263439455801	shuffle
-0.0754035015253751	-0.226960120667591	0.0797188362342829	shuffle
-0.0638778686669143	-0.215946323729648	0.0912160364695149	shuffle
-0.0776514737788234	-0.229103755568713	0.0774715892689444	shuffle
0.0426303633906828	-0.112303308745022	0.19554045277415	shuffle
0.106907974021689	-0.048080069272338	0.256869015852569	shuffle
-0.033129348299773	-0.186372739360311	0.121687737356297	shuffle
0.0808228016479963	-0.0742986019615809	0.232125393515541	shuffle
0.108282177064301	-0.0466928930436258	0.258167115535914	shuffle
-0.0261614839041962	-0.179632307047081	0.128552551396975	shuffle
-0.010739359118193	-0.164662141763183	0.143694049162862	shuffle
-0.0367588008467305	-0.189878021240064	0.11810608580988	shuffle
-0.00875097238304619	-0.162726851876843	0.145641006420314	shuffle
0.0109295822737258	-0.143507726768362	0.164847223207212	shuffle
0.10772648238512	-0.0472539057597745	0.257642260393786	shuffle
0.0168904656200405	-0.137663526447601	0.170641497890058	shuffle
-0.0840447026858137	-0.235192229988559	0.0710717954651766	shuffle
-0.0455384815826555	-0.198341220481393	0.109425340854411	shuffle
-0.06649075978565	-0.218446576922925	0.0886132102555213	shuffle
0.0209089109322245	-0.133717659328342	0.174541635019308	shuffle
-0.0296769904215657	-0.183034869039837	0.125090889257391	shuffle
0.00634595045204742	-0.147994321095098	0.160384468195406	shuffle
-0.0509879299296305	-0.203582796798094	0.104025385423999	shuffle
0.0355750390560321	-0.119274700059702	0.18873518704329	shuffle
-0.0759341057121926	-0.227466229836408	0.0791885453704376	shuffle
-0.111018553400667	-0.260750340582026	0.0439289026309279	shuffle
-0.0497754184856579	-0.202417293364387	0.10522767564102	shuffle
0.0925761383888538	-0.0625116609430945	0.243298551997778	shuffle
0.0213736447027441	-0.133261002731575	0.174992375650476	shuffle
-0.0485532225258999	-0.201242043103509	0.106439110333501	shuffle
-0.0296048722800984	-0.182965104768638	0.125161940697257	shuffle
-0.115796479274234	-0.265255717871204	0.0390970668600575	shuffle
-0.039049820258242	-0.192088652548305	0.115843163373419	shuffle
0.0494116193996338	-0.105588319621378	0.202067514097243	shuffle
0.0731247791193636	-0.0819952152727399	0.224785663046786	shuffle
0.092574331633998	-0.0625134761944959	0.243296837497989	shuffle
0.00849410924699942	-0.145892430437671	0.16247676144085	shuffle
-0.10780891674607	-0.257720125461694	0.04717068867207	shuffle
0.12286184086634	-0.0319386857852438	0.271906107619166	shuffle
0.0735632285620242	-0.0815573424311152	0.225204168271748	shuffle
0.0272282280727156	-0.127502544041975	0.180665167584588	shuffle
-0.0511700009610365	-0.203757771754818	0.103844810083724	shuffle
-0.150883080845347	-0.29814211637382	0.00339127545304757	shuffle
0.118383434292207	-0.036477896709876	0.267692383896922	shuffle
-0.0421837998848006	-0.195110152713603	0.112745012345799	shuffle
-0.101012546240507	-0.251293930109909	0.0540243765565921	shuffle
-0.0412621923412686	-0.194221923134047	0.113656396585291	shuffle
0.00336735572982333	-0.150906456201804	0.157481043325749	shuffle
0.0920749678389422	-0.0630151489956335	0.242822935709422	shuffle
0.0553450880047174	-0.099701214915038	0.207767465163976	shuffle
-0.000121510036330432	-0.154314075390559	0.154076833421106	shuffle
0.0407190068955628	-0.114193434435076	0.193698292791525	shuffle
0.0917971301298284	-0.0632942374667548	0.242559233479618	shuffle
-0.0520640554759729	-0.20461683976468	0.102957951790867	shuffle
-0.000188818867927539	-0.154379780727177	0.154011121796014	shuffle
-0.0408769038578131	-0.193850514325237	0.114037333832484	shuffle
-0.086000996367969	-0.237052903239826	0.069110937843485	shuffle
0.0996983604064084	-0.0553479623403412	0.250049793013075	shuffle
-0.025830355818662	-0.179311627948381	0.128878413673483	shuffle
-0.00527495252020956	-0.159340805526009	0.149041730733992	shuffle
-0.103377155784731	-0.25353125131573	0.0516414809086841	shuffle
-0.071186777497809	-0.222935146879296	0.0839299511505229	shuffle
-0.0210970079577922	-0.174724076197872	0.133532839379657	shuffle
0.0179719931293022	-0.136602014960162	0.171691657889034	shuffle
0.0742219501131124	-0.080899374575352	0.225832820683855	shuffle
0.0612994938892467	-0.0937824037209898	0.213477142482358	shuffle
-0.0541885841540982	-0.206657288226535	0.100849534218578	shuffle
0.0869059801907494	-0.0682034370942158	0.23791327819802	shuffle
-0.0374270757878683	-0.190523007935087	0.117446172690865	shuffle
-0.0767895681299686	-0.228282028001812	0.0783334031897547	shuffle
0.242782403407289	0.0920322613188848	0.382652888115113	shuffle
-0.038101863594865	-0.191174146446679	0.116779689386938	shuffle
-0.0426010170977444	-0.195512177054381	0.112332337544982	shuffle
0.0671224430756202	-0.0879836421159114	0.219050729958676	shuffle
-0.0764108162703236	-0.227920863539335	0.0787120414281236	shuffle
0.0960284156186769	-0.0590412737341983	0.246572832466092	shuffle
-0.0297976089763799	-0.183151547263373	0.124972051227295	shuffle
0.134743009432072	-0.019865181297815	0.283057449405597	shuffle
0.000871858911182907	-0.153344212804483	0.155046471606191	shuffle
-0.092045242113621	-0.242794723396633	0.0630450096981969	shuffle
0.145140303159191	-0.00926244679995301	0.292783277267939	shuffle
0.04474446576925	-0.110211382536762	0.197576762599385	shuffle
0.0801758325235235	-0.0749461647359537	0.231509199008678	shuffle
0.0422726440406742	-0.112657139950814	0.195195765935887	shuffle
-0.0339981238273014	-0.187212147687255	0.120830770744603	shuffle
0.128660743768648	-0.0260515469501256	0.277353805394848	shuffle
-0.00322860472324118	-0.157345728955017	0.151042046100295	shuffle
-0.152880428128685	-0.300003755987924	0.00134677669624284	shuffle
0.0392363133753331	-0.115658886601913	0.192268533597563	shuffle
0.169006995061291	0.0152078568675884	0.314993681456864	shuffle
-0.00380672757396496	-0.157909494472008	0.150477056091295	shuffle
0.0343546414650503	-0.120479032310713	0.187556549228247	shuffle
-0.0434842203106624	-0.196363049105079	0.111458573768512	shuffle
0.0665189966274307	-0.0885850706087073	0.218473585623628	shuffle
0.0453172320471921	-0.109644387908282	0.198128225835273	shuffle
0.0293355718606897	-0.125427243854912	0.182704580416073	shuffle
-0.0118327693622525	-0.165725849355056	0.142622911221593	shuffle
-0.0484390971937581	-0.201132278987812	0.106552207323386	shuffle
0.163435260051965	0.00947867527809304	0.309822878210628	shuffle
-0.0244178918573493	-0.177943368927633	0.130268040616256	shuffle
-0.0731197732857515	-0.224780884595789	0.082000214177483	shuffle
-0.0439357175591964	-0.196797929609232	0.111011809445944	shuffle
0.0229676147912468	-0.131694237221912	0.17653786225376	shuffle
-0.0151918134549108	-0.168991406258629	0.139330024956908	shuffle
-0.0219159740111801	-0.175518294012447	0.132728016191898	shuffle
0.145280498567663	-0.00911924364357896	0.292914210326312	shuffle
-0.00492794835286121	-0.159002584125424	0.149381018018332	shuffle
-0.0350231267739711	-0.188202214839096	0.1198194034023	shuffle
0.11272844059847	-0.042200555082792	0.262363439932616	shuffle
0.0681630515877841	-0.0869462477402834	0.220045732319414	shuffle
-0.0808962782859093	-0.232195367384839	0.0742250496293553	shuffle
0.118568952036605	-0.0362899869363222	0.26786705063877	shuffle
0.147294194810165	-0.00706164661130854	0.294794256103468	shuffle
0.0705090094162438	-0.0846063012091401	0.222287716446251	shuffle
0.130516999520869	-0.0241647763324528	0.279095620958607	shuffle
0.120374799439434	-0.0344602830194547	0.269566760792939	shuffle
-0.00407009336300273	-0.158166286426739	0.150219639594634	shuffle
-0.0212259046538919	-0.17484909103735	0.133406182145503	shuffle
-0.0675288871782913	-0.219439398679935	0.0875784934390589	shuffle
0.108756620543189	-0.0462138317267204	0.258615158691968	shuffle
0.175705778874406	0.022109331078273	0.321198980974044	shuffle
-0.0939906778491816	-0.244640574414366	0.0610901544466234	shuffle
-0.0595672703032912	-0.211817185564441	0.09550540369143	shuffle
-0.137791823740356	-0.285912533038298	0.0167597246318002	shuffle
-0.014139876920244	-0.167969109696103	0.140361610798833	shuffle
-0.0185168589247193	-0.172220588655954	0.136067098594922	shuffle
-0.0798152901330649	-0.231165753971631	0.0753069811935492	shuffle
0.0203806475077692	-0.134236661689721	0.174029199408665	shuffle
-0.0666862197479359	-0.218633530723391	0.0884184180176565	shuffle
-0.132329071376397	-0.280795034055201	0.0223218524178925	shuffle
0.112865867374715	-0.0420616043451592	0.2624930513936	shuffle
-0.0419268169023139	-0.194862502131966	0.112999170854198	shuffle
-0.0418828159486714	-0.194820097128572	0.113042686165006	shuffle
0.0629724224703459	-0.0921175007497823	0.215079444478798	shuffle
0.125977699329138	-0.0287767511249676	0.274834444955411	shuffle
-0.000959844995268162	-0.155132341457301	0.153258294433436	shuffle
-0.0397182789849199	-0.192733363609595	0.115182599440382	shuffle
-0.138258771884773	-0.286349577811051	0.0162838378382377	shuffle
-0.109352118368667	-0.259177428907079	0.0456124369180448	shuffle
-0.0523289226769868	-0.20487129695896	0.102695169166384	shuffle
-0.0288272542775547	-0.1822127693814	0.1259279560996	shuffle
0.115010088503239	-0.0398928288733474	0.264514633855754	shuffle
-0.0136825741807126	-0.167524588976881	0.140809962006316	shuffle
-0.0850859264290658	-0.236182698346394	0.0700282918134959	shuffle
-0.0384356537106906	-0.191496188420798	0.116449955594181	shuffle
-0.054717976986251	-0.207165523515529	0.100323939146739	shuffle
-0.121404266835728	-0.270535306221347	0.0334167509139727	shuffle
-0.129680253920059	-0.278310582645566	0.0250154135688704	shuffle
0.100271603383664	-0.0547706861373265	0.250592542049509	shuffle
0.0957681587043205	-0.0593030266051929	0.246326113922873	shuffle
-0.106268426596643	-0.256264701996889	0.0487254505543321	shuffle
0.00547475903991444	-0.148846351143231	0.159535538483553	shuffle
-0.0701359655403521	-0.221931313305444	0.0849785036270764	shuffle
-0.0689481935030286	-0.22079625514644	0.0861633081794924	shuffle
-0.020291903583941	-0.173943106263221	0.134323841509796	shuffle
0.0708489661210138	-0.0842670736261956	0.222612473045706	shuffle
-0.0381676390252701	-0.191237609439529	0.11671471598151	shuffle
0.063743372938704	-0.0913499567967339	0.215817571925954	shuffle
0.0195835583375005	-0.135019616448791	0.173255835062204	shuffle
0.035289305810553	-0.119556712767034	0.188459270623256	shuffle
-0.041097774310704	-0.194063433480582	0.113818963340722	shuffle
0.0391733969207414	-0.115721056528472	0.192207848979895	shuffle
0.0107434501167173	-0.143690042170519	0.164666122296508	shuffle
0.0681524823667614	-0.0869567860073314	0.220035627897988	shuffle
-0.0476886898520126	-0.200410452406582	0.10729575314734	shuffle
0.0184706099187756	-0.136112506579544	0.172175695680578	shuffle
0.0892963947004603	-0.065805139364132	0.240184724237156	shuffle
-0.110996162348973	-0.260729211424282	0.0439515292710586	shuffle
0.00067172482537539	-0.153539634964876	0.154851142449924	shuffle
0.0319168109577404	-0.122883407419196	0.1852008152491	shuffle
0.0693622318393223	-0.0857503540676146	0.22119196497334	shuffle
-0.053063810560305	-0.205577193782101	0.101965951725281	shuffle
0.0385274277323999	-0.116359290854828	0.191584726570281	shuffle
0.0496752424569763	-0.105326986945043	0.202320981730484	shuffle
-0.0376563023897134	-0.190744215938794	0.117219782788984	shuffle
0.0640565152627193	-0.0910381454866399	0.216117332667944	shuffle
-0.0659306571736612	-0.217910787457321	0.0891713337625145	shuffle
0.11314632606642	-0.0417780169773307	0.262757543944779	shuffle
0.00916988045260144	-0.145230926010507	0.163134672174416	shuffle
-0.0315215461797354	-0.18481869538215	0.123273076674552	shuffle
-0.0257725810667998	-0.179255672978732	0.128935266231475	shuffle
0.0398363225848145	-0.11506593575358	0.19284719986957	shuffle
0.00831138546605663	-0.146071272874097	0.162298843487107	shuffle
0.164772213440501	0.0108524873327275	0.311064417016611	shuffle
0.0220626239700606	-0.132583877224967	0.175660491269864	shuffle
0.197487366224991	0.0446516254734857	0.341289978310808	shuffle
0.0740282956903333	-0.0810928214542951	0.225648019248252	shuffle
-0.0120425988779994	-0.165929937876215	0.142417314460112	shuffle
-0.0596537316955755	-0.21190006070651	0.095419424709353	shuffle
0.00295799720974758	-0.15130647177266	0.157081807297311	shuffle
0.0327350792348199	-0.122076571153951	0.185991723946173	shuffle
0.0368032785458562	-0.118062168888833	0.189920953072731	shuffle
-0.00504868745284265	-0.159120271389681	0.149262968107555	shuffle
-0.161960614362301	-0.308452894593049	-0.00796404862614738	shuffle
0.0542456655806248	-0.100792866445139	0.206712092313076	shuffle
0.0219396803864493	-0.132704716168702	0.175541281030389	shuffle
0.0185160748331463	-0.136067868433488	0.172219827559432	shuffle
-0.0613225133808786	-0.213499195708996	0.0937595005456181	shuffle
0.0125216607384096	-0.141947866445082	0.166395843069194	shuffle
0.0130311003821909	-0.141448574025115	0.166891216402267	shuffle
0.119604487282623	-0.0352408985074673	0.268841836795956	shuffle
-0.0417650131279266	-0.194706564297228	0.113159185858969	shuffle
-0.0615606640774318	-0.21372734070254	0.093522543578186	shuffle
0.0778713975724546	-0.0772516517525388	0.229313392964306	shuffle
0.0283151161164395	-0.126432352032444	0.18171718420501	shuffle
-0.00891343767775752	-0.162885023241863	0.145481971058166	shuffle
-0.0608770898938246	-0.213072441759856	0.0942026441930151	shuffle
-0.03602361675485	-0.18916830435808	0.118831912889877	shuffle
-0.0338553533645864	-0.187074218653661	0.120971616434087	shuffle
-0.0395963767343816	-0.192615801906922	0.115303072185877	shuffle
0.0540828472489511	-0.100954502220491	0.206555767309254	shuffle
-0.160925758160669	-0.307491123662078	-0.00690155690874856	shuffle
-0.0859832078573896	-0.237035989193582	0.0691287732549629	shuffle
-0.0119737592455724	-0.165862983168444	0.142484766904531	shuffle
0.133699946861814	-0.0209269379360608	0.282080062263764	shuffle
-0.0236239589506874	-0.17717402250264	0.131048870333022	shuffle
-0.0126321163908881	-0.16650325548813	0.141839617565779	shuffle
-0.037445859576866	-0.190541135231351	0.117427621958432	shuffle
-0.0216757120084389	-0.175285313181191	0.132964150208634	shuffle
-0.0891289648120762	-0.240025680957084	0.0659731797928684	shuffle
0.00967334499038831	-0.144738000791599	0.163624741270291	shuffle
-0.131241410058165	-0.279775105671919	0.0234281582051399	shuffle
-0.00962915037123864	-0.163581725558346	0.144781273327613	shuffle
0.179411049440363	0.0259330132519247	0.324625934528722	shuffle
0.111316883925353	-0.0436274180392995	0.261031844386837	shuffle
-0.0220065522162878	-0.175606122767601	0.132638989670888	shuffle
-0.0129893059455699	-0.166850578890678	0.141489538942975	shuffle
-0.137142885984221	-0.285305050929169	0.0174209685549165	shuffle
0.00184557029802836	-0.152393254182365	0.15599663362982	shuffle
-0.170718110828607	-0.316579930950476	-0.0169693547663598	shuffle
0.085658637749417	-0.0694541817099978	0.236727358528842	shuffle
-0.0594070108083481	-0.211663567530469	0.0956647629017934	shuffle
0.00891990316697934	-0.145475641901883	0.162891317685582	shuffle
0.041218082216665	-0.113700010863424	0.194179404260246	shuffle
-0.00910988490687221	-0.1630762678349	0.145289660523587	shuffle
-0.0723500833836271	-0.224046069925045	0.0827687458549484	shuffle
0.113700771506129	-0.0412173129209288	0.263280359387477	shuffle
-0.0125160092688571	-0.166390347208651	0.141953404905614	shuffle
0.0929385729945838	-0.0621475011832948	0.243642461214926	shuffle
-0.0222769901486757	-0.17586833716266	0.132373169729891	shuffle
0.118117071519076	-0.0367476747643479	0.267441583620956	shuffle
-0.100639610678201	-0.250940923218552	0.054400034980335	shuffle
-0.0665210846996557	-0.218475582867413	0.0885829897140738	shuffle
-0.141951807505035	-0.289803941627069	0.0125176392644651	shuffle
0.0632479905524346	-0.0918431714533702	0.215343300278129	shuffle
0.0355555125921351	-0.119293973064577	0.188716332212244	shuffle
-0.00440196032921618	-0.158489840031911	0.149895239534135	shuffle
-0.11639376747176	-0.265818476205483	0.0384925296022213	shuffle
0.0109401066573092	-0.143497417880644	0.164857462801399	shuffle
0.0414768655720801	-0.113444127994082	0.194428843930187	shuffle
0.117284598590191	-0.0375906761018101	0.266657618260698	shuffle
0.0607086307874497	-0.0943702250500419	0.212911028334418	shuffle
0.0920410937999555	-0.06304917682626	0.242790786263925	shuffle
-0.0697856374571746	-0.221596575716356	0.085328002079487	shuffle
-0.108745797953832	-0.258604939042254	0.0462247604486977	shuffle
0.0174390548993184	-0.137125134373817	0.171174220107082	shuffle
-0.0135624039612728	-0.167407767242874	0.14092776942521	shuffle
0.0954861172789085	-0.0595866651302956	0.246058722049616	shuffle
-0.0730534700976287	-0.224717592444117	0.082066424855137	shuffle
-0.00661308753230479	-0.1606447334325	0.147733013639566	shuffle
-0.101071642765567	-0.251349865006709	0.0539648445300884	shuffle
-0.0996315404879383	-0.249986521463389	0.0554152456459264	shuffle
0.159577019071581	0.00551732195030647	0.306237187741317	shuffle
-0.0395629215917813	-0.192583537226358	0.115336134214829	shuffle
-0.0267657459693768	-0.18021741712732	0.127957812566821	shuffle
0.0414677772692787	-0.113453114781924	0.19442008410667	shuffle
0.0645792459495411	-0.0905175689087213	0.216617661527015	shuffle
-0.032538837046069	-0.185802061404235	0.12227009029942	shuffle
0.112823324038839	-0.0421046200956683	0.262452928029191	shuffle
0.124191853535765	-0.0305893842822089	0.273156414120556	shuffle
-0.0509024260405421	-0.203500621991672	0.104110183382664	shuffle
0.0835299493192256	-0.0715875505705401	0.234702452748732	shuffle
-0.0898618458725695	-0.240721791937826	0.0652375612157451	shuffle
-0.0520819700737623	-0.204634050919828	0.102940178868089	shuffle
0.00460885024532973	-0.149692987765766	0.15869153055261	shuffle
0.0125329729605786	-0.141936780397529	0.166406843789021	shuffle
0.159548947612418	0.00548851798222269	0.306211084023634	shuffle
0.0326122554278639	-0.122197692044202	0.185873019537161	shuffle
0.0220430139689111	-0.13260315183566	0.175641477054217	shuffle
0.089197633559102	-0.0659042617064503	0.240090911047898	shuffle
-0.0434791581215433	-0.196358172881998	0.111463582537025	shuffle
0.0197880251257204	-0.134818793783907	0.173454234106643	shuffle
-0.0159721103404639	-0.169749503334692	0.138564606921895	shuffle
-0.0956647459521955	-0.246228075207784	0.0594070278541262	shuffle
0.148177343354681	-0.00615883194812358	0.295618429369333	shuffle
0.000364487928802542	-0.153839614852444	0.154551258408194	shuffle
0.142714625685516	-0.0117391623253244	0.290516981062288	shuffle
0.139734979242221	-0.0147789111800753	0.287730843557387	shuffle
-0.0172809489963759	-0.171020696382767	0.137280310763861	shuffle
0.07809362430853	-0.0770293958134816	0.229525211317438	shuffle
-0.0218324211399058	-0.175437275173093	0.132810135516776	shuffle
0.0286875698593835	-0.126065536780138	0.182077607477612	shuffle
-0.106263885964732	-0.256260411095549	0.0487300321425669	shuffle
0.0198165087522983	-0.13479081680074	0.173481871465135	shuffle
-0.0797871741558853	-0.231138969702313	0.075335116835897	shuffle
-0.00735764872589781	-0.161370028474217	0.147004586959166	shuffle
0.0264720257463367	-0.128246917627228	0.179933019880954	shuffle
-0.050396402727698	-0.20301425661418	0.10461198277377	shuffle
-0.0325753788200019	-0.185837378863691	0.122234056468498	shuffle
-0.0604619514324044	-0.212674651175569	0.094615602504083	shuffle
-0.0840114219548641	-0.235160566378488	0.0711051434703755	shuffle
-0.00239821559951413	-0.156535786241239	0.151853395495696	shuffle
0.0184043111422255	-0.136177598604135	0.172111339684403	shuffle
-0.139352219641417	-0.28737276008216	0.015169184522938	shuffle
-0.0377922653630065	-0.190875415432517	0.117085494764073	shuffle
0.0746411826477585	-0.0804805513040611	0.226232850462394	shuffle
-0.0661732308215871	-0.218142842622904	0.08892962919777	shuffle
-0.16995020522874	-0.315868163074383	-0.0161787208710107	shuffle
0.130286520461744	-0.0243991041535882	0.278879404332828	shuffle
-0.158642036543861	-0.305367626549286	-0.00455807910538404	shuffle
-0.0679384627193396	-0.219831013118885	0.087170171389342	shuffle
0.0263078251340924	-0.128408526732202	0.179774019981333	shuffle
-0.0024845684856261	-0.156620022546794	0.15176903225103	shuffle
0.00700539489436485	-0.14734922838	0.161026910243868	shuffle
-0.101876815463621	-0.252111861462511	0.0531536284351731	shuffle
-0.115651113767595	-0.265118740689226	0.0392441794584135	shuffle
-0.0169067454678093	-0.170657308163645	0.137647550525307	shuffle
-0.114654467655384	-0.264179443594327	0.0402526230659514	shuffle
0.0214507877916821	-0.13318519405158	0.175067189729092	shuffle
-0.0426707925320666	-0.195579406615976	0.112263316567105	shuffle
-0.100085430686557	-0.25041628326081	0.0549581800744073	shuffle
-0.053262611972973	-0.205768125282714	0.101768655641206	shuffle
-0.0955384161441183	-0.246108306183303	0.0595340720063724	shuffle
-0.0886005992027184	-0.239523728201432	0.0665034144280305	shuffle
-0.0636753594770049	-0.215752461109658	0.0914176771468788	shuffle
-0.0907141981862005	-0.24153118490226	0.0643818130365001	shuffle
0.0515896484628943	-0.103428571008842	0.204161026703612	shuffle
0.116259815048301	-0.0386281176185329	0.265692276571562	shuffle
-0.0227081982733533	-0.176286387937707	0.13194927888723	shuffle
-0.059504823250964	-0.211757327332384	0.0955675008821946	shuffle
-0.0285345668904538	-0.181929551580855	0.126216228594204	shuffle
0.0975388846701831	-0.0575217013876777	0.248004342872045	shuffle
0.117292963356363	-0.0375822066414115	0.266665496601487	shuffle
0.071667949788584	-0.0834496987999439	0.223394700126019	shuffle
-0.0436346563538905	-0.196507955235207	0.11130972166363	shuffle
0.0700134005413711	-0.0851007827144536	0.221814206830825	shuffle
-0.121004200540374	-0.270158950966046	0.033822323069378	shuffle
-0.0497128451051191	-0.20235713416342	0.10528970924736	shuffle
-0.0142399930334514	-0.168066419128184	0.140263445966277	shuffle
-0.0357969632320985	-0.188949469974212	0.119055648321799	shuffle
-0.0299801913045375	-0.183328156826756	0.124792155660069	shuffle
-0.127979374619686	-0.276714198061175	0.0267438406300578	shuffle
-0.119488816118332	-0.268732966579792	0.0353581005202418	shuffle
0.0869560969858826	-0.0681531734131316	0.237960917689674	shuffle
0.0234450225656682	-0.131224827029247	0.177000601494595	shuffle
0.0215857642888363	-0.133052548003595	0.175198086912693	shuffle
-0.0321830392084204	-0.185458163700402	0.122620921095496	shuffle
0.139927155124854	-0.0145829450445909	0.287910614452729	shuffle
-0.0425894509764673	-0.195501032803405	0.11234377846154	shuffle
0.0161032834514882	-0.138435916915743	0.169876926642872	shuffle
0.000761604481388534	-0.153451872913556	0.154938865716731	shuffle
0.1700999310878	0.0163328631918739	0.316006956117956	shuffle
0.00844300449688161	-0.14594245065786	0.162427001807874	shuffle
0.0850319043989664	-0.0700824404834041	0.236131317389864	shuffle
-0.0509004645407072	-0.203498736837348	0.104112128661676	shuffle
0.0242037564732591	-0.130478660776013	0.177735883361657	shuffle
-0.0266096258717945	-0.180066255633592	0.128111482856754	shuffle
0.147482547507605	-0.00686912074883754	0.29497004931513	shuffle
0.205855566955713	0.053353661897644	0.348973896551515	shuffle
0.166921007050449	0.0130617394933735	0.313058811693679	shuffle
-0.0971027744795227	-0.247591097476905	0.0579605137140463	shuffle
-0.0133780308392559	-0.167228523189889	0.141108508876572	shuffle
-0.00345707020104922	-0.157568532635459	0.150818782568974	shuffle
0.00794709148133516	-0.146427798562059	0.16194410093393	shuffle
0.0937864805529391	-0.0612953963353675	0.244446881030531	shuffle
0.00645654307433403	-0.147886144504869	0.160492218527664	shuffle
0.198037663167997	0.0452231640458777	0.341795867585034	shuffle
-0.0170239755524629	-0.1707711545387	0.137532506612928	shuffle
-0.0181612085310036	-0.171875349582486	0.136416264910106	shuffle
-0.0425097751230507	-0.19542426202633	0.112422590697662	shuffle
-0.10403845999938	-0.254156669797429	0.0509747466585274	shuffle
-0.0672289833348289	-0.219152615460997	0.087877446386266	shuffle
0.0362031331813306	-0.118654696518764	0.189341616995809	shuffle
0.215458419996745	0.0633682275820844	0.357767858993135	shuffle
0.00422569072854266	-0.150067547259126	0.158317990154923	shuffle
-0.0618016551809906	-0.213958189870036	0.0932827425552934	shuffle
-0.00418718904164615	-0.158280452603878	0.150105182326142	shuffle
-0.0236054451885933	-0.177156079834624	0.131067076251783	shuffle
0.118248126311495	-0.0366149424190744	0.267564983941523	shuffle
-0.101706982469581	-0.251951151024177	0.0533247531771755	shuffle
-0.0561500545022205	-0.20853995483158	0.0989017012938181	shuffle
-0.0427709052088835	-0.19567586400503	0.112164283760909	shuffle
0.0337581443837796	-0.121067511315837	0.186980302628601	shuffle
-0.0216412589750669	-0.175251902841023	0.132998009858901	shuffle
-0.149303447961787	-0.296669016209877	0.0050072859702113	shuffle
0.0535443936094542	-0.101488986765891	0.20603873219526	shuffle
-0.0552474643167492	-0.207673767230566	0.0997981636853965	shuffle
0.0320776014382246	-0.122724879492821	0.185356245224933	shuffle
-0.0842993285359103	-0.235434472874281	0.0708166434341006	shuffle
0.0501698540080873	-0.104836614851222	0.202796484425311	shuffle
-0.0436752817743014	-0.196547086151298	0.111269522795242	shuffle
0.0129679996071383	-0.141510422198378	0.166829862138579	shuffle
-0.05641431963099	-0.208793516582694	0.0986391826537757	shuffle
-0.0646743610786817	-0.216708691872596	0.0904228366222522	shuffle
-0.035429632592862	-0.188594779274814	0.119418216304846	shuffle
-0.101411919196816	-0.251671917326901	0.0536220390470645	shuffle
0.00674536700946795	-0.147603612866695	0.16077360221894	shuffle
-0.100730007939107	-0.251026493564356	0.0543089817443507	shuffle
-0.013862607442399	-0.167699597613976	0.140633460391749	shuffle
-0.142919690667769	-0.290708636257665	0.0115298559327821	shuffle
0.0194903259070047	-0.135111183021786	0.173165365251277	shuffle
0.0725702729716989	-0.0825489064463254	0.224256300170717	shuffle
0.0489273736551716	-0.106068302417054	0.201601869429406	shuffle
0.0665018127941556	-0.0886021953224302	0.218457149216522	shuffle
-0.0386610731148437	-0.191713655277734	0.116227256241621	shuffle
0.065724178657985	-0.0893770581236362	0.217713248726512	shuffle
0.0711417485753564	-0.0839748902963955	0.222892137652272	shuffle
-0.00480259730557332	-0.158880396853839	0.149503572501691	shuffle
0.0166850790807455	-0.137865071756668	0.170442028697931	shuffle
0.0293799019230261	-0.125383573311408	0.182747467314051	shuffle
-0.0370381021072117	-0.190147605402561	0.117830295957094	shuffle
0.0558716819534484	-0.0991782107808348	0.208272834887352	shuffle
-0.0606189693707857	-0.21282511355431	0.094459415439899	shuffle
-0.0359820585431988	-0.189128180968855	0.118872937230358	shuffle
-0.0136503022693235	-0.167493216731115	0.140841599813409	shuffle
-0.0440299936605079	-0.196888728416044	0.110918513711637	shuffle
-0.0219722030277027	-0.175572816516921	0.132672750721455	shuffle
-0.105550626500606	-0.255586306836883	0.049449644204679	shuffle
-0.0150791686940684	-0.168881951260085	0.13944050653637	shuffle
-0.0276437079322346	-0.181067358757261	0.127093489035598	shuffle
0.113256901013494	-0.0416662016424841	0.262861817827386	shuffle
-0.101492054436165	-0.251747755939771	0.0535413028983578	shuffle
-0.123106919103303	-0.272136536416728	0.0316900956403528	shuffle
-0.0293331548563047	-0.182702242080442	0.125429624883164	shuffle
-0.0413950935470602	-0.194350026520536	0.113524985725978	shuffle
0.0390996987506911	-0.115793878697909	0.192136763618391	shuffle
-0.043357646482015	-0.19624112285979	0.11158380951812	shuffle
-0.179530883924541	-0.324736704177433	-0.0260567523757708	shuffle
-0.10374144896663	-0.253875791625238	0.0512742135730283	shuffle
-0.0903537051381979	-0.241188886645034	0.064743770166005	shuffle
0.0124709962179787	-0.141997517512435	0.166346573217329	shuffle
-0.110429814267688	-0.260194733354704	0.0445237833540991	shuffle
-0.0433369402443531	-0.196221176471245	0.111604296390772	shuffle
-0.00795116675684952	-0.161948069579864	0.146423810410549	shuffle
0.142946522260545	-0.0115024683741224	0.290733712378344	shuffle
-0.116064161232209	-0.265507937444451	0.0388261501683318	shuffle
0.0441300953873894	-0.110819449942402	0.196985135105065	shuffle
0.00947315518635502	-0.144934009083912	0.163429886920546	shuffle
0.0717114682998581	-0.0834062599371028	0.223436260027127	shuffle
0.0122407370535121	-0.142223160961174	0.16612264283513	shuffle
0.0914839933368029	-0.0636087548568631	0.242262001362238	shuffle
0.076772144137181	-0.0783508229376561	0.228265414009511	shuffle
0.0438517521689593	-0.111094899389893	0.196717059003949	shuffle
0.0797235544569253	-0.0753987801206537	0.231078362491302	shuffle
0.0802435441268869	-0.0748783971306747	0.231573695439211	shuffle
0.144710545637544	-0.00970138486634646	0.292381878216871	shuffle
-0.105076249868871	-0.255137890866765	0.0499281567514936	shuffle
-0.0012073152179368	-0.155373847059171	0.15301662737157	shuffle
-0.198399646217144	-0.342128594032359	-0.0455991743052493	shuffle
0.158627001108775	0.00454265585695237	0.305353641153875	shuffle
-0.113106622079496	-0.26272010161926	0.0418181654016368	shuffle
0.115538782796935	-0.0393578558923756	0.265012887651134	shuffle
0.00132784510163414	-0.152898917225565	0.155491465212946	shuffle
-0.0161690929300479	-0.169940852910467	0.138371351243602	shuffle
-0.0770178594223213	-0.22849969841771	0.0781051587630571	shuffle
0.0978525574175279	-0.0572060480777889	0.248301536236795	shuffle
0.0159093970470512	-0.138626131209743	0.169688580988849	shuffle
-0.171606259039557	-0.317402946308814	-0.0178840300395578	shuffle
-0.00779280436501175	-0.161793847075363	0.146578783532341	shuffle
0.0697699784552109	-0.0853436231073384	0.221581612744578	shuffle
0.0173051590755874	-0.137256549760298	0.171044205296673	shuffle
-0.120033161715339	-0.269245273835429	0.034806513643942	shuffle
0.171726740953666	0.0180081303099822	0.317514575697444	shuffle
-0.0433297781095382	-0.196214277133182	0.111611382618193	shuffle
-0.0782249833101223	-0.229650411142369	0.0768980122996457	shuffle
0.072276975098589	-0.0828417345336312	0.223976265261303	shuffle
-0.025564901555109	-0.179054526730799	0.129139622388829	shuffle
-0.0652917707129229	-0.217299522159094	0.0898078438418744	shuffle
-0.103066736681758	-0.253237633833779	0.0519544012432266	shuffle
0.0399718064391435	-0.114932030419479	0.192977849697633	shuffle
-0.0996258436510053	-0.249981127088795	0.0554209819245115	shuffle
-0.10670967895956	-0.256681657687161	0.0482801869953321	shuffle
-0.164898423338613	-0.311181593884417	-0.0109822067532372	shuffle
0.0717879466735922	-0.0833299201072906	0.223509295050376	shuffle
0.00441988096017025	-0.149877721166464	0.158507310804302	shuffle
0.151044372014955	-0.00322622453098054	0.298292490375979	shuffle
0.0465731788313347	-0.108400743926727	0.19933712132313	shuffle
-0.102055667315087	-0.252281097353021	0.0529734063942764	shuffle
-0.0306565990397825	-0.183982351171138	0.124125612801547	shuffle
-0.0638506795923375	-0.215920296248467	0.0912431096759218	shuffle
0.0716099842469749	-0.0835075573363659	0.223339342546168	shuffle
-0.0424205937073438	-0.195338330048252	0.112510803152032	shuffle
-0.0599261704962914	-0.212161184956901	0.0951484908446776	shuffle
-0.032412110480495	-0.185679577682854	0.122395052161067	shuffle
0.0347872405366306	-0.120052180120409	0.187974396030948	shuffle
0.032225770165301	-0.122578788719367	0.185499467447289	shuffle
0.0490577521772725	-0.105939078758213	0.201727246579475	shuffle
-0.0200818039256083	-0.1737392729122	0.134530228639997	shuffle
-0.0855550109579997	-0.236628814365624	0.0695580692123799	shuffle
-0.14486453176933	-0.292525709226124	0.00954411610026127	shuffle
-0.0559111530764773	-0.208310711859438	0.0991390052827254	shuffle
0.036693040943957	-0.118171015497014	0.189814545814926	shuffle
0.220788304000513	0.0689398746115635	0.362637914790747	shuffle
0.150275490107462	-0.00401295387677058	0.297575585434792	shuffle
-0.121039210159186	-0.2701918874625	0.0337868336710792	shuffle
-0.0393383388775175	-0.192366937458918	0.11555806909201	shuffle
-0.0492510447615479	-0.201913115176256	0.105747488680952	shuffle
-0.10758705678552	-0.257510558649637	0.0473946503303427	shuffle
0.14061495041631	-0.013881487206383	0.288553926987804	shuffle
0.00512411754716492	-0.149189215814666	0.15919379266934	shuffle
-0.0672540050519154	-0.219176543495781	0.0878525050730742	shuffle
0.0461496544257646	-0.10882017385476	0.198929515287607	shuffle
0.00625392571653668	-0.148084332621906	0.160294805746713	shuffle
-0.0504157754471517	-0.203032878130924	0.104592773216838	shuffle
-0.19963006848943	-0.343259300320808	-0.0468776004827437	shuffle
-0.0844637098938387	-0.235590850063872	0.0706519116013529	shuffle
0.113295972997384	-0.041626690436009	0.262898662475942	shuffle
0.0281055892515082	-0.126638688320237	0.181514407061622	shuffle
-0.0637255887469054	-0.215800546849814	0.0913676644840943	shuffle
0.00313400799815327	-0.151134484338673	0.157253471918538	shuffle
-0.0545444016866466	-0.206998894336786	0.100496278786362	shuffle
0.0238524788182726	-0.130824141659038	0.177395484811917	shuffle
-0.0320367050418865	-0.185316712978129	0.122765201166961	shuffle
0.0475967672088804	-0.107386823357646	0.200322019419851	shuffle
-0.0303203806838847	-0.183657191283984	0.12445694513719	shuffle
0.013498893760717	-0.140990029113877	0.167346024978519	shuffle
0.0950984269312732	-0.059976509967135	0.24569113137069	shuffle
-0.0303372639535657	-0.183673520050767	0.124440308043061	shuffle
-0.0616228921415985	-0.213786951571323	0.093460624536582	shuffle
0.181418268440472	0.0280062552319864	0.326480792914821	shuffle
0.0212032866102257	-0.133428407586805	0.174827154517663	shuffle
-0.0120978082076046	-0.165983634472564	0.142363216617483	shuffle
-0.0436061713559002	-0.196480517836312	0.111337907277186	shuffle
0.0403214122012111	-0.114586471901524	0.193314956562094	shuffle
0.0970504572326137	-0.0580131510934253	0.247541519489299	shuffle
0.0844872502577326	-0.0706283203548334	0.235613243543872	shuffle
-0.0558366002508179	-0.208239169673031	0.099213055993541	shuffle
-0.0241634636917587	-0.177696840317109	0.130518290554759	shuffle
-0.0509919456872791	-0.203586656149889	0.10402140276552	shuffle
-0.00802593336882452	-0.16202087903943	0.146350641319318	shuffle
-0.0102907905509412	-0.164225655035145	0.144133375930744	shuffle
-0.04466206641091	-0.197497419981513	0.110292943275965	shuffle
0.0418116333776881	-0.113113081828564	0.194751495196532	shuffle
-0.00856711979897741	-0.162547848939079	0.145820967924653	shuffle
-0.0273441395204784	-0.180777376887641	0.127388430307013	shuffle
-0.0211145929513894	-0.174741131893079	0.133515560206754	shuffle
-0.0933521077432527	-0.244034812371053	0.0617319476073399	shuffle
0.165435343842323	0.0115341153261788	0.311680036484554	shuffle
-0.0169723097342409	-0.170720980499959	0.137583209451967	shuffle
0.0558554571689009	-0.0991943262394476	0.208257265253226	shuffle
