cor	ci95_lower	ci95_upper	type
0.141879300450343	-0.0125916249644938	0.289736157576729	real
-0.103958575318155	-0.25408112673199	0.0510552946191951	shuffle
0.0651198080970153	-0.0899791451935564	0.217134973686204	shuffle
-0.0623716535100233	-0.21450413260353	0.092715487419967	shuffle
0.0621135373943078	-0.0929723737898571	0.214256921518709	shuffle
0.0130537998298431	-0.141426324885046	0.166913287280274	shuffle
0.0403609756107828	-0.114547364140161	0.193353103249051	shuffle
-0.0747504486213059	-0.226337103157944	0.080371382998841	shuffle
-0.071136382851815	-0.222887012559705	0.0839802452799324	shuffle
-0.0275381769113926	-0.180965207896915	0.12719739314389	shuffle
-0.0157471435680665	-0.169530955642021	0.138785302927201	shuffle
0.032967150608353	-0.121847704795562	0.1862159996468	shuffle
-0.0829075837577922	-0.234110182199801	0.0722110165371712	shuffle
0.0408047847397094	-0.114108633415954	0.193780988361488	shuffle
0.0422326996660058	-0.112696647721169	0.19515727447885	shuffle
-0.0535248824524099	-0.206019995551313	0.101508352420529	shuffle
-0.0349568983483581	-0.188138253123637	0.11988476050503	shuffle
-0.00813008210845424	-0.162122298701347	0.146248715086109	shuffle
0.172436733925993	0.0187395422544397	0.318172319191244	shuffle
-0.0859975476231459	-0.237049624038801	0.0691143956889611	shuffle
-0.0117501581199243	-0.165645494762845	0.142703852344422	shuffle
0.0907522257327162	-0.0643436286679557	0.241567290935729	shuffle
-0.097513651234842	-0.247980433891416	0.0575470928023426	shuffle
-0.0612952397734541	-0.213473066920131	0.0937866363229928	shuffle
-0.0430051771328623	-0.195901570692549	0.111932526794614	shuffle
-0.0573022000797493	-0.209645285700544	0.0977570119828202	shuffle
0.0304261375919623	-0.124352728839447	0.183759473387262	shuffle
0.0693817563391977	-0.0857308793797689	0.221210623934948	shuffle
0.0252825743079699	-0.129417410672022	0.178781060464784	shuffle
-0.0370781840974389	-0.190186291016194	0.117790715921949	shuffle
0.321383214759829	0.17590487025091	0.453123747294766	shuffle
-0.0456924800482378	-0.19848946469796	0.109272866519026	shuffle
0.0821617541374869	-0.072958005211535	0.233400269935542	shuffle
-0.068827149979442	-0.220680560492094	0.0862840246639452	shuffle
-0.0484477532776462	-0.201140604420149	0.106543629376906	shuffle
0.100934663045034	-0.0541028320152266	0.251220212085021	shuffle
0.114920352307294	-0.039983621946736	0.264430056454123	shuffle
-0.0123152254735154	-0.16619508564228	0.142150167473414	shuffle
-0.114867467522661	-0.264380210856414	0.0400371283895252	shuffle
0.00177942705000137	-0.152457860900134	0.155932099096596	shuffle
-0.134026928085126	-0.282386488575664	0.0205941339877592	shuffle
0.060655852849279	-0.0944227260262787	0.212860456086379	shuffle
-0.0380657014853827	-0.191139255127175	0.116815409993198	shuffle
0.0960030467423029	-0.0590667893688572	0.246548784118125	shuffle
-0.170663042610003	-0.316528893959453	-0.0169126502506549	shuffle
-0.0548206501633335	-0.207264083763284	0.100221992507271	shuffle
0.0612656694701143	-0.0938160569293526	0.213444737593927	shuffle
0.0127733543757602	-0.141701195966106	0.166640596816004	shuffle
0.0055345003555779	-0.148787931120913	0.159593760497085	shuffle
-0.0214145798463616	-0.175032075150937	0.133220775902929	shuffle
0.114983151762285	-0.0399200831332632	0.264489245907696	shuffle
0.0230795744339465	-0.131584159363545	0.176646387987736	shuffle
-0.0466198678379293	-0.199382052266095	0.108354502915482	shuffle
0.0267115817041877	-0.128011127738023	0.180164974019931	shuffle
-0.0151307107050581	-0.16893203422644	0.139389954793324	shuffle
-0.167963436415941	-0.314025874500113	-0.014134040101678	shuffle
-0.0888268687756946	-0.239738696497603	0.0662763551795858	shuffle
0.099383207540469	-0.0556652884082909	0.249751364599885	shuffle
-0.138113058309893	-0.286213202351941	0.0164323482804909	shuffle
0.00254767519007579	-0.151707378155497	0.156681581035647	shuffle
0.0577226011497756	-0.0973392294069093	0.210048507834265	shuffle
-0.0608597079257416	-0.213055787164461	0.0942199359480915	shuffle
-0.0246483323110424	-0.178166637972636	0.130041367452222	shuffle
-0.0118261733597209	-0.165719433607302	0.142629373951184	shuffle
-0.00422035104229799	-0.15831278420846	0.150072766783103	shuffle
-0.0614396856209967	-0.213611447129397	0.0936429178263548	shuffle
0.0573281241893555	-0.0977312509241656	0.209670151967057	shuffle
-0.0666534747900402	-0.21860221156104	0.0884510519404797	shuffle
0.0449269596196111	-0.1100307385872	0.19775247941044	shuffle
0.235884024206795	0.0847719123278222	0.37638935506366	shuffle
0.0256628685725179	-0.129043224708422	0.179149413462105	shuffle
-0.0339391923541605	-0.187155215346693	0.12088890848315	shuffle
0.0666721654583423	-0.0884324246912626	0.218620088430282	shuffle
-0.111968996764621	-0.261647087493329	0.0429683125312032	shuffle
-0.0598902008895313	-0.212126710435518	0.0951842630738817	shuffle
-0.0145679416591229	-0.168385152964425	0.139941867844638	shuffle
-0.13905324903757	-0.28709303502732	0.0154739913066028	shuffle
-0.0671264530265542	-0.219054564774371	0.0879796451961965	shuffle
0.0203474841233491	-0.134269240852533	0.173997026888425	shuffle
0.0095909209194417	-0.144818704677976	0.163544515418576	shuffle
0.139210609566475	-0.0153135625361384	0.28724026897931	shuffle
-0.0870327593802422	-0.238033789209828	0.068076284807553	shuffle
-0.00889195706684699	-0.162864110813797	0.145502998632752	shuffle
-0.043046646094395	-0.195941521816212	0.111891501255079	shuffle
0.0242138255578884	-0.130468757297238	0.177745640064064	shuffle
0.0799139475164535	-0.0752082528522222	0.231259736652158	shuffle
0.0620559207820235	-0.0930297130799519	0.21420173646352	shuffle
0.0702446464292893	-0.0848700723532637	0.222035150346318	shuffle
-0.000945910334433661	-0.155118742106873	0.153271901778791	shuffle
0.0749581556997958	-0.0801638513197247	0.226535270765384	shuffle
0.0449623499800298	-0.109995705786066	0.197786554387616	shuffle
-0.0138081132243082	-0.167646625321365	0.14068688665294	shuffle
-0.0515177013754292	-0.204091893739152	0.103499937590161	shuffle
-0.120848293365467	-0.27001227171931	0.0339803620894565	shuffle
0.0309434318054453	-0.123842921084541	0.184259723272812	shuffle
-0.0129579854705703	-0.166820125065015	0.141520237435297	shuffle
-0.104321568949447	-0.254424377441704	0.0506892708267572	shuffle
-0.0286355607105616	-0.182027280730132	0.126116761116695	shuffle
-0.00803831667660844	-0.1620329380297	0.146338522439726	shuffle
0.129984218207059	-0.0247064287773804	0.27859578621184	shuffle
-0.00799421464146762	-0.161989990812381	0.14638168252633	shuffle
0.00370218139768628	-0.150579234825067	0.157807552077692	shuffle
-0.0211025652227078	-0.174729466202212	0.133527378771318	shuffle
0.00762153787458049	-0.146746376050632	0.161627049341903	shuffle
-0.0674399598447431	-0.219354364605142	0.087667141727419	shuffle
-0.0338934717678169	-0.187111045030913	0.120934012537652	shuffle
0.0132564190805479	-0.141227718244686	0.167110288977356	shuffle
-0.0665280340683424	-0.218482229938383	0.0885760642235693	shuffle
-0.0683008258229018	-0.220177444715134	0.0868088738275789	shuffle
-0.00479084264824409	-0.15886893863406	0.149515064671155	shuffle
0.214917316160127	0.0628031089486016	0.357273004892768	shuffle
-0.0617403429066139	-0.213899459490186	0.0933437537592707	shuffle
-0.145153542232373	-0.292795641906351	0.00924892396689969	shuffle
-0.0721400977867985	-0.223845568984073	0.0829783834374428	shuffle
0.026307087909539	-0.12840925230293	0.179773306088751	shuffle
-0.0488945258716091	-0.201570280910828	0.10610085841679	shuffle
0.197370487673822	0.0445302482547355	0.341182520856612	shuffle
0.0181009112108498	-0.136475459105737	0.171816813664239	shuffle
-0.0801050486781301	-0.231441774794145	0.0750170055924216	shuffle
-0.0346726069377781	-0.187863677007371	0.120165296439703	shuffle
0.103212089262816	-0.0518078812595749	0.253375122563317	shuffle
-0.0418534684653309	-0.194791813784408	0.113071709406909	shuffle
0.0079503152413896	-0.146424643722149	0.161947240344717	shuffle
-0.00868791710531618	-0.162665461007326	0.145702728339215	shuffle
0.0597600181556169	-0.0953137281027119	0.212001935610873	shuffle
0.0347528370595766	-0.120086128658508	0.187941167792864	shuffle
-0.163899397947305	-0.310253948474679	-0.00995554320786135	shuffle
0.0597847194941298	-0.0952891633473976	0.212025611214853	shuffle
0.00260429104079751	-0.151652064483768	0.156736806893705	shuffle
0.0113523946175212	-0.143093545498148	0.165258568159637	shuffle
-0.0210846280434232	-0.174712068856645	0.133545003938496	shuffle
0.0589953828021128	-0.0960740420928814	0.211268963698198	shuffle
0.044778406788821	-0.110177786344914	0.197609443938438	shuffle
0.0363460447669181	-0.118513608935162	0.189479582973634	shuffle
0.0817524319246932	-0.0733678895764795	0.233010591160359	shuffle
-0.0472007461780289	-0.199941004065065	0.107779142202107	shuffle
0.047823328909995	-0.107162357952783	0.200539975674352	shuffle
-0.0491617156210699	-0.201827218358788	0.105836032447099	shuffle
0.0834176616795735	-0.0717000457085951	0.234595603170578	shuffle
0.0413869698551573	-0.113533018474807	0.194342196248857	shuffle
0.0695256315684448	-0.0855873675583591	0.221348117621067	shuffle
0.053472887174995	-0.101559959374867	0.205970063727613	shuffle
-0.0248123871182552	-0.178325577689857	0.129879984794061	shuffle
0.120771972638818	-0.0340577235883937	0.269940465785829	shuffle
0.0291469904481908	-0.125613012952497	0.182522131745074	shuffle
0.0378455399636828	-0.117032874916849	0.190926822059612	shuffle
-0.0581698821846045	-0.210477454643916	0.0968946742813003	shuffle
-0.0123528726172924	-0.16623169828233	0.142113275243265	shuffle
0.102493237137651	-0.0525324417537419	0.252695102513345	shuffle
0.0740733076379398	-0.0810478587894883	0.225690974430578	shuffle
-0.0210501331513846	-0.17467861184628	0.133578898526822	shuffle
-0.0545494910526284	-0.207003780162844	0.100491225783308	shuffle
0.0104848519603216	-0.143943320214023	0.164414496952739	shuffle
0.0642868838921797	-0.0908087366239606	0.216337838602407	shuffle
-0.0870724337264209	-0.238071501034061	0.0680364926689577	shuffle
-0.0332895615443952	-0.186527553746409	0.12152971918137	shuffle
-0.00399559963044655	-0.158093654235208	0.150292452675393	shuffle
-0.082702383594833	-0.233914880059091	0.0724165529446727	shuffle
-0.107143709449092	-0.257091734708347	0.0478421508557529	shuffle
0.00885292714465265	-0.145541205038308	0.16282611291658	shuffle
0.118649025215235	-0.0362088779265305	0.26794243727515	shuffle
-0.107165350307579	-0.257112179828209	0.04782030871429	shuffle
0.115404631098267	-0.0394936091626395	0.264886467528028	shuffle
0.0134821300480915	-0.141006462546209	0.167329727716784	shuffle
0.188463838039707	0.0352940355272067	0.332982727512207	shuffle
-0.0291352734815908	-0.182510795470278	0.125624554825863	shuffle
0.0391910300027744	-0.115703632792169	0.192224856681222	shuffle
0.016132980421158	-0.138406781384726	0.169905773961166	shuffle
0.0543960066226497	-0.100643610068498	0.206856430719601	shuffle
0.0827017852921572	-0.0724171522084749	0.233914310598263	shuffle
0.0596647537524938	-0.0954084639835736	0.211910625432608	shuffle
0.0832361783633269	-0.0718818560480825	0.23442290132105	shuffle
-0.0521283282253488	-0.20467858831354	0.102894186873758	shuffle
0.0722462558564625	-0.0828724030220392	0.223946933697608	shuffle
0.0596945440453567	-0.0953788392676694	0.211939179478762	shuffle
-0.0167737085233918	-0.170528106202535	0.137778101471051	shuffle
-0.0190797856057371	-0.172766959032486	0.135514356461954	shuffle
-0.05697396675226	-0.20933042901458	0.0980831629010133	shuffle
-0.0649266131886359	-0.21695009804224	0.0901715862454408	shuffle
0.0792905492424439	-0.0758320483948153	0.230665829514963	shuffle
0.0904793219137005	-0.0646176478517812	0.241308167556027	shuffle
-0.222041515322709	-0.363781883193292	-0.0702513084398572	shuffle
-0.168844117223355	-0.314842646877001	-0.015040232997231	shuffle
-0.0131441244106798	-0.167001109158691	0.141337790601023	shuffle
0.169522432490207	0.0157383703936924	0.315471591413612	shuffle
-0.05708688469655	-0.209438748727509	0.0979709650998017	shuffle
0.0432785959718332	-0.111662021846888	0.196164972556302	shuffle
0.144224394548898	-0.0101978494673207	0.291927744116193	shuffle
0.0927975362347686	-0.0622892141725364	0.243508637875766	shuffle
0.0132293525092276	-0.141254249517451	0.167083973528942	shuffle
-0.00336796605237956	-0.157481638518829	0.150905859771157	shuffle
0.0185399455782508	-0.136044431520742	0.172242998165051	shuffle
-0.0448557493305669	-0.197683914734742	0.110101228250868	shuffle
-0.00442209291633994	-0.158509467227421	0.149875558855219	shuffle
-0.00653596178154315	-0.160569593866477	0.147808458518801	shuffle
-0.0615645462967534	-0.213731059676159	0.0935186806729272	shuffle
-0.214226062275298	-0.356640718224114	-0.0620813183097403	shuffle
-0.00817626372345041	-0.162167269148068	0.146203517925522	shuffle
0.0488830429219636	-0.106112239286068	0.201559238100939	shuffle
0.151206082283155	-0.00306073630246399	0.298443247771779	shuffle
-0.0374823202117013	-0.190576321270331	0.117391613394007	shuffle
0.0188095391546873	-0.135779725586899	0.172504672635665	shuffle
-0.0981925992908344	-0.248623681385284	0.0568638241216577	shuffle
-0.253332361184237	-0.392207148000835	-0.103166881402384	shuffle
-0.067357808631581	-0.219275807939721	0.0877490329752058	shuffle
0.0865178601543921	-0.0685926680016307	0.23754431856742	shuffle
0.110645996224078	-0.044305359003923	0.260398760970595	shuffle
0.108944082806478	-0.0460245252125166	0.258792171881247	shuffle
-0.038934101823821	-0.191977031712449	0.115957501211343	shuffle
0.0213580797181756	-0.133276298256126	0.174977280369914	shuffle
0.0468825570999034	-0.108094321735959	0.199634838052217	shuffle
0.0677434830958049	-0.0873645607846666	0.219644590035183	shuffle
-0.0386793507747976	-0.191731287463403	0.116209198448747	shuffle
0.0122398996407894	-0.14222398155804	0.166121828410128	shuffle
-0.0619513635040082	-0.21410158926897	0.0931337644722881	shuffle
-0.109570901885045	-0.259383979226062	0.0453914586547343	shuffle
0.127420708437222	-0.0273113533125162	0.276189674761143	shuffle
0.0138888251328632	-0.140607756185	0.16772508277501	shuffle
-0.0370310443937159	-0.190140793516495	0.11783726523443	shuffle
0.0617634394084956	-0.0933207708081687	0.21392158351446	shuffle
-0.107068490022644	-0.257020670393305	0.0479180687498624	shuffle
0.0582159537655522	-0.0968488799639786	0.210521634401452	shuffle
-0.013630882250108	-0.167474337946584	0.140860638100504	shuffle
-0.0028616006466182	-0.156987787070385	0.151400660890252	shuffle
-0.0395541967768599	-0.192575122819355	0.115344756452652	shuffle
0.0539915147187078	-0.101045167815709	0.206468073786695	shuffle
0.0423090298120126	-0.112621151460806	0.195230827818535	shuffle
-0.0253407455320664	-0.178837407896006	0.129360176650443	shuffle
-0.0740363649187275	-0.225655719806604	0.0810847611072044	shuffle
0.00481273886580019	-0.149493657374495	0.158890282623426	shuffle
-0.072429199708554	-0.224121609383487	0.0826897570906815	shuffle
0.0749006452102339	-0.0802213145905869	0.226480402846237	shuffle
-0.00124189097569058	-0.155407587991766	0.152982860944385	shuffle
0.0445069566514072	-0.110446468744917	0.197348058842511	shuffle
0.0189882330559218	-0.135604259183443	0.172678105585566	shuffle
0.0638487573167618	-0.0912450237509063	0.215918456089707	shuffle
0.0661702079485746	-0.0889326413529584	0.218139950933496	shuffle
-0.0390888569683976	-0.192126306072438	0.115804591470727	shuffle
-0.03963701587446	-0.192654994505774	0.115262910113124	shuffle
0.0958488913201023	-0.0592218322197585	0.246402648975738	shuffle
-0.059325852793919	-0.211585769990188	0.095745461965561	shuffle
0.0568406443543747	-0.0982156299504839	0.209202530942031	shuffle
-0.131138241663966	-0.279678344566104	0.0235330754247246	shuffle
0.0491425750673824	-0.105855004398895	0.201808812943384	shuffle
-0.069878237701417	-0.221685058492046	0.085235624838111	shuffle
0.0986118959377619	-0.0564417866341416	0.24902086424032	shuffle
0.0164902809088408	-0.138056214901087	0.170252831169609	shuffle
0.071069861295002	-0.0840466329434927	0.222823473528695	shuffle
-0.0282047328880552	-0.181610358500174	0.12654105606568	shuffle
0.00341146778378066	-0.150863347918825	0.157524061583799	shuffle
0.237743162755494	0.0867270248046085	0.378078665516682	shuffle
-0.0210412765228931	-0.174670021638626	0.133587600967842	shuffle
0.130906958361118	-0.0237682668714832	0.279461414181596	shuffle
0.091947613753092	-0.0631430794116407	0.242702063750949	shuffle
-0.127244070863467	-0.276023813950833	0.0274907671973461	shuffle
-0.0608673293770917	-0.213063089696442	0.0942123540638526	shuffle
-0.0150917628221232	-0.168894188948502	0.139428154451524	shuffle
0.0848400094319679	-0.0702747779051792	0.235948797110893	shuffle
-0.0305903789014238	-0.183918311715497	0.124190873339845	shuffle
-0.0346191970646192	-0.187812089676269	0.120217998011849	shuffle
-0.0195233587288649	-0.173197419556731	0.135078740725512	shuffle
0.0105669906573427	-0.143862873540372	0.164494423041979	shuffle
-0.00689744278029097	-0.16092175038277	0.147454840083047	shuffle
-0.0392574788049805	-0.192288947962325	0.115637972035456	shuffle
0.213610733696206	0.0614389408994454	0.356077770295953	shuffle
0.12980492771167	-0.0248886841456378	0.278427564722844	shuffle
-0.0621328210216393	-0.214275391114499	0.0929531827493607	shuffle
0.0382798199379312	-0.116603899874847	0.19134584350513	shuffle
-0.0887787049603646	-0.239692939515444	0.0663246884312608	shuffle
-0.0492581619292203	-0.20191995877764	0.105740433981106	shuffle
-0.00440614579627995	-0.15849392044054	0.14989114802666	shuffle
-0.0869799249557499	-0.23798356757375	0.0681292753303302	shuffle
-0.00799736133284939	-0.161993055126546	0.146378603062687	shuffle
-0.0723467885868337	-0.224042924047207	0.0827720352972098	shuffle
-0.0848006400760343	-0.235911349756882	0.0703142366097721	shuffle
-0.0758496713380143	-0.227385698800157	0.0792729357600607	shuffle
-0.0795946363071147	-0.230955545206862	0.0755277827145754	shuffle
0.0453031630891201	-0.109658316304569	0.198114681306389	shuffle
-0.0816858554142014	-0.232947205073946	0.0734345525667709	shuffle
-0.0256128682272308	-0.179100985588097	0.129092424461802	shuffle
-0.054864964490508	-0.207306621970716	0.100177990752086	shuffle
0.0664875239449142	-0.0886164349422513	0.218443481807881	shuffle
0.00607543263227461	-0.148258913555483	0.160120887355422	shuffle
-0.0322351731801981	-0.185508556329658	0.122569517348212	shuffle
0.0258486134888489	-0.128860447218628	0.179329310334174	shuffle
-0.0559560477485306	-0.208353792779812	0.0990944121487687	shuffle
-0.0684547677971701	-0.220324606945414	0.0866553721753151	shuffle
-0.00787477856490152	-0.161873679256437	0.146498564689347	shuffle
0.00502099293222198	-0.14929004618442	0.159093277270608	shuffle
0.0152955600962144	-0.139228267218116	0.169092211750002	shuffle
-0.0592231459209355	-0.211487313089418	0.0958475851064593	shuffle
0.095659425822325	-0.0594123781685127	0.246223031465077	shuffle
-0.127952782203898	-0.276689232849579	0.0267708563986341	shuffle
-0.0473086150117074	-0.200044790206807	0.10767228655869	shuffle
-0.106120631018855	-0.256125032004259	0.0488745758935356	shuffle
0.086410689589162	-0.0687001369897116	0.237442431036242	shuffle
0.114426774666394	-0.0404829670258413	0.263964812707132	shuffle
0.105847052250269	-0.0491505978998383	0.255866477668606	shuffle
0.0865788975580962	-0.0685314590266143	0.237602345612292	shuffle
0.0469708214287308	-0.108006895364497	0.199719770222041	shuffle
-0.00913487791844796	-0.163100598111141	0.145265192966647	shuffle
0.0192803393803118	-0.135317407882045	0.172961591447909	shuffle
0.160122975997686	0.00607757615527475	0.30674483055178	shuffle
0.102464047976097	-0.0525618592569538	0.252667487002042	shuffle
0.02977526553234	-0.12499406518113	0.183129934054381	shuffle
0.0596798668708087	-0.0953934348995733	0.211925111414589	shuffle
-0.0784093266173149	-0.229826102487542	0.0767136255077483	shuffle
0.0996577683749433	-0.0553888360399467	0.250011356711971	shuffle
0.0234134750125394	-0.131255848234954	0.176970025346592	shuffle
0.019159540821164	-0.135436036405378	0.172844360909075	shuffle
-0.0801331357232431	-0.231468528910997	0.0749888961126814	shuffle
-0.00297639973896602	-0.157099755855887	0.151288490336096	shuffle
0.00847003007352152	-0.145915998708376	0.162453316147696	shuffle
-0.0446881194055193	-0.197522506713671	0.110267155661211	shuffle
0.0257914106701966	-0.128916737295732	0.179273909598616	shuffle
-0.000104126494736194	-0.154297105754616	0.154093804237909	shuffle
0.0731723970927337	-0.081947662819952	0.224831117679159	shuffle
-0.128057313506352	-0.276787366669015	0.026664659649887	shuffle
-0.0640332054378695	-0.216095019934601	0.0910613572805472	shuffle
-0.0197377899306893	-0.17340549084387	0.134868134835708	shuffle
-0.0600479185336624	-0.212277869696013	0.0950274079083958	shuffle
-0.00203937791253665	-0.156185719940753	0.152203941194621	shuffle
-0.0469311687963179	-0.19968161484158	0.108046171842226	shuffle
-0.10638705005461	-0.256376799179388	0.0486057548063428	shuffle
-0.0379990372904313	-0.191074932596669	0.116881259234711	shuffle
0.0356602843198819	-0.119190559936673	0.188817498885907	shuffle
0.00269388673067443	-0.151564527543279	0.156824200923498	shuffle
-0.0534111829997966	-0.205910807277308	0.101621201634136	shuffle
-0.0673871114068525	-0.219303828790416	0.0877198231683355	shuffle
0.012077671866907	-0.142382947675624	0.165964049972454	shuffle
-0.00347077661303869	-0.157581898878322	0.150805387738804	shuffle
-0.0781614691018287	-0.22958987562166	0.0769615390326828	shuffle
0.0667854441972772	-0.0883195279958727	0.21872843278603	shuffle
-0.0443507302491214	-0.197197615272438	0.110601091976854	shuffle
0.00281179655784085	-0.151449323386349	0.156939209640933	shuffle
-0.0737190925310995	-0.225352928809648	0.0814016690087158	shuffle
-0.0472826593106689	-0.200019817207689	0.107697998790191	shuffle
0.14100150337422	-0.0134871888990216	0.288915421240066	shuffle
-0.0822252459981135	-0.233460710460146	0.0728944214580843	shuffle
0.141886788934833	-0.0125839838447337	0.289743158340887	shuffle
0.0390935787106835	-0.115799925918236	0.192130860478892	shuffle
-0.118793477442921	-0.268078430344469	0.0360625518963993	shuffle
-0.0604495932760291	-0.212662808670575	0.0946278949421184	shuffle
-0.0237999773292083	-0.177344606143416	0.130875773543618	shuffle
0.0403478539929293	-0.114560334690743	0.193340451553309	shuffle
-0.13078018177791	-0.279342498630882	0.0238971784165555	shuffle
0.00650790564064743	-0.147835902761179	0.16054225979988	shuffle
-0.10453026079114	-0.254621701587821	0.0504788180347154	shuffle
0.0594012951130618	-0.0956704463414008	0.211658088565617	shuffle
-0.0695948834962208	-0.221414295748316	0.0855182882561293	shuffle
0.0296033167583586	-0.125163473193739	0.182963600000691	shuffle
-0.0600224128186068	-0.21225342508064	0.0950527746674548	shuffle
-0.129517449521999	-0.278157815779885	0.0251808948138488	shuffle
0.122082971850609	-0.0327285886636584	0.271173681655222	shuffle
0.0390237442423684	-0.115868928643683	0.192063500231729	shuffle
0.0414913656928741	-0.113429789784944	0.194442819921398	shuffle
0.0458949005686765	-0.109072438271116	0.198684311015276	shuffle
0.0249125978326403	-0.129781402294247	0.178422659978028	shuffle
0.0169261279683304	-0.137628529768245	0.170676131494163	shuffle
-0.115705677045896	-0.265170156097766	0.0391889611923883	shuffle
-0.0451040352501131	-0.197922969823199	0.109855448147852	shuffle
-0.0468007320482313	-0.199556100013445	0.108175367821896	shuffle
0.0510386294464408	-0.103975103424141	0.203631521320551	shuffle
-0.0738897679593665	-0.225515817671454	0.0812311935523433	shuffle
-0.109322534055394	-0.259149497737557	0.045642316845089	shuffle
-0.0813245384127849	-0.232603180388985	0.0737963147286974	shuffle
-0.119437617025475	-0.268684776547546	0.0354099758469465	shuffle
0.00116765554961349	-0.153055358264477	0.155335144523136	shuffle
0.107654394408963	-0.0473266764590015	0.257574166620116	shuffle
-0.051797936413123	-0.204361159143704	0.103221954633454	shuffle
-0.0144426570269987	-0.168263392410539	0.140064722631469	shuffle
0.104540787147068	-0.0504682024922657	0.254631654229385	shuffle
-0.133908127601793	-0.282275159708957	0.0207150539764918	shuffle
-0.0664940760009629	-0.218449748913908	0.0886099054678936	shuffle
-0.0442596841939644	-0.197109936031971	0.110691200272541	shuffle
-0.0185862505246021	-0.172287944481927	0.13599896763767	shuffle
-0.120118543071833	-0.269325622273191	0.0347199879233771	shuffle
-0.142327570042458	-0.290155203778104	0.0121341866576354	shuffle
-0.0799178161582425	-0.231263421927754	0.0752043813659997	shuffle
0.0654094080175778	-0.0896906536129429	0.21741208257216	shuffle
-0.0305141048832126	-0.183844547849289	0.124266040407198	shuffle
-0.0782240473929692	-0.229649519126338	0.0768989484105009	shuffle
0.0608233967944209	-0.0942560583215041	0.213020995237683	shuffle
0.196341378138942	0.0434617229322245	0.340236201309386	shuffle
-0.0353545904141144	-0.188522314400511	0.119492280437841	shuffle
0.0704104858860084	-0.0847046067111144	0.222193591793682	shuffle
0.0804094014093157	-0.0747123966200596	0.231731671644455	shuffle
-0.0469444658665434	-0.199694409876604	0.108033000965215	shuffle
-0.100046665814341	-0.250379581408644	0.0549972186798696	shuffle
-0.0333814241331995	-0.186616317321323	0.12143911165513	shuffle
0.0363183279280853	-0.118540972508601	0.189452825778192	shuffle
-0.0856016332125114	-0.236673150302816	0.0695113300789222	shuffle
-0.075620275230782	-0.227166897037732	0.079502201141678	shuffle
-0.0199132440147887	-0.173575730849873	0.134695800345628	shuffle
-0.00892304995719904	-0.162894381222452	0.145472561461105	shuffle
-0.0595984711299414	-0.21184709249406	0.0954743772162127	shuffle
-0.0891290327602076	-0.240025745503318	0.0659731115987455	shuffle
0.00160793153788335	-0.152625366373272	0.155764768513443	shuffle
-0.0351346863771175	-0.188309953305876	0.119709308479361	shuffle
-0.102724750378454	-0.252914125711609	0.0522991078953378	shuffle
0.0391421097497406	-0.115751972013301	0.192177671223754	shuffle
0.0439761507415831	-0.110971797058325	0.196836871768912	shuffle
-0.0254672608757684	-0.17895995323555	0.129235696049521	shuffle
-0.052541606878319	-0.205075607163605	0.102484143182336	shuffle
0.0144755214376808	-0.140032496073165	0.168295332846318	shuffle
0.00159423322966637	-0.152638745592539	0.155751402499882	shuffle
-0.0667744303201713	-0.218717898834067	0.0883305049024991	shuffle
0.202541440207978	0.0499045511112105	0.345933071506855	shuffle
0.0665102898016827	-0.0885937474908031	0.218465257519814	shuffle
-0.0279667986223008	-0.181380080265865	0.126775358138046	shuffle
-0.00796178292241089	-0.16195840795007	0.146413421181014	shuffle
-0.116606297061553	-0.266018694671864	0.0382773932688974	shuffle
0.101418813379281	-0.0536150932469479	0.251678441935214	shuffle
0.0183669132539194	-0.136214315197682	0.172075037103018	shuffle
-0.0610101018051115	-0.21319988467434	0.0940703195203938	shuffle
-0.0100658460852094	-0.164006746573863	0.144353662979805	shuffle
0.0603747848198446	-0.0947023045715435	0.212591120686812	shuffle
0.024975300220165	-0.1297197171339	0.178483403372215	shuffle
0.176548330334695	0.0229784139293101	0.321978580044469	shuffle
-0.0704030931339647	-0.222186528999056	0.0847119829815294	shuffle
0.0491342521487126	-0.105863253968923	0.201800809652475	shuffle
-0.0510682808413671	-0.203660017298197	0.103945695844974	shuffle
-0.0319015171574386	-0.185186030920885	0.122898485602227	shuffle
0.0179360440270801	-0.13663730445031	0.171656757029778	shuffle
-0.0485424137211714	-0.201231647513764	0.106449821915914	shuffle
0.0288859755018369	-0.12587011747758	0.182269587678191	shuffle
0.0252127886439686	-0.12948607065208	0.178713461402743	shuffle
0.0414791015294558	-0.113441917008124	0.19443099906943	shuffle
0.121404254584749	-0.033416763334335	0.270535294697155	shuffle
-0.040330268237265	-0.193323495513322	0.114577717901345	shuffle
-0.0881418013321469	-0.239087800056432	0.0669637641883192	shuffle
0.0444438069416228	-0.110508971325696	0.197287247531315	shuffle
0.093890546399752	-0.0611907997675955	0.244545595230761	shuffle
0.0316571205249505	-0.12313942695096	0.184949766294661	shuffle
-0.0257601916277799	-0.179243673651473	0.128947457779282	shuffle
-0.0329654218746873	-0.186214329043282	0.121849409715463	shuffle
-0.0774400137283981	-0.228902172795746	0.0776830482773695	shuffle
-0.0483958938380821	-0.201090725616339	0.106595020342735	shuffle
-0.0524027229507025	-0.20494219300693	0.10262194586605	shuffle
0.0479430784506649	-0.107043710030172	0.200655170686233	shuffle
0.0360972230205457	-0.118759250898228	0.189239368067899	shuffle
0.0781034609038707	-0.077019557569185	0.229534586866901	shuffle
-0.130845242121536	-0.279403525348635	0.0238310230765857	shuffle
-0.0775154839965628	-0.228974119346154	0.0776075799827683	shuffle
-0.00350630253928868	-0.15761654285048	0.150770669144066	shuffle
0.0734817139455575	-0.0816387543802485	0.225126365831956	shuffle
-0.0815743894917787	-0.232841077851332	0.0735461601751392	shuffle
0.160148062115205	0.00610332154108645	0.306768154173641	shuffle
0.0468865642508285	-0.10809035267977	0.199638693974732	shuffle
-0.0502497581896733	-0.20287329483058	0.104757388478608	shuffle
-0.0389932303883437	-0.19203406702471	0.115899078602089	shuffle
0.0863017398048783	-0.0688093864612474	0.237338848587209	shuffle
-0.0435092407764111	-0.196387150300741	0.111433817224787	shuffle
-0.0255278086377619	-0.179018599346402	0.129176120350353	shuffle
0.0549769573878423	-0.100066785095771	0.207414123619636	shuffle
0.0734247157526449	-0.0816956795544053	0.225071962188553	shuffle
0.00862651649509175	-0.145762829425069	0.162605679982999	shuffle
-0.0490026102972984	-0.201674220574534	0.105993732842841	shuffle
0.0140774830826699	-0.140422787033196	0.16790846350722	shuffle
0.0156734820202423	-0.138857562749322	0.169459392625629	shuffle
-0.0553951596225076	-0.20781552215983	0.0996514883232494	shuffle
-0.0217359496262153	-0.175343726906108	0.132904949193464	shuffle
0.0215451243097814	-0.13309248689223	0.175158675742696	shuffle
0.00837592090847775	-0.146008109420002	0.162361682723356	shuffle
0.18780463036847	0.0346114742974329	0.332374966402437	shuffle
-0.0596185882539947	-0.21186637521059	0.0954543723476652	shuffle
-0.13603559789679	-0.284268224036221	0.0185489426725467	shuffle
0.0398022186918161	-0.115099641415807	0.192814311939255	shuffle
-0.0670692689529764	-0.218999877780421	0.0880366429653036	shuffle
0.0709325735647368	-0.084183639990374	0.222692337083012	shuffle
0.0567216602228283	-0.0983338460828565	0.209088383370132	shuffle
-0.0919997533067063	-0.242751550047256	0.0630907045210597	shuffle
-0.0203472813980733	-0.173996830219219	0.134269440005478	shuffle
0.12864286886069	-0.0260697103458056	0.277337027741634	shuffle
-0.0509762381333879	-0.20357156034729	0.104036980824378	shuffle
-0.11501997071733	-0.264523947816151	0.0398828301140868	shuffle
-0.012114360498624	-0.165999733053716	0.142346997381205	shuffle
-0.0502980052314344	-0.202919672906062	0.104709549752833	shuffle
-0.0825104280231784	-0.233732172596706	0.0726088111317712	shuffle
-0.0365677150129734	-0.18969357012162	0.118294755527361	shuffle
-0.0825350384188748	-0.233755597900157	0.0725841625823519	shuffle
-0.13725787176595	-0.285412699831477	0.0173038120891968	shuffle
0.147141344106192	-0.00721787548308648	0.294651590249199	shuffle
0.007905123756943	-0.146468868780025	0.161903231005208	shuffle
0.235898592903585	0.0847872285793705	0.37640259657602	shuffle
-0.0872779317387352	-0.238266826643281	0.0678303766386605	shuffle
0.0970887728854538	-0.0579746010692293	0.247577829064335	shuffle
0.00383661566355016	-0.150447844209998	0.157938637577961	shuffle
0.0169349967443136	-0.137619826475808	0.170684744375462	shuffle
-0.0534578996149793	-0.205955670807568	0.101574834846424	shuffle
-0.0761730746985943	-0.227694140231519	0.0789496888184978	shuffle
-0.0261274455538229	-0.179599344305564	0.128586049988595	shuffle
0.0362409171310477	-0.118617395419326	0.189378093979673	shuffle
-0.0191709963062385	-0.172855478221009	0.135424786897867	shuffle
0.0480933481592497	-0.106894816460034	0.200799719094071	shuffle
-0.0366832989083755	-0.189805142105631	0.118180634427238	shuffle
0.0584310346232388	-0.0966350847984094	0.210727875227666	shuffle
0.118877936684839	-0.0359769939915929	0.268157940876113	shuffle
0.110739641357894	-0.0442107379171113	0.260487136967638	shuffle
0.0510174127052595	-0.103996145539185	0.203611131167267	shuffle
0.2187422428972	0.066799883550966	0.360769290471189	shuffle
0.0408867130351611	-0.114027635999663	0.193859970679738	shuffle
0.0985140150061257	-0.0565403123477993	0.248928150095722	shuffle
0.17670280671354	0.0231377798503592	0.322121493116957	shuffle
0.156038224874417	0.00188819904262339	0.302944714926144	shuffle
0.135218489358234	-0.0193810639400106	0.283502889003027	shuffle
-0.0356644103398523	-0.188821482868554	0.11918648735102	shuffle
-0.120797954298181	-0.269964910672588	0.0340313878300258	shuffle
-0.107655321601706	-0.257575042449036	0.0473257404955442	shuffle
0.0468078364579705	-0.108168331127042	0.199562936473392	shuffle
0.000626674408150083	-0.153583623058917	0.154807171965829	shuffle
0.0307739862700109	-0.124009923345971	0.184095869546148	shuffle
0.0692599129584534	-0.0858524099685257	0.221094180160826	shuffle
-0.00696490904532629	-0.160987471997987	0.14738883690487	shuffle
-0.130187145241034	-0.278786173970234	0.0245001335936463	shuffle
0.048472015155313	-0.106519586385279	0.201163939406942	shuffle
-0.00728843133654879	-0.161302609157032	0.147072311479264	shuffle
0.0360221891741975	-0.118833322140104	0.189166926073996	shuffle
-0.0833775127756905	-0.234557397781182	0.0717402678466208	shuffle
0.0873644249794957	-0.0677436193174595	0.238349034710497	shuffle
0.0187827032739945	-0.135806075931106	0.172478626010715	shuffle
-0.057703497740096	-0.210030186174969	0.0973582150150873	shuffle
0.0267526611425461	-0.127970692354213	0.180204748172106	shuffle
-0.0381084046002196	-0.191180457550124	0.116773228197927	shuffle
-0.0183366024636819	-0.172045613746913	0.136244073490556	shuffle
0.0323609747145688	-0.12244547445689	0.185630152609275	shuffle
0.0724569780165495	-0.0826620231078594	0.224148131395726	shuffle
0.0629448332267139	-0.0921449646725787	0.215053026619034	shuffle
-0.00194250478650958	-0.156091208131348	0.152298569133593	shuffle
-0.0381138540730068	-0.191185715476299	0.116767845212091	shuffle
-0.0264819957748282	-0.179942673871322	0.128237104686773	shuffle
0.054846613831309	-0.100196212048115	0.207289006876493	shuffle
-0.00280141667173216	-0.1569290853143	0.151459465254017	shuffle
-0.0317938079472684	-0.185081907790033	0.123004674266821	shuffle
0.0679312877882719	-0.0871773248103174	0.219824153251079	shuffle
0.107331070154889	-0.0476530425828165	0.257268738582693	shuffle
-0.11932715269218	-0.268580801852166	0.0355218963427251	shuffle
-0.0240035646220919	-0.177541895975506	0.130675553671931	shuffle
0.374278608729208	0.233562526895513	0.499638876073985	shuffle
-0.0789133290423472	-0.230306399710169	0.0762094500272587	shuffle
0.00729713386536361	-0.147063796724699	0.161311085697748	shuffle
-0.077891364876786	-0.229332425651079	0.0772316824546721	shuffle
0.0172499666978984	-0.137310718108515	0.170990611129293	shuffle
-0.0741713216369412	-0.225784507761608	0.0809499499201024	shuffle
0.0942245881039149	-0.0608550314830479	0.24486243754747	shuffle
0.0150452657632071	-0.139473757656837	0.168849007616012	shuffle
-0.14358904868453	-0.291334140513379	0.0108465592135038	shuffle
-0.0569376156369154	-0.209295557389493	0.0981192813455513	shuffle
-0.125012022632326	-0.273927180607714	0.0297570391914269	shuffle
-0.0250721726287747	-0.178577246922727	0.129624413942133	shuffle
0.0181957219491928	-0.136382382409618	0.171908854308199	shuffle
0.179918966322857	0.0264575121781142	0.32509540288902	shuffle
-0.0448418493259543	-0.197670530970362	0.110114987410045	shuffle
0.0741069435714583	-0.0810142592711982	0.22572307302684	shuffle
-0.0559916652755609	-0.208387970932571	0.099059033406231	shuffle
0.206798967697683	0.0543361530442445	0.349838948413221	shuffle
-0.106002742159543	-0.256013620011705	0.0489935204804716	shuffle
-0.0664587989732655	-0.218416005942149	0.0886450607558299	shuffle
-0.0491427101069769	-0.201808942796841	0.105854870549208	shuffle
-0.114118950455386	-0.263674623953274	0.0407943489800499	shuffle
0.00109716906340565	-0.153124192883872	0.155266357964586	shuffle
-0.0113091425798222	-0.165216491649362	0.143135917095056	shuffle
-0.0607534941282092	-0.212954016109863	0.0943255964596466	shuffle
0.00229723868958532	-0.151952042964089	0.156437281514509	shuffle
0.0471040850818021	-0.107874892338177	0.199847998550886	shuffle
0.0672876225966421	-0.0878189952476017	0.219208691352708	shuffle
0.139635816721142	-0.0148800248245018	0.287638077915322	shuffle
0.0596664462270803	-0.0954067809232632	0.211912247679329	shuffle
-0.112295188387322	-0.261954790971593	0.0426385725142789	shuffle
-0.0705510249038123	-0.222327855166236	0.0845643777815345	shuffle
-0.169586681022018	-0.315531157011123	-0.0158045042088047	shuffle
-0.00982206987635462	-0.163769494567321	0.144592374585439	shuffle
-0.0996187167865861	-0.249974378598067	0.0554281581168668	shuffle
-0.0450065965884084	-0.197829155925615	0.109951905672664	shuffle
0.0134414931817052	-0.14104629842779	0.167290221223682	shuffle
0.113636988224993	-0.0412818211591674	0.263220219286272	shuffle
-0.0903953477940265	-0.241228429431708	0.0647019604703239	shuffle
0.0424316587149926	-0.112499858499044	0.195348992015947	shuffle
0.00246028305423417	-0.151792758353284	0.156596332598024	shuffle
0.0344828709046599	-0.120352512310611	0.187680411636246	shuffle
-0.0733995146794597	-0.225047907963114	0.0817208480205561	shuffle
-0.121810992283101	-0.270917879233809	0.0330043756844809	shuffle
0.0306307015479845	-0.124151135170652	0.183957306659677	shuffle
0.0647069303118454	-0.0903903978366266	0.216739861790377	shuffle
0.0365563365665308	-0.118305989750399	0.189682586406681	shuffle
-0.0967727100442516	-0.247278301564127	0.058292583396291	shuffle
0.000696465319937228	-0.153515477610045	0.154875289614014	shuffle
0.0401271296207235	-0.114778509979236	0.193127624316205	shuffle
-0.0410905671718353	-0.194056486024905	0.113826089140575	shuffle
-0.0855743977626896	-0.236647250533646	0.0695386338889492	shuffle
-0.0462912980536645	-0.199065841054218	0.108679905725959	shuffle
-0.0417104307678418	-0.194653958990244	0.11321316298861	shuffle
0.0432313786304946	-0.111708737621794	0.196119486645999	shuffle
-0.110974674865332	-0.260708934777268	0.0439732426867368	shuffle
0.025176002256509	-0.129522263056327	0.178677827063945	shuffle
0.0494472878818894	-0.105552962282515	0.202101809736044	shuffle
0.156544735153415	0.00240738925920833	0.303416184188492	shuffle
0.0823009936257582	-0.0728185625500437	0.233532816226837	shuffle
-0.0542632103334962	-0.206728936902301	0.100775448632055	shuffle
-0.0410463520647497	-0.194013863713512	0.113869804891748	shuffle
-0.0825887226983764	-0.233806696450625	0.0725303944181266	shuffle
-0.0632142260226076	-0.215310972012916	0.0918767854640948	shuffle
-0.00577866264093122	-0.159831702265949	0.148549157752522	shuffle
-0.0553736190993526	-0.207794848405674	0.099672880513117	shuffle
0.0196607801801445	-0.134943772390386	0.173330766739946	shuffle
0.000180637421204387	-0.154019109173728	0.154371794259469	shuffle
-0.142613251365775	-0.290422231519314	0.0118426283963612	shuffle
-0.0318967849735148	-0.185181456362966	0.122903151055712	shuffle
0.0242522933151952	-0.130430921933454	0.177782914123785	shuffle
0.0209001976162471	-0.13372622057793	0.174533183446412	shuffle
-0.0167650327048791	-0.170519680293462	0.137786614982114	shuffle
0.103973840683953	-0.0510399026615172	0.254095562589013	shuffle
-0.0172329890870396	-0.170974124957561	0.137327380533908	shuffle
-0.0474824582856286	-0.200212046531041	0.107500068623905	shuffle
-0.0194294538456762	-0.173106295522863	0.135170966009019	shuffle
0.0374150584533234	-0.117458040865747	0.190511410551178	shuffle
-0.0441163431103426	-0.196971890638617	0.110833059804148	shuffle
-0.0239670002511279	-0.177506463540578	0.130711514182052	shuffle
0.00614945683729122	-0.148186512955204	0.160193015515989	shuffle
-0.0426948554692332	-0.195602591243594	0.112239513467049	shuffle
-0.0515471624040085	-0.204120202619347	0.10347071446131	shuffle
-0.0244540183641499	-0.177978372206396	0.130232505782058	shuffle
0.150238849862486	-0.00405043985525024	0.297541417949277	shuffle
-0.00886584499658376	-0.162838689246637	0.145528559799165	shuffle
0.143080414397374	-0.0113657984525636	0.29085884151238	shuffle
-0.00355690346155939	-0.157665886917178	0.150721217477557	shuffle
0.254326668382131	0.104218235837493	0.393106070749941	shuffle
-0.0549384815260716	-0.20737719116956	0.100104990932752	shuffle
0.0504115430614874	-0.104596969966028	0.203028809871012	shuffle
0.127218718948543	-0.0275165167643642	0.276000008044151	shuffle
-0.0604789168820947	-0.212690908659012	0.0945987271964267	shuffle
0.123279805297323	-0.0315147205108871	0.272299078136902	shuffle
0.000537441581760912	-0.153670749903005	0.154720076394907	shuffle
0.0783815692853789	-0.0767413900659113	0.229799648548319	shuffle
-0.0287200874215886	-0.182109072747537	0.126033509485042	shuffle
-0.00734334447266279	-0.161356095922896	0.147018582819265	shuffle
0.0769032326727668	-0.0782197640137226	0.228390406382023	shuffle
0.0574742607140807	-0.0975860296450317	0.209810321649375	shuffle
0.0425066258760891	-0.112425705769465	0.195421227566156	shuffle
-0.108661328226308	-0.258525174073488	0.0463100572609123	shuffle
-0.0284801653869936	-0.181876907374679	0.126269806625865	shuffle
0.0425391411169043	-0.112393543232593	0.195452557519206	shuffle
-0.0826613653259938	-0.233875838881388	0.0724576368467777	shuffle
0.112943337000345	-0.0419832729971256	0.262566113024032	shuffle
0.00958653000887023	-0.144823003892915	0.163540241554825	shuffle
0.138521296461931	-0.016016257080129	0.286595263247169	shuffle
-0.070599954063574	-0.222374598086811	0.0845155551380769	shuffle
-0.00844197706246278	-0.162426001408305	0.145943456280274	shuffle
-0.00345813747709612	-0.157569573425612	0.150817739556877	shuffle
-0.0163700712700287	-0.170136072022189	0.138174163284454	shuffle
-0.0937887181651214	-0.244449003605059	0.0612931473475137	shuffle
0.106210499056326	-0.0487839001096347	0.256209959974553	shuffle
-0.0267624004866972	-0.180214177978082	0.127961105630701	shuffle
-0.0665698747291094	-0.21852225023131	0.088534367011276	shuffle
-0.0306676051097136	-0.183992994676137	0.124114766091472	shuffle
-0.0746167386324192	-0.226209527497802	0.0805049729605236	shuffle
-0.0334163025700206	-0.18665001846764	0.121404709065339	shuffle
0.0207370146895569	-0.133886551342837	0.174374898260527	shuffle
-0.0144423477116641	-0.168263091789995	0.140065025941869	shuffle
0.105065188362959	-0.0499393138496477	0.255127433940912	shuffle
0.0187210722925866	-0.13586659100699	0.172418806811512	shuffle
0.165016219569527	0.0111032832216716	0.311290955250982	shuffle
0.197500124787874	0.0446648753879519	0.341301708231116	shuffle
0.0616748152972851	-0.093408958311491	0.213836690069458	shuffle
0.0484375561899767	-0.106553734414296	0.20113079684613	shuffle
-0.106724229180519	-0.256695405778834	0.0482655034566795	shuffle
-0.0591258402760503	-0.211394031065103	0.0959443347056076	shuffle
0.116992914491323	-0.0378859970321856	0.266382883603261	shuffle
-0.0796558277020443	-0.231013841408749	0.0754665518853913	shuffle
-0.0972508788452807	-0.247731443027869	0.0578114984133664	shuffle
-0.0122141079126206	-0.16609674458491	0.142249255265573	shuffle
-0.050071757444135	-0.202702183452488	0.104933876593987	shuffle
0.0316211257958331	-0.123174911244233	0.184914967750043	shuffle
-0.00515904945741411	-0.159227840022664	0.149155060317769	shuffle
0.0962900075306842	-0.0587781567024871	0.246820796898851	shuffle
-0.0467652765324598	-0.199521981514986	0.108210485165261	shuffle
-0.0514641193481626	-0.204040406519127	0.103553086253048	shuffle
-0.127813996414812	-0.276558936179055	0.0269118479977214	shuffle
0.0602531594919375	-0.0948232777789728	0.212474565197772	shuffle
0.112778957453584	-0.0421494787296907	0.262411084575235	shuffle
0.0328076790515623	-0.122004975744437	0.186061886727917	shuffle
-0.0282637942528127	-0.181667516835942	0.126482893629029	shuffle
-0.0991114168169894	-0.24949397425575	0.0559389281689584	shuffle
0.00683401298203407	-0.147516893076271	0.160859959607143	shuffle
-0.11590238099207	-0.265355504726081	0.0389898881225368	shuffle
0.000565042499749963	-0.153643800649909	0.154747016486921	shuffle
-0.0614745321798302	-0.213644829480819	0.0936082457681896	shuffle
-0.144577402452066	-0.292257510211231	0.00983736020416292	shuffle
-0.123746093280385	-0.272737423843687	0.0310416721438386	shuffle
-0.0520480390130885	-0.204601452131553	0.102973841506058	shuffle
-0.0557858662648884	-0.208190483526425	0.0992634473030536	shuffle
0.0112730874446276	-0.143171237857304	0.165181416012074	shuffle
0.011533579935652	-0.142916042244412	0.165434823035492	shuffle
-0.0994630383855148	-0.249826961703348	0.055584910035194	shuffle
-0.0862207017795217	-0.237261800616275	0.0688906449845809	shuffle
-0.0993278651482435	-0.249698956155068	0.0557210091925152	shuffle
-0.0202044798811807	-0.173858291607173	0.134409722037348	shuffle
-0.213351623947877	-0.355840686659355	-0.0611684788265721	shuffle
-0.0883396202278383	-0.239275765723632	0.0667652842654752	shuffle
0.0147776977937653	-0.139736169195797	0.168588998450174	shuffle
-0.0527147869697749	-0.205241958831826	0.102312303002339	shuffle
0.0404873378139527	-0.114422454023238	0.193474937461462	shuffle
-0.03570663047771	-0.188862249297772	0.119144813688624	shuffle
0.0612273697728024	-0.0938541623353313	0.213408044839889	shuffle
-0.0536366741386997	-0.206127348050062	0.101397392816991	shuffle
0.0311547044124069	-0.123634682582786	0.18446401181533	shuffle
-0.0969636240563145	-0.247459231039468	0.0581005137043248	shuffle
-0.0737594905016365	-0.225391484506905	0.0813613191903642	shuffle
-0.145335299396592	-0.292965389100269	0.00906326539772456	shuffle
-0.0779692632970303	-0.229406676741782	0.077153775067105	shuffle
0.17005415642537	0.0162857375390996	0.315964524533159	shuffle
-0.111355166450889	-0.26106796582193	0.0435887287328232	shuffle
-0.0516521374516305	-0.204221070276537	0.103366584918215	shuffle
-0.0625960069958777	-0.214718991647834	0.0924921860511534	shuffle
-0.026619113106283	-0.180075441746409	0.128102144706203	shuffle
-0.0676928340314366	-0.219596161853199	0.0874150545951607	shuffle
0.0156834967330047	-0.138847738705911	0.16946912212618	shuffle
0.0708896717387883	-0.0842264529012592	0.222651356380788	shuffle
-0.0814826935889796	-0.232753771055248	0.0736379697211542	shuffle
0.10019534742575	-0.0548474845944784	0.250520348013303	shuffle
-0.10217902490412	-0.252397817272426	0.0528490978738898	shuffle
0.00337717182507073	-0.150896863522825	0.157490616073161	shuffle
-0.104927664557865	-0.254997423735442	0.050078022889082	shuffle
0.0557840307244415	-0.0992652704306635	0.208188722062036	shuffle
-0.0682986504722268	-0.220175365119335	0.0868110429033011	shuffle
0.135904467585599	-0.0186824966673893	0.284145415108378	shuffle
0.210576532488602	0.0582732035501583	0.353300346446916	shuffle
-0.116428323694957	-0.265851031580671	0.0384575505133672	shuffle
-0.0377271003459174	-0.190812534162349	0.117149857710221	shuffle
-0.00730723012838903	-0.161320919751577	0.147053918279826	shuffle
0.0412685506668162	-0.1136501096851	0.194228052038769	shuffle
-0.0248060336464246	-0.178319422463008	0.129886234932162	shuffle
0.0410785769280823	-0.113837944028374	0.194044927772235	shuffle
-0.00645203258288857	-0.160487824030093	0.147890556531313	shuffle
-0.0617307579323176	-0.213890278045151	0.0933532915618309	shuffle
0.157949060410552	0.00384730500128596	0.304722980471459	shuffle
0.0121069907350549	-0.142354218865292	0.165992565310648	shuffle
0.00343372261103591	-0.150841599278085	0.157545764361699	shuffle
-0.0833543942556421	-0.234535398162697	0.0717634283074264	shuffle
-0.0554686798949677	-0.20788608302491	0.0995784732498194	shuffle
-0.0717934320200941	-0.223514533360004	0.0833244446277588	shuffle
-0.0879677121415254	-0.238922372774176	0.0671384249569362	shuffle
-0.0665080653245792	-0.218463129797531	0.0885959643139301	shuffle
0.0546590004899729	-0.100382496840538	0.207108908127505	shuffle
0.0228248418787504	-0.131834604916676	0.176399462905422	shuffle
-0.115643925278061	-0.265111966855334	0.0392514541693842	shuffle
0.0322718714949915	-0.122533332557303	0.185544028389485	shuffle
0.0153156750372387	-0.139208537518205	0.169111756073104	shuffle
-0.0529696136777051	-0.205486721798654	0.102059431088773	shuffle
0.0318491394352864	-0.122950124343694	0.18513539749682	shuffle
-0.0958095985049065	-0.246365399362024	0.0592613500359773	shuffle
0.0545739742933836	-0.100466917360671	0.207027284134692	shuffle
0.0557208752853635	-0.0993279981472005	0.208128114755662	shuffle
-0.0538700196950599	-0.206351415753334	0.101165771658439	shuffle
-0.0209942620173643	-0.174624421009257	0.133633796585694	shuffle
0.019590048320948	-0.135013242328697	0.173262132640965	shuffle
-0.0512947719610703	-0.203877674274876	0.103721058160557	shuffle
0.0981142261366809	-0.0569427034355955	0.248549436035357	shuffle
0.0740365880232927	-0.0810845382479084	0.225655932717612	shuffle
0.116219715542742	-0.0386687056399522	0.265654496916553	shuffle
0.0619345761391335	-0.0931504702982606	0.214085509674253	shuffle
0.00580253481479552	-0.148525811496781	0.159854965288397	shuffle
0.0221453798688457	-0.132502535414572	0.175740731640111	shuffle
-0.0671260039562298	-0.219054135317497	0.0879800928074162	shuffle
0.0810668258634563	-0.0740543198515643	0.232357778604815	shuffle
0.0373342920087278	-0.11753780368605	0.190433465414036	shuffle
0.0108449932473958	-0.143590582543923	0.164764921951528	shuffle
0.0222445126207326	-0.132405093847738	0.175836848370166	shuffle
-0.00193766996511989	-0.156086491086481	0.152303291826304	shuffle
-0.0121356386263948	-0.166020427812637	0.142326147276624	shuffle
-0.0766369928112237	-0.228136542554751	0.0784859381207701	shuffle
-0.0536223306948192	-0.206113574381868	0.101411629716113	shuffle
-0.030780562995211	-0.184102229394259	0.124003441615639	shuffle
-0.163529411506224	-0.309910326684759	-0.00957540338807796	shuffle
0.0268781379998594	-0.127847179571812	0.180326234934644	shuffle
-0.106938219353744	-0.256897592022901	0.0480495448417892	shuffle
0.0167834391133166	-0.137768552894098	0.170537556473274	shuffle
0.168400826354459	0.0145840690301304	0.314431551355789	shuffle
0.139025435671876	-0.015502346154515	0.287067010799705	shuffle
0.256863365314779	0.106901993463391	0.395398219841792	shuffle
-0.092717273703392	-0.24343247786383	0.0623698587470699	shuffle
0.0421731942888815	-0.11275550177777	0.195099932648303	shuffle
-0.0585110083576405	-0.210804558506411	0.0965555854745482	shuffle
0.0398748997636627	-0.115027808610079	0.192884401177877	shuffle
-0.0722821382293627	-0.223981195131312	0.0828365799044377	shuffle
0.162494648080235	0.00851247959985854	0.308949095794853	shuffle
-0.0400772712352342	-0.193079547783772	0.114827790495265	shuffle
-0.00623964732494015	-0.160280893655452	0.148098298418536	shuffle
0.0513356575110907	-0.103680505502358	0.203916963502679	shuffle
0.0338877078925721	-0.120939698642955	0.187105476550265	shuffle
0.0362891389530859	-0.118569789200792	0.189424647170649	shuffle
-0.147418410506103	-0.294910190133496	0.00693468006233513	shuffle
-0.00788064013654802	-0.161879387585638	0.146492828556851	shuffle
-0.0494022896049429	-0.202058543335048	0.105597567965717	shuffle
0.229118967639763	0.0776674317733184	0.370234375569435	shuffle
-0.0240107838918736	-0.177548891708768	0.130668453580328	shuffle
0.0950033639219644	-0.0600720940431731	0.245600990256819	shuffle
0.0290594884161792	-0.125699206380564	0.182437471725647	shuffle
-0.000532470342949072	-0.154715224153991	0.153675603745188	shuffle
-0.123389999023839	-0.27240267409346	0.0314029354197537	shuffle
-0.029170940875638	-0.182545303880811	0.125589420299442	shuffle
-0.0828934124614533	-0.234096694861505	0.0722252114783658	shuffle
0.0893167512046342	-0.0657847080292326	0.240204060526233	shuffle
-0.00446180874967239	-0.158548185710654	0.149836734148933	shuffle
0.00456667724385297	-0.14973421636249	0.158650418453474	shuffle
0.0601068022046838	-0.0949688442684257	0.212334302935732	shuffle
0.0259940740935738	-0.128717303126238	0.179470184050915	shuffle
-0.00389607324195848	-0.157996612332242	0.150389731038851	shuffle
0.0348351861037713	-0.120004867963854	0.188020703170081	shuffle
-0.0242226502907383	-0.17775419099451	0.130460077679054	shuffle
0.100057822195403	-0.0549859835680113	0.250390144104757	shuffle
0.0682473864737223	-0.0868621586014935	0.220126357266725	shuffle
0.0282833268501905	-0.126463658088327	0.181686419841191	shuffle
0.0910475850666847	-0.0640470358366802	0.241847711692528	shuffle
-0.0817924376087972	-0.233048679107224	0.0733278312601111	shuffle
-0.140844336263198	-0.288768447741945	0.0136475109588099	shuffle
-0.0570378276242784	-0.209391689810971	0.0980197097909791	shuffle
-0.0121656109909651	-0.166049578214081	0.142296777592864	shuffle
-0.106802596602957	-0.256769451892942	0.0481864168336971	shuffle
-0.0408095139384656	-0.193785547561673	0.114103958006931	shuffle
0.0362590474803412	-0.118599496606989	0.189395597040982	shuffle
-0.0219107721480657	-0.17551324997469	0.132733128866769	shuffle
-0.0534852828612632	-0.205981967558125	0.101547656340659	shuffle
-0.0457974695148731	-0.198590527159725	0.109168911957418	shuffle
-0.0403465489665393	-0.19333919326081	0.114561624689667	shuffle
-0.14578068245715	-0.293381303239731	0.00860827721492008	shuffle
-0.0396214398875557	-0.192639973000388	0.115278303311663	shuffle
0.0525434374212479	-0.102482326850881	0.205077365575028	shuffle
-0.00396485054447264	-0.158063673058992	0.150322507543741	shuffle
0.00971846886091633	-0.14469381778283	0.163668660841517	shuffle
0.0775970732417857	-0.0775259908713282	0.229051897316306	shuffle
0.00286415483996309	-0.151398165223116	0.156990278334632	shuffle
-0.0628448720374087	-0.214957307716575	0.0922444698239247	shuffle
0.164742036312268	0.0108214718356155	0.311036399051495	shuffle
0.0581671616738486	-0.0968973783992073	0.210474845825218	shuffle
0.0343600253760635	-0.120473720274317	0.187561749880686	shuffle
-0.0157992732399137	-0.169581599220489	0.1387341642508	shuffle
0.0223088374816991	-0.132341864757008	0.175899214640471	shuffle
-0.0350558524819451	-0.188233820009165	0.119787107749024	shuffle
0.0812652806696319	-0.073855641583869	0.232546755056013	shuffle
0.0734712172785364	-0.081649237676319	0.225116347042735	shuffle
-0.0100022757877795	-0.163944879329925	0.14441591429694	shuffle
0.0349507902169809	-0.11989078820823	0.18813235398151	shuffle
-0.0805436966723392	-0.231859579722243	0.0745779790855638	shuffle
0.000855682590763242	-0.153360008720265	0.15503068410357	shuffle
-0.0690150226195681	-0.220860129277705	0.086096657672409	shuffle
-0.0934305705178344	-0.244109250270465	0.0616530957178822	shuffle
-0.0724415658605974	-0.224133416294358	0.08267741070068	shuffle
0.0805068975495488	-0.0746148122734416	0.231824531314272	shuffle
0.0288741863488427	-0.125881729519544	0.182258180648178	shuffle
0.0388772534657025	-0.116013669827777	0.191922194908596	shuffle
0.0754681953527603	-0.0796541853083796	0.227021832326107	shuffle
-0.0874030468193983	-0.238385742392441	0.0677048788000934	shuffle
-0.118656949640909	-0.26794989779872	0.0362008508790923	shuffle
0.0392304464384906	-0.115664683976592	0.192262874828194	shuffle
-0.0401542771871624	-0.193153801366334	0.114751676738359	shuffle
-0.164220982776006	-0.310552586612239	-0.0102859892999954	shuffle
-0.0976275634959597	-0.248088365662053	0.0574324657777991	shuffle
0.0467274164518507	-0.10824798371188	0.199485548718218	shuffle
0.0280023600737732	-0.126740340648578	0.181414498522808	shuffle
-0.0156205181323609	-0.169407936614782	0.138909517756028	shuffle
-0.125063213269449	-0.273975281452665	0.0297050814755283	shuffle
0.0435616732073598	-0.111381937240231	0.196437655726927	shuffle
0.0113375702325988	-0.143108068180869	0.165244146743022	shuffle
-0.0165756543187218	-0.1703357514035	0.137972444782457	shuffle
0.211846217895068	0.0595975586879692	0.354462887562542	shuffle
-0.0612933822415374	-0.213471287350803	0.0937884844592953	shuffle
-0.105313093881425	-0.255361781459791	0.049689256678083	shuffle
-0.0216907549856824	-0.175299900783926	0.132949366202727	shuffle
-0.0287653370172846	-0.182152857510238	0.125988941580452	shuffle
0.207637511836892	0.0552096906771218	0.350607647236138	shuffle
0.118638509130839	-0.0362195301639652	0.26793253678295	shuffle
-0.0345310298509768	-0.187726929204247	0.120304994076736	shuffle
0.0582596399703746	-0.0968054560609006	0.210563526158204	shuffle
-0.0763822895580091	-0.227893659780599	0.0787405577704474	shuffle
-0.087794320273647	-0.23875759940879	0.0673123766645754	shuffle
-0.0601628911009047	-0.212388056760384	0.094913059215522	shuffle
0.0717452724206771	-0.0833725172784464	0.22346854236653	shuffle
0.033439962706525	-0.121381371512684	0.186672879772056	shuffle
0.00461186844404673	-0.149690037134767	0.158694472805153	shuffle
0.0813995847424815	-0.0737211792970998	0.232674638181845	shuffle
0.0818912368951093	-0.0732288998470447	0.233142740301646	shuffle
0.00109145532100647	-0.153129772657848	0.155260781955419	shuffle
-0.0490160521828662	-0.201687146757674	0.105980409953016	shuffle
0.0509984579345409	-0.104014944183733	0.203592914747862	shuffle
-0.0364135282973872	-0.189544729062859	0.118446984533546	shuffle
0.0953729660728173	-0.0597004500335616	0.245951441603551	shuffle
-0.0328532075832988	-0.186105886157754	0.121960076270904	shuffle
0.171879934931662	0.018165931904957	0.317656507764272	shuffle
-0.065189019082304	-0.217201201688837	0.0899102014553038	shuffle
0.104420297807037	-0.0505897106067807	0.254517729977455	shuffle
-0.119012474249211	-0.268284591297204	0.0358407016471526	shuffle
-0.0988007803830671	-0.249199770353553	0.0562516493920231	shuffle
-0.0206361823967454	-0.174277088359608	0.133985617211568	shuffle
-0.0646066489531737	-0.216643887961244	0.0904902764912383	shuffle
-0.0436364053817339	-0.196509639930864	0.111307991010383	shuffle
-0.091683144799317	-0.242451040906923	0.06340872891634	shuffle
-0.0557402259288538	-0.208146684783039	0.0993087786876012	shuffle
-0.0499531602594042	-0.202588171296765	0.105051460533702	shuffle
0.0779531690099632	-0.0771698713621366	0.229391336159625	shuffle
-0.137839495862826	-0.285957155061386	0.0167111431453318	shuffle
0.231336035756469	0.0799940439225285	0.372252872934535	shuffle
-0.0906688156269	-0.241488094954599	0.0644273821548078	shuffle
0.0310653232708309	-0.123722781777396	0.184377586973748	shuffle
-0.150715952836091	-0.29798629289341	0.00356229040665893	shuffle
0.0606116108843529	-0.0944667351587606	0.212818062448745	shuffle
0.0216350573505002	-0.133004104634821	0.175245888866035	shuffle
0.0786205325540679	-0.0765023567066616	0.230027383562404	shuffle
0.0542904179847841	-0.100748437645588	0.206755058591035	shuffle
0.0588219327204078	-0.0962464867395579	0.211102672325441	shuffle
0.0375928609596813	-0.117282440736615	0.190682995315642	shuffle
0.0172971358721171	-0.137264424160116	0.171036414478292	shuffle
-0.0379748432874607	-0.19105158811361	0.116905157135142	shuffle
0.0927164023196766	-0.0623707342673891	0.24343165100961	shuffle
-0.144666308797348	-0.292340557485396	0.00974656332298616	shuffle
-0.0255475758372332	-0.179037745472253	0.129156670261164	shuffle
0.0618048043177313	-0.0932796088507604	0.213961206365149	shuffle
0.120166898313837	-0.034670983547735	0.269371126229199	shuffle
-0.101164905685312	-0.251438136374827	0.0538708920835058	shuffle
-0.0117513811175977	-0.165646684367403	0.142702654086684	shuffle
-0.06708883099777	-0.219018585709059	0.0880171447675223	shuffle
0.0202516183732766	-0.134363415907368	0.173904023595469	shuffle
-0.0351397227713878	-0.188314817106738	0.119704338118706	shuffle
-0.0503195666784639	-0.20294039889672	0.104688170548972	shuffle
0.109813506720125	-0.045146402373683	0.259613002880266	shuffle
-0.0234588817117078	-0.177014033799234	0.131211199016972	shuffle
-0.0070191932428807	-0.161040351436886	0.147335728927155	shuffle
0.0211234641106384	-0.133506843290195	0.174749736000452	shuffle
-0.0305805951369769	-0.183908850027963	0.12420051521363	shuffle
0.0287452211522225	-0.12600875447449	0.182133392916878	shuffle
-0.0332868133087082	-0.186524898184792	0.121532429829839	shuffle
0.0225519029058364	-0.132102928574002	0.176134867974076	shuffle
0.156641267349289	0.00250634746293527	0.30350603000778	shuffle
0.10726846921154	-0.0477162286591056	0.2572095991822	shuffle
-0.0207130736879125	-0.174351675151557	0.133910073215346	shuffle
-0.107806095803383	-0.257717460914544	0.0471735364355852	shuffle
-0.03009439395255	-0.183438618563468	0.124679628369441	shuffle
-0.0274232959180386	-0.18085400278041	0.127310499220873	shuffle
-0.0817474899960935	-0.233005886098905	0.0733728379720436	shuffle
-0.118342278041444	-0.267653633560637	0.0365195821370799	shuffle
-0.0703036636379242	-0.222091535747658	0.0848111891543827	shuffle
0.0505646907195825	-0.104445108289139	0.203176015331892	shuffle
0.00300417680140928	-0.151261348684067	0.157126847495193	shuffle
0.0255268165373882	-0.129177096532071	0.179017638414166	shuffle
-0.0642007417834736	-0.216255386282687	0.0908945217723586	shuffle
-0.0172460547907812	-0.17098681246507	0.137314557399726	shuffle
0.0688376549980119	-0.0862735482086444	0.220690601467061	shuffle
-0.0464530849118096	-0.199221546561033	0.108519682427322	shuffle
0.00819905379507957	-0.146181213432796	0.162189461286997	shuffle
0.0622009443247883	-0.0928853856052932	0.214340637816	shuffle
0.0199215038838076	-0.134687687107509	0.173583745028894	shuffle
0.000979614238706686	-0.153238989455418	0.155151634892241	shuffle
0.0301721580699431	-0.124603002776058	0.183513833162445	shuffle
-0.0646243313328676	-0.216660811017641	0.0904726653459814	shuffle
-0.0621874300757994	-0.214327694333011	0.0928988352654399	shuffle
0.0996673110806564	-0.0553792271641131	0.25002039267362	shuffle
-0.189769234626441	-0.334185892778323	-0.0366460998190375	shuffle
-0.0325606120341221	-0.185823106879517	0.122248618040201	shuffle
0.0688122284435598	-0.0862989055690269	0.22066629803758	shuffle
0.155123152668781	0.00095042963815964	0.302092766216979	shuffle
0.0560871903285839	-0.0989641468300206	0.208479633792741	shuffle
0.123820155589624	-0.0309665296747177	0.272807042281616	shuffle
-0.0216493031545861	-0.175259703601611	0.132990104256239	shuffle
0.0905501619588017	-0.0645465205292124	0.24137543255814	shuffle
-0.0160112134729927	-0.169787489176694	0.138526244557011	shuffle
-0.0244764470462153	-0.178000103351153	0.130210444232454	shuffle
0.154016404361587	-0.000183407954374521	0.301062049822243	shuffle
0.0508818649606906	-0.104130574371628	0.203480861134095	shuffle
0.120712729264767	-0.0341177735748056	0.269884725841234	shuffle
0.0597442320620179	-0.0953294268100108	0.211986804948531	shuffle
0.0988894112129304	-0.0561624268315275	0.24928371548159	shuffle
-0.0124389138274152	-0.166315373578077	0.142028957750251	shuffle
-0.0733457040004885	-0.224996545476016	0.0817745884130131	shuffle
-0.0101223224481874	-0.164061708914614	0.144298357384195	shuffle
-0.0831984948963288	-0.234387040054401	0.0719196061263059	shuffle
0.0130345744347358	-0.141445168900318	0.166894594264933	shuffle
-0.00667364073233023	-0.160703725982106	0.147673778871627	shuffle
-0.0935527229129536	-0.244225133126685	0.0615303336880731	shuffle
0.103472755225108	-0.0515451050355176	0.25362167080652	shuffle
0.163245378748393	0.00928360623126722	0.309646507704486	shuffle
-0.0330835228742207	-0.186328456758151	0.121732933487817	shuffle
0.00397226465438435	-0.150315260847197	0.158070902039237	shuffle
-0.0860011980263792	-0.237053094984398	0.069110735652817	shuffle
0.0981346634598439	-0.0569221343080094	0.248568797123724	shuffle
-0.0684940416293518	-0.220362150015589	0.0866162094993361	shuffle
0.121656404167539	-0.0331611173780706	0.270772476519366	shuffle
0.0568234828923827	-0.0982326809115702	0.209186067328759	shuffle
0.110385732489565	-0.0445683205615683	0.260153128332978	shuffle
0.0544990918038102	-0.100541264582796	0.206955396204973	shuffle
-0.0436363358076602	-0.196509572915859	0.111308059853557	shuffle
0.0900238263932729	-0.0650749529023583	0.240875624639591	shuffle
-0.0467812701365951	-0.19953737205076	0.108194644154967	shuffle
0.0579042811845336	-0.0971586640647128	0.210222747805556	shuffle
0.0328750466497272	-0.121938538725425	0.186126991528453	shuffle
0.117191077028376	-0.0376853666735582	0.266569533777537	shuffle
-0.00337504947802864	-0.157488546343033	0.150898937567291	shuffle
0.0502571774263978	-0.104750032077753	0.202880426709713	shuffle
-0.06711517580368	-0.219043780074021	0.0879908857585225	shuffle
-0.0356693453235113	-0.188826247959871	0.119181616271378	shuffle
-0.0554590326715311	-0.207876824221031	0.0995880542769485	shuffle
0.000878609608828004	-0.15333762083389	0.15505306001921	shuffle
