\relax 
\providecommand\hyper@newdestlabel[2]{}
\providecommand\HyperFirstAtBeginDocument{\AtBeginDocument}
\HyperFirstAtBeginDocument{\ifx\hyper@anchor\@undefined
\global\let\oldcontentsline\contentsline
\gdef\contentsline#1#2#3#4{\oldcontentsline{#1}{#2}{#3}}
\global\let\oldnewlabel\newlabel
\gdef\newlabel#1#2{\newlabelxx{#1}#2}
\gdef\newlabelxx#1#2#3#4#5#6{\oldnewlabel{#1}{{#2}{#3}}}
\AtEndDocument{\ifx\hyper@anchor\@undefined
\let\contentsline\oldcontentsline
\let\newlabel\oldnewlabel
\fi}
\fi}
\global\let\hyper@last\relax 
\gdef\HyperFirstAtBeginDocument#1{#1}
\providecommand\HyField@AuxAddToFields[1]{}
\providecommand\HyField@AuxAddToCoFields[2]{}
\@writefile{nav}{\headcommand {\slideentry {0}{0}{1}{1/1}{}{0}}}
\@writefile{nav}{\headcommand {\beamer@framepages {1}{1}}}
\citation{jordan2018landscape}
\citation{jordan2018landscape}
\@writefile{toc}{\global \c@tocdepth 1\relax }
\@writefile{toc}{\beamer@sectionintoc {1}{Main}{2}{0}{1}}
\@writefile{nav}{\headcommand {\sectionentry {1}{Main}{2}{Main}{0}}}
\@writefile{nav}{\headcommand {\beamer@sectionpages {1}{1}}}
\@writefile{nav}{\headcommand {\beamer@subsectionpages {1}{1}}}
\@writefile{toc}{\beamer@subsectionintoc {1}{1}{Horizontal pleiotropy and co-regulation}{2}{0}{1}}
\@writefile{nav}{\headcommand {\beamer@subsectionentry {0}{1}{1}{2}{Horizontal pleiotropy and co-regulation}}\headcommand {\beamer@subsectionpages {2}{1}}}
\newlabel{fig:hp}{{2}{2}{Horizontal pleiotropy and co-regulation}{Doc-Start}{}}
\newlabel{fig:hp@cref}{{[subsection][1][1]1}{2}}
\@writefile{snm}{\beamer@slide {fig:hp}{2}}
\@writefile{nav}{\headcommand {\slideentry {1}{1}{1}{2/2}{Horizontal pleiotropy and co-regulation}{0}}}
\@writefile{nav}{\headcommand {\beamer@framepages {2}{2}}}
\@writefile{toc}{\beamer@subsectionintoc {1}{2}{Capturing local co-regulation}{3}{0}{1}}
\@writefile{nav}{\headcommand {\beamer@subsectionentry {0}{1}{2}{3}{Capturing local co-regulation}}\headcommand {\beamer@subsectionpages {2}{2}}}
\@writefile{nav}{\headcommand {\slideentry {1}{2}{1}{3/3}{Capturing local co-regulation}{0}}}
\@writefile{nav}{\headcommand {\beamer@framepages {3}{3}}}
\@writefile{toc}{\beamer@subsectionintoc {1}{3}{$P_n^{(k)}$ distribution across eQTLs}{4}{0}{1}}
\@writefile{nav}{\headcommand {\beamer@subsectionentry {0}{1}{3}{4}{$P_n^{(k)}$ distribution across eQTLs}}\headcommand {\beamer@subsectionpages {3}{3}}}
\newlabel{fig:pn}{{4}{4}{$P_n^{(k)}$ distribution across eQTLs}{Doc-Start}{}}
\newlabel{fig:pn@cref}{{[subsection][3][1]3}{4}}
\@writefile{snm}{\beamer@slide {fig:pn}{4}}
\@writefile{nav}{\headcommand {\slideentry {1}{3}{1}{4/4}{$P_n^{(k)}$ distribution across eQTLs}{0}}}
\@writefile{nav}{\headcommand {\beamer@framepages {4}{4}}}
\@writefile{toc}{\beamer@subsectionintoc {1}{4}{$P_n^{(all)}$ correlates with functional annotation}{5}{0}{1}}
\@writefile{nav}{\headcommand {\beamer@subsectionentry {0}{1}{4}{5}{$P_n^{(all)}$ correlates with functional annotation}}\headcommand {\beamer@subsectionpages {4}{4}}}
\providecommand*\caption@xref[2]{\@setref\relax\@undefined{#1}}
\newlabel{fig:fun1}{{\caption@xref {fig:fun1}{ on input line 244}}{5}{$P_n^{(all)}$ correlates with functional annotation}{Doc-Start}{}}
\newlabel{fig:fun1@cref}{{[subsection][4][1]4}{5}}
\@writefile{snm}{\beamer@slide {fig:fun1}{5}}
\newlabel{fig:fun2}{{\caption@xref {fig:fun2}{ on input line 244}}{5}{$P_n^{(all)}$ correlates with functional annotation}{Doc-Start}{}}
\newlabel{fig:fun2@cref}{{[subsection][4][1]4}{5}}
\@writefile{snm}{\beamer@slide {fig:fun2}{5}}
\@writefile{nav}{\headcommand {\slideentry {1}{4}{1}{5/5}{$P_n^{(all)}$ correlates with functional annotation}{0}}}
\@writefile{nav}{\headcommand {\beamer@framepages {5}{5}}}
\@writefile{toc}{\beamer@subsectionintoc {1}{5}{Co-regulation correlates with GWAS effect size?}{6}{0}{1}}
\@writefile{nav}{\headcommand {\beamer@subsectionentry {0}{1}{5}{6}{Co-regulation correlates with GWAS effect size?}}\headcommand {\beamer@subsectionpages {5}{5}}}
\@writefile{nav}{\headcommand {\slideentry {1}{5}{1}{6/6}{Co-regulation correlates with GWAS effect size?}{0}}}
\@writefile{nav}{\headcommand {\beamer@framepages {6}{6}}}
\@writefile{toc}{\beamer@subsectionintoc {1}{6}{$\mathaccentV {tilde}07E\beta ^2$ positively correlates with co-regulation}{7}{0}{1}}
\@writefile{nav}{\headcommand {\beamer@subsectionentry {0}{1}{6}{7}{$\mathaccentV {tilde}07E\beta ^2$ positively correlates with co-regulation}}\headcommand {\beamer@subsectionpages {6}{6}}}
\newlabel{fig:slope}{{7}{7}{$\tilde \beta ^2$ positively correlates with co-regulation}{Doc-Start}{}}
\newlabel{fig:slope@cref}{{[subsection][6][1]6}{7}}
\@writefile{snm}{\beamer@slide {fig:slope}{7}}
\@writefile{nav}{\headcommand {\slideentry {1}{6}{1}{7/7}{$\mathaccentV {tilde}07E\beta ^2$ positively correlates with co-regulation}{0}}}
\@writefile{nav}{\headcommand {\beamer@framepages {7}{7}}}
\@writefile{toc}{\beamer@subsectionintoc {1}{7}{Regions with higher level of co-regulation explain more heritability}{8}{0}{1}}
\@writefile{nav}{\headcommand {\beamer@subsectionentry {0}{1}{7}{8}{Regions with higher level of co-regulation explain more heritability}}\headcommand {\beamer@subsectionpages {7}{7}}}
\newlabel{fig:categorical}{{8}{8}{Regions with higher level of co-regulation explain more heritability}{Doc-Start}{}}
\newlabel{fig:categorical@cref}{{[subsection][7][1]7}{8}}
\@writefile{snm}{\beamer@slide {fig:categorical}{8}}
\@writefile{nav}{\headcommand {\slideentry {1}{7}{1}{8/8}{Regions with higher level of co-regulation explain more heritability}{0}}}
\@writefile{nav}{\headcommand {\beamer@framepages {8}{8}}}
\citation{jordan2018landscape}
\citation{shin2014atlas}
\@writefile{toc}{\beamer@subsectionintoc {1}{8}{Co-regulation correlates with trait horizontal pleiotropy?}{9}{0}{1}}
\@writefile{nav}{\headcommand {\beamer@subsectionentry {0}{1}{8}{9}{Co-regulation correlates with trait horizontal pleiotropy?}}\headcommand {\beamer@subsectionpages {8}{8}}}
\@writefile{nav}{\headcommand {\slideentry {1}{8}{1}{9/9}{Co-regulation correlates with trait horizontal pleiotropy?}{0}}}
\@writefile{nav}{\headcommand {\beamer@framepages {9}{9}}}
\@writefile{toc}{\beamer@subsectionintoc {1}{9}{Co-regulation correlates with horizontal pleiotropy in complex traits}{10}{0}{1}}
\@writefile{nav}{\headcommand {\beamer@subsectionentry {0}{1}{9}{10}{Co-regulation correlates with horizontal pleiotropy in complex traits}}\headcommand {\beamer@subsectionpages {9}{9}}}
\newlabel{fig:trait_pn}{{10}{10}{Co-regulation correlates with horizontal pleiotropy in complex traits}{Doc-Start}{}}
\newlabel{fig:trait_pn@cref}{{[subsection][9][1]9}{10}}
\@writefile{snm}{\beamer@slide {fig:trait_pn}{10}}
\@writefile{nav}{\headcommand {\slideentry {1}{9}{1}{10/10}{Co-regulation correlates with horizontal pleiotropy in complex traits}{0}}}
\@writefile{nav}{\headcommand {\beamer@framepages {10}{10}}}
\@writefile{toc}{\beamer@subsectionintoc {1}{10}{Summary and Caveats}{11}{0}{1}}
\@writefile{nav}{\headcommand {\beamer@subsectionentry {0}{1}{10}{11}{Summary and Caveats}}\headcommand {\beamer@subsectionpages {10}{10}}}
\@writefile{nav}{\headcommand {\slideentry {1}{10}{1}{11/11}{Summary and Caveats}{0}}}
\@writefile{nav}{\headcommand {\beamer@framepages {11}{11}}}
\@writefile{toc}{\beamer@subsectionintoc {1}{11}{Acknowledgements}{12}{0}{1}}
\@writefile{nav}{\headcommand {\beamer@subsectionentry {0}{1}{11}{12}{Acknowledgements}}\headcommand {\beamer@subsectionpages {11}{11}}}
\@writefile{nav}{\headcommand {\slideentry {1}{11}{1}{12/12}{Acknowledgements}{0}}}
\@writefile{nav}{\headcommand {\beamer@framepages {12}{12}}}
\bibdata{myref}
\bibcite{jordan2018landscape}{\hyperlink {beamerbibjordan2018landscape}{Jordan et\nobreakspace  {}al., 2018}}
\bibcite{shin2014atlas}{\hyperlink {beamerbibshin2014atlas}{Shin et\nobreakspace  {}al., 2014}}
\bibstyle{apalike}
\@writefile{nav}{\headcommand {\slideentry {1}{11}{2}{13/13}{Acknowledgements}{0}}}
\@writefile{nav}{\headcommand {\beamer@framepages {13}{13}}}
\@writefile{nav}{\headcommand {\beamer@partpages {1}{13}}}
\@writefile{nav}{\headcommand {\beamer@subsectionpages {12}{13}}}
\@writefile{nav}{\headcommand {\beamer@sectionpages {2}{13}}}
\@writefile{nav}{\headcommand {\beamer@documentpages {13}}}
\@writefile{nav}{\headcommand {\def \inserttotalframenumber {13}}}
