intron_1_155192310_155192786:ENSG00000185499
intron_1_156137743_156138488:ENSG00000160789
intron_1_40260985_40267786:ENSG00000084073
intron_10_112951607_113040025:ENSG00000148737
intron_11_119028426_119029222:ENSG00000137700
intron_11_17366302_17386869:ENSG00000187486
intron_11_17394399_17395172:ENSG00000006071
intron_11_2159961_2160785:ENSG00000254647
intron_11_45872233_45880914:ENSG00000121653
intron_11_62705617_62706259:ENSG00000168000
intron_11_92982723_92984807:ENSG00000134640
intron_12_120989032_120993520:ENSG00000135100
intron_12_12187119_12203203:ENSG00000070018
intron_12_48135038_48137721:ENSG00000152556
intron_13_109756308_109782042:ENSG00000185950
intron_13_27920544_27924256:ENSG00000139515
intron_14_95535384_95543947:ENSG00000182512
intron_15_24968082_24974387:ENSG00000128739
intron_15_58563723_58565179:ENSG00000166035
intron_15_90811406_90815102:ENSG00000197299
intron_16_20326467_20327467:ENSG00000169344
intron_17_37710663_37731595:ENSG00000275410
intron_17_42907628_42909303:ENSG00000131482
intron_17_81810034_81810825:ENSG00000215644
intron_19_40236104_40237969:ENSG00000105221
intron_19_7152927_7163032:ENSG00000171105
intron_19_7669444_7669821:ENSG00000104918
intron_2_10043758_10046150:ENSG00000172059
intron_2_156436513_156476098:ENSG00000115159
intron_2_181670909_181680430:ENSG00000162992
intron_2_73573424_73599401:ENSG00000116127
intron_2_88579640_88583430:ENSG00000172071
intron_20_44419876_44424018:ENSG00000101076
intron_20_50578629_50579168:ENSG00000196396
intron_21_46442573_46445284:ENSG00000160299
intron_3_12288020_12379704:ENSG00000132170
intron_3_128065884_128066954:ENSG00000058262
intron_3_171005472_171007148:ENSG00000163581
intron_3_185658409_185672541:ENSG00000073792
intron_3_196708727_196711929:ENSG00000174007
intron_3_57227937_57235566:ENSG00000157500
intron_4_6291997_6295041:ENSG00000109501
intron_5_68215949_68226290:ENSG00000145675
intron_6_131877161_131878542:ENSG00000197594
intron_6_25868420_25874167:ENSG00000124564
intron_6_34240882_34242712:ENSG00000137309
intron_7_113882320_113918215:ENSG00000154415
intron_7_127611206_127611535:ENSG00000106331
intron_7_44145730_44146074:ENSG00000106633
intron_8_11543347_11546052:ENSG00000136573
intron_8_117161888_117163425:ENSG00000164756
intron_9_133066660_133066838:ENSG00000170835
intron_9_136674807_136676961:ENSG00000169692
NA
