intron_1_11045539_11046891:ENSG00000009724
intron_1_151346606_151346755:ENSG00000143390
intron_10_43111465_43112099:ENSG00000165731
intron_10_98429642_98430571:ENSG00000107521
intron_11_117986534_117988382:ENSG00000110324
intron_13_36819957_36825428:ENSG00000133111
intron_13_39727548_39750946:ENSG00000133103
intron_16_10923325_10923878:ENSG00000179583
intron_16_50720008_50722622:ENSG00000167207
intron_16_81936378_81937758:ENSG00000197943
intron_19_19199234_19201649:ENSG00000064490
intron_2_32238302_32238595:ENSG00000091106
intron_20_63689132_63689750:ENSG00000258366
intron_21_33268517_33279752:ENSG00000243646
intron_22_36864129_36864919:ENSG00000100365
intron_4_150265812_150277853:ENSG00000198589
intron_5_150778972_150795430:ENSG00000237693
intron_5_492071_524112:ENSG00000066230
intron_6_137867518_137871213:ENSG00000118503
intron_6_31961675_31961909:ENSG00000204351
intron_6_32517752_32518054:ENSG00000196126
intron_6_90571807_90586764:ENSG00000135341
intron_7_22727281_22727444:ENSG00000136244
intron_7_87515428_87516509:ENSG00000085563
intron_8_143215126_143215259:ENSG00000277494
intron_8_144056755_144056948:ENSG00000178814
NA
